﻿"type","rcvTime","sendTime","sender","messageID","pos__001","pos__002","pos__003","pos_noise__001","pos_noise__002","pos_noise__003","noise__001","noise__002","noise__003","spd__001","spd__002","spd__003","spd_noise__001","spd_noise__002","spd_noise__003","RSSI"
"2","25200.0","","","","6311.216567809812","6042.268718614991","1.895","","","","0.0","0.0","0.0","7.12026573114724E-15","-4.61945062855001E-14","0.0","0.0","0.0","0.0",""
"3","25200.024694024156","25200.02457702509","1063","3158","5560.0","5820.0","1.895","0.0","0.0","0.0","","","","6.3142409787663E-15","-4.54653705938742E-14","0.0","0.0","0.0","0.0","0.000004857432358895271"
"2","25200.1","","","","6311.216567809812","6042.268718614991","1.895","","","","0.0","0.0","0.0","7.24885370155445E-15","-4.7028752931834E-14","0.0","0.0","0.0","0.0",""
"2","25200.2","","","","6311.220196572653","6042.2448430049339","1.895","","","","0.0","0.0","0.0","0.036785469295440079","-0.23867491874418396","0.0","0.0","0.0","0.0",""
"2","25200.3","","","","6311.226930015694","6042.20054001038","1.895","","","","0.0","0.0","0.0","0.06824785479389106","-0.4428809026635698","0.0","0.0","0.0","0.0",""
"3","25200.327016102274","25200.326902726432","1057","18264","6306.825536532255","6023.911202842776","1.895","0.0","0.0","0.0","","","","-0.08480639175224845","0.8217225382665239","0.0","0.0","0.0","0.0","6.8840059822028E-07"
"3","25200.343715830644","25200.343605499478","277","19025","5560.0","5820.0","1.895","0.0","0.0","0.0","","","","-4.036493368057547","16.46162561745487","0.0","0.0","0.0","0.0","2.33667599378578E-09"
"2","25200.399999999998","","","","6311.233477432388","6042.157460984632","1.895","","","","0.0","0.0","0.0","0.06635256335595694","-0.4306468411623231","0.0","0.0","0.0","0.0",""
"3","25200.452220927615","25200.45210903813","181","27964","6309.0529436792189","6056.585524362317","1.895","0.0","0.0","0.0","","","","0.03175330202432099","-0.2239857748833612","0.0","0.0","0.0","0.0","1.85226311369876E-07"
"2","25200.5","","","","6311.239954356727","6042.114845766533","1.895","","","","0.0","0.0","0.0","0.06562859972041595","-0.4260117851409449","0.0","0.0","0.0","0.0",""
"3","25200.558158949632","25200.558051239932","979","33222","6314.513336204336","6042.536460594069","1.895","0.0","0.0","0.0","","","","0.06554657575830807","-0.42529184820292245","0.0","0.0","0.0","0.0","0.000017367341211103804"
"3","25200.585547020437","25200.585432071937","685","35439","6283.311699744778","5685.544059493037","1.895","0.0","0.0","0.0","","","","2.95143392189489","11.818402785950763","0.0","0.0","0.0","0.0","1.74226558443402E-09"
"2","25200.6","","","","6311.246403099399","6042.072415971001","1.895","","","","0.0","0.0","0.0","0.06533354419072311","-0.4241596337147221","0.0","0.0","0.0","0.0",""
"3","25200.61776801734","25200.617656976447","1003","38300","5560.0","5820.0","1.895","0.0","0.0","0.0","","","","-1.4385716262247866","13.293030710091408","0.0","0.0","0.0","0.0","9.99792208232247E-08"
"3","25200.663431066245","25200.663317918774","769","41551","5560.0","5820.0","1.895","0.0","0.0","0.0","","","","0.06483114585338709","-0.43094056828936408","0.0","0.0","0.0","0.0","4.42683230965289E-07"
"2","25200.7","","","","6311.253686145114","6042.024496840671","1.895","","","","0.0","0.0","0.0","0.07377392386745671","-0.4790369525852085","0.0","0.0","0.0","0.0",""
"3","25200.711694224476","25200.71158382157","217","44251","6307.380649973428","6018.532490030194","1.895","0.0","0.0","0.0","","","","-0.059792857907211439","0.5793565550254733","0.0","0.0","0.0","0.0","2.93992608367242E-07"
"2","25200.8","","","","6311.263255706993","6041.961533473313","1.895","","","","0.0","0.0","0.0","0.09691436804336344","-0.6294340857204649","0.0","0.0","0.0","0.0",""
"3","25200.88297622638","25200.882859998383","289","54413","5560.0","5820.0","1.895","0.0","0.0","0.0","","","","0.2600212609642214","-1.9222403270258768","0.0","0.0","0.0","0.0","0.0000010543208481483052"
"3","25200.88737920616","25200.88726483565","517","55148","6281.475077512807","5739.693851154413","1.895","0.0","0.0","0.0","","","","13.9299841903051","1.245998585867333","0.0","0.0","0.0","0.0","1.3304070092769E-08"
"2","25200.899999999998","","","","6311.275555215965","6041.880608294958","1.895","","","","0.0","0.0","0.0","0.12452695896347818","-0.809000578525823","0.0","0.0","0.0","0.0",""
"3","25200.91065621237","25200.91054471885","337","57737","6315.542697099322","6035.146205241924","1.895","0.0","0.0","0.0","","","","0.2858135635985129","-2.153353064758892","0.0","0.0","0.0","0.0","0.00000579175659142253"
"2","25201.0","","","","6311.2908348411369","6041.780075306617","1.895","","","","0.0","0.0","0.0","0.15464595313338518","-1.0050260204550826","0.0","0.0","0.0","0.0",""
"3","25201.02468623452","25201.02457702509","1063","67896","5560.0","5820.0","1.895","0.0","0.0","0.0","","","","0.31326109425663509","-2.3884040844462488","0.0","0.0","0.0","0.0","0.000005391146355173716"
"2","25201.1","","","","6311.309201553422","6041.659230688283","1.895","","","","0.0","0.0","0.0","0.18581347560187504","-1.2080927831913718","0.0","0.0","0.0","0.0",""
"2","25201.2","","","","6311.329912607918","6041.522961363812","1.895","","","","0.0","0.0","0.0","0.2094328697230012","-1.36230980427816","0.0","0.0","0.0","0.0",""
"2","25201.3","","","","6311.353006071677","6041.371016869314","1.895","","","","0.0","0.0","0.0","0.23340226918574179","-1.519036121777726","0.0","0.0","0.0","0.0",""
"3","25201.327008291515","25201.326902726432","1057","83255","6306.58046433741","6026.175820963303","1.895","0.0","0.0","0.0","","","","-0.3582546906357755","3.3882097888484905","0.0","0.0","0.0","0.0","2.39964094337587E-07"
"2","25201.399999999998","","","","6311.378581632472","6041.202741304536","1.895","","","","0.0","0.0","0.0","0.2583390313104438","-1.6823258374904154","0.0","0.0","0.0","0.0",""
"3","25201.452226021313","25201.45210903813","181","93036","6309.1134651404859","6056.150214035408","1.895","0.0","0.0","0.0","","","","0.06087593156228652","-0.4378599114202616","0.0","0.0","0.0","0.0","6.48485572081278E-07"
"2","25201.5","","","","6311.407550848768","6041.012137029134","1.895","","","","0.0","0.0","0.0","0.2924266636202163","-1.9055853424974064","0.0","0.0","0.0","0.0",""
"3","25201.55816404334","25201.558051239932","979","98250","6314.68598149776","6041.405536930406","1.895","0.0","0.0","0.0","","","","0.2922066891143311","-1.9049737751026586","0.0","0.0","0.0","0.0","0.0000023746455018451407"
"2","25201.6","","","","6311.437907438081","6040.812404469902","1.895","","","","0.0","0.0","0.0","0.30622082539178227","-1.996878570409281","0.0","0.0","0.0","0.0",""
"3","25201.61777155976","25201.617656976447","1003","102617","5560.0","5820.0","1.895","0.0","0.0","0.0","","","","-1.3902611286621237","13.286758368416207","0.0","0.0","0.0","0.0","3.98129716459539E-08"
"3","25201.66343208969","25201.663317918774","769","105819","5560.0","5820.0","1.895","0.0","0.0","0.0","","","","0.13823357613765548","-0.9092762932848558","0.0","0.0","0.0","0.0","0.000002114473609037668"
"2","25201.7","","","","6311.471507970199","6040.59132824153","1.895","","","","0.0","0.0","0.0","0.33868603280491119","-2.2103070305874725","0.0","0.0","0.0","0.0",""
"3","25201.71169522879","25201.71158382157","217","108464","6307.20547423753","6020.229836743928","1.895","0.0","0.0","0.0","","","","-0.27180052684036007","2.6335823774872146","0.0","0.0","0.0","0.0","1.5877745297385E-07"
"2","25201.8","","","","6311.507580856829","6040.353985044274","1.895","","","","0.0","0.0","0.0","0.36330953750926839","-2.3729887562164557","0.0","0.0","0.0","0.0",""
"3","25201.882977231777","25201.882859998383","289","118948","5560.0","5820.0","1.895","0.0","0.0","0.0","","","","0.45717167876040906","-3.8774864294723438","0.0","0.0","0.0","0.0","0.000002329756937782339"
"2","25201.899999999998","","","","6311.5459095842629","6040.1017994399139","1.895","","","","0.0","0.0","0.0","0.385693688539511","-2.5214364749088165","0.0","0.0","0.0","0.0",""
"3","25201.910661245518","25201.91054471885","337","122228","6315.902401205497","6031.922442026204","1.895","0.0","0.0","0.0","","","","0.46981219720643416","-4.029182833971201","0.0","0.0","0.0","0.0","4.56451031837992E-07"
"2","25202.0","","","","6311.586812561914","6039.832676439228","1.895","","","","0.0","0.0","0.0","0.41121556352395047","-2.690840701994103","0.0","0.0","0.0","0.0",""
"3","25202.02469126829","25202.02457702509","1063","132311","5560.0","5820.0","1.895","0.0","0.0","0.0","","","","0.5198482112451214","-4.531991445752194","0.0","0.0","0.0","0.0","1.88120730457949E-07"
"2","25202.1","","","","6311.631558860749","6039.538266132124","1.895","","","","0.0","0.0","0.0","0.4493966896663725","-2.9437470601984687","0.0","0.0","0.0","0.0",""
"2","25202.2","","","","6311.67941860841","6039.223370746942","1.895","","","","0.0","0.0","0.0","0.4801423700552267","-3.1486529213375338","0.0","0.0","0.0","0.0",""
"2","25202.3","","","","6311.7306954624159","6038.8859923552449","1.895","","","","0.0","0.0","0.0","0.5138229646422078","-3.373553058320722","0.0","0.0","0.0","0.0",""
"3","25202.327013280967","25202.326902726432","1057","147694","6306.06148949093","6030.846594581623","1.895","0.0","0.0","0.0","","","","-0.6280557207758517","5.652501486975865","0.0","0.0","0.0","0.0","0.0000010985300005086267"
"3","25202.343712826056","25202.343605499478","277","148467","5560.0","5820.0","1.895","0.0","0.0","0.0","","","","-2.686996283740277","16.671826362824896","0.0","0.0","0.0","0.0","1.32365987784157E-07"
"2","25202.399999999998","","","","6311.784750078981","6038.5303375485259","1.895","","","","0.0","0.0","0.0","0.5409900675476965","-3.5564063264718466","0.0","0.0","0.0","0.0",""
"3","25202.452217939368","25202.45210903813","181","157539","6309.195510780902","6055.560087594249","1.895","0.0","0.0","0.0","","","","0.14481285379816057","-1.0415897007128488","0.0","0.0","0.0","0.0","4.98346296795E-07"
"2","25202.5","","","","6311.835537850062","6038.15265025713","1.895","","","","0.0","0.0","0.0","0.5685347479400682","-3.7683467387413005","0.0","0.0","0.0","0.0",""
"3","25202.55816896141","25202.558051239932","979","162511","6315.120256435913","6038.493411168775","1.895","0.0","0.0","0.0","","","","0.5661233075776604","-3.7654225244307399","0.0","0.0","0.0","0.0","0.000023138721502809824"
"2","25202.6","","","","6311.886962887929","6037.7513113746449","1.895","","","","0.0","0.0","0.0","0.5972997233670073","-4.001788133027674","0.0","0.0","0.0","0.0",""
"3","25202.617768063945","25202.617656976447","1003","166949","5560.0","5820.0","1.895","0.0","0.0","0.0","","","","-1.4756350783768682","13.3559503389823","0.0","0.0","0.0","0.0","1.18962535823022E-07"
"3","25202.663431116798","25202.663317918774","769","170146","5560.0","5820.0","1.895","0.0","0.0","0.0","","","","0.37995961327802327","-2.448331310910534","0.0","0.0","0.0","0.0","9.05215434273685E-08"
"2","25202.7","","","","6311.939813947313","6037.338843324233","1.895","","","","0.0","0.0","0.0","0.6071945271502035","-4.113747908979202","0.0","0.0","0.0","0.0",""
"3","25202.711694212485","25202.71158382157","217","173134","6306.81709216632","6023.993023630878","1.895","0.0","0.0","0.0","","","","-0.48611463385769929","4.71015618714461","0.0","0.0","0.0","0.0","2.52205897920948E-07"
"2","25202.8","","","","6311.994846157709","6036.909352812666","1.895","","","","0.0","0.0","0.0","0.6250212219594113","-4.2845825630940619","0.0","0.0","0.0","0.0",""
"3","25202.8829762219","25202.882859998383","289","184350","5560.0","5820.0","1.895","0.0","0.0","0.0","","","","0.6339169678989239","-5.741824843851526","0.0","0.0","0.0","0.0","0.0000040199983564542659"
"2","25202.899999999998","","","","6312.052229439086","6036.461513725396","1.895","","","","0.0","0.0","0.0","0.6438578580062757","-4.4687676257814739","0.0","0.0","0.0","0.0",""
"3","25202.910660235284","25202.91054471885","337","188010","6316.4698646237079","6026.836684976206","1.895","0.0","0.0","0.0","","","","0.664622995827488","-5.956526849402012","0.0","0.0","0.0","0.0","7.67490507622188E-07"
"2","25203.0","","","","6312.113032834779","6035.986982876399","1.895","","","","0.0","0.0","0.0","0.6733992901597926","-4.736375973797479","0.0","0.0","0.0","0.0",""
"3","25203.024690259208","25203.02457702509","1063","197939","5560.0","5820.0","1.895","0.0","0.0","0.0","","","","0.7130952012816672","-6.414657948613825","0.0","0.0","0.0","0.0","0.0000017491013305449536"
"2","25203.1","","","","6312.1752241535809","6035.501620192711","1.895","","","","0.0","0.0","0.0","0.6795268686432682","-4.845795662792622","0.0","0.0","0.0","0.0",""
"2","25203.2","","","","6312.239506641081","6034.999937301129","1.895","","","","0.0","0.0","0.0","0.6924973148724603","-5.010109752262111","0.0","0.0","0.0","0.0",""
"2","25203.3","","","","6312.299856731784","6034.478989987114","1.895","","","","0.0","0.0","0.0","0.7020785148863858","-5.198313786339211","0.0","0.0","0.0","0.0",""
"3","25203.327012285827","25203.326902726432","1057","213589","6305.2350250513","6037.748744204721","1.895","0.0","0.0","0.0","","","","-0.9816241541988255","7.88919237251742","0.0","0.0","0.0","0.0","0.000001221777224809986"
"3","25203.34371173414","25203.343605499478","277","214366","5560.0","5820.0","1.895","0.0","0.0","0.0","","","","-2.043006976705705","16.836435192950274","0.0","0.0","0.0","0.0","2.74991412353754E-08"
"2","25203.399999999998","","","","6312.360184696888","6033.932557841654","1.895","","","","0.0","0.0","0.0","0.7156055459489449","-5.452366093247585","0.0","0.0","0.0","0.0",""
"3","25203.45221686532","25203.45210903813","181","223025","6309.450766817499","6053.72411756955","1.895","0.0","0.0","0.0","","","","0.3518358425167142","-2.5306357847056359","0.0","0.0","0.0","0.0","4.14013510145547E-08"
"2","25203.5","","","","6312.422708184074","6033.366239332721","1.895","","","","0.0","0.0","0.0","0.7197054019872732","-5.65363129955835","0.0","0.0","0.0","0.0",""
"3","25203.558167887328","25203.558051239932","979","227953","6315.710220976574","6033.644812002398","1.895","0.0","0.0","0.0","","","","0.7055291962025118","-5.818120954747302","0.0","0.0","0.0","0.0","0.000005065075436495061"
"2","25203.6","","","","6312.488003069171","6032.774818354244","1.895","","","","0.0","0.0","0.0","0.727662378363754","-5.907231325724403","0.0","0.0","0.0","0.0",""
"3","25203.61776699734","25203.617656976447","1003","232348","5560.0","5820.0","1.895","0.0","0.0","0.0","","","","-2.0162909209063395","13.260077938650765","0.0","0.0","0.0","0.0","0.0000011519015721382468"
"3","25203.663430021286","25203.663317918774","769","235485","5560.0","5820.0","1.895","0.0","0.0","0.0","","","","0.6177585538777117","-3.984711433246862","0.0","0.0","0.0","0.0","0.000001198704425973525"
"2","25203.7","","","","6312.5555380919909","6032.163106897551","1.895","","","","0.0","0.0","0.0","0.7344624589429499","-6.112106830914672","0.0","0.0","0.0","0.0",""
"3","25203.71169305791","25203.71158382157","217","238508","6306.167030876736","6029.896722109372","1.895","0.0","0.0","0.0","","","","-0.7606478350669224","6.845830515605089","0.0","0.0","0.0","0.0","0.0000014920874412093135"
"2","25203.8","","","","6312.625864141298","6031.526115181712","1.895","","","","0.0","0.0","0.0","0.7529265462109958","-6.366119862721888","0.0","0.0","0.0","0.0",""
"3","25203.88297511216","25203.882859998383","289","250033","5560.0","5820.0","1.895","0.0","0.0","0.0","","","","0.8101075840705281","-7.790433082913586","0.0","0.0","0.0","0.0","1.35696514578535E-07"
"3","25203.887379963217","25203.88726483565","517","251420","6323.388692051665","5742.603142346818","1.895","0.0","0.0","0.0","","","","13.620323378854465","0.8744990933461041","0.0","0.0","0.0","0.0","7.62628869946483E-09"
"2","25203.899999999998","","","","6312.697991929003","6030.872803873842","1.895","","","","0.0","0.0","0.0","0.7597066565986732","-6.530685882201522","0.0","0.0","0.0","0.0",""
"3","25203.91065696623","25203.91054471885","337","254012","6317.216908832837","6019.68563335455","1.895","0.0","0.0","0.0","","","","0.8330741005842445","-8.071983141272464","0.0","0.0","0.0","0.0","2.42359925539069E-07"
"2","25204.0","","","","6312.77255744719","6030.197412353345","1.895","","","","0.0","0.0","0.0","0.7720093582412151","-6.752948264825718","0.0","0.0","0.0","0.0",""
"3","25204.02468699045","25204.02457702509","1063","262692","5560.0","5820.0","1.895","0.0","0.0","0.0","","","","0.8503037415081216","-8.238927919618325","0.0","0.0","0.0","0.0","1.61032485453951E-07"
"2","25204.1","","","","6312.84905682967","6029.504504485103","1.895","","","","0.0","0.0","0.0","0.7779514673562203","-6.929681828374351","0.0","0.0","0.0","0.0",""
"2","25204.2","","","","6312.927363217441","6028.795229318955","1.895","","","","0.0","0.0","0.0","0.7832922649083344","-7.094820322528487","0.0","0.0","0.0","0.0",""
"2","25204.3","","","","6313.007358473335","6028.070656904981","1.895","","","","0.0","0.0","0.0","0.8001858718859786","-7.247837416508933","0.0","0.0","0.0","0.0",""
"3","25204.32700910724","25204.326902726432","1057","278034","6303.855603327983","6046.712412155638","1.895","0.0","0.0","0.0","","","","-1.5402857044418173","9.944028089611372","0.0","0.0","0.0","0.0","1.5241405563614E-07"
"3","25204.343721409667","25204.343605499478","277","278810","5560.0","5820.0","1.895","0.0","0.0","0.0","","","","-2.052187106509885","16.876885936053126","0.0","0.0","0.0","0.0","3.1345793949401E-08"
"2","25204.399999999998","","","","6313.089837036541","6027.323591457485","1.895","","","","0.0","0.0","0.0","0.8250261877640212","-7.472833354558227","0.0","0.0","0.0","0.0",""
"3","25204.452219139832","25204.45210903813","181","287380","6309.966767936507","6050.362305197865","1.895","0.0","0.0","0.0","","","","0.6246333875220032","-4.196139016748893","0.0","0.0","0.0","0.0","3.269556618896E-08"
"2","25204.5","","","","6313.174315483687","6026.55841167661","1.895","","","","0.0","0.0","0.0","0.8450308599936962","-7.654029520330941","0.0","0.0","0.0","0.0",""
"3","25204.558157161933","25204.558051239932","979","292008","6316.485071868946","6026.700393627372","1.895","0.0","0.0","0.0","","","","0.8695811111945665","-7.793415619202896","0.0","0.0","0.0","0.0","0.000009667795587032387"
"2","25204.6","","","","6313.260523627828","6025.77756483256","1.895","","","","0.0","0.0","0.0","0.8623328747628081","-7.810745846412775","0.0","0.0","0.0","0.0",""
"3","25204.617769378907","25204.617656976447","1003","296359","5560.0","5820.0","1.895","0.0","0.0","0.0","","","","-1.8982733697373904","13.289365122912692","0.0","0.0","0.0","0.0","1.99525769985951E-08"
"3","25204.663432380006","25204.663317918774","769","299509","5560.0","5820.0","1.895","0.0","0.0","0.0","","","","0.8562389032189648","-5.630689813719525","0.0","0.0","0.0","0.0","2.9793045371232E-07"
"2","25204.7","","","","6313.346496300443","6024.972866404014","1.895","","","","0.0","0.0","0.0","0.8844090439824058","-8.045768685384731","0.0","0.0","0.0","0.0",""
"3","25204.711695396985","25204.71158382157","217","302504","6305.205122518634","6037.944313642501","1.895","0.0","0.0","0.0","","","","-1.1331072389932893","8.974222851484404","0.0","0.0","0.0","0.0","6.18282561105827E-07"
"2","25204.8","","","","6313.431677583892","6024.1537170691849","1.895","","","","0.0","0.0","0.0","0.8928049321483249","-8.187793279480962","0.0","0.0","0.0","0.0",""
"3","25204.882968805603","25204.882859998383","289","314285","5560.0","5820.0","1.895","0.0","0.0","0.0","","","","1.0466526580792153","-9.942889258492555","0.0","0.0","0.0","0.0","7.09534492038897E-07"
"2","25204.899999999998","","","","6313.518434029338","6023.319420123888","1.895","","","","0.0","0.0","0.0","0.9019181719916296","-8.340004154892649","0.0","0.0","0.0","0.0",""
"3","25204.9106528189","25204.91054471885","337","317988","6318.182660488509","6010.452434822769","1.895","0.0","0.0","0.0","","","","1.0775517320081032","-10.185588004795383","0.0","0.0","0.0","0.0","1.47807091700217E-07"
"2","25205.0","","","","6313.607232443281","6022.465486504088","1.895","","","","0.0","0.0","0.0","0.9153974578539769","-8.537135550608474","0.0","0.0","0.0","0.0",""
"3","25205.024683623895","25205.02457702509","1063","327061","5560.0","5820.0","1.895","0.0","0.0","0.0","","","","1.1042883796144468","-10.260359209142277","0.0","0.0","0.0","0.0","2.56075031390352E-07"
"2","25205.1","","","","6313.6984696190379","6021.588100430457","1.895","","","","0.0","0.0","0.0","0.9323571934760436","-8.772472977182098","0.0","0.0","0.0","0.0",""
"2","25205.2","","","","6313.791260324202","6020.6957747770379","1.895","","","","0.0","0.0","0.0","0.9397707574135163","-8.922740449904085","0.0","0.0","0.0","0.0",""
"2","25205.3","","","","6313.885543642935","6019.789095343513","1.895","","","","0.0","0.0","0.0","0.9461509815944779","-9.067185875003151","0.0","0.0","0.0","0.0",""
"3","25205.327018866024","25205.326902726432","1057","342507","6302.195862305581","6057.972322693241","1.895","0.0","0.0","0.0","","","","-1.7081191396396516","12.27315233667047","0.0","0.0","0.0","0.0","4.67189700480824E-08"
"3","25205.34371801033","25205.343605499478","277","343314","5560.0","5820.0","1.895","0.0","0.0","0.0","","","","-6.570918415323247","16.067425176285736","0.0","0.0","0.0","0.0","4.25997698992395E-07"
"2","25205.399999999998","","","","6313.982069001454","6018.860855241656","1.895","","","","0.0","0.0","0.0","0.9653312212641794","-9.283147609003367","0.0","0.0","0.0","0.0",""
"3","25205.45222317626","25205.45210903813","181","351563","6310.790761624001","6045.0527684087269","1.895","0.0","0.0","0.0","","","","0.9649495178003723","-6.217808512590411","0.0","0.0","0.0","0.0","4.43832797748136E-07"
"2","25205.5","","","","6314.0804858569649","6017.914425480769","1.895","","","","0.0","0.0","0.0","0.9842477125156645","-9.465058829385724","0.0","0.0","0.0","0.0",""
"3","25205.558161198536","25205.558051239932","979","356231","6317.417283320264","6017.744126010477","1.895","0.0","0.0","0.0","","","","1.0130000871141485","-9.81535690469434","0.0","0.0","0.0","0.0","0.00001657477867538166"
"2","25205.6","","","","6314.181466695687","6016.943339069295","1.895","","","","0.0","0.0","0.0","1.0098896068660768","-9.711645166785703","0.0","0.0","0.0","0.0",""
"3","25205.617773555456","25205.617656976447","1003","360604","5560.0","5820.0","1.895","0.0","0.0","0.0","","","","-2.3817693826361134","13.186869508746476","0.0","0.0","0.0","0.0","2.32055300207662E-08"
"3","25205.6634235556","25205.663317918774","769","363677","5560.0","5820.0","1.895","0.0","0.0","0.0","","","","0.885828452685464","-7.396796686316861","0.0","0.0","0.0","0.0","0.000001362159278974279"
"2","25205.7","","","","6314.284170772264","6015.955681069736","1.895","","","","0.0","0.0","0.0","1.027123371419927","-9.87737437629238","0.0","0.0","0.0","0.0",""
"3","25205.71169966905","25205.71158382157","217","366654","6303.639305032642","6048.103981608179","1.895","0.0","0.0","0.0","","","","-1.7322436766019214","11.144504772551257","0.0","0.0","0.0","0.0","3.50159359793163E-08"
"3","25205.730586873746","25205.730478055077","997","368380","5560.0","5820.0","1.895","0.0","0.0","0.0","","","","-14.910618212834914","5.111140779719146","0.0","0.0","0.0","0.0","1.38470605509816E-08"
"2","25205.8","","","","6314.389146702207","6014.946175698326","1.895","","","","0.0","0.0","0.0","1.0498437323558554","-10.095865666796664","0.0","0.0","0.0","0.0",""
"3","25205.88296693587","25205.882859998383","289","378387","5560.0","5820.0","1.895","0.0","0.0","0.0","","","","1.282433298879719","-11.818225096855374","0.0","0.0","0.0","0.0","0.0000014138075569853592"
"2","25205.899999999998","","","","6314.496909535066","6013.909869959776","1.895","","","","0.0","0.0","0.0","1.0777150030435115","-10.363890893936015","0.0","0.0","0.0","0.0",""
"3","25205.91065094896","25205.91054471885","337","382016","6319.387736148235","5999.325569564636","1.895","0.0","0.0","0.0","","","","1.2941413760079448","-11.949238705133226","0.0","0.0","0.0","0.0","4.37586872486639E-07"
"3","25205.935416094228","25205.935301890364","733","385116","5560.0","5820.0","1.895","0.0","0.0","0.0","","","","16.809845983024294","-6.242582624566952","0.0","0.0","0.0","0.0","2.79108565908655E-09"
"2","25206.0","","","","6314.607058954768","6012.850613510168","1.895","","","","0.0","0.0","0.0","1.101582791013174","-10.593416463944676","0.0","0.0","0.0","0.0",""
"3","25206.024694153926","25206.02457702509","1063","391083","5560.0","5820.0","1.895","0.0","0.0","0.0","","","","1.3143385378173236","-12.089025891792972","0.0","0.0","0.0","0.0","6.08296468462584E-07"
"2","25206.1","","","","6314.72286199495","6011.774233107311","1.895","","","","0.0","0.0","0.0","1.1267676388844779","-10.768393168803094","0.0","0.0","0.0","0.0",""
"2","25206.2","","","","6314.842466720976","6010.672019389025","1.895","","","","0.0","0.0","0.0","1.163052886777439","-11.027051617291175","0.0","0.0","0.0","0.0",""
"2","25206.3","","","","6314.9647092643949","6009.5454969446959","1.895","","","","0.0","0.0","0.0","1.1982292851165904","-11.269238469904693","0.0","0.0","0.0","0.0",""
"3","25206.327016551008","25206.326902726432","1057","406835","6299.85226589602","6071.443270930082","1.895","0.0","0.0","0.0","","","","-2.615568275097472","14.469998683187877","0.0","0.0","0.0","0.0","2.30594940862081E-08"
"3","25206.343721288573","25206.343605499478","277","407586","5560.0","5820.0","1.895","0.0","0.0","0.0","","","","-19.111378052741018","4.966614936732909","0.0","0.0","0.0","0.0","5.61569229954175E-07"
"2","25206.399999999998","","","","6315.089300464504","6008.3973305260119","1.895","","","","0.0","0.0","0.0","1.2311456925838063","-11.484698944066642","0.0","0.0","0.0","0.0",""
"3","25206.452226427336","25206.45210903813","181","415504","6311.874660658585","6037.847322251487","1.895","0.0","0.0","0.0","","","","1.2038871659977817","-8.070261022946978","0.0","0.0","0.0","0.0","5.24178812657914E-07"
"2","25206.5","","","","6315.211214208111","6007.273838126354","1.895","","","","0.0","0.0","0.0","1.2141617507297556","-11.236873972150616","0.0","0.0","0.0","0.0",""
"3","25206.55816460861","25206.558051239932","979","420493","6318.562151441965","6006.948468352522","1.895","0.0","0.0","0.0","","","","1.251083162157769","-11.551667863918289","0.0","0.0","0.0","0.0","0.000017054393527782193"
"2","25206.6","","","","6315.329471861417","6006.1840383157809","1.895","","","","0.0","0.0","0.0","1.1827233490569729","-10.899351084137356","0.0","0.0","0.0","0.0",""
"3","25206.66343272314","25206.663317918774","769","427847","5560.0","5820.0","1.895","0.0","0.0","0.0","","","","0.9963614559278061","-9.135158652475406","0.0","0.0","0.0","0.0","0.0000011157993573359836"
"2","25206.7","","","","6315.44447182929","6005.124259606327","1.895","","","","0.0","0.0","0.0","1.1501424503350027","-10.59910280197559","0.0","0.0","0.0","0.0",""
"3","25206.71169597418","25206.71158382157","217","430809","6301.835752626198","6060.470110471198","1.895","0.0","0.0","0.0","","","","-1.8883882247982449","13.300822130644845","0.0","0.0","0.0","0.0","1.68270166949992E-07"
"2","25206.8","","","","6315.557168732906","6004.085704715549","1.895","","","","0.0","0.0","0.0","1.1271089485286479","-10.386838265993845","0.0","0.0","0.0","0.0",""
"3","25206.88296507883","25206.882859998383","289","442454","5560.0","5820.0","1.895","0.0","0.0","0.0","","","","1.2648168168605163","-10.446703222507284","0.0","0.0","0.0","0.0","9.82598337920634E-07"
"2","25206.899999999998","","","","6315.666388850201","6003.079190043456","1.895","","","","0.0","0.0","0.0","1.0923367689228949","-10.066396301450375","0.0","0.0","0.0","0.0",""
"3","25206.910662095765","25206.91054471885","337","445829","6320.906763742153","5986.512087302409","1.895","0.0","0.0","0.0","","","","1.6617272558551344","-13.660112764521435","0.0","0.0","0.0","0.0","3.33289463357571E-07"
"3","25206.935408667294","25206.935301890364","733","448940","5560.0","5820.0","1.895","0.0","0.0","0.0","","","","16.93477615618898","-5.832964205694388","0.0","0.0","0.0","0.0","1.07214040551677E-08"
"2","25207.0","","","","6315.776709323383","6002.062535075125","1.895","","","","0.0","0.0","0.0","1.103341693873746","-10.167811852931097","0.0","0.0","0.0","0.0",""
"3","25207.024686743367","25207.02457702509","1063","454881","5560.0","5820.0","1.895","0.0","0.0","0.0","","","","1.6470726112212542","-13.530790053482204","0.0","0.0","0.0","0.0","4.37628415645666E-07"
"2","25207.1","","","","6315.888331257597","6001.0338865322059","1.895","","","","0.0","0.0","0.0","1.116357919944072","-10.287762488759917","0.0","0.0","0.0","0.0",""
"2","25207.2","","","","6315.995869255317","6000.042873381944","1.895","","","","0.0","0.0","0.0","1.0755134848308928","-9.91136183810537","0.0","0.0","0.0","0.0",""
"2","25207.3","","","","6316.105462767561","5999.032917700047","1.895","","","","0.0","0.0","0.0","1.0960711819786758","-10.100810671489269","0.0","0.0","0.0","0.0",""
"3","25207.343714030932","25207.343605499478","277","471923","5560.0","5820.0","1.895","0.0","0.0","0.0","","","","-19.713702135572225","5.1231453438133969","0.0","0.0","0.0","0.0","2.71622891820923E-08"
"2","25207.399999999998","","","","6316.217013842051","5998.004922162769","1.895","","","","0.0","0.0","0.0","1.1156492347231258","-10.281231621640924","0.0","0.0","0.0","0.0",""
"3","25207.452224947698","25207.45210903813","181","479956","6312.950007912003","6028.590120643208","1.895","0.0","0.0","0.0","","","","1.1297971295670147","-10.233354769745075","0.0","0.0","0.0","0.0","2.98167833298119E-07"
"2","25207.5","","","","6316.3287582765719","5996.9751447219909","1.895","","","","0.0","0.0","0.0","1.1175830750985257","-10.299052868858839","0.0","0.0","0.0","0.0",""
"3","25207.537649638783","25207.5375361084","1435","484689","6320.620220871677","5894.6637615323529","1.895","0.0","0.0","0.0","","","","-4.190311456619173","13.255431269733114","0.0","0.0","0.0","0.0","3.11307563106331E-08"
"3","25207.558157644762","25207.558051239932","979","485149","6319.941917211667","5994.443540770763","1.895","0.0","0.0","0.0","","","","1.528191691152336","-13.403491064119839","0.0","0.0","0.0","0.0","0.00000232756596175709"
"3","25207.56651184023","25207.56639547879","1405","485362","6145.878674241383","6052.574782449021","1.895","0.0","0.0","0.0","","","","15.715171957689032","-5.327111077758587","0.0","0.0","0.0","0.0","6.07275764327672E-09"
"2","25207.6","","","","6316.441201410881","5995.940076995541","1.895","","","","0.0","0.0","0.0","1.1235523223073918","-10.352068736568345","0.0","0.0","0.0","0.0",""
"3","25207.66342576528","25207.663317918774","769","492935","5560.0","5820.0","1.895","0.0","0.0","0.0","","","","1.1125070751782083","-10.779519311754115","0.0","0.0","0.0","0.0","9.48244580350758E-08"
"2","25207.7","","","","6316.563081056105","5994.933417006875","1.895","","","","0.0","0.0","0.0","1.1152495037074626","-10.078664717004738","0.0","0.0","0.0","0.0",""
"3","25207.711689176827","25207.71158382157","217","496066","6299.3282413491019","6074.400991568116","1.895","0.0","0.0","0.0","","","","-2.5070890049224228","14.055980822642388","0.0","0.0","0.0","0.0","1.1566060298828E-08"
"2","25207.8","","","","6316.685853986535","5993.919378965273","1.895","","","","0.0","0.0","0.0","1.1448483035849695","-10.150140025935292","0.0","0.0","0.0","0.0",""
"3","25207.882976225286","25207.882859998383","289","508678","5560.0","5820.0","1.895","0.0","0.0","0.0","","","","1.2979751395599069","-10.706166361688315","0.0","0.0","0.0","0.0","0.0000010711432572570709"
"2","25207.899999999998","","","","6316.8114903224709","5992.881690741974","1.895","","","","0.0","0.0","0.0","1.1939791170775843","-10.38431504706573","0.0","0.0","0.0","0.0",""
"3","25207.910654434494","25207.91054471885","337","512251","6322.663010959055","5972.0486432244319","1.895","0.0","0.0","0.0","","","","1.7871539659687715","-14.734236529644053","0.0","0.0","0.0","0.0","2.03870786844135E-07"
"2","25208.0","","","","6316.937148759282","5991.843819977399","1.895","","","","0.0","0.0","0.0","1.2166203090804427","-10.383538104375456","0.0","0.0","0.0","0.0",""
"3","25208.024684456126","25208.02457702509","1063","521679","5560.0","5820.0","1.895","0.0","0.0","0.0","","","","1.637775775101944","-13.531005676477055","0.0","0.0","0.0","0.0","1.16341039370068E-07"
"2","25208.1","","","","6317.058450957314","5990.841929390407","1.895","","","","0.0","0.0","0.0","1.1953399841810318","-10.021098364375032","0.0","0.0","0.0","0.0",""
"2","25208.2","","","","6317.182503559977","5989.817321947869","1.895","","","","0.0","0.0","0.0","1.2405342660408112","-10.246142478446693","0.0","0.0","0.0","0.0",""
"3","25208.27699595275","25208.276885217798","1489","535205","5560.0","5820.0","1.895","0.0","0.0","0.0","","","","-3.037571761390797","9.633404394884565","0.0","0.0","0.0","0.0","1.78643995397632E-08"
"2","25208.3","","","","6317.308020569909","5988.780619292863","1.895","","","","0.0","0.0","0.0","1.2551784359913055","-10.367095406457282","0.0","0.0","0.0","0.0",""
"3","25208.34371194761","25208.343605499478","277","539759","5560.0","5820.0","1.895","0.0","0.0","0.0","","","","-19.654225285676867","5.107688655641277","0.0","0.0","0.0","0.0","6.25707305286746E-08"
"2","25208.399999999998","","","","6317.433533041825","5987.7439541194139","1.895","","","","0.0","0.0","0.0","1.2551330555350074","-10.366720588416673","0.0","0.0","0.0","0.0",""
"3","25208.452217019854","25208.45210903813","181","547966","6314.154106841394","6017.206446239524","1.895","0.0","0.0","0.0","","","","1.2804585179340789","-12.313582289018428","0.0","0.0","0.0","0.0","6.1765635958703E-07"
"2","25208.5","","","","6317.55659640532","5986.727517257684","1.895","","","","0.0","0.0","0.0","1.2306418086521756","-10.164436127676354","0.0","0.0","0.0","0.0",""
"3","25208.537645015695","25208.5375361084","1435","552735","6316.936132473616","5908.096756975407","1.895","0.0","0.0","0.0","","","","-3.637370235129984","13.441351868894959","0.0","0.0","0.0","0.0","1.50006520138334E-08"
"3","25208.558166020346","25208.558051239932","979","553250","6321.602995715822","5980.787965977952","1.895","0.0","0.0","0.0","","","","1.6735882623258756","-13.760072952033737","0.0","0.0","0.0","0.0","6.50742495739401E-07"
"3","25208.566507131472","25208.56639547879","1405","553492","6161.717991647916","6047.205588688517","1.895","0.0","0.0","0.0","","","","15.712419252459434","-5.326177968877444","0.0","0.0","0.0","0.0","2.65071112463503E-09"
"3","25208.579974460412","25208.579867018943","1495","554958","5560.0","5820.0","1.895","0.0","0.0","0.0","","","","-4.042114459509257","15.364331796447589","0.0","0.0","0.0","0.0","5.49505297274724E-09"
"2","25208.6","","","","6317.681246531154","5985.697974596741","1.895","","","","0.0","0.0","0.0","1.2465095374342546","-10.295494990267157","0.0","0.0","0.0","0.0",""
"3","25208.663428573524","25208.663317918774","769","561377","5560.0","5820.0","1.895","0.0","0.0","0.0","","","","1.3476460043380257","-12.395381380558609","0.0","0.0","0.0","0.0","4.36253056846447E-07"
"2","25208.7","","","","6317.807550360121","5984.654773241813","1.895","","","","0.0","0.0","0.0","1.2630466786023987","-10.432082837320794","0.0","0.0","0.0","0.0",""
"2","25208.8","","","","6317.934126778097","5983.609320449011","1.895","","","","0.0","0.0","0.0","1.26577258680323","-10.4545973656074","0.0","0.0","0.0","0.0",""
"3","25208.827358125287","25208.827243641295","1513","573846","6324.523930370282","5882.314953217871","1.895","0.0","0.0","0.0","","","","-2.8443973378298699","8.997830783158415","0.0","0.0","0.0","0.0","2.9045123064591E-08"
"3","25208.8829662759","25208.882859998383","289","577318","5560.0","5820.0","1.895","0.0","0.0","0.0","","","","1.3094100075175886","-10.789538461944792","0.0","0.0","0.0","0.0","0.0000011198011589125597"
"2","25208.899999999998","","","","6318.0615309258669","5982.557031055544","1.895","","","","0.0","0.0","0.0","1.274049939704045","-10.522963826323393","0.0","0.0","0.0","0.0",""
"3","25208.91066112083","25208.91054471885","337","580926","6324.493804115643","5957.329546117119","1.895","0.0","0.0","0.0","","","","1.924359680468427","-14.746241015595018","0.0","0.0","0.0","0.0","4.16330562905848E-07"
"3","25208.935415691056","25208.935301890364","733","584255","5560.0","5820.0","1.895","0.0","0.0","0.0","","","","14.191961018534256","-3.727696810995123","0.0","0.0","0.0","0.0","7.66475973393944E-09"
"2","25209.0","","","","6318.184359803686","5981.542530918747","1.895","","","","0.0","0.0","0.0","1.2282969363200478","-10.145068749713069","0.0","0.0","0.0","0.0",""
"3","25209.02468232786","25209.02457702509","1063","590388","5560.0","5820.0","1.895","0.0","0.0","0.0","","","","1.7167798133842974","-13.488514238339003","0.0","0.0","0.0","0.0","2.33658950442272E-07"
"2","25209.1","","","","6318.308697412274","5980.515933322861","1.895","","","","0.0","0.0","0.0","1.2430250247485256","-10.266087709879172","0.0","0.0","0.0","0.0",""
"2","25209.2","","","","6318.434758828457","5979.477187253516","1.895","","","","0.0","0.0","0.0","1.2582816339004724","-10.38781350783603","0.0","0.0","0.0","0.0",""
"3","25209.276992504183","25209.276885217798","1489","604521","5560.0","5820.0","1.895","0.0","0.0","0.0","","","","-2.975355943573888","10.835965722423895","0.0","0.0","0.0","0.0","1.0764139019881E-08"
"2","25209.3","","","","6318.561639411752","5978.431691247158","1.895","","","","0.0","0.0","0.0","1.2669752803329014","-10.455252517081226","0.0","0.0","0.0","0.0",""
"2","25209.399999999998","","","","6318.689667805145","5977.3767372856059","1.895","","","","0.0","0.0","0.0","1.2789633493646336","-10.549770896287468","0.0","0.0","0.0","0.0",""
"3","25209.452224597753","25209.45210903813","181","617495","6315.541029588768","6004.234434507932","1.895","0.0","0.0","0.0","","","","1.4013216043159234","-12.91383666297437","0.0","0.0","0.0","0.0","7.08753848823015E-07"
"2","25209.5","","","","6318.814625306745","5976.34708747242","1.895","","","","0.0","0.0","0.0","1.2487876762661876","-10.296663046791144","0.0","0.0","0.0","0.0",""
"3","25209.537650543316","25209.5375361084","1435","622381","6313.599581641391","5921.82482452765","1.895","0.0","0.0","0.0","","","","-3.1453113377671344","13.470698147399526","0.0","0.0","0.0","0.0","5.17984690545493E-08"
"3","25209.558158549273","25209.558051239932","979","622933","6323.287700708805","5966.898372623401","1.895","0.0","0.0","0.0","","","","1.7021227488338569","-14.033194487642787","0.0","0.0","0.0","0.0","0.0000011818783689638824"
"3","25209.579979795126","25209.579867018943","1495","624641","5560.0","5820.0","1.895","0.0","0.0","0.0","","","","-2.5284134736604946","15.686985539889074","0.0","0.0","0.0","0.0","8.16409456854769E-08"
"2","25209.6","","","","6318.9391555569359","5975.320958210849","1.895","","","","0.0","0.0","0.0","1.2450159964914414","-10.261396539403492","0.0","0.0","0.0","0.0",""
"3","25209.611864637136","25209.611748417607","445","627393","6154.119470332796","5735.112565170468","1.895","0.0","0.0","0.0","","","","12.838351422420479","0.6580745998265238","0.0","0.0","0.0","0.0","1.10964373900249E-08"
"3","25209.66343388857","25209.663317918774","769","631536","5560.0","5820.0","1.895","0.0","0.0","0.0","","","","1.7051203358606638","-14.007655232226615","0.0","0.0","0.0","0.0","0.000001981015191283016"
"2","25209.7","","","","6319.064568819144","5974.287552930252","1.895","","","","0.0","0.0","0.0","1.2541409518659495","-10.334121443368403","0.0","0.0","0.0","0.0",""
"3","25209.726340916844","25209.726227186387","757","635614","6162.217042148803","5732.227851916525","1.895","0.0","0.0","0.0","","","","13.157298127927352","0.6742375200080215","0.0","0.0","0.0","0.0","3.06130924041328E-09"
"3","25209.784838539344","25209.784730568528","889","641028","6144.9231407277979","5731.341636745901","1.895","0.0","0.0","0.0","","","","12.5438214083927","0.6428002889031501","0.0","0.0","0.0","0.0","2.12952036860862E-09"
"2","25209.8","","","","6319.19102042383","5973.2455917076399","1.895","","","","0.0","0.0","0.0","1.2645244456057039","-10.419681431797019","0.0","0.0","0.0","0.0",""
"3","25209.82735844302","25209.827243641295","1513","644051","6321.492624694517","5891.904040916635","1.895","0.0","0.0","0.0","","","","-3.153917725572767","9.976952805185834","0.0","0.0","0.0","0.0","4.60059579646045E-08"
"3","25209.8405457858","25209.84042853536","229","644534","5560.0","5820.0","1.895","0.0","0.0","0.0","","","","12.18127029208443","0.6234464350544161","0.0","0.0","0.0","0.0","5.29274831003035E-09"
"3","25209.882966443343","25209.882859998383","289","647423","5560.0","5820.0","1.895","0.0","0.0","0.0","","","","1.4118204242502335","-10.653674170419095","0.0","0.0","0.0","0.0","2.61463546351072E-07"
"2","25209.899999999998","","","","6319.318665357256","5972.193797456213","1.895","","","","0.0","0.0","0.0","1.2764578122603295","-10.518012373031189","0.0","0.0","0.0","0.0",""
"3","25209.93541583035","25209.935301890364","733","654098","5560.0","5820.0","1.895","0.0","0.0","0.0","","","","10.897647263483924","-2.8624039270109487","0.0","0.0","0.0","0.0","3.03807795123778E-08"
"2","25210.0","","","","6319.445259942947","5971.150658070117","1.895","","","","0.0","0.0","0.0","1.2659542651548004","-10.43146314488158","0.0","0.0","0.0","0.0",""
"3","25210.014242956804","25210.01412652507","1531","659540","6322.070894000971","5914.545146200975","1.895","0.0","0.0","0.0","","","","-3.6292996229580565","13.782778406185607","0.0","0.0","0.0","0.0","2.80185959497587E-08"
"3","25210.0246889576","25210.02457702509","1063","660464","5560.0","5820.0","1.895","0.0","0.0","0.0","","","","2.1525122860087966","-13.35401739790632","0.0","0.0","0.0","0.0","1.20786707712696E-07"
"3","25210.032472102863","25210.032356234035","937","661340","5560.0","5820.0","1.895","0.0","0.0","0.0","","","","3.16897276453176E-15","4.62809319128044E-14","0.0","0.0","0.0","0.0","8.56488049858282E-09"
"2","25210.1","","","","6319.571854528638","5970.107518684022","1.895","","","","0.0","0.0","0.0","1.2659542651548004","-10.43146314488158","0.0","0.0","0.0","0.0",""
"2","25210.2","","","","6319.698449114329","5969.064379297926","1.895","","","","0.0","0.0","0.0","1.2659542651548004","-10.43146314488158","0.0","0.0","0.0","0.0",""
"3","25210.276995600718","25210.276885217798","1489","674958","5560.0","5820.0","1.895","0.0","0.0","0.0","","","","-2.8687579946322434","11.396900926037603","0.0","0.0","0.0","0.0","4.95581662206445E-08"
"2","25210.3","","","","6319.825043700021","5968.02123991183","1.895","","","","0.0","0.0","0.0","1.2659542651548004","-10.43146314488158","0.0","0.0","0.0","0.0",""
"3","25210.345612226614","25210.345505659236","883","679907","6097.542202617221","5718.361185424943","1.895","0.0","0.0","0.0","","","","2.200486811725261","-7.589311456327431","0.0","0.0","0.0","0.0","7.0136416848111E-09"
"2","25210.399999999998","","","","6319.951638285712","5966.978100525735","1.895","","","","0.0","0.0","0.0","1.2659542651548004","-10.43146314488158","0.0","0.0","0.0","0.0",""
"3","25210.44650357262","25210.44639441464","535","687355","6192.202047215477","5733.76441476226","1.895","0.0","0.0","0.0","","","","14.260415491919872","0.7307660799406576","0.0","0.0","0.0","0.0","4.56333566103189E-09"
"3","25210.45221493061","25210.45210903813","181","687743","6316.964144114062","5991.620852938996","1.895","0.0","0.0","0.0","","","","1.4693493258079576","-12.299334237117375","0.0","0.0","0.0","0.0","1.14788389669289E-07"
"3","25210.475400983105","25210.47528944444","325","689881","5560.0","5820.0","1.895","0.0","0.0","0.0","","","","11.626442638779855","0.5957897871641121","0.0","0.0","0.0","0.0","2.5220877346005E-09"
"2","25210.5","","","","6320.078232871403","5965.934961139639","1.895","","","","0.0","0.0","0.0","1.2659542651548004","-10.43146314488158","0.0","0.0","0.0","0.0",""
"3","25210.50588006453","25210.50576611054","1549","691964","6323.993648511876","5883.992421539847","1.895","0.0","0.0","0.0","","","","-3.1043857485820127","9.820265713200345","0.0","0.0","0.0","0.0","1.08367624107935E-08"
"3","25210.53065376056","25210.530537214596","487","692544","5560.0","5820.0","1.895","0.0","0.0","0.0","","","","13.773688581104472","0.9389387708823161","0.0","0.0","0.0","0.0","1.3799693989872E-09"
"3","25210.53764177328","25210.5375361084","1435","693249","6311.292935782148","5935.552402309225","1.895","0.0","0.0","0.0","","","","-2.2057518953765786","13.685881451239384","0.0","0.0","0.0","0.0","5.12628042372598E-07"
"3","25210.579976774374","25210.579867018943","1495","695255","5560.0","5820.0","1.895","0.0","0.0","0.0","","","","-2.5460177262540029","15.796207254909885","0.0","0.0","0.0","0.0","0.0000012263257038989349"
"2","25210.6","","","","6320.204827457094","5964.891821753543","1.895","","","","0.0","0.0","0.0","1.2659542651548004","-10.43146314488158","0.0","0.0","0.0","0.0",""
"3","25210.663426686864","25210.663317918774","769","702133","5560.0","5820.0","1.895","0.0","0.0","0.0","","","","1.7671009007756816","-14.599466351134684","0.0","0.0","0.0","0.0","9.66268351748878E-07"
"2","25210.7","","","","6320.331422042786","5963.8486823674479","1.895","","","","0.0","0.0","0.0","1.2659542651548004","-10.43146314488158","0.0","0.0","0.0","0.0",""
"3","25210.72633792047","25210.726227186387","757","706212","6175.362933557654","5732.901504906344","1.895","0.0","0.0","0.0","","","","13.211170877448249","0.6769981953897061","0.0","0.0","0.0","0.0","1.35427248355428E-08"
"3","25210.77380407239","25210.773694703123","1573","710416","5560.0","5820.0","1.895","0.0","0.0","0.0","","","","-3.432509341889109","12.660895113527684","0.0","0.0","0.0","0.0","1.85807273495489E-07"
"2","25210.8","","","","6320.458016628477","5962.805542981352","1.895","","","","0.0","0.0","0.0","1.265954265154988","-10.431463144881557","0.0","0.0","0.0","0.0",""
"3","25210.827358110237","25210.827243641295","1513","715201","6318.485730826684","5902.370450503255","1.895","0.0","0.0","0.0","","","","-2.9449491735681736","10.882614504187714","0.0","0.0","0.0","0.0","4.94576540771196E-08"
"3","25210.882973123797","25210.882859998383","289","718326","5560.0","5820.0","1.895","0.0","0.0","0.0","","","","1.8363390286362845","-11.392503307067593","0.0","0.0","0.0","0.0","9.27692307466322E-07"
"3","25210.888371520112","25210.888265040936","1111","719842","6188.430535288017","5740.175397239313","1.895","0.0","0.0","0.0","","","","12.87588729437345","0.6589974476687042","0.0","0.0","0.0","0.0","1.42782951053934E-08"
"2","25210.899999999998","","","","6320.584611214168","5961.762403595256","1.895","","","","0.0","0.0","0.0","1.2659542651548004","-10.43146314488158","0.0","0.0","0.0","0.0",""
"3","25210.92038046215","25210.920271761017","925","723225","5560.0","5820.0","1.895","0.0","0.0","0.0","","","","2.37866361589008E-15","-4.7467691948494E-14","0.0","0.0","0.0","0.0","1.38032213637351E-09"
"3","25210.995094084352","25210.994983889024","1567","728375","6318.405175850523","5738.969476804951","1.895","0.0","0.0","0.0","","","","-11.631993571611304","-0.7460391387454038","0.0","0.0","0.0","0.0","6.21701890230866E-09"
"2","25211.0","","","","6320.711205799859","5960.71926420916","1.895","","","","0.0","0.0","0.0","1.2659542651548004","-10.43146314488158","0.0","0.0","0.0","0.0",""
"3","25211.014232135185","25211.01412652507","1531","730513","6319.154590063346","5928.27366203889","1.895","0.0","0.0","0.0","","","","-2.5675388788107984","13.946774077309199","0.0","0.0","0.0","0.0","8.80322086935686E-08"
"2","25211.1","","","","6320.8378003855509","5959.676124823065","1.895","","","","0.0","0.0","0.0","1.265954265154988","-10.431463144881557","0.0","0.0","0.0","0.0",""
"2","25211.2","","","","6320.964394971242","5958.632985436969","1.895","","","","0.0","0.0","0.0","1.2659542651548004","-10.43146314488158","0.0","0.0","0.0","0.0",""
"3","25211.23594783392","25211.23583422345","943","742900","6206.509522173665","5839.348666324022","1.895","0.0","0.0","0.0","","","","17.965234083716067","1.198196477189704","0.0","0.0","0.0","0.0","4.658045946786E-09"
"3","25211.240804956928","25211.24069597921","1201","743242","5560.0","5820.0","1.895","0.0","0.0","0.0","","","","3.23034139483284E-15","4.71841669310536E-14","0.0","0.0","0.0","0.0","2.61951342076217E-09"
"3","25211.276990968203","25211.276885217798","1489","746191","5560.0","5820.0","1.895","0.0","0.0","0.0","","","","-2.329458784041199","11.996362713817895","0.0","0.0","0.0","0.0","3.61924763692399E-07"
"2","25211.3","","","","6321.107351485853","5957.592156664243","1.895","","","","0.0","0.0","0.0","1.294674344106579","-10.427937566326265","0.0","0.0","0.0","0.0",""
"2","25211.399999999998","","","","6321.274568735031","5956.554753965419","1.895","","","","0.0","0.0","0.0","1.3659468874473775","-10.418841233321447","0.0","0.0","0.0","0.0",""
"3","25211.446511013255","25211.44639441464","535","758641","6206.468319636193","5734.495480976858","1.895","0.0","0.0","0.0","","","","14.279937602451814","0.7317664782975601","0.0","0.0","0.0","0.0","3.89828666083129E-09"
"3","25211.45222515529","25211.45210903813","181","759004","6318.427609640684","5979.536096560766","1.895","0.0","0.0","0.0","","","","1.439818954213515","-11.885714168019975","0.0","0.0","0.0","0.0","2.62745294705814E-07"
"3","25211.475407039765","25211.47528944444","325","761151","5560.0","5820.0","1.895","0.0","0.0","0.0","","","","11.997367458040849","0.6147975977223085","0.0","0.0","0.0","0.0","1.4509106351627E-09"
"3","25211.49616763029","25211.496058858418","1579","762619","6316.107985616381","5735.518673583093","1.895","0.0","0.0","0.0","","","","-14.034789323956499","-0.9001468299704192","0.0","0.0","0.0","0.0","1.88284768795528E-08"
"2","25211.5","","","","6321.441785984209","5955.517351266594","1.895","","","","0.0","0.0","0.0","1.4371652349586002","-10.409256439915039","0.0","0.0","0.0","0.0",""
"3","25211.5058775712","25211.50576611054","1549","763551","6320.761275982028","5894.2175545284439","1.895","0.0","0.0","0.0","","","","-3.29689578361852","10.429242770055965","0.0","0.0","0.0","0.0","1.37108909274914E-08"
"3","25211.5376525864","25211.5375361084","1435","764789","6309.078951975376","5949.289359751238","1.895","0.0","0.0","0.0","","","","-2.199644014705694","13.647984292001583","0.0","0.0","0.0","0.0","0.000001380830648119079"
"3","25211.579974613873","25211.579867018943","1495","766852","5560.0","5820.0","1.895","0.0","0.0","0.0","","","","-1.9842348608027539","15.803900869289159","0.0","0.0","0.0","0.0","0.000003836168369167328"
"2","25211.6","","","","6321.609003233388","5954.47994856777","1.895","","","","0.0","0.0","0.0","1.5083193786758207","-10.399184400538215","0.0","0.0","0.0","0.0",""
"3","25211.61185944504","25211.611748417607","445","769659","6180.016942859266","5736.440030692218","1.895","0.0","0.0","0.0","","","","13.02603717746661","0.6676950895671989","0.0","0.0","0.0","0.0","2.64820686511506E-09"
"3","25211.66342447305","25211.663317918774","769","773790","5560.0","5820.0","1.895","0.0","0.0","0.0","","","","1.7605484118955659","-14.545330879368788","0.0","0.0","0.0","0.0","0.000008376779377742991"
"2","25211.7","","","","6321.776220482566","5953.442545868947","1.895","","","","0.0","0.0","0.0","1.579399336377885","-10.388626534857022","0.0","0.0","0.0","0.0",""
"3","25211.773810195962","25211.773694703123","1573","782257","5560.0","5820.0","1.895","0.0","0.0","0.0","","","","-3.055368536991946","13.083244760961794","0.0","0.0","0.0","0.0","2.36751619545527E-07"
"3","25211.78484195277","25211.784730568528","889","784058","6170.343711716777","5732.6442980198339","1.895","0.0","0.0","0.0","","","","12.765200746919084","0.6541447347565277","0.0","0.0","0.0","0.0","1.34474227606288E-08"
"2","25211.8","","","","6321.943437731744","5952.405143170122","1.895","","","","0.0","0.0","0.0","1.6503951586063184","-10.377584466769479","0.0","0.0","0.0","0.0",""
"3","25211.827354436606","25211.827243641295","1513","787381","6315.535300508661","5913.534553149385","1.895","0.0","0.0","0.0","","","","-2.901258164379516","11.326452342467205","0.0","0.0","0.0","0.0","1.03292963047207E-07"
"3","25211.84054485516","25211.84042853536","229","787963","5560.0","5820.0","1.895","0.0","0.0","0.0","","","","10.945414924251015","0.5601944420466456","0.0","0.0","0.0","0.0","1.09729569551557E-08"
"3","25211.88297087162","25211.882859998383","289","790589","5560.0","5820.0","1.895","0.0","0.0","0.0","","","","1.9109463705239863","-11.85536140458261","0.0","0.0","0.0","0.0","0.0000010624618403369314"
"3","25211.888381520308","25211.888265040936","1111","792121","6201.328944918408","5740.835547396818","1.895","0.0","0.0","0.0","","","","12.90447200271652","0.6604604342115371","0.0","0.0","0.0","0.0","1.09248135908581E-08"
"3","25211.889402693752","25211.88928731694","637","792498","6168.5345123300689","5739.157104049238","1.895","0.0","0.0","0.0","","","","11.693536321395463","0.5984838492170009","0.0","0.0","0.0","0.0","3.36688408657202E-09"
"2","25211.899999999998","","","","6322.110654980923","5951.367740471298","1.895","","","","0.0","0.0","0.0","1.6721835981310763","-10.374095891142887","0.0","0.0","0.0","0.0",""
"3","25211.920390555482","25211.920271761017","925","795879","5560.0","5820.0","1.895","0.0","0.0","0.0","","","","2.32849591181831E-15","-4.64665646319899E-14","0.0","0.0","0.0","0.0","2.03541404400444E-09"
"3","25211.935407297173","25211.935301890364","733","797601","5560.0","5820.0","1.895","0.0","0.0","0.0","","","","5.171744976355307","-1.3584237745905834","0.0","0.0","0.0","0.0","1.57514560028528E-08"
"3","25211.995100532764","25211.994983889024","1567","801897","6306.778207533784","5738.223759970099","1.895","0.0","0.0","0.0","","","","-11.614465470131874","-0.7449149419642545","0.0","0.0","0.0","0.0","3.30158728643499E-09"
"2","25212.0","","","","6322.277872230101","5950.330337772474","1.895","","","","0.0","0.0","0.0","1.6721835981295237","-10.374095891143139","0.0","0.0","0.0","0.0",""
"3","25212.000165524052","25212.000055350363","205","802907","6101.23989767381","5739.689822660743","1.895","0.0","0.0","0.0","","","","2.34495580084695E-15","-4.67950318169666E-14","0.0","0.0","0.0","0.0","7.09244404873884E-09"
"3","25212.01423852486","25212.01412652507","1531","804067","6316.897745171445","5942.275760016076","1.895","0.0","0.0","0.0","","","","-2.2621601395208654","14.035075262522044","0.0","0.0","0.0","0.0","1.84615833919984E-07"
"3","25212.03247366642","25212.032356234035","937","805333","5560.0","5820.0","1.895","0.0","0.0","0.0","","","","3.1297826410454E-15","4.57085838456242E-14","0.0","0.0","0.0","0.0","6.23354998434809E-09"
"3","25212.065713139797","25212.065604869276","655","808937","6100.572057901829","5753.016975081789","1.895","0.0","0.0","0.0","","","","0.06580385156825516","-1.3131562337741079","0.0","0.0","0.0","0.0","4.05734700984737E-09"
"2","25212.1","","","","6322.445089479279","5949.2929350736499","1.895","","","","0.0","0.0","0.0","1.6721835981292726","-10.37409589114318","0.0","0.0","0.0","0.0",""
"2","25212.2","","","","6322.612306728458","5948.255532374826","1.895","","","","0.0","0.0","0.0","1.6721835981310763","-10.374095891142887","0.0","0.0","0.0","0.0",""
"3","25212.24080703822","25212.24069597921","1201","816707","5560.0","5820.0","1.895","0.0","0.0","0.0","","","","3.24543552507729E-15","4.74046402105257E-14","0.0","0.0","0.0","0.0","2.15455672348377E-09"
"3","25212.276993040792","25212.276885217798","1489","819600","5560.0","5820.0","1.895","0.0","0.0","0.0","","","","-2.014377587625841","12.498474066849566","0.0","0.0","0.0","0.0","2.51153881942408E-07"
"2","25212.3","","","","6322.779523977636","5947.218129676001","1.895","","","","0.0","0.0","0.0","1.6721835981292726","-10.37409589114318","0.0","0.0","0.0","0.0",""
"3","25212.36803092015","25212.367917491123","847","827368","6100.086872726255","5762.699142958836","1.895","0.0","0.0","0.0","","","","0.1464746298245141","-2.922991111610991","0.0","0.0","0.0","0.0","5.02686634913719E-09"
"2","25212.399999999998","","","","6322.946741226814","5946.180726977177","1.895","","","","0.0","0.0","0.0","1.6721835981295237","-10.374095891143139","0.0","0.0","0.0","0.0",""
"3","25212.446507715384","25212.44639441464","535","832337","6220.760989534581","5735.2278999137029","1.895","0.0","0.0","0.0","","","","14.28876263842465","0.7322187117506989","0.0","0.0","0.0","0.0","4.05804179561656E-09"
"3","25212.45222184995","25212.45210903813","181","832676","6319.845433639977","5967.853226806587","1.895","0.0","0.0","0.0","","","","1.391770533886695","-11.46818919922622","0.0","0.0","0.0","0.0","1.738269963617E-07"
"3","25212.47540363402","25212.47528944444","325","834799","5560.0","5820.0","1.895","0.0","0.0","0.0","","","","12.204300994063417","0.6254017774542205","0.0","0.0","0.0","0.0","4.22808854459211E-09"
"2","25212.5","","","","6323.113958475993","5945.143324278353","1.895","","","","0.0","0.0","0.0","1.6721835981310763","-10.374095891142887","0.0","0.0","0.0","0.0",""
"3","25212.505874126364","25212.50576611054","1549","837164","6317.746035449328","5905.103882955858","1.895","0.0","0.0","0.0","","","","-2.9935670333633546","11.062274455853665","0.0","0.0","0.0","0.0","5.27518328545716E-08"
"3","25212.53064524365","25212.530537214596","487","837722","5560.0","5820.0","1.895","0.0","0.0","0.0","","","","13.826240914194355","0.7087123305289959","0.0","0.0","0.0","0.0","7.1397821569849E-09"
"3","25212.537653268417","25212.5375361084","1435","838435","6307.130250411439","5963.090382400694","1.895","0.0","0.0","0.0","","","","-1.6720866542237412","13.779678146854203","0.0","0.0","0.0","0.0","5.36695084876466E-08"
"3","25212.579975349192","25212.579867018943","1495","840434","5560.0","5820.0","1.895","0.0","0.0","0.0","","","","-1.9224325158913119","15.80975188159581","0.0","0.0","0.0","0.0","1.70487738859238E-08"
"2","25212.6","","","","6323.281175725171","5944.1059215795289","1.895","","","","0.0","0.0","0.0","1.6721835981292726","-10.37409589114318","0.0","0.0","0.0","0.0",""
"3","25212.60032792847","25212.60021286551","799","842248","5560.0","5820.0","1.895","0.0","0.0","0.0","","","","0.551140260168268","-10.998342058643044","0.0","0.0","0.0","0.0","9.94643496481523E-09"
"3","25212.66343111589","25212.663317918774","769","846804","5560.0","5820.0","1.895","0.0","0.0","0.0","","","","2.338657609524385","-14.511553174725498","0.0","0.0","0.0","0.0","0.000002181904215456342"
"2","25212.7","","","","6323.448392974349","5943.068518880705","1.895","","","","0.0","0.0","0.0","1.6721835981295237","-10.374095891143139","0.0","0.0","0.0","0.0",""
"3","25212.72633465541","25212.726227186387","757","850996","6201.661894797968","5734.249178739763","1.895","0.0","0.0","0.0","","","","13.15616094744846","0.6741792459077196","0.0","0.0","0.0","0.0","9.47030170031266E-09"
"3","25212.773804655495","25212.773694703123","1573","855257","5560.0","5820.0","1.895","0.0","0.0","0.0","","","","-2.1536908899126385","13.362101649673143","0.0","0.0","0.0","0.0","0.000002706762597803481"
"3","25212.784836446543","25212.784730568528","889","857061","6183.188402512349","5733.302516172458","1.895","0.0","0.0","0.0","","","","12.923931511104577","0.6622787935695769","0.0","0.0","0.0","0.0","1.17885564865519E-08"
"2","25212.8","","","","6323.615610223528","5942.03111618188","1.895","","","","0.0","0.0","0.0","1.6721835981308229","-10.374095891142927","0.0","0.0","0.0","0.0",""
"3","25212.827353441007","25212.827243641295","1513","860339","6312.918066018087","5925.469065285462","1.895","0.0","0.0","0.0","","","","-2.3956010301884129","12.023431131081792","0.0","0.0","0.0","0.0","5.89870933773618E-07"
"3","25212.886080741002","25212.885962265544","433","864176","6198.239356783014","5835.417290627169","1.895","0.0","0.0","0.0","","","","17.126224730094969","1.4144426674387206","0.0","0.0","0.0","0.0","3.4201384816095E-09"
"2","25212.899999999998","","","","6323.782827472706","5940.993713483056","1.895","","","","0.0","0.0","0.0","1.6721835981295237","-10.374095891143139","0.0","0.0","0.0","0.0",""
"3","25212.92037907813","25212.920271761017","925","868420","5560.0","5820.0","1.895","0.0","0.0","0.0","","","","2.29236076879645E-15","-4.57454656812943E-14","0.0","0.0","0.0","0.0","2.13836177846842E-09"
"3","25212.935416892487","25212.935301890364","733","870160","5560.0","5820.0","1.895","0.0","0.0","0.0","","","","3.007955617785451","-0.7900773226046912","0.0","0.0","0.0","0.0","3.92541125665122E-09"
"2","25213.0","","","","6323.950044721884","5939.956310784232","1.895","","","","0.0","0.0","0.0","1.6721835981295237","-10.374095891143139","0.0","0.0","0.0","0.0",""
"3","25213.014237581607","25213.01412652507","1531","876562","6314.640086354496","5956.282907812282","1.895","0.0","0.0","0.0","","","","-2.2685797374560279","14.074904246582742","0.0","0.0","0.0","0.0","1.68396583709207E-07"
"3","25213.06571351111","25213.065604869276","655","881464","6100.613818990891","5752.183606925913","1.895","0.0","0.0","0.0","","","","0.027584705963924415","-0.5504697328511349","0.0","0.0","0.0","0.0","2.15142159109407E-09"
"2","25213.1","","","","6324.121546002892","5938.892330287946","1.895","","","","0.0","0.0","0.0","1.7150242009559305","-10.639875631030943","0.0","0.0","0.0","0.0",""
"2","25213.2","","","","6324.296328314219","5937.8079945368849","1.895","","","","0.0","0.0","0.0","1.7478347220839328","-10.84342953073658","0.0","0.0","0.0","0.0",""
"3","25213.235944505068","25213.23583422345","943","889559","6242.526775351577","5841.716101882391","1.895","0.0","0.0","0.0","","","","17.95939551719785","1.1804817914414712","0.0","0.0","0.0","0.0","7.53020718134574E-09"
"3","25213.240814808032","25213.24069597921","1201","889891","5560.0","5820.0","1.895","0.0","0.0","0.0","","","","3.18039587653429E-15","4.64546348522998E-14","0.0","0.0","0.0","0.0","9.14704086695218E-09"
"3","25213.266808861616","25213.26669687568","577","891870","6099.688648762346","5770.645946499704","1.895","0.0","0.0","0.0","","","","0.16671683929816218","-3.3269368218214865","0.0","0.0","0.0","0.0","9.88588899233487E-09"
"3","25213.277000889695","25213.276885217798","1489","892833","5560.0","5820.0","1.895","0.0","0.0","0.0","","","","-2.0706522195945316","12.847637516940943","0.0","0.0","0.0","0.0","2.63260567978011E-07"
"2","25213.3","","","","6324.473290334348","5936.710136043376","1.895","","","","0.0","0.0","0.0","1.7696319548747715","-10.978657853382418","0.0","0.0","0.0","0.0",""
"3","25213.345618213487","25213.345505659236","883","898143","6095.821279946847","5686.879202407736","1.895","0.0","0.0","0.0","","","","-0.9021625384617802","-13.152322577008264","0.0","0.0","0.0","0.0","2.49716571506865E-09"
"3","25213.359223307558","25213.359110657126","805","899305","6096.283560722437","5772.782598951474","1.895","0.0","0.0","0.0","","","","0.47520920929098728","-9.483091348838988","0.0","0.0","0.0","0.0","2.87042150140799E-09"
"3","25213.368031364917","25213.367917491123","847","900616","6100.198794348221","5760.465678319969","1.895","0.0","0.0","0.0","","","","0.08639734650902079","-1.7241120610118504","0.0","0.0","0.0","0.0","9.9934613759267E-09"
"2","25213.399999999998","","","","6324.650482367735","5935.610850565664","1.895","","","","0.0","0.0","0.0","1.7719321027194384","-10.99292779019651","0.0","0.0","0.0","0.0",""
"3","25213.452216307196","25213.45210903813","181","906361","6321.297802433097","5956.410613924869","1.895","0.0","0.0","0.0","","","","1.5642326419355282","-11.65457994814646","0.0","0.0","0.0","0.0","1.74327659637984E-07"
"3","25213.47539798879","25213.47528944444","325","908555","5560.0","5820.0","1.895","0.0","0.0","0.0","","","","12.422531313583077","0.6365848537966007","0.0","0.0","0.0","0.0","1.47314399506643E-08"
"2","25213.5","","","","6324.820513403568","5934.555991355122","1.895","","","","0.0","0.0","0.0","1.7003216515652989","-10.548662167752573","0.0","0.0","0.0","0.0",""
"3","25213.505876984356","25213.50576611054","1549","910968","6314.809129926834","5916.644586993682","1.895","0.0","0.0","0.0","","","","-2.703414007044984","11.578146054758206","0.0","0.0","0.0","0.0","1.81595488997746E-07"
"3","25213.537643274703","25213.5375361084","1435","912264","6305.453041110978","5976.912276312054","1.895","0.0","0.0","0.0","","","","-1.6670154037753664","13.737885935425341","0.0","0.0","0.0","0.0","2.73880728483359E-09"
"3","25213.57997462577","25213.579867018943","1495","914255","5560.0","5820.0","1.895","0.0","0.0","0.0","","","","-1.9280521208705018","15.839051831668197","0.0","0.0","0.0","0.0","1.87836303784989E-07"
"2","25213.6","","","","6324.991516920551","5933.495098947805","1.895","","","","0.0","0.0","0.0","1.7100465276493238","-10.608994536232393","0.0","0.0","0.0","0.0",""
"3","25213.611864672686","25213.611748417607","445","917065","6206.059365805195","5737.7749261546309","1.895","0.0","0.0","0.0","","","","13.000459516697183","0.6663840171153731","0.0","0.0","0.0","0.0","8.96483394346258E-09"
"3","25213.663429673157","25213.663317918774","769","920598","5560.0","5820.0","1.895","0.0","0.0","0.0","","","","2.1516953802299048","-13.351437935529006","0.0","0.0","0.0","0.0","0.000010560034412980082"
