﻿"type","rcvTime","sendTime","sender","messageID","pos__001","pos__002","pos__003","pos_noise__001","pos_noise__002","pos_noise__003","noise__001","noise__002","noise__003","spd__001","spd__002","spd__003","spd_noise__001","spd_noise__002","spd_noise__003","RSSI"
"2","25200.0","","","","6314.489657388901","6042.691570137875","1.895","","","","0.0","0.0","0.0","7.08853032983861E-15","-4.59632994481062E-14","0.0","0.0","0.0","0.0",""
"3","25200.02469403068","25200.02457702509","1063","3158","5560.0","5820.0","1.895","0.0","0.0","0.0","","","","6.3142409787663E-15","-4.54653705938742E-14","0.0","0.0","0.0","0.0","5.50259626819103E-07"
"2","25200.1","","","","6314.489657388901","6042.691570137875","1.895","","","","0.0","0.0","0.0","7.25469841810759E-15","-4.70407630751822E-14","0.0","0.0","0.0","0.0",""
"2","25200.2","","","","6314.493427024677","6042.6668769057719","1.895","","","","0.0","0.0","0.0","0.038056112166306037","-0.2467881511125364","0.0","0.0","0.0","0.0",""
"2","25200.3","","","","6314.50008570925","6042.623258780979","1.895","","","","0.0","0.0","0.0","0.06721032660015163","-0.4359284348226073","0.0","0.0","0.0","0.0",""
"3","25200.327016106992","25200.326902726432","1057","18264","6306.825536532255","6023.911202842776","1.895","0.0","0.0","0.0","","","","-0.08480639175224845","0.8217225382665239","0.0","0.0","0.0","0.0","6.23945591819626E-07"
"3","25200.34371583185","25200.343605499478","277","19025","5560.0","5820.0","1.895","0.0","0.0","0.0","","","","-4.036493368057547","16.46162561745487","0.0","0.0","0.0","0.0","1.2862627547154E-08"
"2","25200.399999999998","","","","6314.506840045446","6042.579014084332","1.895","","","","0.0","0.0","0.0","0.06816346277937921","-0.4421924235347114","0.0","0.0","0.0","0.0",""
"3","25200.45222092908","25200.45210903813","181","27964","6309.0529436792189","6056.585524362317","1.895","0.0","0.0","0.0","","","","0.03175330202432099","-0.2239857748833612","0.0","0.0","0.0","0.0","4.06469069655448E-07"
"3","25200.473443938623","25200.473326199222","1183","30166","5560.0","5820.0","1.895","0.0","0.0","0.0","","","","0.06635256335595694","-0.4306468411623231","0.0","0.0","0.0","0.0","9.3828447792944E-07"
"2","25200.5","","","","6314.513336204336","6042.536460594069","1.895","","","","0.0","0.0","0.0","0.06554657575830807","-0.42529184820292245","0.0","0.0","0.0","0.0",""
"2","25200.6","","","","6314.519947737843","6042.493151335253","1.895","","","","0.0","0.0","0.0","0.0666988912653619","-0.43284703856821546","0.0","0.0","0.0","0.0",""
"3","25200.61776802143","25200.617656976447","1003","38300","5560.0","5820.0","1.895","0.0","0.0","0.0","","","","-1.4385716262247866","13.293030710091408","0.0","0.0","0.0","0.0","9.41047839932908E-08"
"3","25200.6634310688","25200.663317918774","769","41551","5560.0","5820.0","1.895","0.0","0.0","0.0","","","","0.06483114585338709","-0.43094056828936408","0.0","0.0","0.0","0.0","5.46016580250822E-07"
"2","25200.7","","","","6314.527392332367","6042.444385058767","1.895","","","","0.0","0.0","0.0","0.07508804345752686","-0.4873885848563718","0.0","0.0","0.0","0.0",""
"3","25200.711694228303","25200.71158382157","217","44251","6307.380649973428","6018.532490030194","1.895","0.0","0.0","0.0","","","","-0.059792857907211439","0.5793565550254733","0.0","0.0","0.0","0.0","6.58930081941789E-08"
"2","25200.8","","","","6314.537664989714","6042.3770933819819","1.895","","","","0.0","0.0","0.0","0.10358405685312579","-0.672542827667226","0.0","0.0","0.0","0.0",""
"3","25200.88297622869","25200.882859998383","289","54413","5560.0","5820.0","1.895","0.0","0.0","0.0","","","","0.2600212609642214","-1.9222403270258768","0.0","0.0","0.0","0.0","0.000006205699876935273"
"3","25200.887379208663","25200.88726483565","517","55148","6281.475077512807","5739.693851154413","1.895","0.0","0.0","0.0","","","","13.9299841903051","1.245998585867333","0.0","0.0","0.0","0.0","9.11254497986668E-09"
"2","25200.899999999998","","","","6314.550308414173","6042.294271848731","1.895","","","","0.0","0.0","0.0","0.12744639407431258","-0.8277617495090682","0.0","0.0","0.0","0.0",""
"3","25200.910656209853","25200.91054471885","337","57737","6315.542697099322","6035.146205241924","1.895","0.0","0.0","0.0","","","","0.2858135635985129","-2.153353064758892","0.0","0.0","0.0","0.0","0.00000629477414630952"
"2","25201.0","","","","6314.565498083116","6042.194770983633","1.895","","","","0.0","0.0","0.0","0.15305028219407994","-0.9944733256771352","0.0","0.0","0.0","0.0",""
"3","25201.024686240537","25201.02457702509","1063","67896","5560.0","5820.0","1.895","0.0","0.0","0.0","","","","0.31326109425663509","-2.3884040844462488","0.0","0.0","0.0","0.0","2.57994545995681E-07"
"2","25201.1","","","","6314.584296806945","6042.071628781474","1.895","","","","0.0","0.0","0.0","0.1893193595296414","-1.2307742069994352","0.0","0.0","0.0","0.0",""
"2","25201.2","","","","6314.605286513661","6041.934134410512","1.895","","","","0.0","0.0","0.0","0.21126530657476087","-1.374238713497812","0.0","0.0","0.0","0.0",""
"3","25201.251571849545","25201.25146378879","865","78934","6324.042899941852","5745.948629209751","1.895","0.0","0.0","0.0","","","","9.707334942506199","0.6232638807381763","0.0","0.0","0.0","0.0","1.80716825831696E-09"
"2","25201.3","","","","6314.629485239298","6041.775619162796","1.895","","","","0.0","0.0","0.0","0.24340632305774777","-1.5843640339244272","0.0","0.0","0.0","0.0",""
"3","25201.327008296943","25201.326902726432","1057","83255","6306.58046433741","6026.175820963303","1.895","0.0","0.0","0.0","","","","-0.3582546906357755","3.3882097888484905","0.0","0.0","0.0","0.0","4.26257738218396E-07"
"3","25201.343720922792","25201.343605499478","277","84011","5560.0","5820.0","1.895","0.0","0.0","0.0","","","","-2.693421731381146","16.71169390861207","0.0","0.0","0.0","0.0","5.36215838938704E-08"
"2","25201.399999999998","","","","6314.656886993309","6041.596122279788","1.895","","","","0.0","0.0","0.0","0.2754213839475619","-1.7941072094397533","0.0","0.0","0.0","0.0",""
"3","25201.452226022833","25201.45210903813","181","93036","6309.1134651404859","6056.150214035408","1.895","0.0","0.0","0.0","","","","0.06087593156228652","-0.4378599114202616","0.0","0.0","0.0","0.0","1.39443597140485E-07"
"3","25201.473436032327","25201.473326199222","1183","95226","5560.0","5820.0","1.895","0.0","0.0","0.0","","","","0.2583390313104438","-1.6823258374904154","0.0","0.0","0.0","0.0","0.0000026339783519266686"
"2","25201.5","","","","6314.68598149776","6041.405536930406","1.895","","","","0.0","0.0","0.0","0.2922066891143311","-1.9049737751026586","0.0","0.0","0.0","0.0",""
"2","25201.6","","","","6314.718568506967","6041.192073712787","1.895","","","","0.0","0.0","0.0","0.3269959986021072","-2.1336908881103189","0.0","0.0","0.0","0.0",""
"3","25201.61777156556","25201.617656976447","1003","102617","5560.0","5820.0","1.895","0.0","0.0","0.0","","","","-1.3902611286621237","13.286758368416207","0.0","0.0","0.0","0.0","3.71316362060808E-08"
"3","25201.663432092184","25201.663317918774","769","105819","5560.0","5820.0","1.895","0.0","0.0","0.0","","","","0.13823357613765548","-0.9092762932848558","0.0","0.0","0.0","0.0","8.02144492693897E-08"
"2","25201.7","","","","6314.752905230798","6040.967148881398","1.895","","","","0.0","0.0","0.0","0.3442347381772947","-2.2483053280597957","0.0","0.0","0.0","0.0",""
"3","25201.711695233007","25201.71158382157","217","108464","6307.20547423753","6020.229836743928","1.895","0.0","0.0","0.0","","","","-0.27180052684036007","2.6335823774872146","0.0","0.0","0.0","0.0","1.14391039344231E-07"
"2","25201.8","","","","6314.79038254403","6040.721651425065","1.895","","","","0.0","0.0","0.0","0.3753401120594901","-2.4540034583964629","0.0","0.0","0.0","0.0",""
"3","25201.882977233694","25201.882859998383","289","118948","5560.0","5820.0","1.895","0.0","0.0","0.0","","","","0.45717167876040906","-3.8774864294723438","0.0","0.0","0.0","0.0","2.79077448995395E-07"
"2","25201.899999999998","","","","6314.829633114424","6040.464538138102","1.895","","","","0.0","0.0","0.0","0.39268283768426517","-2.570179512005627","0.0","0.0","0.0","0.0",""
"3","25201.910661243324","25201.91054471885","337","122228","6315.902401205497","6031.922442026204","1.895","0.0","0.0","0.0","","","","0.46981219720643416","-4.029182833971201","0.0","0.0","0.0","0.0","0.0000029145056269900606"
"2","25202.0","","","","6314.87290998431","6040.1810503274959","1.895","","","","0.0","0.0","0.0","0.4326163369092154","-2.833880049644448","0.0","0.0","0.0","0.0",""
"3","25202.02469127344","25202.02457702509","1063","132311","5560.0","5820.0","1.895","0.0","0.0","0.0","","","","0.5198482112451214","-4.531991445752194","0.0","0.0","0.0","0.0","7.22367515048305E-07"
"2","25202.1","","","","6314.919099838274","6039.878480834679","1.895","","","","0.0","0.0","0.0","0.4617359221291857","-3.0246296921530066","0.0","0.0","0.0","0.0",""
"2","25202.2","","","","6314.966752590612","6039.566328535653","1.895","","","","0.0","0.0","0.0","0.47635975555228995","-3.1204240167112018","0.0","0.0","0.0","0.0",""
"2","25202.3","","","","6315.018044953811","6039.230334740762","1.895","","","","0.0","0.0","0.0","0.5127430504284563","-3.35875503820366","0.0","0.0","0.0","0.0",""
"3","25202.32701328908","25202.326902726432","1057","147694","6306.06148949093","6030.846594581623","1.895","0.0","0.0","0.0","","","","-0.6280557207758517","5.652501486975865","0.0","0.0","0.0","0.0","5.52494771785111E-07"
"3","25202.343712827704","25202.343605499478","277","148467","5560.0","5820.0","1.895","0.0","0.0","0.0","","","","-2.686996283740277","16.671826362824896","0.0","0.0","0.0","0.0","6.42389886051482E-08"
"2","25202.399999999998","","","","6315.072370017128","6038.871297473528","1.895","","","","0.0","0.0","0.0","0.5474250281715302","-3.58850384086552","0.0","0.0","0.0","0.0",""
"3","25202.45221794093","25202.45210903813","181","157539","6309.195510780902","6055.560087594249","1.895","0.0","0.0","0.0","","","","0.14481285379816057","-1.0415897007128488","0.0","0.0","0.0","0.0","6.45382691587513E-08"
"3","25202.47344095039","25202.473326199222","1183","159420","5560.0","5820.0","1.895","0.0","0.0","0.0","","","","0.5409900675476965","-3.5564063264718466","0.0","0.0","0.0","0.0","0.000042249971525149017"
"2","25202.5","","","","6315.120256435913","6038.493411168775","1.895","","","","0.0","0.0","0.0","0.5661233075776604","-3.7654225244307399","0.0","0.0","0.0","0.0",""
"2","25202.6","","","","6315.16848927543","6038.112791152585","1.895","","","","0.0","0.0","0.0","0.5619946680152431","-3.7938897676658964","0.0","0.0","0.0","0.0",""
"3","25202.61776807374","25202.617656976447","1003","166949","5560.0","5820.0","1.895","0.0","0.0","0.0","","","","-1.4756350783768682","13.3559503389823","0.0","0.0","0.0","0.0","6.80086027420892E-07"
"3","25202.663431119054","25202.663317918774","769","170146","5560.0","5820.0","1.895","0.0","0.0","0.0","","","","0.37995961327802327","-2.448331310910534","0.0","0.0","0.0","0.0","0.000003616950638412752"
"2","25202.7","","","","6315.220315417513","6037.703815292232","1.895","","","","0.0","0.0","0.0","0.5943641253101939","-4.07792683789498","0.0","0.0","0.0","0.0",""
"3","25202.71169421844","25202.71158382157","217","173134","6306.81709216632","6023.993023630878","1.895","0.0","0.0","0.0","","","","-0.48611463385769929","4.71015618714461","0.0","0.0","0.0","0.0","1.07144611288599E-07"
"2","25202.8","","","","6315.275767725625","6037.266224252132","1.895","","","","0.0","0.0","0.0","0.6250720683545665","-4.364822500266578","0.0","0.0","0.0","0.0",""
"3","25202.882976223635","25202.882859998383","289","184350","5560.0","5820.0","1.895","0.0","0.0","0.0","","","","0.6339169678989239","-5.741824843851526","0.0","0.0","0.0","0.0","6.0029010658342E-07"
"2","25202.899999999998","","","","6315.333471560352","6036.810865730265","1.895","","","","0.0","0.0","0.0","0.6386675417783426","-4.5437191115137909","0.0","0.0","0.0","0.0",""
"3","25202.910660233447","25202.91054471885","337","188010","6316.4698646237079","6026.836684976206","1.895","0.0","0.0","0.0","","","","0.664622995827488","-5.956526849402012","0.0","0.0","0.0","0.0","0.0000013068744322222684"
"2","25203.0","","","","6315.393973061231","6036.333429973329","1.895","","","","0.0","0.0","0.0","0.6566726193989345","-4.7658167565421769","0.0","0.0","0.0","0.0",""
"3","25203.02469026375","25203.02457702509","1063","197939","5560.0","5820.0","1.895","0.0","0.0","0.0","","","","0.7130952012816672","-6.414657948613825","0.0","0.0","0.0","0.0","0.0000015002920269048565"
"2","25203.1","","","","6315.455574329757","6035.847315615178","1.895","","","","0.0","0.0","0.0","0.6551693679878322","-4.85428042178604","0.0","0.0","0.0","0.0",""
"2","25203.2","","","","6315.52058291981","6035.334313045845","1.895","","","","0.0","0.0","0.0","0.6764352397250392","-5.124781535667785","0.0","0.0","0.0","0.0",""
"2","25203.3","","","","6315.581962295197","6034.794300184555","1.895","","","","0.0","0.0","0.0","0.6814679381408403","-5.352798989010938","0.0","0.0","0.0","0.0",""
"3","25203.32701229575","25203.326902726432","1057","213589","6305.2350250513","6037.748744204721","1.895","0.0","0.0","0.0","","","","-0.9816241541988255","7.88919237251742","0.0","0.0","0.0","0.0","7.95289891013961E-07"
"3","25203.343711736292","25203.343605499478","277","214366","5560.0","5820.0","1.895","0.0","0.0","0.0","","","","-2.043006976705705","16.836435192950274","0.0","0.0","0.0","0.0","2.09919191998468E-08"
"2","25203.399999999998","","","","6315.64468946738","6034.23212269801","1.895","","","","0.0","0.0","0.0","0.6862007153560369","-5.567813783903252","0.0","0.0","0.0","0.0",""
"3","25203.452216866815","25203.45210903813","181","223025","6309.450766817499","6053.72411756955","1.895","0.0","0.0","0.0","","","","0.3518358425167142","-2.5306357847056359","0.0","0.0","0.0","0.0","2.45393834925991E-07"
"3","25203.47343987632","25203.473326199222","1183","224890","5560.0","5820.0","1.895","0.0","0.0","0.0","","","","0.7156055459489449","-5.452366093247585","0.0","0.0","0.0","0.0","0.00000435043470853591"
"2","25203.5","","","","6315.710220976574","6033.644812002398","1.895","","","","0.0","0.0","0.0","0.7055291962025118","-5.818120954747302","0.0","0.0","0.0","0.0",""
"2","25203.6","","","","6315.776650167781","6033.049456043474","1.895","","","","0.0","0.0","0.0","0.7035528106273794","-5.89922035156162","0.0","0.0","0.0","0.0",""
"3","25203.61776700643","25203.617656976447","1003","232348","5560.0","5820.0","1.895","0.0","0.0","0.0","","","","-2.0162909209063395","13.260077938650765","0.0","0.0","0.0","0.0","1.89448763112364E-07"
"3","25203.663430023415","25203.663317918774","769","235485","5560.0","5820.0","1.895","0.0","0.0","0.0","","","","0.6177585538777117","-3.984711433246862","0.0","0.0","0.0","0.0","0.0000012244838463659475"
"2","25203.7","","","","6315.845456612086","6032.432794514324","1.895","","","","0.0","0.0","0.0","0.7162648360340926","-6.111805223350223","0.0","0.0","0.0","0.0",""
"3","25203.71169306867","25203.71158382157","217","238508","6306.167030876736","6029.896722109372","1.895","0.0","0.0","0.0","","","","-0.7606478350669224","6.845830515605089","0.0","0.0","0.0","0.0","4.10854425421916E-07"
"2","25203.8","","","","6315.917278736351","6031.789105664778","1.895","","","","0.0","0.0","0.0","0.7341023620093372","-6.381250181651008","0.0","0.0","0.0","0.0",""
"3","25203.88297511344","25203.882859998383","289","250033","5560.0","5820.0","1.895","0.0","0.0","0.0","","","","0.8101075840705281","-7.790433082913586","0.0","0.0","0.0","0.0","9.22346936657499E-08"
"3","25203.887379963748","25203.88726483565","517","251420","6323.388692051665","5742.603142346818","1.895","0.0","0.0","0.0","","","","13.620323378854465","0.8744990933461041","0.0","0.0","0.0","0.0","5.28346608309809E-09"
"2","25203.899999999998","","","","6315.992366667681","6031.116147789651","1.895","","","","0.0","0.0","0.0","0.7526973569856102","-6.673094821962875","0.0","0.0","0.0","0.0",""
"3","25203.910656964326","25203.91054471885","337","254012","6317.216908832837","6019.68563335455","1.895","0.0","0.0","0.0","","","","0.8330741005842445","-8.071983141272464","0.0","0.0","0.0","0.0","5.74083991488555E-07"
"2","25204.0","","","","6316.068794634177","6030.431180165396","1.895","","","","0.0","0.0","0.0","0.7579669581241365","-6.793100096388772","0.0","0.0","0.0","0.0",""
"3","25204.024686994206","25204.02457702509","1063","262692","5560.0","5820.0","1.895","0.0","0.0","0.0","","","","0.8503037415081216","-8.238927919618325","0.0","0.0","0.0","0.0","2.94077169672548E-08"
"2","25204.1","","","","6316.14707544606","6029.72960685135","1.895","","","","0.0","0.0","0.0","0.7763423728608697","-6.957785417154937","0.0","0.0","0.0","0.0",""
"2","25204.2","","","","6316.2286390591129","6028.998612206066","1.895","","","","0.0","0.0","0.0","0.8088992356277115","-7.249568621185983","0.0","0.0","0.0","0.0",""
"2","25204.3","","","","6316.312037400288","6028.2511742427009","1.895","","","","0.0","0.0","0.0","0.8270949741515857","-7.41264363625831","0.0","0.0","0.0","0.0",""
"3","25204.327009112254","25204.326902726432","1057","278034","6303.855603327983","6046.712412155638","1.895","0.0","0.0","0.0","","","","-1.5402857044418173","9.944028089611372","0.0","0.0","0.0","0.0","3.97631105045373E-08"
"3","25204.34372141255","25204.343605499478","277","278810","5560.0","5820.0","1.895","0.0","0.0","0.0","","","","-2.052187106509885","16.876885936053126","0.0","0.0","0.0","0.0","7.84599823946559E-08"
"2","25204.399999999998","","","","6316.397389529605","6027.4862259139249","1.895","","","","0.0","0.0","0.0","0.8464714788746569","-7.586300989906794","0.0","0.0","0.0","0.0",""
"3","25204.45221914154","25204.45210903813","181","287380","6309.966767936507","6050.362305197865","1.895","0.0","0.0","0.0","","","","0.6246333875220032","-4.196139016748893","0.0","0.0","0.0","0.0","7.36337325802504E-08"
"3","25204.47344215088","25204.473326199222","1183","288965","5560.0","5820.0","1.895","0.0","0.0","0.0","","","","0.8250261877640212","-7.472833354558227","0.0","0.0","0.0","0.0","0.000004597578296807308"
"2","25204.5","","","","6316.485071868946","6026.700393627372","1.895","","","","0.0","0.0","0.0","0.8695811111945665","-7.793415619202896","0.0","0.0","0.0","0.0",""
"2","25204.6","","","","6316.574481245003","6025.899083181582","1.895","","","","0.0","0.0","0.0","0.8867088306087329","-7.946918764881643","0.0","0.0","0.0","0.0",""
"3","25204.617769384553","25204.617656976447","1003","296359","5560.0","5820.0","1.895","0.0","0.0","0.0","","","","-1.8982733697373904","13.289365122912692","0.0","0.0","0.0","0.0","6.37118093374636E-08"
"3","25204.66343238463","25204.663317918774","769","299509","5560.0","5820.0","1.895","0.0","0.0","0.0","","","","0.8562389032189648","-5.630689813719525","0.0","0.0","0.0","0.0","0.0000010119103278137138"
"2","25204.7","","","","6316.660428390036","6025.077591584422","1.895","","","","0.0","0.0","0.0","0.9045009053193865","-8.199599221405946","0.0","0.0","0.0","0.0",""
"3","25204.711695403366","25204.71158382157","217","302504","6305.205122518634","6037.944313642501","1.895","0.0","0.0","0.0","","","","-1.1331072389932893","8.974222851484404","0.0","0.0","0.0","0.0","1.06248325445778E-07"
"2","25204.8","","","","6316.748121146059","6024.22790192569","1.895","","","","0.0","0.0","0.0","0.923453946604493","-8.493345740232725","0.0","0.0","0.0","0.0",""
"3","25204.88296880611","25204.882859998383","289","314285","5560.0","5820.0","1.895","0.0","0.0","0.0","","","","1.0466526580792153","-9.942889258492555","0.0","0.0","0.0","0.0","0.0000013008690386592928"
"2","25204.899999999998","","","","6316.838438817709","6023.352778425379","1.895","","","","0.0","0.0","0.0","0.9369501229584526","-8.749104309184439","0.0","0.0","0.0","0.0",""
"3","25204.91065281651","25204.91054471885","337","317988","6318.182660488509","6010.452434822769","1.895","0.0","0.0","0.0","","","","1.0775517320081032","-10.185588004795383","0.0","0.0","0.0","0.0","0.000001194211048410805"
"2","25205.0","","","","6316.930210933834","6022.463562239595","1.895","","","","0.0","0.0","0.0","0.9373821999116562","-8.891554185613272","0.0","0.0","0.0","0.0",""
"3","25205.02468362653","25205.02457702509","1063","327061","5560.0","5820.0","1.895","0.0","0.0","0.0","","","","1.1042883796144468","-10.260359209142277","0.0","0.0","0.0","0.0","7.16450556963261E-07"
"2","25205.1","","","","6317.024528764241","6021.549679625274","1.895","","","","0.0","0.0","0.0","0.9478485292829614","-9.139826149926567","0.0","0.0","0.0","0.0",""
"2","25205.2","","","","6317.119667305404","6020.627844821125","1.895","","","","0.0","0.0","0.0","0.9515381835994183","-9.219828309274798","0.0","0.0","0.0","0.0",""
"2","25205.3","","","","6317.217160394303","6019.6831958764109","1.895","","","","0.0","0.0","0.0","0.9750874418566785","-9.448006349511964","0.0","0.0","0.0","0.0",""
"3","25205.32701887002","25205.326902726432","1057","342507","6302.195862305581","6057.972322693241","1.895","0.0","0.0","0.0","","","","-1.7081191396396516","12.27315233667047","0.0","0.0","0.0","0.0","6.30767839047292E-08"
"3","25205.343718016276","25205.343605499478","277","343314","5560.0","5820.0","1.895","0.0","0.0","0.0","","","","-6.570918415323247","16.067425176285736","0.0","0.0","0.0","0.0","5.63222749409478E-07"
"2","25205.399999999998","","","","6317.315999575536","6018.725504112799","1.895","","","","0.0","0.0","0.0","0.9885505267248661","-9.57845548243746","0.0","0.0","0.0","0.0",""
"3","25205.452223178723","25205.45210903813","181","351563","6310.790761624001","6045.0527684087269","1.895","0.0","0.0","0.0","","","","0.9649495178003723","-6.217808512590411","0.0","0.0","0.0","0.0","1.56854681139942E-07"
"3","25205.47343318739","25205.473326199222","1183","353139","5560.0","5820.0","1.895","0.0","0.0","0.0","","","","0.9653312212641794","-9.283147609003367","0.0","0.0","0.0","0.0","0.000017900497399380926"
"2","25205.5","","","","6317.417283320264","6017.744126010477","1.895","","","","0.0","0.0","0.0","1.0130000871141485","-9.81535690469434","0.0","0.0","0.0","0.0",""
"2","25205.6","","","","6317.521355799956","6016.735726756488","1.895","","","","0.0","0.0","0.0","1.040891914869285","-10.085611811503718","0.0","0.0","0.0","0.0",""
"3","25205.617773560483","25205.617656976447","1003","360604","5560.0","5820.0","1.895","0.0","0.0","0.0","","","","-2.3817693826361134","13.186869508746476","0.0","0.0","0.0","0.0","1.77163776898803E-07"
"3","25205.663423560665","25205.663317918774","769","363677","5560.0","5820.0","1.895","0.0","0.0","0.0","","","","0.885828452685464","-7.396796686316861","0.0","0.0","0.0","0.0","2.20501548246776E-07"
"2","25205.7","","","","6317.6267811013099","6015.714219480496","1.895","","","","0.0","0.0","0.0","1.0544223038177363","-10.216713080180638","0.0","0.0","0.0","0.0",""
"3","25205.71169967377","25205.71158382157","217","366654","6303.639305032642","6048.103981608179","1.895","0.0","0.0","0.0","","","","-1.7322436766019214","11.144504772551257","0.0","0.0","0.0","0.0","1.03245801012833E-07"
"3","25205.730586884925","25205.730478055077","997","368380","5560.0","5820.0","1.895","0.0","0.0","0.0","","","","-14.910618212834914","5.111140779719146","0.0","0.0","0.0","0.0","8.85723995031091E-09"
"2","25205.8","","","","6317.734450345565","6014.67096975774","1.895","","","","0.0","0.0","0.0","1.0768653361360428","-10.43417246150528","0.0","0.0","0.0","0.0",""
"3","25205.88296693503","25205.882859998383","289","378387","5560.0","5820.0","1.895","0.0","0.0","0.0","","","","1.282433298879719","-11.818225096855374","0.0","0.0","0.0","0.0","0.0000012666942743805828"
"2","25205.899999999998","","","","6317.844004217183","6013.609459138047","1.895","","","","0.0","0.0","0.0","1.095714636058208","-10.616810753933022","0.0","0.0","0.0","0.0",""
"3","25205.91065094557","25205.91054471885","337","382016","6319.387736148235","5999.325569564636","1.895","0.0","0.0","0.0","","","","1.2941413760079448","-11.949238705133226","0.0","0.0","0.0","0.0","0.000002739314413834811"
"3","25205.935416105414","25205.935301890364","733","385116","5560.0","5820.0","1.895","0.0","0.0","0.0","","","","16.809845983024294","-6.242582624566952","0.0","0.0","0.0","0.0","2.39362847821844E-08"
"2","25206.0","","","","6317.957040294986","6012.535661276297","1.895","","","","0.0","0.0","0.0","1.115517588002032","-10.757104756853157","0.0","0.0","0.0","0.0",""
"3","25206.024694155185","25206.02457702509","1063","391083","5560.0","5820.0","1.895","0.0","0.0","0.0","","","","1.3143385378173236","-12.089025891792972","0.0","0.0","0.0","0.0","3.21101966349769E-07"
"2","25206.1","","","","6318.07362123209","6011.4592306237","1.895","","","","0.0","0.0","0.0","1.1341329911333882","-10.808595299280569","0.0","0.0","0.0","0.0",""
"2","25206.2","","","","6318.1926960285159","6010.359773336705","1.895","","","","0.0","0.0","0.0","1.1721178962526418","-11.038360393361773","0.0","0.0","0.0","0.0",""
"2","25206.3","","","","6318.314183925118","6009.238035091407","1.895","","","","0.0","0.0","0.0","1.210180813515375","-11.260528691624462","0.0","0.0","0.0","0.0",""
"3","25206.32701655491","25206.326902726432","1057","406835","6299.85226589602","6071.443270930082","1.895","0.0","0.0","0.0","","","","-2.615568275097472","14.469998683187877","0.0","0.0","0.0","0.0","2.79707639695127E-08"
"3","25206.343721299534","25206.343605499478","277","407586","5560.0","5820.0","1.895","0.0","0.0","0.0","","","","-19.111378052741018","4.966614936732909","0.0","0.0","0.0","0.0","1.06493086819606E-07"
"2","25206.399999999998","","","","6318.437511433772","6008.09931109484","1.895","","","","0.0","0.0","0.0","1.2379088524123499","-11.430025070602307","0.0","0.0","0.0","0.0",""
"3","25206.45222643013","25206.45210903813","181","415504","6311.874660658585","6037.847322251487","1.895","0.0","0.0","0.0","","","","1.2038871659977817","-8.070261022946978","0.0","0.0","0.0","0.0","3.44363078257058E-07"
"3","25206.473436438548","25206.473326199222","1183","417066","5560.0","5820.0","1.895","0.0","0.0","0.0","","","","1.2311456925838063","-11.484698944066642","0.0","0.0","0.0","0.0","0.00003520852874810428"
"2","25206.5","","","","6318.562151441965","6006.948468352522","1.895","","","","0.0","0.0","0.0","1.251083162157769","-11.551667863918289","0.0","0.0","0.0","0.0",""
"3","25206.537643597385","25206.5375361084","1435","420191","6324.825216011615","5881.361880599621","1.895","0.0","0.0","0.0","","","","-4.2002214016777839","13.286779916956876","0.0","0.0","0.0","0.0","1.4646947432757E-08"
"2","25206.6","","","","6318.68805138376","6005.785992223287","1.895","","","","0.0","0.0","0.0","1.2637298374632405","-11.668438832572092","0.0","0.0","0.0","0.0",""
"3","25206.663432728412","25206.663317918774","769","427847","5560.0","5820.0","1.895","0.0","0.0","0.0","","","","0.9963614559278061","-9.135158652475406","0.0","0.0","0.0","0.0","5.11002692876101E-08"
"2","25206.7","","","","6318.815785307092","6004.606582331187","1.895","","","","0.0","0.0","0.0","1.2821385607526588","-11.838412710944314","0.0","0.0","0.0","0.0",""
"3","25206.71169597882","25206.71158382157","217","430809","6301.835752626198","6060.470110471198","1.895","0.0","0.0","0.0","","","","-1.8883882247982449","13.300822130644845","0.0","0.0","0.0","0.0","3.43250834601515E-08"
"2","25206.8","","","","6318.945750410101","6003.4065712134029","1.895","","","","0.0","0.0","0.0","1.3045341893002165","-12.045199014533337","0.0","0.0","0.0","0.0",""
"3","25206.882965076504","25206.882859998383","289","442454","5560.0","5820.0","1.895","0.0","0.0","0.0","","","","1.2648168168605163","-10.446703222507284","0.0","0.0","0.0","0.0","6.37008770612786E-07"
"2","25206.899999999998","","","","6319.07817830094","6002.183820354656","1.895","","","","0.0","0.0","0.0","1.3292546015544187","-12.273450821013704","0.0","0.0","0.0","0.0",""
"3","25206.91066209043","25206.91054471885","337","445829","6320.906763742153","5986.512087302409","1.895","0.0","0.0","0.0","","","","1.6617272558551344","-13.660112764521435","0.0","0.0","0.0","0.0","8.97908704243115E-07"
"3","25206.93540867906","25206.935301890364","733","448940","5560.0","5820.0","1.895","0.0","0.0","0.0","","","","16.93477615618898","-5.832964205694388","0.0","0.0","0.0","0.0","1.64351219425943E-08"
"2","25207.0","","","","6319.212408189031","6000.9444310546209","1.895","","","","0.0","0.0","0.0","1.3473422802391129","-12.440460387538194","0.0","0.0","0.0","0.0",""
"3","25207.024686741577","25207.02457702509","1063","454881","5560.0","5820.0","1.895","0.0","0.0","0.0","","","","1.6470726112212542","-13.530790053482204","0.0","0.0","0.0","0.0","8.18992026049651E-08"
"2","25207.1","","","","6319.348870311369","5999.684430791695","1.895","","","","0.0","0.0","0.0","1.3697484941206398","-12.647344429041646","0.0","0.0","0.0","0.0",""
"2","25207.2","","","","6319.4876267152599","5998.403246662438","1.895","","","","0.0","0.0","0.0","1.3927775123380979","-12.859979030582748","0.0","0.0","0.0","0.0",""
"2","25207.3","","","","6319.629316213478","5997.094980295553","1.895","","","","0.0","0.0","0.0","1.4222186603273957","-13.13181896368381","0.0","0.0","0.0","0.0",""
"3","25207.34371404384","25207.343605499478","277","471923","5560.0","5820.0","1.895","0.0","0.0","0.0","","","","-19.713702135572225","5.1231453438133969","0.0","0.0","0.0","0.0","2.31669481825269E-07"
"2","25207.399999999998","","","","6319.779581523631","5995.7780099482129","1.895","","","","0.0","0.0","0.0","1.454859421487288","-13.22405767502778","0.0","0.0","0.0","0.0",""
"3","25207.452224956894","25207.45210903813","181","479956","6312.950007912003","6028.590120643208","1.895","0.0","0.0","0.0","","","","1.1297971295670147","-10.233354769745075","0.0","0.0","0.0","0.0","3.21011030648992E-08"
"3","25207.473434961714","25207.473326199222","1183","481516","5560.0","5820.0","1.895","0.0","0.0","0.0","","","","1.1156492347231258","-10.281231621640924","0.0","0.0","0.0","0.0","0.00001249462457607203"
"2","25207.5","","","","6319.941917211667","5994.443540770763","1.895","","","","0.0","0.0","0.0","1.528191691152336","-13.403491064119839","0.0","0.0","0.0","0.0",""
"3","25207.53764963005","25207.5375361084","1435","484689","6320.620220871677","5894.6637615323529","1.895","0.0","0.0","0.0","","","","-4.190311456619173","13.255431269733114","0.0","0.0","0.0","0.0","3.13026763354457E-08"
"3","25207.56651185432","25207.56639547879","1405","485362","6145.878674241383","6052.574782449021","1.895","0.0","0.0","0.0","","","","15.715171957689032","-5.327111077758587","0.0","0.0","0.0","0.0","2.49843299500465E-09"
"2","25207.6","","","","6320.106978421818","5993.086666629246","1.895","","","","0.0","0.0","0.0","1.6085486076282943","-13.622180132211535","0.0","0.0","0.0","0.0",""
"3","25207.663425778424","25207.663317918774","769","492935","5560.0","5820.0","1.895","0.0","0.0","0.0","","","","1.1125070751782083","-10.779519311754115","0.0","0.0","0.0","0.0","9.20079832489199E-08"
"2","25207.7","","","","6320.27279360514","5991.7235945039869","1.895","","","","0.0","0.0","0.0","1.6639811035116477","-13.67864036165711","0.0","0.0","0.0","0.0",""
"3","25207.711689190084","25207.71158382157","217","496066","6299.3282413491019","6074.400991568116","1.895","0.0","0.0","0.0","","","","-2.5070890049224228","14.055980822642388","0.0","0.0","0.0","0.0","2.00928394205485E-08"
"2","25207.8","","","","6320.438338136026","5990.362747258154","1.895","","","","0.0","0.0","0.0","1.661265064311472","-13.656313351242773","0.0","0.0","0.0","0.0",""
"3","25207.882976213463","25207.882859998383","289","508678","5560.0","5820.0","1.895","0.0","0.0","0.0","","","","1.2979751395599069","-10.706166361688315","0.0","0.0","0.0","0.0","2.87683527737667E-07"
"2","25207.899999999998","","","","6320.6034441923479","5989.005504461833","1.895","","","","0.0","0.0","0.0","1.6568649039948625","-13.620142140898187","0.0","0.0","0.0","0.0",""
"3","25207.91065441929","25207.91054471885","337","512251","6322.663010959055","5972.0486432244319","1.895","0.0","0.0","0.0","","","","1.7871539659687715","-14.734236529644053","0.0","0.0","0.0","0.0","8.94405860519133E-08"
"3","25207.935413929285","25207.935301890364","733","515571","5560.0","5820.0","1.895","0.0","0.0","0.0","","","","17.302362136443916","-4.544682730908109","0.0","0.0","0.0","0.0","1.16865930668382E-08"
"2","25208.0","","","","6320.768659407623","5987.647364331959","1.895","","","","0.0","0.0","0.0","1.6579603310437328","-13.629147022391316","0.0","0.0","0.0","0.0",""
"3","25208.024684444048","25208.02457702509","1063","521679","5560.0","5820.0","1.895","0.0","0.0","0.0","","","","1.637775775101944","-13.531005676477055","0.0","0.0","0.0","0.0","1.01139445610385E-07"
"2","25208.1","","","","6320.934237899749","5986.286237910131","1.895","","","","0.0","0.0","0.0","1.66160587062256","-13.659114925703275","0.0","0.0","0.0","0.0",""
"2","25208.2","","","","6321.101156310714","5984.914096779128","1.895","","","","0.0","0.0","0.0","1.6750521641720644","-13.769649242032218","0.0","0.0","0.0","0.0",""
"3","25208.27699593625","25208.276885217798","1489","535205","5560.0","5820.0","1.895","0.0","0.0","0.0","","","","-3.037571761390797","9.633404394884565","0.0","0.0","0.0","0.0","1.0387474531552E-07"
"2","25208.3","","","","6321.2680908810239","5983.541822811369","1.895","","","","0.0","0.0","0.0","1.6752143256951445","-13.770982279521988","0.0","0.0","0.0","0.0",""
"3","25208.343711966292","25208.343605499478","277","539759","5560.0","5820.0","1.895","0.0","0.0","0.0","","","","-19.654225285676867","5.107688655641277","0.0","0.0","0.0","0.0","1.10268047554791E-08"
"2","25208.399999999998","","","","6321.436289132508","5982.159160840834","1.895","","","","0.0","0.0","0.0","1.6878955624414208","-13.875227499848548","0.0","0.0","0.0","0.0",""
"3","25208.446502087547","25208.44639441464","535","547252","6163.643685137392","5732.300959344905","1.895","0.0","0.0","0.0","","","","14.35278913038949","0.735499709315658","0.0","0.0","0.0","0.0","3.74776513493278E-09"
"3","25208.452217040376","25208.45210903813","181","547966","6314.154106841394","6017.206446239524","1.895","0.0","0.0","0.0","","","","1.2804585179340789","-12.313582289018428","0.0","0.0","0.0","0.0","1.27999085512228E-07"
"3","25208.473440042777","25208.473326199222","1183","549547","5560.0","5820.0","1.895","0.0","0.0","0.0","","","","1.2551330555350074","-10.366720588416673","0.0","0.0","0.0","0.0","0.0000024614520160228295"
"2","25208.5","","","","6321.602995715822","5980.787965977952","1.895","","","","0.0","0.0","0.0","1.6735882623258756","-13.760072952033737","0.0","0.0","0.0","0.0",""
"3","25208.537644996377","25208.5375361084","1435","552735","6316.936132473616","5908.096756975407","1.895","0.0","0.0","0.0","","","","-3.637370235129984","13.441351868894959","0.0","0.0","0.0","0.0","1.2673265834147E-08"
"3","25208.566507151383","25208.56639547879","1405","553492","6161.717991647916","6047.205588688517","1.895","0.0","0.0","0.0","","","","15.712419252459434","-5.326177968877444","0.0","0.0","0.0","0.0","1.38738093280599E-08"
"3","25208.579974440123","25208.579867018943","1495","554958","5560.0","5820.0","1.895","0.0","0.0","0.0","","","","-4.042114459509257","15.364331796447589","0.0","0.0","0.0","0.0","5.62634552780536E-08"
"2","25208.6","","","","6321.77010859393","5979.410199585079","1.895","","","","0.0","0.0","0.0","1.6800524709285494","-13.825729480246676","0.0","0.0","0.0","0.0",""
"3","25208.663428597927","25208.663317918774","769","561377","5560.0","5820.0","1.895","0.0","0.0","0.0","","","","1.3476460043380257","-12.395381380558609","0.0","0.0","0.0","0.0","8.20755747966814E-08"
"2","25208.7","","","","6321.937737667235","5978.028177407722","1.895","","","","0.0","0.0","0.0","1.6837334996815568","-13.868619017517636","0.0","0.0","0.0","0.0",""
"3","25208.726341146168","25208.726227186387","757","565484","6149.034447621786","5731.552318098353","1.895","0.0","0.0","0.0","","","","13.179969776326328","0.6753993144616143","0.0","0.0","0.0","0.0","1.04298742630921E-08"
"3","25208.784846155686","25208.784730568528","889","570848","6132.426718120578","5730.701265378942","1.895","0.0","0.0","0.0","","","","12.316445633470787","0.6311485594166031","0.0","0.0","0.0","0.0","8.44994290432233E-09"
"2","25208.8","","","","6322.105839237042","5976.6422597208779","1.895","","","","0.0","0.0","0.0","1.6869624200644083","-13.90789462163405","0.0","0.0","0.0","0.0",""
"3","25208.82735810144","25208.827243641295","1513","573846","6324.523930370282","5882.314953217871","1.895","0.0","0.0","0.0","","","","-2.8443973378298699","8.997830783158415","0.0","0.0","0.0","0.0","1.29387636825665E-08"
"3","25208.84054025067","25208.84042853536","229","574410","5560.0","5820.0","1.895","0.0","0.0","0.0","","","","11.962014618399533","0.6122247672934497","0.0","0.0","0.0","0.0","1.30633230021181E-09"
"3","25208.882966253088","25208.882859998383","289","577318","5560.0","5820.0","1.895","0.0","0.0","0.0","","","","1.3094100075175886","-10.789538461944792","0.0","0.0","0.0","0.0","0.000002848760067864934"
"3","25208.88837791293","25208.888265040936","1111","578839","6162.854351874382","5735.560302071092","1.895","0.0","0.0","0.0","","","","12.933429776232912","0.6629481733535264","0.0","0.0","0.0","0.0","1.27223149589022E-08"
"3","25208.88939907512","25208.88928731694","637","579223","6131.403672002632","5737.256720142009","1.895","0.0","0.0","0.0","","","","13.623834390782325","0.6972779339959044","0.0","0.0","0.0","0.0","1.01595581467197E-08"
"2","25208.899999999998","","","","6322.273471629597","5975.260210177883","1.895","","","","0.0","0.0","0.0","1.6822170802441315","-13.869081694418665","0.0","0.0","0.0","0.0",""
"3","25208.910661094254","25208.91054471885","337","580926","6324.493804115643","5957.329546117119","1.895","0.0","0.0","0.0","","","","1.924359680468427","-14.746241015595018","0.0","0.0","0.0","0.0","3.02278962316684E-07"
"3","25208.935415715732","25208.935301890364","733","584255","5560.0","5820.0","1.895","0.0","0.0","0.0","","","","14.191961018534256","-3.727696810995123","0.0","0.0","0.0","0.0","4.99481321730053E-09"
"2","25209.0","","","","6322.442184048964","5973.869256326242","1.895","","","","0.0","0.0","0.0","1.6930553169564043","-13.95843781387944","0.0","0.0","0.0","0.0",""
"3","25209.024682304243","25209.02457702509","1063","590388","5560.0","5820.0","1.895","0.0","0.0","0.0","","","","1.7167798133842974","-13.488514238339003","0.0","0.0","0.0","0.0","2.34786138502538E-07"
"3","25209.032469474907","25209.032356234035","937","591235","5560.0","5820.0","1.895","0.0","0.0","0.0","","","","3.17150099847591E-15","4.63178552415053E-14","0.0","0.0","0.0","0.0","7.09061701388407E-09"
"2","25209.1","","","","6322.610671113262","5972.480160420228","1.895","","","","0.0","0.0","0.0","1.6907938438531279","-13.939793041107422","0.0","0.0","0.0","0.0",""
"2","25209.2","","","","6322.779647850518","5971.087027392997","1.895","","","","0.0","0.0","0.0","1.6957077880031977","-13.980306179188578","0.0","0.0","0.0","0.0",""
"3","25209.276992476913","25209.276885217798","1489","604521","5560.0","5820.0","1.895","0.0","0.0","0.0","","","","-2.975355943573888","10.835965722423895","0.0","0.0","0.0","0.0","7.46537233324383E-08"
"2","25209.3","","","","6322.949140317243","5969.689642420974","1.895","","","","0.0","0.0","0.0","1.700883213288609","-14.02297510517584","0.0","0.0","0.0","0.0",""
"3","25209.345615330385","25209.345505659236","883","609420","6095.51483200101","5725.113408841387","1.895","0.0","0.0","0.0","","","","5.818059751383439","-2.4714956189912149","0.0","0.0","0.0","0.0","7.49825042260078E-09"
"2","25209.399999999998","","","","6323.118084722759","5968.296775953608","1.895","","","","0.0","0.0","0.0","1.6953833339637734","-13.977631209574377","0.0","0.0","0.0","0.0",""
"3","25209.44651068608","25209.44639441464","535","616765","6177.939732575798","5733.033551361677","1.895","0.0","0.0","0.0","","","","14.263650165650544","0.7309318387773909","0.0","0.0","0.0","0.0","1.4849129082816E-09"
"3","25209.45222463006","25209.45210903813","181","617495","6315.541029588768","6004.234434507932","1.895","0.0","0.0","0.0","","","","1.4013216043159234","-12.91383666297437","0.0","0.0","0.0","0.0","1.77595852997526E-07"
"3","25209.473434631447","25209.473326199222","1183","619093","5560.0","5820.0","1.895","0.0","0.0","0.0","","","","1.2789633493646336","-10.549770896287468","0.0","0.0","0.0","0.0","0.000002446847143182068"
"2","25209.5","","","","6323.287700708805","5966.898372623401","1.895","","","","0.0","0.0","0.0","1.7021227488338569","-14.033194487642787","0.0","0.0","0.0","0.0",""
"3","25209.537650514405","25209.5375361084","1435","622381","6313.599581641391","5921.82482452765","1.895","0.0","0.0","0.0","","","","-3.1453113377671344","13.470698147399526","0.0","0.0","0.0","0.0","3.12481656808989E-09"
"3","25209.579979764454","25209.579867018943","1495","624641","5560.0","5820.0","1.895","0.0","0.0","0.0","","","","-2.5284134736604946","15.686985539889074","0.0","0.0","0.0","0.0","3.96014093024804E-07"
"2","25209.6","","","","6323.457851897617","5965.495556800305","1.895","","","","0.0","0.0","0.0","1.707493591680697","-14.07747453870768","0.0","0.0","0.0","0.0",""
"3","25209.663433924587","25209.663317918774","769","631536","5560.0","5820.0","1.895","0.0","0.0","0.0","","","","1.7051203358606638","-14.007655232226615","0.0","0.0","0.0","0.0","4.4456996531593E-07"
"2","25209.7","","","","6323.627601975727","5964.096047944649","1.895","","","","0.0","0.0","0.0","1.7034683835118823","-14.044288607126108","0.0","0.0","0.0","0.0",""
"3","25209.72634089711","25209.726227186387","757","635614","6162.217042148803","5732.227851916525","1.895","0.0","0.0","0.0","","","","13.157298127927352","0.6742375200080215","0.0","0.0","0.0","0.0","8.77684884829144E-09"
"3","25209.78483852111","25209.784730568528","889","641028","6144.9231407277979","5731.341636745901","1.895","0.0","0.0","0.0","","","","12.5438214083927","0.6428002889031501","0.0","0.0","0.0","0.0","4.43169763964983E-09"
"2","25209.8","","","","6323.79861346826","5962.686139325558","1.895","","","","0.0","0.0","0.0","1.7161268730519437","-14.148651847528355","0.0","0.0","0.0","0.0",""
"3","25209.840545765128","25209.84042853536","229","644534","5560.0","5820.0","1.895","0.0","0.0","0.0","","","","12.18127029208443","0.6234464350544161","0.0","0.0","0.0","0.0","2.8623214982023E-09"
"3","25209.882966409383","25209.882859998383","289","647423","5560.0","5820.0","1.895","0.0","0.0","0.0","","","","1.4118204242502335","-10.653674170419095","0.0","0.0","0.0","0.0","9.06640479431542E-07"
"3","25209.889399358257","25209.88928731694","637","649304","6144.755372877771","5737.940070081129","1.895","0.0","0.0","0.0","","","","12.996793487957739","0.6651855162000434","0.0","0.0","0.0","0.0","2.67808052734323E-09"
"2","25209.899999999998","","","","6323.968999219632","5961.281389645446","1.895","","","","0.0","0.0","0.0","1.7098474633778985","-14.096881094047835","0.0","0.0","0.0","0.0",""
"3","25209.92038706733","25209.920271761017","925","652382","5560.0","5820.0","1.895","0.0","0.0","0.0","","","","2.31522772351173E-15","-4.62017897932762E-14","0.0","0.0","0.0","0.0","6.27864983809453E-09"
"3","25209.935415866566","25209.935301890364","733","654098","5560.0","5820.0","1.895","0.0","0.0","0.0","","","","10.897647263483924","-2.8624039270109487","0.0","0.0","0.0","0.0","2.15990333166318E-09"
"2","25210.0","","","","6324.139821610749","5959.873040077803","1.895","","","","0.0","0.0","0.0","1.7142292109957014","-14.133006524228089","0.0","0.0","0.0","0.0",""
"3","25210.00016987332","25210.000055350363","205","658406","6101.23989767381","5739.689822660743","1.895","0.0","0.0","0.0","","","","2.34810922748368E-15","-4.68579603803729E-14","0.0","0.0","0.0","0.0","8.41463797519237E-09"
"3","25210.01424291914","25210.01412652507","1531","659540","6322.070894000971","5914.545146200975","1.895","0.0","0.0","0.0","","","","-3.6292996229580565","13.782778406185607","0.0","0.0","0.0","0.0","1.81448419168387E-08"
"3","25210.024688919144","25210.02457702509","1063","660464","5560.0","5820.0","1.895","0.0","0.0","0.0","","","","2.1525122860087966","-13.35401739790632","0.0","0.0","0.0","0.0","9.96453096617291E-08"
"3","25210.032472085735","25210.032356234035","937","661340","5560.0","5820.0","1.895","0.0","0.0","0.0","","","","3.16897276453176E-15","4.62809319128044E-14","0.0","0.0","0.0","0.0","1.75997033745036E-09"
"2","25210.1","","","","6324.310755583787","5958.465311810838","1.895","","","","0.0","0.0","0.0","1.714089201473533","-14.126961132908522","0.0","0.0","0.0","0.0",""
"2","25210.2","","","","6324.5353041471939","5957.072049858363","1.895","","","","0.0","0.0","0.0","1.8786437361712667","-14.036864154509708","0.0","0.0","0.0","0.0",""
"3","25210.24080246183","25210.24069597921","1201","672048","5560.0","5820.0","1.895","0.0","0.0","0.0","","","","3.11858568886331E-15","4.55518007995981E-14","0.0","0.0","0.0","0.0","3.89339565714663E-09"
"3","25210.276995563996","25210.276885217798","1489","674958","5560.0","5820.0","1.895","0.0","0.0","0.0","","","","-2.8687579946322434","11.396900926037603","0.0","0.0","0.0","0.0","3.65331933970242E-07"
"2","25210.3","","","","6324.763315635635","5955.6573014103919","1.895","","","","0.0","0.0","0.0","2.085534098932052","-14.228392504238677","0.0","0.0","0.0","0.0",""
"3","25210.345612207486","25210.345505659236","883","679907","6097.542202617221","5718.361185424943","1.895","0.0","0.0","0.0","","","","2.200486811725261","-7.589311456327431","0.0","0.0","0.0","0.0","4.16742976571089E-09"
"2","25210.399999999998","","","","6324.989402545722","5954.25449444072","1.895","","","","0.0","0.0","0.0","2.2425168981694565","-14.081599254838077","0.0","0.0","0.0","0.0",""
"3","25210.446503544186","25210.44639441464","535","687355","6192.202047215477","5733.76441476226","1.895","0.0","0.0","0.0","","","","14.260415491919872","0.7307660799406576","0.0","0.0","0.0","0.0","3.60193824118626E-09"
"3","25210.452214975296","25210.45210903813","181","687743","6316.964144114062","5991.620852938996","1.895","0.0","0.0","0.0","","","","1.4693493258079576","-12.299334237117375","0.0","0.0","0.0","0.0","2.34313633283456E-07"
"3","25210.47343797626","25210.473326199222","1183","689610","5560.0","5820.0","1.895","0.0","0.0","0.0","","","","1.2659542651548004","-10.43146314488158","0.0","0.0","0.0","0.0","8.80817707859847E-07"
"3","25210.475400960484","25210.47528944444","325","689881","5560.0","5820.0","1.895","0.0","0.0","0.0","","","","11.626442638779855","0.5957897871641121","0.0","0.0","0.0","0.0","2.0033724969788E-09"
