﻿"type","rcvTime","sendTime","sender","messageID","pos__001","pos__002","pos__003","pos_noise__001","pos_noise__002","pos_noise__003","noise__001","noise__002","noise__003","spd__001","spd__002","spd__003","spd_noise__001","spd_noise__002","spd_noise__003","RSSI"
"2","25200.0","","","","4849.4234247795889","5346.419968168652","1.895","","","","0.0","0.0","0.0","3.1862469690660175","-15.508164395714454","0.0","0.0","0.0","0.0",""
"2","25200.1","","","","4849.743792656821","5344.874333673231","1.895","","","","0.0","0.0","0.0","3.1933827220717347","-15.422204292976465","0.0","0.0","0.0","0.0",""
"2","25200.2","","","","4850.065165989617","5343.323848295712","1.895","","","","0.0","0.0","0.0","3.2065017154626389","-15.46996441669399","0.0","0.0","0.0","0.0",""
"2","25200.3","","","","4850.386252983025","5341.774744380143","1.895","","","","0.0","0.0","0.0","3.2036447648696959","-15.456180883146893","0.0","0.0","0.0","0.0",""
"3","25200.310497837447","25200.31038082554","463","17357","4812.751811310513","5742.727604018229","1.895","0.0","0.0","0.0","","","","28.032623262344204","-14.280934042034021","0.0","0.0","0.0","0.0","6.42274519535469E-09"
"2","25200.399999999998","","","","4850.708944183518","5340.217900868993","1.895","","","","0.0","0.0","0.0","3.2196507374949419","-15.53340268090029","0.0","0.0","0.0","0.0",""
"2","25200.5","","","","4851.031283410008","5338.662755478035","1.895","","","","0.0","0.0","0.0","3.216138917656368","-15.516459690435632","0.0","0.0","0.0","0.0",""
"2","25200.6","","","","4851.353227523412","5337.109516334415","1.895","","","","0.0","0.0","0.0","3.212196677729854","-15.497440111858193","0.0","0.0","0.0","0.0",""
"2","25200.7","","","","4851.6733544848589","5335.565044152002","1.895","","","","0.0","0.0","0.0","3.194066048089704","-15.409967775856533","0.0","0.0","0.0","0.0",""
"2","25200.8","","","","4851.9944048717229","5334.016116846957","1.895","","","","0.0","0.0","0.0","3.203279523150896","-15.454418752032087","0.0","0.0","0.0","0.0",""
"2","25200.899999999998","","","","4852.314391966585","5332.472319459457","1.895","","","","0.0","0.0","0.0","3.1926705295715149","-15.403235011094253","0.0","0.0","0.0","0.0",""
"2","25201.0","","","","4852.636941547173","5330.91615920224","1.895","","","","0.0","0.0","0.0","3.2182377251959366","-15.526585516299825","0.0","0.0","0.0","0.0",""
"2","25201.1","","","","4852.957601999386","5329.369113160863","1.895","","","","0.0","0.0","0.0","3.199388951033535","-15.435648447957114","0.0","0.0","0.0","0.0",""
"2","25201.2","","","","4853.278243014252","5327.822160896151","1.895","","","","0.0","0.0","0.0","3.199195014961613","-15.434712791485085","0.0","0.0","0.0","0.0",""
"2","25201.3","","","","4853.702457999175","5326.306980881273","1.895","","","","0.0","0.0","0.0","3.5610211859981399","-15.3241046419377","0.0","0.0","0.0","0.0",""
"2","25201.399999999998","","","","4854.222811276356","5324.811533635244","1.895","","","","0.0","0.0","0.0","4.277450329603629","-15.208200694602999","0.0","0.0","0.0","0.0",""
"2","25201.5","","","","4854.744025054014","5323.313613390338","1.895","","","","0.0","0.0","0.0","4.979047924583661","-15.020691966046622","0.0","0.0","0.0","0.0",""
"2","25201.6","","","","4855.262627912231","5321.823196686698","1.895","","","","0.0","0.0","0.0","5.174358868093398","-14.870629356238558","0.0","0.0","0.0","0.0",""
"2","25201.7","","","","4855.780231342531","5320.335652246562","1.895","","","","0.0","0.0","0.0","5.164387078255392","-14.841971353486314","0.0","0.0","0.0","0.0",""
"2","25201.8","","","","4856.2997437327699","5318.842621631918","1.895","","","","0.0","0.0","0.0","5.183433721825119","-14.896709647490689","0.0","0.0","0.0","0.0",""
"2","25201.899999999998","","","","4856.81944965197","5317.349034832918","1.895","","","","0.0","0.0","0.0","5.185364656606861","-14.90225897566176","0.0","0.0","0.0","0.0",""
"2","25202.0","","","","4857.338527135434","5315.857254100166","1.895","","","","0.0","0.0","0.0","5.179094440440054","-14.884238953678393","0.0","0.0","0.0","0.0",""
"2","25202.1","","","","4857.859090382089","5314.361203421265","1.895","","","","0.0","0.0","0.0","5.193918639380689","-14.926842331910479","0.0","0.0","0.0","0.0",""
"2","25202.2","","","","4858.380860055165","5312.861685584286","1.895","","","","0.0","0.0","0.0","5.205955756325249","-14.961435893953535","0.0","0.0","0.0","0.0",""
"3","25202.216986623847","25202.216870253673","859","140632","5560.0","5820.0","1.895","0.0","0.0","0.0","","","","17.77733155589539","0.9101683912073519","0.0","0.0","0.0","0.0","1.16599673762658E-08"
"2","25202.3","","","","4858.899836400847","5311.370195512175","1.895","","","","0.0","0.0","0.0","5.178085338445007","-14.88133888777003","0.0","0.0","0.0","0.0",""
"2","25202.399999999998","","","","4859.421987156272","5309.869582479731","1.895","","","","0.0","0.0","0.0","5.209758004615059","-14.972363204269568","0.0","0.0","0.0","0.0",""
"2","25202.5","","","","4859.942045670748","5308.374982354481","1.895","","","","0.0","0.0","0.0","5.188882675189871","-14.91236943607119","0.0","0.0","0.0","0.0",""
"2","25202.6","","","","4860.462096683098","5306.88040378965","1.895","","","","0.0","0.0","0.0","5.188807822744165","-14.912154317048298","0.0","0.0","0.0","0.0",""
"2","25202.7","","","","4860.982889434759","5305.383693534564","1.895","","","","0.0","0.0","0.0","5.19620852507242","-14.933423251829371","0.0","0.0","0.0","0.0",""
"3","25202.736964413558","25202.736853162292","919","175009","4817.747844499681","5421.866037876503","1.895","0.0","0.0","0.0","","","","18.190290910073739","1.2755386918645007","0.0","0.0","0.0","0.0","8.20438964861838E-09"
"2","25202.8","","","","4861.495557951148","5303.89220664209","1.895","","","","0.0","0.0","0.0","5.151957124962054","-14.869491276664562","0.0","0.0","0.0","0.0",""
"2","25202.899999999998","","","","4861.966885867898","5302.383890167761","1.895","","","","0.0","0.0","0.0","4.994563435365433","-14.954886262399967","0.0","0.0","0.0","0.0",""
"2","25203.0","","","","4862.440334451526","5300.868787257335","1.895","","","","0.0","0.0","0.0","4.847615253961093","-15.077697730259065","0.0","0.0","0.0","0.0",""
"2","25203.1","","","","4862.913386633593","5299.35495288837","1.895","","","","0.0","0.0","0.0","4.7198770977950279","-15.104279060101291","0.0","0.0","0.0","0.0",""
"2","25203.2","","","","4863.385152123483","5297.84523611766","1.895","","","","0.0","0.0","0.0","4.70703912944999","-15.063195732636949","0.0","0.0","0.0","0.0",""
"3","25203.21697669872","25203.216870253673","859","206553","5560.0","5820.0","1.895","0.0","0.0","0.0","","","","15.876381650556379","0.8272339509913232","0.0","0.0","0.0","0.0","3.86616417447965E-09"
"3","25203.29300436442","25203.29288856522","775","211633","4810.233806210293","5736.596568875858","1.895","0.0","0.0","0.0","","","","30.00794198120527","-15.303589458919808","0.0","0.0","0.0","0.0","1.27049853493329E-09"
"2","25203.3","","","","4863.854939022992","5296.341851118022","1.895","","","","0.0","0.0","0.0","4.687297748303815","-15.000020500799648","0.0","0.0","0.0","0.0",""
"2","25203.399999999998","","","","4864.325481997063","5294.836046572078","1.895","","","","0.0","0.0","0.0","4.694841480583297","-15.024161518706704","0.0","0.0","0.0","0.0",""
"2","25203.5","","","","4864.796637110408","5293.328283093262","1.895","","","","0.0","0.0","0.0","4.700949098819985","-15.043706767095197","0.0","0.0","0.0","0.0",""
"2","25203.6","","","","4865.267441304692","5291.82164260543","1.895","","","","0.0","0.0","0.0","4.697447804667834","-15.032502127048464","0.0","0.0","0.0","0.0",""
"2","25203.7","","","","4865.73801517743","5290.315739179352","1.895","","","","0.0","0.0","0.0","4.69514977195671","-15.025148095020953","0.0","0.0","0.0","0.0",""
"2","25203.8","","","","4866.210917617598","5288.802384005793","1.895","","","","0.0","0.0","0.0","4.718383048332196","-15.099497889002877","0.0","0.0","0.0","0.0",""
"2","25203.899999999998","","","","4866.680969896576","5287.29814975405","1.895","","","","0.0","0.0","0.0","4.689945571368423","-15.008493911789163","0.0","0.0","0.0","0.0",""
"3","25203.98787027407","25203.987758388976","1069","259758","4818.054732821144","5569.387469583856","1.895","0.0","0.0","0.0","","","","5.479118864180307","-10.489757299307933","0.0","0.0","0.0","0.0","5.04018479271064E-09"
"2","25204.0","","","","4867.15403216926","5285.784283093673","1.895","","","","0.0","0.0","0.0","4.719977776900101","-15.104601247592674","0.0","0.0","0.0","0.0",""
"2","25204.1","","","","4867.62452836985","5284.278628229536","1.895","","","","0.0","0.0","0.0","4.694374798269239","-15.022668068822757","0.0","0.0","0.0","0.0",""
"2","25204.2","","","","4868.096682209519","5282.767668684213","1.895","","","","0.0","0.0","0.0","4.7109138885059809","-15.0755955135761","0.0","0.0","0.0","0.0",""
"2","25204.3","","","","4868.570504915239","5281.251368529795","1.895","","","","0.0","0.0","0.0","4.727564995837737","-15.12888142899034","0.0","0.0","0.0","0.0",""
"2","25204.399999999998","","","","4869.043657163255","5279.737213935539","1.895","","","","0.0","0.0","0.0","4.7208755055771089","-15.10747410722728","0.0","0.0","0.0","0.0",""
"2","25204.5","","","","4869.5170299347059","5278.222353634878","1.895","","","","0.0","0.0","0.0","4.7230757776568039","-15.114515291321581","0.0","0.0","0.0","0.0",""
"2","25204.6","","","","4869.988542055702","5276.713447680723","1.895","","","","0.0","0.0","0.0","4.704511141870993","-15.055105812261795","0.0","0.0","0.0","0.0",""
"2","25204.7","","","","4870.462645927922","5275.196247753454","1.895","","","","0.0","0.0","0.0","4.730370333963328","-15.137858910613048","0.0","0.0","0.0","0.0",""
"2","25204.8","","","","4870.936163990211","5273.680922501413","1.895","","","","0.0","0.0","0.0","4.724525416676258","-15.11915434268512","0.0","0.0","0.0","0.0",""
"2","25204.899999999998","","","","4871.407519861416","5272.172516568844","1.895","","","","0.0","0.0","0.0","4.70295215993086","-15.050116847989522","0.0","0.0","0.0","0.0",""
"2","25205.0","","","","4871.881548465747","5270.6555575095439","1.895","","","","0.0","0.0","0.0","4.729619348763253","-15.135455650994862","0.0","0.0","0.0","0.0",""
"2","25205.1","","","","4872.353437694952","5269.1454447554019","1.895","","","","0.0","0.0","0.0","4.708273738181709","-15.067146656451822","0.0","0.0","0.0","0.0",""
"2","25205.2","","","","4872.826623378042","5267.631183164146","1.895","","","","0.0","0.0","0.0","4.721209103955799","-15.108541669560225","0.0","0.0","0.0","0.0",""
"2","25205.3","","","","4873.300004313677","5266.116296736932","1.895","","","","0.0","0.0","0.0","4.723157235790327","-15.11477596894237","0.0","0.0","0.0","0.0",""
"2","25205.399999999998","","","","4873.772267229893","5264.604988131119","1.895","","","","0.0","0.0","0.0","4.712002199516491","-15.079078263842979","0.0","0.0","0.0","0.0",""
"2","25205.5","","","","4874.244602794578","5263.09344703986","1.895","","","","0.0","0.0","0.0","4.71272704944913","-15.081397886879215","0.0","0.0","0.0","0.0",""
"2","25205.6","","","","4874.716024291584","5261.584831095382","1.895","","","","0.0","0.0","0.0","4.703606941211707","-15.052212241348573","0.0","0.0","0.0","0.0",""
"2","25205.7","","","","4875.1873666977039","5260.076468253007","1.895","","","","0.0","0.0","0.0","4.702817812066788","-15.049686915673269","0.0","0.0","0.0","0.0",""
"2","25205.8","","","","4875.643640436468","5258.561971627494","1.895","","","","0.0","0.0","0.0","4.653332026335437","-15.08154914729341","0.0","0.0","0.0","0.0",""
"2","25205.899999999998","","","","4876.073279073491","5257.044355765024","1.895","","","","0.0","0.0","0.0","4.497621323105284","-15.080709266157458","0.0","0.0","0.0","0.0",""
"2","25206.0","","","","4876.505753044754","5255.5167246296109","1.895","","","","0.0","0.0","0.0","4.382866127536317","-15.222562217965207","0.0","0.0","0.0","0.0",""
"2","25206.1","","","","4876.935680429729","5253.99808882053","1.895","","","","0.0","0.0","0.0","4.289599530415042","-15.152185418205443","0.0","0.0","0.0","0.0",""
"2","25206.2","","","","4877.366659889927","5252.475736758045","1.895","","","","0.0","0.0","0.0","4.300096608626147","-15.189264328314107","0.0","0.0","0.0","0.0",""
"2","25206.3","","","","4877.797303842561","5250.95456981151","1.895","","","","0.0","0.0","0.0","4.296749082647419","-15.177439836549249","0.0","0.0","0.0","0.0",""
"2","25206.399999999998","","","","4878.229943775214","5249.4263524494","1.895","","","","0.0","0.0","0.0","4.316663968859359","-15.2477853423103","0.0","0.0","0.0","0.0",""
"2","25206.5","","","","4878.659837694927","5247.907834849923","1.895","","","","0.0","0.0","0.0","4.289265630833721","-15.151005982145885","0.0","0.0","0.0","0.0",""
"2","25206.6","","","","4879.067625625833","5246.3863272590729","1.895","","","","0.0","0.0","0.0","4.224511920335936","-15.20640222572076","0.0","0.0","0.0","0.0",""
"2","25206.7","","","","4879.423245982246","5244.869811604559","1.895","","","","0.0","0.0","0.0","3.9865469816911904","-15.286476454424042","0.0","0.0","0.0","0.0",""
"2","25206.8","","","","4879.777718060889","5243.358192692268","1.895","","","","0.0","0.0","0.0","3.729337540516222","-15.298754042673263","0.0","0.0","0.0","0.0",""
"2","25206.899999999998","","","","4880.133898725942","5241.8392876446609","1.895","","","","0.0","0.0","0.0","3.6123900062333358","-15.404759305433555","0.0","0.0","0.0","0.0",""
"2","25207.0","","","","4880.488591420501","5240.326727932772","1.895","","","","0.0","0.0","0.0","3.5972989856493164","-15.340404809000717","0.0","0.0","0.0","0.0",""
"2","25207.1","","","","4880.844747483781","5238.80792779753","1.895","","","","0.0","0.0","0.0","3.612140494664687","-15.40369528254225","0.0","0.0","0.0","0.0",""
"2","25207.2","","","","4881.180564022266","5237.271547600536","1.895","","","","0.0","0.0","0.0","3.53731873460611","-15.456649939395368","0.0","0.0","0.0","0.0",""
"2","25207.3","","","","4881.481869665581","5235.725952201682","1.895","","","","0.0","0.0","0.0","3.3050083505399527","-15.378594896385895","0.0","0.0","0.0","0.0",""
"3","25207.307488075145","25207.307376119075","649","469423","5560.0","5820.0","1.895","0.0","0.0","0.0","","","","13.351579408758809","0.9348137790008698","0.0","0.0","0.0","0.0","1.86562640941906E-08"
"2","25207.399999999998","","","","4881.784116749778","5234.175527531527","1.895","","","","0.0","0.0","0.0","3.111565881099545","-15.46903382308831","0.0","0.0","0.0","0.0",""
"2","25207.5","","","","4882.086426707391","5232.624780342152","1.895","","","","0.0","0.0","0.0","3.0198013924969788","-15.490553334281583","0.0","0.0","0.0","0.0",""
"2","25207.6","","","","4882.389728816518","5231.068943753194","1.895","","","","0.0","0.0","0.0","3.029712083323324","-15.54139180505525","0.0","0.0","0.0","0.0",""
"2","25207.7","","","","4882.692887202476","5229.513844415174","1.895","","","","0.0","0.0","0.0","3.028276419647018","-15.534027339033356","0.0","0.0","0.0","0.0",""
"2","25207.8","","","","4882.995560043121","5227.961235759354","1.895","","","","0.0","0.0","0.0","3.0234262637835789","-15.509147690236296","0.0","0.0","0.0","0.0",""
"2","25207.899999999998","","","","4883.299010245828","5226.404639500741","1.895","","","","0.0","0.0","0.0","3.031191403420957","-15.548980213659802","0.0","0.0","0.0","0.0",""
"2","25208.0","","","","4883.600874586413","5224.856178175047","1.895","","","","0.0","0.0","0.0","3.0153500838788385","-15.467719636105816","0.0","0.0","0.0","0.0",""
"2","25208.1","","","","4883.902969921603","5223.306531925657","1.895","","","","0.0","0.0","0.0","3.0176575097778257","-15.479555945616886","0.0","0.0","0.0","0.0",""
"2","25208.2","","","","4884.2047069609129","5221.758723612179","1.895","","","","0.0","0.0","0.0","3.0140784599707515","-15.461196638259692","0.0","0.0","0.0","0.0",""
"2","25208.3","","","","4884.507242021279","5220.206821722289","1.895","","","","0.0","0.0","0.0","3.0220499641810045","-15.50208774170769","0.0","0.0","0.0","0.0",""
"3","25208.307486605296","25208.307376119075","649","537186","5560.0","5820.0","1.895","0.0","0.0","0.0","","","","13.278426287966033","0.7134852957545417","0.0","0.0","0.0","0.0","2.20308939579679E-08"
"2","25208.399999999998","","","","4884.810770647003","5218.649823180289","1.895","","","","0.0","0.0","0.0","3.03197477800272","-15.552998658637565","0.0","0.0","0.0","0.0",""
"2","25208.5","","","","4885.114215150893","5217.0932561546619","1.895","","","","0.0","0.0","0.0","3.0311344774357447","-15.548688202730796","0.0","0.0","0.0","0.0",""
"2","25208.6","","","","4885.4174473534189","5215.537778162778","1.895","","","","0.0","0.0","0.0","3.0290137799869525","-15.537809746592187","0.0","0.0","0.0","0.0",""
"2","25208.7","","","","4885.718705685547","5213.992425454207","1.895","","","","0.0","0.0","0.0","3.009296610827686","-15.43666737969269","0.0","0.0","0.0","0.0",""
"2","25208.8","","","","4886.0202864957","5212.445418543131","1.895","","","","0.0","0.0","0.0","3.0125178728502748","-15.453191357490896","0.0","0.0","0.0","0.0",""
"2","25208.899999999998","","","","4886.321939631976","5210.898040623656","1.895","","","","0.0","0.0","0.0","3.0132403450175588","-15.45689739381092","0.0","0.0","0.0","0.0",""
"2","25209.0","","","","4886.624530744719","5209.345851204161","1.895","","","","0.0","0.0","0.0","3.022609876402158","-15.504959900832409","0.0","0.0","0.0","0.0",""
"2","25209.1","","","","4886.92673322728","5207.795655325217","1.895","","","","0.0","0.0","0.0","3.0187278145328189","-15.485046244724752","0.0","0.0","0.0","0.0",""
"2","25209.2","","","","4887.229429998504","5206.242923913675","1.895","","","","0.0","0.0","0.0","3.023665308488734","-15.51037390819374","0.0","0.0","0.0","0.0",""
"2","25209.3","","","","4887.524756909899","5204.690505883463","1.895","","","","0.0","0.0","0.0","2.9957368804968764","-15.498482171492255","0.0","0.0","0.0","0.0",""
"2","25209.399999999998","","","","4887.821373960545","5203.131233278117","1.895","","","","0.0","0.0","0.0","2.984009875214626","-15.571690567971335","0.0","0.0","0.0","0.0",""
"2","25209.5","","","","4888.1160694644199","5201.5820619641","1.895","","","","0.0","0.0","0.0","2.9437399283449037","-15.474811773396617","0.0","0.0","0.0","0.0",""
"2","25209.6","","","","4888.411338144056","5200.029877548639","1.895","","","","0.0","0.0","0.0","2.9494654326533484","-15.504909915089943","0.0","0.0","0.0","0.0",""
"2","25209.7","","","","4888.707731577246","5198.471780467669","1.895","","","","0.0","0.0","0.0","2.9607006971966034","-15.563972063334225","0.0","0.0","0.0","0.0",""
"2","25209.8","","","","4889.003802580305","5196.9153783549049","1.895","","","","0.0","0.0","0.0","2.9574799135850089","-15.547040873295203","0.0","0.0","0.0","0.0",""
"2","25209.899999999998","","","","4889.297947944824","5195.369099043302","1.895","","","","0.0","0.0","0.0","2.9382445367764618","-15.445923300820282","0.0","0.0","0.0","0.0",""
"2","25210.0","","","","4889.5947369594209","5193.808922448533","1.895","","","","0.0","0.0","0.0","2.964652195491978","-15.584744513969224","0.0","0.0","0.0","0.0",""
"2","25210.1","","","","4889.889324671516","5192.260317780183","1.895","","","","0.0","0.0","0.0","2.942663186567528","-15.469151498800688","0.0","0.0","0.0","0.0",""
"2","25210.2","","","","4890.185057685635","5190.705692426024","1.895","","","","0.0","0.0","0.0","2.954103711613442","-15.529292671569","0.0","0.0","0.0","0.0",""
"2","25210.3","","","","4890.480309876715","5189.153594688498","1.895","","","","0.0","0.0","0.0","2.9493007269843134","-15.504044081378972","0.0","0.0","0.0","0.0",""
"2","25210.399999999998","","","","4890.775761146996","5187.600450420626","1.895","","","","0.0","0.0","0.0","2.9512893470514665","-15.514497967260999","0.0","0.0","0.0","0.0",""
"2","25210.5","","","","4891.071306984332","5186.046809027529","1.895","","","","0.0","0.0","0.0","2.9522339858805708","-15.519463795907797","0.0","0.0","0.0","0.0",""
"2","25210.6","","","","4891.367247588133","5184.491092404664","1.895","","","","0.0","0.0","0.0","2.956177343642496","-15.540193452944875","0.0","0.0","0.0","0.0",""
"3","25210.63929706461","25210.63918690174","619","699964","4816.449928902947","5421.775025502341","1.895","0.0","0.0","0.0","","","","10.14900418168261","0.7116679761533363","0.0","0.0","0.0","0.0","2.08424925328348E-09"
"2","25210.7","","","","4891.663335284001","5182.93460254024","1.895","","","","0.0","0.0","0.0","2.9576466595475385","-15.54791743251814","0.0","0.0","0.0","0.0",""
"2","25210.8","","","","4891.959447080809","5181.377985980684","1.895","","","","0.0","0.0","0.0","2.957887406014679","-15.549183001608752","0.0","0.0","0.0","0.0",""
"3","25210.836754211283","25210.836640212172","1411","715458","4597.897135305316","5252.870807690793","1.895","0.0","0.0","0.0","","","","1.4555024804686754","13.083871759900717","0.0","0.0","0.0","0.0","2.21011080281814E-09"
