﻿"type","rcvTime","sendTime","sender","messageID","pos__001","pos__002","pos__003","pos_noise__001","pos_noise__002","pos_noise__003","noise__001","noise__002","noise__003","spd__001","spd__002","spd__003","spd_noise__001","spd_noise__002","spd_noise__003","RSSI"
"2","25200.0","","","","3588.117828477975","5954.98255674955","1.895","","","","0.0","0.0","0.0","2.746028453600923","36.93147421102785","0.0","0.0","0.0","0.0",""
"3","25200.00947196707","25200.009356701747","85","2081","5560.0","5820.0","1.895","0.0","0.0","0.0","","","","1.3655989754738778","-31.77107820491061","0.0","0.0","0.0","0.0","3.12486382990395E-09"
"3","25200.02021722656","25200.020107550547","91","2452","3597.0658386134566","5626.300132001252","1.895","0.0","0.0","0.0","","","","2.669000478256523","-31.70648608784684","0.0","0.0","0.0","0.0","1.55794922565213E-09"
"3","25200.030767227345","25200.030661048833","931","3619","3589.664304586143","5703.861398435702","1.895","0.0","0.0","0.0","","","","-1.3553410332352565","32.46147897502212","0.0","0.0","0.0","0.0","3.15734843280389E-09"
"2","25200.1","","","","3588.3929947251938","5958.683281390473","1.895","","","","0.0","0.0","0.0","2.751666315519558","37.00729809835818","0.0","0.0","0.0","0.0",""
"2","25200.2","","","","3588.66789154309","5962.3803824629389","1.895","","","","0.0","0.0","0.0","2.7489720185287029","36.97106236318065","0.0","0.0","0.0","0.0",""
"3","25200.249909954135","25200.249796275046","109","13575","3600.326908447151","5686.98173751425","1.895","0.0","0.0","0.0","","","","1.2890000102402338","-30.043389760309617","0.0","0.0","0.0","0.0","1.12583510232426E-08"
"3","25200.288683394065","25200.288569958415","751","15993","3603.7899373945599","6027.5731919564","1.895","0.0","0.0","0.0","","","","-3.6244542777767245","-31.469848464740108","0.0","0.0","0.0","0.0","1.5466827906991E-08"
"2","25200.3","","","","3588.942404732674","5966.072324099022","1.895","","","","0.0","0.0","0.0","2.7451357300469074","36.91946792728839","0.0","0.0","0.0","0.0",""
"3","25200.357454348865","25200.357346880246","811","19819","3594.782401440911","5739.2324428100569","1.895","0.0","0.0","0.0","","","","1.3893256865301534","-32.3523431458638","0.0","0.0","0.0","0.0","7.28945576173165E-09"
"3","25200.38357334685","25200.383462226015","121","22494","3598.7945662717008","5722.696828947522","1.895","0.0","0.0","0.0","","","","1.299115324480694","-30.279152619776654","0.0","0.0","0.0","0.0","4.26354210910323E-09"
"3","25200.392894346627","25200.392784793163","13","23181","3587.621125049737","5872.473496813367","1.895","0.0","0.0","0.0","","","","-0.029101612366944298","29.99480800781916","0.0","0.0","0.0","0.0","3.52112700329342E-08"
"2","25200.399999999998","","","","3589.217172131195","5969.767684603833","1.895","","","","0.0","0.0","0.0","2.747677822969078","36.95365666232288","0.0","0.0","0.0","0.0",""
"3","25200.43769934898","25200.437587209977","7","26096","3588.82255477119","5912.4196493720669","1.895","0.0","0.0","0.0","","","","1.2778285862106549","30.0127556771802","0.0","0.0","0.0","0.0","1.51660098381425E-07"
"3","25200.442152349446","25200.44203563034","511","26914","3590.9995362081847","5949.274444827021","1.895","0.0","0.0","0.0","","","","2.2252397678620694","29.88508537980526","0.0","0.0","0.0","0.0","2.6519505800513E-07"
"3","25200.4472384371","25200.447125378527","103","27601","3619.696834022857","5450.483355697797","1.895","0.0","0.0","0.0","","","","3.6747657175940229","-29.662049064108115","0.0","0.0","0.0","0.0","3.40673033165494E-09"
"3","25200.456264733126","25200.45615033596","31","28167","3590.771313271069","6027.30776646186","1.895","0.0","0.0","0.0","","","","3.8688760317551336","36.588911310234028","0.0","0.0","0.0","0.0","2.98431873488179E-08"
"3","25200.46876473548","25200.468651198316","67","29475","3593.7018667780837","5985.566884397889","1.895","0.0","0.0","0.0","","","","2.224026758356544","29.868794599281399","0.0","0.0","0.0","0.0","0.0000010713854876089644"
"2","25200.5","","","","3589.492307427917","5973.467992989965","1.895","","","","0.0","0.0","0.0","2.7513568101125078","37.003135544636759","0.0","0.0","0.0","0.0",""
"3","25200.574435795104","25200.574325255817","127","34279","3603.6176532945298","5989.912085468623","1.895","0.0","0.0","0.0","","","","-2.1153068752237038","-31.882766248469055","0.0","0.0","0.0","0.0","5.64509536539307E-08"
"3","25200.58212625212","25200.58201979124","25","35128","3597.6221646349747","6060.718167578049","1.895","0.0","0.0","0.0","","","","3.7912342496123165","35.87827182115704","0.0","0.0","0.0","0.0","1.41940378630003E-07"
"3","25200.592197472743","25200.592080666684","565","35977","3592.4108390240846","5640.43828515152","1.895","0.0","0.0","0.0","","","","-2.656804111051523","32.4325718980727","0.0","0.0","0.0","0.0","8.37745733156912E-09"
"2","25200.6","","","","3589.767074649772","5977.163351118785","1.895","","","","0.0","0.0","0.0","2.7476760563089974","36.953632902377808","0.0","0.0","0.0","0.0",""
"3","25200.62124647632","25200.621140327534","1207","38516","3581.7056631763878","5736.289516238321","1.895","0.0","0.0","0.0","","","","-1.398559006099595","33.42836359342893","0.0","0.0","0.0","0.0","1.74919686207853E-08"
"3","25200.630938743227","25200.630831810413","1039","39109","5560.0","5820.0","1.895","0.0","0.0","0.0","","","","-1.3937861645515748","33.31428311353671","0.0","0.0","0.0","0.0","3.01666832836619E-09"
"3","25200.634390761385","25200.634274053155","49","39475","5560.0","5820.0","1.895","0.0","0.0","0.0","","","","-1.5849407317501599","37.921829695627788","0.0","0.0","0.0","0.0","5.51843877223901E-09"
"3","25200.644108826782","25200.64399019652","115","40089","3593.767336672087","5686.009514159608","1.895","0.0","0.0","0.0","","","","1.3700958355344293","-31.875699030843504","0.0","0.0","0.0","0.0","8.56898597368846E-09"
"3","25200.670752829265","25200.6706378737","43","41936","3584.7585057373328","5742.259323664141","1.895","0.0","0.0","0.0","","","","-1.5657704164638822","37.463154227873889","0.0","0.0","0.0","0.0","7.87276728779974E-09"
"2","25200.7","","","","3590.041952242149","5980.860193626279","1.895","","","","0.0","0.0","0.0","2.748779763065173","36.96847670986078","0.0","0.0","0.0","0.0",""
"3","25200.722161855036","25200.722055605147","151","44728","3595.312259744827","5964.529421653061","1.895","0.0","0.0","0.0","","","","-1.9879277673411314","-29.94679490449674","0.0","0.0","0.0","0.0","3.20969128855549E-07"
"3","25200.737393796786","25200.73727857764","787","46414","3597.622150361864","5673.105016800781","1.895","0.0","0.0","0.0","","","","1.293853336121748","-30.12913927703657","0.0","0.0","0.0","0.0","4.36809591948918E-09"
"2","25200.8","","","","3590.3172654708316","5984.5628950282639","1.895","","","","0.0","0.0","0.0","2.753136132205283","37.02706573658225","0.0","0.0","0.0","0.0",""
"3","25200.86065819116","25200.86055117147","295","52120","5560.0","5820.0","1.895","0.0","0.0","0.0","","","","-0.031140702419763308","32.096482439935247","0.0","0.0","0.0","0.0","2.55036779363362E-08"
"3","25200.86504619339","25200.864933292847","145","52741","5560.0","5820.0","1.895","0.0","0.0","0.0","","","","-2.059919145624484","-31.039601969725678","0.0","0.0","0.0","0.0","5.20207910091118E-08"
"3","25200.870124841513","25200.870012145257","19","53374","3590.2552953742044","5689.706706317157","1.895","0.0","0.0","0.0","","","","-1.3542004202855645","32.434160401694047","0.0","0.0","0.0","0.0","2.03883717219702E-09"
"3","25200.891633841744","25200.891522682505","421","56179","3592.8612629479569","5925.618957115369","1.895","0.0","0.0","0.0","","","","-1.1692409025022579","-29.928691167353504","0.0","0.0","0.0","0.0","2.73700161246936E-08"
"2","25200.899999999998","","","","3590.592244795379","5988.261105736814","1.895","","","","0.0","0.0","0.0","2.749797086193053","36.98215873952313","0.0","0.0","0.0","0.0",""
"3","25200.94968017303","25200.9495710514","61","62597","5560.0","5820.0","1.895","0.0","0.0","0.0","","","","3.13803359653435","29.716356090753828","0.0","0.0","0.0","0.0","1.29053105430423E-07"
"3","25200.98255184893","25200.982444882393","1231","63811","3591.341468594417","5886.717259657097","1.895","0.0","0.0","0.0","","","","-1.166619903150921","-29.861602272354945","0.0","0.0","0.0","0.0","6.32798378196844E-09"
"2","25201.0","","","","3590.8675742485559","5991.964025342837","1.895","","","","0.0","0.0","0.0","2.7532983773769126","37.02924778002176","0.0","0.0","0.0","0.0",""
"3","25201.00946460856","25201.009356701747","85","66859","5560.0","5820.0","1.895","0.0","0.0","0.0","","","","2.67295790018012","-31.7534984223266","0.0","0.0","0.0","0.0","5.73995385795986E-09"
"3","25201.030778609536","25201.030661048833","931","68379","3588.3159765517668","5736.154910596842","1.895","0.0","0.0","0.0","","","","-1.35049537123068","32.345421575793348","0.0","0.0","0.0","0.0","1.14080760497728E-08"
"3","25201.06996480416","25201.069859017385","313","72499","5560.0","5820.0","1.895","0.0","0.0","0.0","","","","-0.019327055525180795","-33.138652580500998","0.0","0.0","0.0","0.0","2.30239243916456E-08"
"2","25201.1","","","","3591.142326330982","5995.6591798607209","1.895","","","","0.0","0.0","0.0","2.747524661810141","36.951596790173237","0.0","0.0","0.0","0.0",""
"2","25201.2","","","","3591.4171160277089","5999.354840255214","1.895","","","","0.0","0.0","0.0","2.7479008053386106","36.95665556333393","0.0","0.0","0.0","0.0",""
"3","25201.249911822662","25201.249796275046","109","78579","3601.6130446765139","5657.005095375657","1.895","0.0","0.0","0.0","","","","1.2858013060840768","-29.96883590854243","0.0","0.0","0.0","0.0","3.41496862888049E-09"
"3","25201.28868484449","25201.288569958415","751","80993","3600.7266310142706","5996.2286489747989","1.895","0.0","0.0","0.0","","","","-2.0776215332067289","-31.306347907567664","0.0","0.0","0.0","0.0","4.86002867538687E-07"
"2","25201.3","","","","3591.692473947592","6003.058142711401","1.895","","","","0.0","0.0","0.0","2.7535830448410567","37.033076287004998","0.0","0.0","0.0","0.0",""
"3","25201.357463753448","25201.357346880246","811","84809","3596.1656365345077","5707.02192742599","1.895","0.0","0.0","0.0","","","","1.375992740220093","-32.04186730981301","0.0","0.0","0.0","0.0","8.43271837817913E-09"
"3","25201.35955131704","25201.35944446898","73","85722","3593.876701967626","5622.543964259961","1.895","0.0","0.0","0.0","","","","-2.6862378935205077","32.791880761739758","0.0","0.0","0.0","0.0","1.33143512001681E-09"
"3","25201.38356931831","25201.383462226015","121","87519","3600.0892223148418","5692.521611103742","1.895","0.0","0.0","0.0","","","","1.29731443516246","-30.237178361230354","0.0","0.0","0.0","0.0","3.61334294656459E-09"
"3","25201.392897319198","25201.392784793163","13","88199","3588.3958101976875","5902.3965674350179","1.895","0.0","0.0","0.0","","","","1.2697178899187947","29.8222572419016","0.0","0.0","0.0","0.0","2.3471953502112E-08"
"2","25201.399999999998","","","","3591.966958988431","6006.749705773596","1.895","","","","0.0","0.0","0.0","2.7448542422023038","36.9156821831225","0.0","0.0","0.0","0.0",""
"3","25201.437702321575","25201.437587209977","7","91142","3590.4800990088749","5942.298376326446","1.895","0.0","0.0","0.0","","","","2.22868392727733","29.9313406192061","0.0","0.0","0.0","0.0","7.60079627035649E-08"
"3","25201.44214232195","25201.44203563034","511","91989","3593.221910340235","5979.121044569375","1.895","0.0","0.0","0.0","","","","2.233633942873614","29.997819585141735","0.0","0.0","0.0","0.0","3.52692609458117E-07"
"3","25201.45626770365","25201.45615033596","31","93242","3594.6449205536466","6063.941422373684","1.895","0.0","0.0","0.0","","","","3.8719540016497575","36.61802042785287","0.0","0.0","0.0","0.0","2.37896168375002E-07"
"3","25201.468767706723","25201.468651198316","67","94556","3596.1533743700058","6015.388350063933","1.895","0.0","0.0","0.0","","","","3.1392552166937475","29.727924513656896","0.0","0.0","0.0","0.0","0.0000032476714778291815"
"2","25201.5","","","","3592.3095676152445","6010.442508676278","1.895","","","","0.0","0.0","0.0","3.2520007658157219","36.94816649288801","0.0","0.0","0.0","0.0",""
"3","25201.574439033328","25201.574325255817","127","98982","3601.507953955567","5958.11383828919","1.895","0.0","0.0","0.0","","","","-2.1103587122271447","-31.808185521659884","0.0","0.0","0.0","0.0","1.2208560670004E-07"
"3","25201.592192934117","25201.592080666684","565","100327","3590.957399326057","5672.890766924467","1.895","0.0","0.0","0.0","","","","-1.3589127921504097","32.547025397720599","0.0","0.0","0.0","0.0","5.1404575239286E-09"
"2","25201.6","","","","3592.699578001054","6014.1333644013179","1.895","","","","0.0","0.0","0.0","3.9001093054851858","36.90860880168414","0.0","0.0","0.0","0.0",""
"3","25201.621254937872","25201.621140327534","1207","102824","3581.1207167364375","5769.726644604248","1.895","0.0","0.0","0.0","","","","-0.03240893358009442","33.473442399903408","0.0","0.0","0.0","0.0","3.50033493200383E-09"
"3","25201.630947205835","25201.630831810413","1039","103412","5560.0","5820.0","1.895","0.0","0.0","0.0","","","","-1.3873949795566434","33.16152098131922","0.0","0.0","0.0","0.0","1.02106663725486E-08"
"3","25201.634386210706","25201.634274053155","49","103767","5560.0","5820.0","1.895","0.0","0.0","0.0","","","","-1.5497550145914594","37.079964288787987","0.0","0.0","0.0","0.0","1.34575588431943E-08"
"3","25201.644104731982","25201.64399019652","115","104371","3595.1365395676209","5654.15458965128","1.895","0.0","0.0","0.0","","","","1.365399060108528","-31.76642711269672","0.0","0.0","0.0","0.0","7.2850792892663E-09"
"3","25201.670748733977","25201.6706378737","43","106221","3584.411486061371","5779.299804525731","1.895","0.0","0.0","0.0","","","","-0.03558409100768428","36.7145702057093","0.0","0.0","0.0","0.0","9.63712573630275E-09"
"2","25201.7","","","","3593.088824349455","6017.816989673156","1.895","","","","0.0","0.0","0.0","3.8924689207322058","36.83630416869054","0.0","0.0","0.0","0.0",""
"3","25201.72217075663","25201.722055605147","151","108934","3593.3280958044308","5934.639326270249","1.895","0.0","0.0","0.0","","","","-1.9840987681915093","-29.88911360740498","0.0","0.0","0.0","0.0","5.2754313673849E-08"
"3","25201.75100796711","25201.75089203054","1345","111471","3607.086412852412","6056.195316882182","1.895","0.0","0.0","0.0","","","","-3.911022201494138","-33.958015908202657","0.0","0.0","0.0","0.0","4.04543086501399E-07"
"2","25201.8","","","","3593.478844950423","6021.507942069154","1.895","","","","0.0","0.0","0.0","3.9002114572172994","36.909575512613937","0.0","0.0","0.0","0.0",""
"3","25201.85889005623","25201.858777468093","703","116356","3584.3356176036315","5857.578544807012","1.895","0.0","0.0","0.0","","","","-0.03182304746630892","32.83404120423119","0.0","0.0","0.0","0.0","1.42867657163793E-09"
"3","25201.860665421947","25201.86055117147","295","116694","5560.0","5820.0","1.895","0.0","0.0","0.0","","","","-0.031083667045839947","32.03769651876654","0.0","0.0","0.0","0.0","7.90605982030402E-09"
"3","25201.865040422705","25201.864933292847","145","117300","5560.0","5820.0","1.895","0.0","0.0","0.0","","","","-1.2164077403043423","-31.068801013443389","0.0","0.0","0.0","0.0","6.03210507682151E-09"
"3","25201.870118649087","25201.870012145257","19","117919","3588.9039098865889","5722.073446877363","1.895","0.0","0.0","0.0","","","","-1.3509469854123726","32.35623808905535","0.0","0.0","0.0","0.0","1.49830049940699E-08"
"2","25201.899999999998","","","","3593.8684739590978","6025.195188639074","1.895","","","","0.0","0.0","0.0","3.8962955288098506","36.872517200086367","0.0","0.0","0.0","0.0",""
"3","25201.902710679817","25201.90259847138","37","121643","3581.7313926425465","5900.940287339112","1.895","0.0","0.0","0.0","","","","1.6704461571822507","39.041432548019269","0.0","0.0","0.0","0.0","3.39633660985702E-09"
"3","25201.949680963768","25201.9495710514","61","127221","5560.0","5820.0","1.895","0.0","0.0","0.0","","","","3.147025037509746","29.80150268130944","0.0","0.0","0.0","0.0","1.11561392455881E-07"
"3","25201.98255308615","25201.982444882393","1231","128436","3591.224063021732","5856.738279213084","1.895","0.0","0.0","0.0","","","","-0.017419724759385824","-29.929264603139769","0.0","0.0","0.0","0.0","2.83948678983947E-09"
"3","25201.998964642757","25201.998847002862","139","129855","5560.0","5820.0","1.895","0.0","0.0","0.0","","","","2.5088153998613667","-29.801520330804846","0.0","0.0","0.0","0.0","2.28422907150304E-09"
"2","25202.0","","","","3594.257573172655","6028.877421503173","1.895","","","","0.0","0.0","0.0","3.8909975702378416","36.822380071843799","0.0","0.0","0.0","0.0",""
"3","25202.009472339134","25202.009356701747","85","131253","5560.0","5820.0","1.895","0.0","0.0","0.0","","","","2.6655699061910598","-31.665732485025463","0.0","0.0","0.0","0.0","1.50541004774674E-09"
"3","25202.03076759997","25202.030661048833","931","132764","3587.7220570780825","5768.443631598203","1.895","0.0","0.0","0.0","","","","-0.03129444809386684","32.25494692357349","0.0","0.0","0.0","0.0","4.72744827945293E-09"
"3","25202.069971441848","25202.069859017385","313","136778","5560.0","5820.0","1.895","0.0","0.0","0.0","","","","1.4081985328303653","-32.82161136200857","0.0","0.0","0.0","0.0","1.37621060446068E-08"
"2","25202.1","","","","3594.6476387800655","6032.568799816762","1.895","","","","0.0","0.0","0.0","3.9006615222624068","36.91383469448187","0.0","0.0","0.0","0.0",""
"2","25202.2","","","","3595.0376846702936","6036.259991537179","1.895","","","","0.0","0.0","0.0","3.9004643501685569","36.91196876015536","0.0","0.0","0.0","0.0",""
"3","25202.24990758139","25202.249796275046","109","143246","3603.6167221363609","5627.068410903576","1.895","0.0","0.0","0.0","","","","2.5217064858452287","-29.95259506154209","0.0","0.0","0.0","0.0","4.01096683734834E-09"
"3","25202.288680581518","25202.288569958415","751","145385","3598.653741924521","5964.9936112259379","1.895","0.0","0.0","0.0","","","","-2.0672885959670777","-31.150647495841427","0.0","0.0","0.0","0.0","2.09626806323439E-08"
"2","25202.3","","","","3595.4272177228397","6039.946330028137","1.895","","","","0.0","0.0","0.0","3.895335966184345","36.8634363977758","0.0","0.0","0.0","0.0",""
"3","25202.35745951715","25202.357346880246","811","149248","3597.5383032671536","5675.057510738058","1.895","0.0","0.0","0.0","","","","1.3695851149638887","-31.89265701805124","0.0","0.0","0.0","0.0","1.00380571990897E-08"
"3","25202.359559651868","25202.35944446898","73","150160","3591.692149916772","5655.292914968769","1.895","0.0","0.0","0.0","","","","-1.3670231882539266","32.74127573474342","0.0","0.0","0.0","0.0","9.06061015807337E-09"
"3","25202.3928926696","25202.392784793163","13","152682","3589.7357009880186","5932.3010723365009","1.895","0.0","0.0","0.0","","","","1.6093350265548899","29.95855949309632","0.0","0.0","0.0","0.0","4.43842004761204E-08"
"2","25202.399999999998","","","","3595.817454771411","6043.639330771831","1.895","","","","0.0","0.0","0.0","3.9023759362725478","36.930059018190878","0.0","0.0","0.0","0.0",""
"3","25202.43769767203","25202.437587209977","7","155702","3592.700818198117","5972.122750101139","1.895","0.0","0.0","0.0","","","","2.224378809081377","29.8735226587713","0.0","0.0","0.0","0.0","1.19445482832526E-08"
"3","25202.442150672156","25202.44203563034","511","156500","3595.473123892586","6008.946556247498","1.895","0.0","0.0","0.0","","","","2.404205450040687","29.84021651619918","0.0","0.0","0.0","0.0","8.69392570308012E-08"
"3","25202.468768690407","25202.468651198316","67","158746","3599.2940164148828","6045.129407477162","1.895","0.0","0.0","0.0","","","","3.1515207759461827","29.844076146577718","0.0","0.0","0.0","0.0","0.00002032532970218346"
"2","25202.5","","","","3596.2067459187699","6047.323379997737","1.895","","","","0.0","0.0","0.0","3.892916910934505","36.84054371528489","0.0","0.0","0.0","0.0",""
"3","25202.574440466746","25202.574325255817","127","163266","3599.504549055268","5926.403009900276","1.895","0.0","0.0","0.0","","","","-1.465358793425792","-31.71596776087846","0.0","0.0","0.0","0.0","1.18255710085973E-08"
"2","25202.6","","","","3596.5963982288114","6051.010847079691","1.895","","","","0.0","0.0","0.0","3.896528542804728","36.87472232350251","0.0","0.0","0.0","0.0",""
"3","25202.62125731729","25202.621140327534","1207","167155","3581.0883276458237","5803.179592271483","1.895","0.0","0.0","0.0","","","","-0.03230373254942039","33.36478591998639","0.0","0.0","0.0","0.0","5.79021384467166E-09"
"3","25202.63094958644","25202.630831810413","1039","167744","5560.0","5820.0","1.895","0.0","0.0","0.0","","","","-0.032190944436835729","33.248293150829457","0.0","0.0","0.0","0.0","2.07658217983111E-09"
"3","25202.634388588736","25202.634274053155","49","168094","5560.0","5820.0","1.895","0.0","0.0","0.0","","","","-0.03541698282309765","36.54215312648166","0.0","0.0","0.0","0.0","1.98890982067692E-08"
"3","25202.64410756708","25202.64399019652","115","168696","3597.399626411952","5622.334887979937","1.895","0.0","0.0","0.0","","","","2.6782515049690258","-31.816383988609059","0.0","0.0","0.0","0.0","6.60302879146278E-09"
"3","25202.670751569596","25202.6706378737","43","170537","3584.3763032905164","5815.600304946408","1.895","0.0","0.0","0.0","","","","-0.034829723236955458","35.93623675120664","0.0","0.0","0.0","0.0","2.22801600375735E-08"
"3","25202.682120689664","25202.682014642094","1369","172054","3611.451891651705","6065.268578546891","1.895","0.0","0.0","0.0","","","","-3.912493868641075","-33.99140989353644","0.0","0.0","0.0","0.0","1.71327281219278E-07"
"2","25202.7","","","","3596.9866424095396","6054.70391531841","1.895","","","","0.0","0.0","0.0","3.902447257937082","36.93073396938049","0.0","0.0","0.0","0.0",""
"3","25202.72216865119","25202.722055605147","151","173600","3592.0438443851078","5904.695751581234","1.895","0.0","0.0","0.0","","","","-1.16624026648122","-29.851884832074697","0.0","0.0","0.0","0.0","2.93051671797431E-09"
"3","25202.751009654636","25202.75089203054","1345","176135","3603.18236047136","6022.297817448022","1.895","0.0","0.0","0.0","","","","-3.898198371519858","-33.846671149735119","0.0","0.0","0.0","0.0","5.44807521518271E-08"
"2","25202.8","","","","3597.3759653128888","6058.388265066516","1.895","","","","0.0","0.0","0.0","3.893234471281841","36.84354894148206","0.0","0.0","0.0","0.0",""
"3","25202.858892602726","25202.858777468093","703","181775","3584.5760359402786","5890.24303397451","1.895","0.0","0.0","0.0","","","","1.3868221708167655","32.49226288097305","0.0","0.0","0.0","0.0","2.02966950430003E-09"
"3","25202.870120777774","25202.870012145257","19","183323","3587.7357069850306","5754.374777506032","1.895","0.0","0.0","0.0","","","","-0.05185652857127479","32.34568917157011","0.0","0.0","0.0","0.0","1.99759781306838E-08"
"3","25202.891629777776","25202.891522682505","421","186471","3591.229275984191","5865.694800338204","1.895","0.0","0.0","0.0","","","","-0.017475908806275574","-30.025795818705185","0.0","0.0","0.0","0.0","4.96741450381182E-09"
"2","25202.899999999998","","","","3597.765038048945","6062.070247361297","1.895","","","","0.0","0.0","0.0","3.890732794861342","36.81987437516961","0.0","0.0","0.0","0.0",""
"3","25202.902712780826","25202.90259847138","37","187405","3583.7027266123925","5940.054355999027","1.895","0.0","0.0","0.0","","","","2.898709591146979","39.0399609529901","0.0","0.0","0.0","0.0","9.49450148814554E-09"
"3","25202.982553535272","25202.982444882393","1231","193987","3591.2065982888655","5826.731685056448","1.895","0.0","0.0","0.0","","","","-0.01747217094805261","-30.01937371104566","0.0","0.0","0.0","0.0","3.67950688489417E-09"
"2","25203.0","","","","3598.1542274637974","6065.753333843602","1.895","","","","0.0","0.0","0.0","3.8918995844492487","36.83091626582105","0.0","0.0","0.0","0.0",""
"3","25203.009472809412","25203.009356701747","85","196878","5560.0","5820.0","1.895","0.0","0.0","0.0","","","","2.663467633570867","-31.640758462674666","0.0","0.0","0.0","0.0","1.41694747408902E-09"
"3","25203.069966591527","25203.069859017385","313","202599","5560.0","5820.0","1.895","0.0","0.0","0.0","","","","1.392374222112676","-32.45278596961572","0.0","0.0","0.0","0.0","6.70709891401437E-09"
"2","25203.1","","","","3598.5438954577978","6069.440949350392","1.895","","","","0.0","0.0","0.0","3.8966853826100107","36.87620657392729","0.0","0.0","0.0","0.0",""
"2","25203.2","","","","3598.933389078988","6073.12691468348","1.895","","","","0.0","0.0","0.0","3.894941652081175","36.85970481387307","0.0","0.0","0.0","0.0",""
"3","25203.249915213153","25203.249796275046","109","209147","3606.134018201712","5597.16820240641","1.895","0.0","0.0","0.0","","","","2.5298600315407588","-30.049442118811734","0.0","0.0","0.0","0.0","4.08208938833511E-09"
"3","25203.288688213488","25203.288569958415","751","211304","3596.5913663730159","5933.916995249645","1.895","0.0","0.0","0.0","","","","-2.0614777418524015","-31.063087457765876","0.0","0.0","0.0","0.0","1.62971222921714E-09"
"2","25203.3","","","","3599.3231811998","6076.815704861948","1.895","","","","0.0","0.0","0.0","3.8979266524633875","36.887953307120429","0.0","0.0","0.0","0.0",""
"3","25203.357454153815","25203.357346880246","811","215101","3598.9401698121216","5643.327685100311","1.895","0.0","0.0","0.0","","","","1.6345713852497473","-31.626261112865416","0.0","0.0","0.0","0.0","5.53872398071345E-09"
"3","25203.383572533825","25203.383462226015","121","217822","3603.1833972900788","5632.215403118429","1.895","0.0","0.0","0.0","","","","2.545495692277233","-30.23516104255943","0.0","0.0","0.0","0.0","2.2980452771684E-09"
"3","25203.392900535193","25203.392784793163","13","218510","3591.9562576271416","5962.1232630546669","1.895","0.0","0.0","0.0","","","","2.228800156410338","29.9329015824499","0.0","0.0","0.0","0.0","3.77306502294723E-09"
