﻿"type","rcvTime","sendTime","sender","messageID","pos__001","pos__002","pos__003","pos_noise__001","pos_noise__002","pos_noise__003","noise__001","noise__002","noise__003","spd__001","spd__002","spd__003","spd_noise__001","spd_noise__002","spd_noise__003","RSSI"
"2","25200.0","","","","3587.7076447419619","5671.69722323865","1.895","","","","0.0","0.0","0.0","-1.5962452089660458","38.19230445294288","0.0","0.0","0.0","0.0",""
"3","25200.0094710319","25200.009356701747","85","2081","5560.0","5820.0","1.895","0.0","0.0","0.0","","","","1.3655989754738778","-31.77107820491061","0.0","0.0","0.0","0.0","4.70921994555441E-07"
"3","25200.0202162844","25200.020107550547","91","2452","3597.0658386134566","5626.300132001252","1.895","0.0","0.0","0.0","","","","2.669000478256523","-31.70648608784684","0.0","0.0","0.0","0.0","3.70221906931272E-08"
"3","25200.030766497162","25200.030661048833","931","3619","3589.664304586143","5703.861398435702","1.895","0.0","0.0","0.0","","","","-1.3553410332352565","32.46147897502212","0.0","0.0","0.0","0.0","3.56694906037855E-08"
"3","25200.04413293765","25200.044016361702","961","4645","3631.304770512387","5229.921447980915","1.895","0.0","0.0","0.0","","","","-4.46632323564981","28.6340104815567","0.0","0.0","0.0","0.0","4.44354571692598E-09"
"2","25200.1","","","","3587.5476296327808","5675.5257990317509","1.895","","","","0.0","0.0","0.0","-1.6001533267903004","38.28581140588272","0.0","0.0","0.0","0.0",""
"2","25200.2","","","","3587.3883370446558","5679.337087540927","1.895","","","","0.0","0.0","0.0","-1.5929281061393413","38.112938325174017","0.0","0.0","0.0","0.0",""
"3","25200.249909084807","25200.249796275046","109","13575","3600.326908447151","5686.98173751425","1.895","0.0","0.0","0.0","","","","1.2890000102402338","-30.043389760309617","0.0","0.0","0.0","0.0","0.000001065503112330044"
"3","25200.28703063752","25200.286915045464","241","15666","3664.857927296655","5210.987235437102","1.895","0.0","0.0","0.0","","","","-11.742397974875586","-3.438024834943841","0.0","0.0","0.0","0.0","1.28410755535379E-09"
"3","25200.288684333707","25200.288569958415","751","15993","3603.7899373945599","6027.5731919564","1.895","0.0","0.0","0.0","","","","-3.6244542777767245","-31.469848464740108","0.0","0.0","0.0","0.0","4.69939715264089E-09"
"2","25200.3","","","","3587.2289963169375","5683.149527854356","1.895","","","","0.0","0.0","0.0","-1.5934095027452578","38.12445638378965","0.0","0.0","0.0","0.0",""
"3","25200.357453780718","25200.357346880246","811","19819","3594.782401440911","5739.2324428100569","1.895","0.0","0.0","0.0","","","","1.3893256865301534","-32.3523431458638","0.0","0.0","0.0","0.0","1.30779296306078E-07"
"3","25200.35955440395","25200.35944446898","73","20696","3596.5660076066917","5589.714634415086","1.895","0.0","0.0","0.0","","","","-2.7066723960245619","33.04133214922501","0.0","0.0","0.0","0.0","1.37184996968528E-08"
"3","25200.383572671817","25200.383462226015","121","22494","3598.7945662717008","5722.696828947522","1.895","0.0","0.0","0.0","","","","1.299115324480694","-30.279152619776654","0.0","0.0","0.0","0.0","2.89737611002722E-07"
"3","25200.392894665903","25200.392784793163","13","23181","3587.621125049737","5872.473496813367","1.895","0.0","0.0","0.0","","","","-0.029101612366944298","29.99480800781916","0.0","0.0","0.0","0.0","3.79808749913541E-09"
"2","25200.399999999998","","","","3587.0699653412586","5686.95455693538","1.895","","","","0.0","0.0","0.0","-1.590311978018508","38.050343956231497","0.0","0.0","0.0","0.0",""
"3","25200.433398625264","25200.433288063854","97","25530","3641.3358425370149","5242.6040973395679","1.895","0.0","0.0","0.0","","","","4.671244270699748","-29.67036011739618","0.0","0.0","0.0","0.0","4.83354602313369E-09"
"3","25200.437699909777","25200.437587209977","7","26096","3588.82255477119","5912.4196493720669","1.895","0.0","0.0","0.0","","","","1.2778285862106549","30.0127556771802","0.0","0.0","0.0","0.0","1.83153504137927E-08"
"3","25200.447237498232","25200.447125378527","103","27601","3619.696834022857","5450.483355697797","1.895","0.0","0.0","0.0","","","","3.6747657175940229","-29.662049064108115","0.0","0.0","0.0","0.0","2.21669414547375E-08"
"3","25200.456265676487","25200.45615033596","31","28167","3590.771313271069","6027.30776646186","1.895","0.0","0.0","0.0","","","","3.8688760317551336","36.588911310234028","0.0","0.0","0.0","0.0","1.12258820855358E-08"
"3","25200.468765677007","25200.468651198316","67","29475","3593.7018667780837","5985.566884397889","1.895","0.0","0.0","0.0","","","","2.224026758356544","29.868794599281399","0.0","0.0","0.0","0.0","3.23556303099881E-09"
"3","25200.483510680304","25200.483393540373","739","31023","3818.6585273643597","5261.730950082028","1.895","0.0","0.0","0.0","","","","0.8642273429122007","-0.5983647271048042","0.0","0.0","0.0","0.0","2.05268435760959E-09"
"2","25200.5","","","","3586.9109529142126","5690.759142215529","1.895","","","","0.0","0.0","0.0","-1.5901264914374363","38.04590594126851","0.0","0.0","0.0","0.0",""
"3","25200.592196530688","25200.592080666684","565","35977","3592.4108390240846","5640.43828515152","1.895","0.0","0.0","0.0","","","","-2.656804111051523","32.4325718980727","0.0","0.0","0.0","0.0","7.59056806518878E-09"
"2","25200.6","","","","3586.7524590624109","5694.551319888443","1.895","","","","0.0","0.0","0.0","-1.5849407317501599","37.921829695627788","0.0","0.0","0.0","0.0",""
"3","25200.62124581264","25200.621140327534","1207","38516","3581.7056631763878","5736.289516238321","1.895","0.0","0.0","0.0","","","","-1.398559006099595","33.42836359342893","0.0","0.0","0.0","0.0","2.38033522142799E-07"
"3","25200.630937818638","25200.630831810413","1039","39109","5560.0","5820.0","1.895","0.0","0.0","0.0","","","","-1.3937861645515748","33.31428311353671","0.0","0.0","0.0","0.0","0.00001736998612003744"
"3","25200.644107892374","25200.64399019652","115","40089","3593.767336672087","5686.009514159608","1.895","0.0","0.0","0.0","","","","1.3700958355344293","-31.875699030843504","0.0","0.0","0.0","0.0","0.0000015119515888728237"
"3","25200.670752204802","25200.6706378737","43","41936","3584.7585057373328","5742.259323664141","1.895","0.0","0.0","0.0","","","","-1.5657704164638822","37.463154227873889","0.0","0.0","0.0","0.0","1.96128282584953E-08"
"2","25200.7","","","","3586.5941757914467","5698.338459132779","1.895","","","","0.0","0.0","0.0","-1.5828349204281358","37.8714453394653","0.0","0.0","0.0","0.0",""
"3","25200.72216268619","25200.722055605147","151","44728","3595.312259744827","5964.529421653061","1.895","0.0","0.0","0.0","","","","-1.9879277673411314","-29.94679490449674","0.0","0.0","0.0","0.0","1.37666568907823E-09"
"3","25200.73739286177","25200.73727857764","787","46414","3597.622150361864","5673.105016800781","1.895","0.0","0.0","0.0","","","","1.293853336121748","-30.12913927703657","0.0","0.0","0.0","0.0","1.22751135855715E-07"
"2","25200.8","","","","3586.4364413307714","5702.112467355951","1.895","","","","0.0","0.0","0.0","-1.577346809878998","37.740134944429048","0.0","0.0","0.0","0.0",""
"3","25200.858895706224","25200.858777468093","703","51797","3584.367637500103","5824.541400855502","1.895","0.0","0.0","0.0","","","","-0.0322476363983411","33.27211900001629","0.0","0.0","0.0","0.0","6.66593280218444E-09"
"3","25200.860657706555","25200.86055117147","295","52120","5560.0","5820.0","1.895","0.0","0.0","0.0","","","","-0.031140702419763308","32.096482439935247","0.0","0.0","0.0","0.0","8.9041261490434E-09"
"3","25200.865046817067","25200.864933292847","145","52741","5560.0","5820.0","1.895","0.0","0.0","0.0","","","","-2.059919145624484","-31.039601969725678","0.0","0.0","0.0","0.0","1.72392506760658E-08"
"3","25200.87012390127","25200.870012145257","19","53374","3590.2552953742044","5689.706706317157","1.895","0.0","0.0","0.0","","","","-1.3542004202855645","32.434160401694047","0.0","0.0","0.0","0.0","7.71241213831062E-07"
"3","25200.891634390788","25200.891522682505","421","56179","3592.8612629479569","5925.618957115369","1.895","0.0","0.0","0.0","","","","-1.1692409025022579","-29.928691167353504","0.0","0.0","0.0","0.0","5.70910407783716E-09"
"2","25200.899999999998","","","","3586.279530963413","5705.866758042806","1.895","","","","0.0","0.0","0.0","-1.5691058651940396","37.542959305861788","0.0","0.0","0.0","0.0",""
"3","25200.932782347638","25200.93266553362","829","60493","3813.7495548476606","5264.734124086928","1.895","0.0","0.0","0.0","","","","0.8424417995703613","-0.31823614674231257","0.0","0.0","0.0","0.0","2.84033043261771E-09"
"3","25200.9825521137","25200.982444882393","1231","63811","3591.341468594417","5886.717259657097","1.895","0.0","0.0","0.0","","","","-1.166619903150921","-29.861602272354945","0.0","0.0","0.0","0.0","1.77496297652009E-08"
"3","25200.98416084709","25200.984042235417","133","64134","3638.053875648112","5263.450178992346","1.895","0.0","0.0","0.0","","","","4.671113051298453","-29.669526650622616","0.0","0.0","0.0","0.0","2.00729180955509E-09"
"3","25200.998952644804","25200.998847002862","139","65212","5560.0","5820.0","1.895","0.0","0.0","0.0","","","","2.5105825467108038","-29.822511776732765","0.0","0.0","0.0","0.0","1.7881796684075E-08"
"2","25201.0","","","","3586.122339434612","5709.62777589374","1.895","","","","0.0","0.0","0.0","-1.571917483550871","37.61023104060933","0.0","0.0","0.0","0.0",""
"3","25201.009463668976","25201.009356701747","85","66859","5560.0","5820.0","1.895","0.0","0.0","0.0","","","","2.67295790018012","-31.7534984223266","0.0","0.0","0.0","0.0","1.76988149426825E-08"
"3","25201.02022192835","25201.020107550547","91","67221","3599.737631462839","5594.56047384131","1.895","0.0","0.0","0.0","","","","2.6716196382469414","-31.73760049209288","0.0","0.0","0.0","0.0","6.23866969213968E-09"
"3","25201.030777844993","25201.030661048833","931","68379","3588.3159765517668","5736.154910596842","1.895","0.0","0.0","0.0","","","","-1.35049537123068","32.345421575793348","0.0","0.0","0.0","0.0","8.09681818649628E-07"
"3","25201.069964213373","25201.069859017385","313","72499","5560.0","5820.0","1.895","0.0","0.0","0.0","","","","-0.019327055525180795","-33.138652580500998","0.0","0.0","0.0","0.0","7.32233608985394E-08"
"2","25201.1","","","","3585.9657903216277","5713.373423085882","1.895","","","","0.0","0.0","0.0","-1.5654933164111873","37.456524237997019","0.0","0.0","0.0","0.0",""
"2","25201.2","","","","3585.8094800897717","5717.113354727102","1.895","","","","0.0","0.0","0.0","-1.563104501792862","37.399368648948257","0.0","0.0","0.0","0.0",""
"3","25201.24991088752","25201.249796275046","109","78579","3601.6130446765139","5657.005095375657","1.895","0.0","0.0","0.0","","","","1.2858013060840768","-29.96883590854243","0.0","0.0","0.0","0.0","6.69966552565997E-08"
"3","25201.28868574409","25201.288569958415","751","80993","3600.7266310142706","5996.2286489747989","1.895","0.0","0.0","0.0","","","","-2.0776215332067289","-31.306347907567664","0.0","0.0","0.0","0.0","5.03600432391635E-09"
"2","25201.3","","","","3585.6529621571464","5720.858255887388","1.895","","","","0.0","0.0","0.0","-1.5651815123826776","37.44906390902023","0.0","0.0","0.0","0.0",""
"3","25201.357462823828","25201.357346880246","811","84809","3596.1656365345077","5707.02192742599","1.895","0.0","0.0","0.0","","","","1.375992740220093","-32.04186730981301","0.0","0.0","0.0","0.0","7.79334705709162E-07"
"3","25201.359550376845","25201.35944446898","73","85722","3593.876701967626","5622.543964259961","1.895","0.0","0.0","0.0","","","","-2.6862378935205077","32.791880761739758","0.0","0.0","0.0","0.0","1.19457785714316E-07"
"3","25201.383568388177","25201.383462226015","121","87519","3600.0892223148418","5692.521611103742","1.895","0.0","0.0","0.0","","","","1.29731443516246","-30.237178361230354","0.0","0.0","0.0","0.0","1.37485626114514E-07"
"3","25201.392897588863","25201.392784793163","13","88199","3588.3958101976875","5902.3965674350179","1.895","0.0","0.0","0.0","","","","1.2697178899187947","29.8222572419016","0.0","0.0","0.0","0.0","7.59264882368341E-09"
"2","25201.399999999998","","","","3585.4970670241098","5724.588255733413","1.895","","","","0.0","0.0","0.0","-1.5589535078024744","37.300050558271689","0.0","0.0","0.0","0.0",""
"3","25201.43770283292","25201.437587209977","7","91142","3590.4800990088749","5942.298376326446","1.895","0.0","0.0","0.0","","","","2.22868392727733","29.9313406192061","0.0","0.0","0.0","0.0","3.67548226331785E-09"
"3","25201.44214307912","25201.44203563034","511","91989","3593.221910340235","5979.121044569375","1.895","0.0","0.0","0.0","","","","2.233633942873614","29.997819585141735","0.0","0.0","0.0","0.0","2.21511498389539E-09"
"3","25201.45626864504","25201.45615033596","31","93242","3594.6449205536466","6063.941422373684","1.895","0.0","0.0","0.0","","","","3.8719540016497575","36.61802042785287","0.0","0.0","0.0","0.0","2.16464953340374E-09"
"3","25201.468768645358","25201.468651198316","67","94556","3596.1533743700058","6015.388350063933","1.895","0.0","0.0","0.0","","","","3.1392552166937475","29.727924513656896","0.0","0.0","0.0","0.0","5.76931793353995E-09"
"2","25201.5","","","","3585.3413663417779","5728.31360308591","1.895","","","","0.0","0.0","0.0","-1.5570089980391689","37.25352555801995","0.0","0.0","0.0","0.0",""
"3","25201.574439624528","25201.574325255817","127","98982","3601.507953955567","5958.11383828919","1.895","0.0","0.0","0.0","","","","-2.1103587122271447","-31.808185521659884","0.0","0.0","0.0","0.0","6.84872747988872E-09"
"3","25201.592191993972","25201.592080666684","565","100327","3590.957399326057","5672.890766924467","1.895","0.0","0.0","0.0","","","","-1.3589127921504097","32.547025397720599","0.0","0.0","0.0","0.0","3.31865814094071E-08"
"2","25201.6","","","","3585.186391056777","5732.021594335725","1.895","","","","0.0","0.0","0.0","-1.5497550145914594","37.079964288787987","0.0","0.0","0.0","0.0",""
"3","25201.621254248206","25201.621140327534","1207","102824","3581.1207167364375","5769.726644604248","1.895","0.0","0.0","0.0","","","","-0.03240893358009442","33.473442399903408","0.0","0.0","0.0","0.0","3.38454495640351E-07"
"3","25201.63094626935","25201.630831810413","1039","103412","5560.0","5820.0","1.895","0.0","0.0","0.0","","","","-1.3873949795566434","33.16152098131922","0.0","0.0","0.0","0.0","0.000005494786069644752"
"3","25201.64410379305","25201.64399019652","115","104371","3595.1365395676209","5654.15458965128","1.895","0.0","0.0","0.0","","","","1.365399060108528","-31.76642711269672","0.0","0.0","0.0","0.0","1.78983225911575E-08"
"3","25201.670748107892","25201.6706378737","43","106221","3584.411486061371","5779.299804525731","1.895","0.0","0.0","0.0","","","","-0.03558409100768428","36.7145702057093","0.0","0.0","0.0","0.0","2.03979714556029E-08"
"2","25201.7","","","","3585.031444286832","5735.728903324657","1.895","","","","0.0","0.0","0.0","-1.5494698636417664","37.073141670417999","0.0","0.0","0.0","0.0",""
"3","25201.73738876509","25201.73727857764","787","110630","3598.969523243027","5642.979003858973","1.895","0.0","0.0","0.0","","","","1.6520718599213145","-30.099714048107374","0.0","0.0","0.0","0.0","5.76358149911956E-08"
"3","25201.75100890233","25201.75089203054","1345","111471","3607.086412852412","6056.195316882182","1.895","0.0","0.0","0.0","","","","-3.911022201494138","-33.958015908202657","0.0","0.0","0.0","0.0","3.31596748656442E-09"
"2","25201.8","","","","3584.8764256672759","5739.437931411766","1.895","","","","0.0","0.0","0.0","-1.550188360758041","37.09033267619776","0.0","0.0","0.0","0.0",""
"3","25201.858889902647","25201.858777468093","703","116356","3584.3356176036315","5857.578544807012","1.895","0.0","0.0","0.0","","","","-0.03182304746630892","32.83404120423119","0.0","0.0","0.0","0.0","1.03862738044447E-08"
"3","25201.860664903197","25201.86055117147","295","116694","5560.0","5820.0","1.895","0.0","0.0","0.0","","","","-0.031083667045839947","32.03769651876654","0.0","0.0","0.0","0.0","2.43521520520967E-08"
"3","25201.870117709623","25201.870012145257","19","117919","3588.9039098865889","5722.073446877363","1.895","0.0","0.0","0.0","","","","-1.3509469854123726","32.35623808905535","0.0","0.0","0.0","0.0","8.25554542283105E-07"
"3","25201.89164075092","25201.891522682505","421","120706","3591.6911982759318","5895.669180178948","1.895","0.0","0.0","0.0","","","","-1.1718992095565642","-29.996735015876138","0.0","0.0","0.0","0.0","6.63849939053844E-09"
"2","25201.899999999998","","","","3584.7217486636848","5743.138785879388","1.895","","","","0.0","0.0","0.0","-1.5467721963315183","37.00859636716196","0.0","0.0","0.0","0.0",""
"3","25201.90271078984","25201.90259847138","37","121643","3581.7313926425465","5900.940287339112","1.895","0.0","0.0","0.0","","","","1.6704461571822507","39.041432548019269","0.0","0.0","0.0","0.0","7.6202877534474E-09"
"3","25201.922462561717","25201.922347980086","523","123761","3649.5160709808098","5233.0961293105369","1.895","0.0","0.0","0.0","","","","6.02390803450491","-38.26640021751883","0.0","0.0","0.0","0.0","3.33361425229147E-09"
"3","25201.940327621152","25201.94020969351","439","126258","3593.8684739590978","6025.195188639074","1.895","0.0","0.0","0.0","","","","3.8962955288098506","36.872517200086367","0.0","0.0","0.0","0.0","2.75325714679767E-09"
"3","25201.949681903705","25201.9495710514","61","127221","5560.0","5820.0","1.895","0.0","0.0","0.0","","","","3.147025037509746","29.80150268130944","0.0","0.0","0.0","0.0","7.46441196291755E-09"
"3","25201.98255290371","25201.982444882393","1231","128436","3591.224063021732","5856.738279213084","1.895","0.0","0.0","0.0","","","","-0.017419724759385824","-29.929264603139769","0.0","0.0","0.0","0.0","5.54820363980929E-08"
"3","25201.9841497053","25201.984042235417","133","128759","3642.718067077097","5233.824616436679","1.895","0.0","0.0","0.0","","","","4.676056832007839","-29.70092808148098","0.0","0.0","0.0","0.0","2.98525369966802E-09"
"2","25202.0","","","","3584.5679063775398","5746.819668614179","1.895","","","","0.0","0.0","0.0","-1.5384250102125","36.80887875990885","0.0","0.0","0.0","0.0",""
"3","25202.00947140063","25202.009356701747","85","131253","5560.0","5820.0","1.895","0.0","0.0","0.0","","","","2.6655699061910598","-31.665732485025463","0.0","0.0","0.0","0.0","1.9855345149697E-09"
"3","25202.020216659985","25202.020107550547","91","131633","3602.4063902396108","5562.856859054847","1.895","0.0","0.0","0.0","","","","2.665209571173566","-31.661451872354829","0.0","0.0","0.0","0.0","1.93762981974751E-08"
"3","25202.030766803877","25202.030661048833","931","132764","3587.7220570780825","5768.443631598203","1.895","0.0","0.0","0.0","","","","-0.03129444809386684","32.25494692357349","0.0","0.0","0.0","0.0","2.73506188384516E-07"
"3","25202.044132503936","25202.044016361702","961","133783","3622.376558866007","5287.161036872166","1.895","0.0","0.0","0.0","","","","-4.468750875109289","28.649574302189597","0.0","0.0","0.0","0.0","2.40101633061512E-09"
"3","25202.069970516808","25202.069859017385","313","136778","5560.0","5820.0","1.895","0.0","0.0","0.0","","","","1.4081985328303653","-32.82161136200857","0.0","0.0","0.0","0.0","1.41651757758649E-07"
"3","25202.09035057942","25202.090232982067","601","137134","3824.0779091174579","5261.960878484056","1.895","0.0","0.0","0.0","","","","3.3043971549262136","-2.343799587407648","0.0","0.0","0.0","0.0","1.45404255132725E-09"
"2","25202.1","","","","3584.439399591328","5750.499483194055","1.895","","","","0.0","0.0","0.0","-1.3311057528200415","36.80085215813829","0.0","0.0","0.0","0.0",""
"2","25202.2","","","","3584.435830985327","5754.181461062565","1.895","","","","0.0","0.0","0.0","-0.10194849746631873","36.81970626590779","0.0","0.0","0.0","0.0",""
"3","25202.249906644978","25202.249796275046","109","143246","3603.6167221363609","5627.068410903576","1.895","0.0","0.0","0.0","","","","2.5217064858452287","-29.95259506154209","0.0","0.0","0.0","0.0","2.19711370686447E-09"
"3","25202.28868104829","25202.288569958415","751","145385","3598.653741924521","5964.9936112259379","1.895","0.0","0.0","0.0","","","","-2.0672885959670777","-31.150647495841427","0.0","0.0","0.0","0.0","1.3957082352593E-08"
"2","25202.3","","","","3584.4322719704739","5757.853543079602","1.895","","","","0.0","0.0","0.0","-0.03559019823936163","36.72087145943901","0.0","0.0","0.0","0.0",""
"3","25202.35745857961","25202.357346880246","811","149248","3597.5383032671536","5675.057510738058","1.895","0.0","0.0","0.0","","","","1.3695851149638887","-31.89265701805124","0.0","0.0","0.0","0.0","8.04095599276988E-08"
"3","25202.359558711705","25202.35944446898","73","150160","3591.692149916772","5655.292914968769","1.895","0.0","0.0","0.0","","","","-1.3670231882539266","32.74127573474342","0.0","0.0","0.0","0.0","2.3987998014674E-08"
"3","25202.383576732278","25202.383462226015","121","151997","3601.3838119634485","5662.347940751708","1.895","0.0","0.0","0.0","","","","1.2943109029871296","-30.16717348374066","0.0","0.0","0.0","0.0","1.15217994382906E-08"
"3","25202.392892892196","25202.392784793163","13","152682","3589.7357009880186","5932.3010723365009","1.895","0.0","0.0","0.0","","","","1.6093350265548899","29.95855949309632","0.0","0.0","0.0","0.0","3.0065253596267E-09"
"2","25202.399999999998","","","","3584.4287174712478","5761.520966011943","1.895","","","","0.0","0.0","0.0","-0.035545041909200197","36.67428054740514","0.0","0.0","0.0","0.0",""
"3","25202.437698136284","25202.437587209977","7","155702","3592.700818198117","5972.122750101139","1.895","0.0","0.0","0.0","","","","2.224378809081377","29.8735226587713","0.0","0.0","0.0","0.0","1.24789332285526E-08"
"3","25202.442151382576","25202.44203563034","511","156500","3595.473123892586","6008.946556247498","1.895","0.0","0.0","0.0","","","","2.404205450040687","29.84021651619918","0.0","0.0","0.0","0.0","2.73316016982916E-09"
"3","25202.447241945694","25202.447125378527","103","157191","3627.0498965576946","5391.130755167221","1.895","0.0","0.0","0.0","","","","3.680646513733085","-29.709517794639074","0.0","0.0","0.0","0.0","1.44605789397615E-09"
"3","25202.466424607985","25202.466310772812","55","158434","3628.3519565553808","5291.662766641378","1.895","0.0","0.0","0.0","","","","-5.11982502623898","32.821115602536448","0.0","0.0","0.0","0.0","5.3589071303472E-09"
"3","25202.468769625106","25202.468651198316","67","158746","3599.2940164148828","6045.129407477162","1.895","0.0","0.0","0.0","","","","3.1515207759461827","29.844076146577718","0.0","0.0","0.0","0.0","2.12158431126503E-08"
"2","25202.5","","","","3584.4251763609615","5765.17457464807","1.895","","","","0.0","0.0","0.0","-0.035411152323265349","36.53613739232056","0.0","0.0","0.0","0.0",""
"3","25202.5744406034","25202.574325255817","127","163266","3599.504549055268","5926.403009900276","1.895","0.0","0.0","0.0","","","","-1.465358793425792","-31.71596776087846","0.0","0.0","0.0","0.0","3.86548330222125E-09"
"3","25202.592194372835","25202.592080666684","565","164633","3589.605426172604","5705.271582541616","1.895","0.0","0.0","0.0","","","","-1.3553406083627038","32.461468798928859","0.0","0.0","0.0","0.0","1.07058455361754E-07"
"2","25202.6","","","","3584.4216346676259","5768.8287848567729","1.895","","","","0.0","0.0","0.0","-0.03541698282309765","36.54215312648166","0.0","0.0","0.0","0.0",""
"3","25202.62125660411","25202.621140327534","1207","167155","3581.0883276458237","5803.179592271483","1.895","0.0","0.0","0.0","","","","-0.03230373254942039","33.36478591998639","0.0","0.0","0.0","0.0","3.19325967463575E-08"
"3","25202.630948646598","25202.630831810413","1039","167744","5560.0","5820.0","1.895","0.0","0.0","0.0","","","","-0.032190944436835729","33.248293150829457","0.0","0.0","0.0","0.0","0.0000015975040197656459"
"3","25202.644106627733","25202.64399019652","115","168696","3597.399626411952","5622.334887979937","1.895","0.0","0.0","0.0","","","","2.6782515049690258","-31.816383988609059","0.0","0.0","0.0","0.0","2.38285545194749E-09"
"3","25202.6707509393","25202.6706378737","43","170537","3584.3763032905164","5815.600304946408","1.895","0.0","0.0","0.0","","","","-0.034829723236955458","35.93623675120664","0.0","0.0","0.0","0.0","6.53400343579077E-09"
"3","25202.6821216139","25202.682014642094","1369","172054","3611.451891651705","6065.268578546891","1.895","0.0","0.0","0.0","","","","-3.912493868641075","-33.99140989353644","0.0","0.0","0.0","0.0","1.20562586812309E-08"
"2","25202.7","","","","3584.4181074824134","5772.468026030324","1.895","","","","0.0","0.0","0.0","-0.035271901388107599","36.39246256589109","0.0","0.0","0.0","0.0",""
"3","25202.737386659486","25202.73727857764","787","175276","3601.4991476899988","5612.930298645387","1.895","0.0","0.0","0.0","","","","2.5335950220390419","-30.09587057042592","0.0","0.0","0.0","0.0","5.38285525869963E-09"
"3","25202.75101038027","25202.75089203054","1345","176135","3603.18236047136","6022.297817448022","1.895","0.0","0.0","0.0","","","","-3.898198371519858","-33.846671149735119","0.0","0.0","0.0","0.0","2.34791891115336E-08"
"2","25202.8","","","","3584.4145857951655","5776.10159457273","1.895","","","","0.0","0.0","0.0","-0.03521692166475504","36.33573617520256","0.0","0.0","0.0","0.0",""
"3","25202.85889242097","25202.858777468093","703","181775","3584.5760359402786","5890.24303397451","1.895","0.0","0.0","0.0","","","","1.3868221708167655","32.49226288097305","0.0","0.0","0.0","0.0","3.9749450090452E-08"
"3","25202.86066742155","25202.86055117147","295","182115","5560.0","5820.0","1.895","0.0","0.0","0.0","","","","-0.031084237627347468","32.03828461273724","0.0","0.0","0.0","0.0","1.20381093040514E-07"
"3","25202.8650426918","25202.864933292847","145","182696","5560.0","5820.0","1.895","0.0","0.0","0.0","","","","-0.018132732954242827","-31.122569525375796","0.0","0.0","0.0","0.0","5.86480384103668E-08"
"3","25202.870119836498","25202.870012145257","19","183323","3587.7357069850306","5754.374777506032","1.895","0.0","0.0","0.0","","","","-0.05185652857127479","32.34568917157011","0.0","0.0","0.0","0.0","5.94500905180835E-07"
"3","25202.88321456433","25202.88310359204","1381","184551","3636.4121968923175","5197.177266070976","1.895","0.0","0.0","0.0","","","","-4.532585075459688","29.05882125219212","0.0","0.0","0.0","0.0","2.31019892522863E-09"
"3","25202.8916294344","25202.891522682505","421","186471","3591.229275984191","5865.694800338204","1.895","0.0","0.0","0.0","","","","-0.017475908806275574","-30.025795818705185","0.0","0.0","0.0","0.0","4.81801102006939E-08"
"2","25202.899999999998","","","","3584.4110604244744","5779.73896357883","1.895","","","","0.0","0.0","0.0","-0.035253756151476727","36.37374086523222","0.0","0.0","0.0","0.0",""
"3","25202.902712905892","25202.90259847138","37","187405","3583.7027266123925","5940.054355999027","1.895","0.0","0.0","0.0","","","","2.898709591146979","39.0399609529901","0.0","0.0","0.0","0.0","2.64126662799704E-09"
"3","25202.940316723634","25202.94020969351","439","192106","3597.765038048945","6062.070247361297","1.895","0.0","0.0","0.0","","","","3.890732794861342","36.81987437516961","0.0","0.0","0.0","0.0","5.85646916947776E-09"
"3","25202.982552908343","25202.982444882393","1231","193987","3591.2065982888655","5826.731685056448","1.895","0.0","0.0","0.0","","","","-0.01747217094805261","-30.01937371104566","0.0","0.0","0.0","0.0","9.28768596844165E-09"
"3","25202.984159158783","25202.984042235417","133","194320","3647.375662383564","5204.240950497667","1.895","0.0","0.0","0.0","","","","4.648445481339701","-29.525548959736054","0.0","0.0","0.0","0.0","2.07766646378055E-09"
"3","25202.998960158846","25202.998847002862","139","195460","5560.0","5820.0","1.895","0.0","0.0","0.0","","","","2.5150167254740065","-29.87518415293445","0.0","0.0","0.0","0.0","2.39482855958015E-09"
"2","25203.0","","","","3584.407546749022","5783.364265797687","1.895","","","","0.0","0.0","0.0","-0.035136803599310217","36.25307282425381","0.0","0.0","0.0","0.0",""
"3","25203.009471869784","25203.009356701747","85","196878","5560.0","5820.0","1.895","0.0","0.0","0.0","","","","2.663467633570867","-31.640758462674666","0.0","0.0","0.0","0.0","3.19787839688151E-09"
"3","25203.020217129153","25203.020107550547","91","197260","3605.0762307687125","5531.140393553103","1.895","0.0","0.0","0.0","","","","2.67088710662203","-31.728898356641204","0.0","0.0","0.0","0.0","4.57619718073721E-09"
"3","25203.03076724498","25203.030661048833","931","198402","3587.6907462853307","5800.7154248352539","1.895","0.0","0.0","0.0","","","","-0.03134491153534172","32.30695920452092","0.0","0.0","0.0","0.0","4.08679726657259E-07"
"3","25203.044132568226","25203.044016361702","961","199442","3617.9100487915954","5315.796245194275","1.895","0.0","0.0","0.0","","","","-4.457438878260743","28.577052046361815","0.0","0.0","0.0","0.0","1.32119089638509E-09"
"3","25203.069965654144","25203.069859017385","313","202599","5560.0","5820.0","1.895","0.0","0.0","0.0","","","","1.392374222112676","-32.45278596961572","0.0","0.0","0.0","0.0","9.26838229601016E-08"
"2","25203.1","","","","3584.4040274282976","5786.995392634394","1.895","","","","0.0","0.0","0.0","-0.03519325640089151","36.311319084110738","0.0","0.0","0.0","0.0",""
"2","25203.2","","","","3584.400523905603","5790.610219549439","1.895","","","","0.0","0.0","0.0","-0.035035275876332049","36.14831963981354","0.0","0.0","0.0","0.0",""
"3","25203.249914274656","25203.249796275046","109","209147","3606.134018201712","5597.16820240641","1.895","0.0","0.0","0.0","","","","2.5298600315407588","-30.049442118811734","0.0","0.0","0.0","0.0","1.53588262566225E-08"
"3","25203.28702589463","25203.286915045464","241","210966","3628.7888167044759","5205.002247620627","1.895","0.0","0.0","0.0","","","","-12.144618797230203","-1.6196751548196667","0.0","0.0","0.0","0.0","1.68222930916284E-09"
"2","25203.3","","","","3584.3970264102538","5794.218827635854","1.895","","","","0.0","0.0","0.0","-0.034975002346852159","36.08613126666787","0.0","0.0","0.0","0.0",""
"3","25203.359553214468","25203.35944446898","73","216003","3590.325430116416","5688.026924325845","1.895","0.0","0.0","0.0","","","","-1.3667127176784569","32.73383972144058","0.0","0.0","0.0","0.0","2.26322327197634E-08"
"3","25203.392900712468","25203.392784793163","13","218510","3591.9562576271416","5962.1232630546669","1.895","0.0","0.0","0.0","","","","2.228800156410338","29.9329015824499","0.0","0.0","0.0","0.0","2.21129801552383E-09"
"2","25203.399999999998","","","","3584.3935345720617","5797.821598841506","1.895","","","","0.0","0.0","0.0","-0.03491843069553884","36.02776237751044","0.0","0.0","0.0","0.0",""
"3","25203.43769295675","25203.437587209977","7","221221","3594.9205432559667","6001.933772639722","1.895","0.0","0.0","0.0","","","","2.2263741529779086","29.900320230687428","0.0","0.0","0.0","0.0","1.66984450589427E-08"
"3","25203.44214620298","25203.44203563034","511","222012","3598.6125059486469","6038.675681896718","1.895","0.0","0.0","0.0","","","","3.149805337147385","29.82783139053694","0.0","0.0","0.0","0.0","4.45881517035209E-09"
"2","25203.5","","","","3584.390032567896","5801.434858985637","1.895","","","","0.0","0.0","0.0","-0.03502009056711797","36.13265190879844","0.0","0.0","0.0","0.0",""
"3","25203.57443542469","25203.574325255817","127","228695","3598.2626401979885","5894.751487476903","1.895","0.0","0.0","0.0","","","","-1.2426139807139647","-31.66949333168083","0.0","0.0","0.0","0.0","5.52456057600464E-08"
"3","25203.592186503625","25203.592080666684","565","230081","3588.2548430515555","5737.619105794294","1.895","0.0","0.0","0.0","","","","-1.3537043982506945","32.4222802855974","0.0","0.0","0.0","0.0","1.08987678130853E-07"
"2","25203.6","","","","3584.386549923098","5805.028144729791","1.895","","","","0.0","0.0","0.0","-0.03482649662284348","35.932907630046418","0.0","0.0","0.0","0.0",""
"3","25203.621248716256","25203.621140327534","1207","232553","3581.0559590565355","5836.611365223244","1.895","0.0","0.0","0.0","","","","-0.03231820861528484","33.379737468937957","0.0","0.0","0.0","0.0","1.31999252283023E-07"
"3","25203.630940777184","25203.630831810413","1039","233134","5560.0","5820.0","1.895","0.0","0.0","0.0","","","","-0.03218688541736756","33.2441008081833","0.0","0.0","0.0","0.0","5.2257573046063E-07"
"3","25203.644099211742","25203.64399019652","115","234041","3600.07389564052","5590.565811585411","1.895","0.0","0.0","0.0","","","","2.67086580725444","-31.72864532998231","0.0","0.0","0.0","0.0","5.02885591728494E-09"
"3","25203.670743519957","25203.6706378737","43","235871","3584.341724902605","5851.27722164301","1.895","0.0","0.0","0.0","","","","-0.03434380065707503","35.434876788480547","0.0","0.0","0.0","0.0","1.3285091865671E-08"
"3","25203.682126730033","25203.682014642094","1369","237399","3607.5451607579054","6031.327236882628","1.895","0.0","0.0","0.0","","","","-3.9087023343926239","-33.958469370409378","0.0","0.0","0.0","0.0","1.54361297532545E-08"
"2","25203.7","","","","3584.383069537222","5808.619099787818","1.895","","","","0.0","0.0","0.0","-0.03480390736847827","35.909600736214859","0.0","0.0","0.0","0.0",""
"3","25203.722165678566","25203.722055605147","151","238986","3591.234534162112","5874.729007278808","1.895","0.0","0.0","0.0","","","","-0.0174381619165377","-29.960941938560187","0.0","0.0","0.0","0.0","2.46385525924421E-08"
"3","25203.737397187015","25203.73727857764","787","240714","3604.0273970354189","5582.897927880652","1.895","0.0","0.0","0.0","","","","2.531358237090349","-30.06930042416176","0.0","0.0","0.0","0.0","2.60822785222149E-08"
"3","25203.751003385372","25203.75089203054","1345","241596","3600.201674813167","5988.318420280431","1.895","0.0","0.0","0.0","","","","-2.260963739100092","-34.06901415462505","0.0","0.0","0.0","0.0","3.17818412985317E-09"
"3","25203.75201184748","25203.751904670848","1393","241919","5560.0","5820.0","1.895","0.0","0.0","0.0","","","","-3.425581778819316","-29.72511845532135","0.0","0.0","0.0","0.0","1.38865518744776E-08"
"2","25203.8","","","","3584.3795899753765","5812.209204636738","1.895","","","","0.0","0.0","0.0","-0.03479566705764295","35.9010986332753","0.0","0.0","0.0","0.0",""
"3","25203.858884386827","25203.858777468093","703","247488","3585.9559286959718","5922.572945558647","1.895","0.0","0.0","0.0","","","","1.3771613597914716","32.26591690944301","0.0","0.0","0.0","0.0","4.96925207797861E-08"
"3","25203.860659387195","25203.86055117147","295","247814","5560.0","5820.0","1.895","0.0","0.0","0.0","","","","-0.031057742630241016","32.01097642637551","0.0","0.0","0.0","0.0","1.21010387098567E-07"
"3","25203.865047395546","25203.864933292847","145","248394","5560.0","5820.0","1.895","0.0","0.0","0.0","","","","-0.018142103132931594","-31.138652260981396","0.0","0.0","0.0","0.0","7.48309683070586E-08"
"3","25203.870124562694","25203.870012145257","19","249028","3587.7043756229688","5786.667771372946","1.895","0.0","0.0","0.0","","","","-0.03132979431649913","32.29137800334628","0.0","0.0","0.0","0.0","2.43698801461006E-07"
"3","25203.89163372239","25203.891522682505","421","252450","3591.2118213022747","5835.70547496997","1.895","0.0","0.0","0.0","","","","-0.017457192566784936","-29.993638979729345","0.0","0.0","0.0","0.0","1.2686546281466E-07"
"2","25203.899999999998","","","","3584.376121396488","5815.7879776081249","1.895","","","","0.0","0.0","0.0","-0.034685837329992707","35.78777969966484","0.0","0.0","0.0","0.0",""
"3","25203.98255851831","25203.982444882393","1231","259192","3591.1891485000039","5796.750766569325","1.895","0.0","0.0","0.0","","","","-0.017435954663057999","-29.95714960117591","0.0","0.0","0.0","0.0","4.29297405068645E-07"
"3","25203.998964603208","25203.998847002862","139","260282","5560.0","5820.0","1.895","0.0","0.0","0.0","","","","2.5102060466913227","-29.818039437725277","0.0","0.0","0.0","0.0","5.10922361962481E-09"
"2","25204.0","","","","3584.3726605689637","5819.358752961102","1.895","","","","0.0","0.0","0.0","-0.034608323582577139","35.707803403868549","0.0","0.0","0.0","0.0",""
"3","25204.009475629515","25204.009356701747","85","261691","5560.0","5820.0","1.895","0.0","0.0","0.0","","","","2.6634338672633794","-31.640357334595767","0.0","0.0","0.0","0.0","4.76049417175854E-09"
"3","25204.020220888935","25204.020107550547","91","262035","3607.745770865799","5499.427497044173","1.895","0.0","0.0","0.0","","","","2.6608281270821414","-31.609402351471947","0.0","0.0","0.0","0.0","5.1406187638855E-09"
"3","25204.03077097999","25204.030661048833","931","263159","3587.659485844433","5832.9353208032139","1.895","0.0","0.0","0.0","","","","-0.03128227423018846","32.24239941592538","0.0","0.0","0.0","0.0","9.66104599078257E-07"
"3","25204.06997402061","25204.069859017385","313","267211","5560.0","5820.0","1.895","0.0","0.0","0.0","","","","1.3777483401545443","-32.111892976003769","0.0","0.0","0.0","0.0","5.10880246828195E-09"
"2","25204.1","","","","3584.369203280184","5822.925877145566","1.895","","","","0.0","0.0","0.0","-0.03457293608016985","35.671291667728009","0.0","0.0","0.0","0.0",""
"2","25204.2","","","","3584.365742681795","5826.496416083614","1.895","","","","0.0","0.0","0.0","-0.03460603222466565","35.7054392512786","0.0","0.0","0.0","0.0",""
"3","25204.249913921954","25204.249796275046","109","273670","3608.6505240239728","5567.277380343165","1.895","0.0","0.0","0.0","","","","2.5148781387723289","-29.87148859017284","0.0","0.0","0.0","0.0","9.13459227315489E-09"
"3","25204.288675622767","25204.288569958415","751","275747","3595.2799281853529","5902.948828734174","1.895","0.0","0.0","0.0","","","","-1.2115153015037972","-30.943841098664686","0.0","0.0","0.0","0.0","1.24789453027801E-08"
"2","25204.3","","","","3584.3622957902928","5830.052812677472","1.895","","","","0.0","0.0","0.0","-0.034468963163854757","35.564015611832157","0.0","0.0","0.0","0.0",""
"3","25204.359552644066","25204.35944446898","73","280429","3588.9630762836989","5720.656365339422","1.895","0.0","0.0","0.0","","","","-1.361006355350406","32.59716787554398","0.0","0.0","0.0","0.0","4.40641116855828E-08"
"2","25204.399999999998","","","","3584.358850758271","5833.6072907165839","1.895","","","","0.0","0.0","0.0","-0.03445036833307476","35.544830037580457","0.0","0.0","0.0","0.0",""
"3","25204.437697969577","25204.437587209977","7","285613","3597.8786622707646","6031.726374511676","1.895","0.0","0.0","0.0","","","","3.156678836019051","29.892921624200385","0.0","0.0","0.0","0.0","1.45766911727175E-08"
"3","25204.44215121574","25204.44203563034","511","286397","3601.7548206331055","6068.432578768605","1.895","0.0","0.0","0.0","","","","3.1399420139973808","29.7344283041941","0.0","0.0","0.0","0.0","4.59877294336559E-09"
"3","25204.44724125724","25204.447125378527","103","287064","3634.4029270204275","5331.7784135169099","1.895","0.0","0.0","0.0","","","","3.6802521207696929","-29.70633432545622","0.0","0.0","0.0","0.0","3.14289250032804E-09"
"3","25204.46642326636","25204.466310772812","55","288263","3619.7182467626596","5357.38370225334","1.895","0.0","0.0","0.0","","","","-3.7988413744512048","32.916556377544029","0.0","0.0","0.0","0.0","5.01058766029897E-09"
"2","25204.5","","","","3584.3554267898746","5837.140035954963","1.895","","","","0.0","0.0","0.0","-0.03423973178697715","35.327501726717219","0.0","0.0","0.0","0.0",""
"3","25204.574433202353","25204.574325255817","127","292974","3597.8278571007065","5863.159481298496","1.895","0.0","0.0","0.0","","","","-0.01842968061502309","-31.59999112292855","0.0","0.0","0.0","0.0","3.8368616816207E-07"
"3","25204.592198641985","25204.592080666684","565","294044","3587.7206287711599","5769.915776556289","1.895","0.0","0.0","0.0","","","","-0.03131221203411735","32.27325608014385","0.0","0.0","0.0","0.0","1.52936370353976E-08"
"2","25204.6","","","","3584.3520029947428","5840.672602424459","1.895","","","","0.0","0.0","0.0","-0.03423799914047863","35.32571403537228","0.0","0.0","0.0","0.0",""
"3","25204.62124783997","25204.621140327534","1207","296564","3581.0235451224896","5870.089972333506","1.895","0.0","0.0","0.0","","","","-0.03237709255072927","33.44055551256483","0.0","0.0","0.0","0.0","6.79767345436544E-08"
"3","25204.63093991579","25204.630831810413","1039","297138","5560.0","5820.0","1.895","0.0","0.0","0.0","","","","-0.03224423634640067","33.303335494655659","0.0","0.0","0.0","0.0","0.000001656011302626534"
"3","25204.644098800254","25204.64399019652","115","298056","3602.7480548826977","5558.798041778116","1.895","0.0","0.0","0.0","","","","2.6809239919232445","-31.848131892443779","0.0","0.0","0.0","0.0","1.15099557052626E-08"
"3","25204.67074722066","25204.6706378737","43","299911","3584.410796780993","5886.371597308219","1.895","0.0","0.0","0.0","","","","0.7641689816322106","34.814546429777","0.0","0.0","0.0","0.0","6.84987905087904E-08"
"3","25204.682129970657","25204.682014642094","1369","301428","3604.1081445417919","5997.304969199374","1.895","0.0","0.0","0.0","","","","-2.260496731924819","-34.07112686746045","0.0","0.0","0.0","0.0","1.9761646665694E-09"
"2","25204.7","","","","3584.3485775039496","5844.206918425085","1.895","","","","0.0","0.0","0.0","-0.03425495577692459","35.34320937111413","0.0","0.0","0.0","0.0",""
"3","25204.722169222165","25204.722055605147","151","302983","3591.2170569742695","5844.701013916168","1.895","0.0","0.0","0.0","","","","-0.01745741871229325","-29.994027525980834","0.0","0.0","0.0","0.0","0.000005157121999821363"
"3","25204.737388148238","25204.73727857764","787","304688","3606.5508103031927","5552.923003537173","1.895","0.0","0.0","0.0","","","","2.5294981251296799","-30.047204671554167","0.0","0.0","0.0","0.0","1.42276362934397E-08"
"3","25204.750997935236","25204.75089203054","1345","305561","3597.9416036840887","5954.262856294418","1.895","0.0","0.0","0.0","","","","-2.260355766276175","-34.059853001624038","0.0","0.0","0.0","0.0","1.58852554479783E-08"
"3","25204.752019425112","25204.751904670848","1393","305882","5560.0","5820.0","1.895","0.0","0.0","0.0","","","","-3.43216666220533","-29.78225807458273","0.0","0.0","0.0","0.0","1.55892561269572E-08"
"2","25204.8","","","","3584.345152362496","5847.740873988033","1.895","","","","0.0","0.0","0.0","-0.034251462377708308","35.33960498929206","0.0","0.0","0.0","0.0",""
"3","25204.85888642529","25204.858777468093","703","311707","3588.0888377066619","5954.592658414119","1.895","0.0","0.0","0.0","","","","2.3719703906252858","31.9007485868762","0.0","0.0","0.0","0.0","2.79554518038768E-09"
"3","25204.860661425562","25204.86055117147","295","312026","5560.0","5820.0","1.895","0.0","0.0","0.0","","","","1.3607372172033039","31.960056365484065","0.0","0.0","0.0","0.0","1.74689519339575E-07"
"3","25204.865049665448","25204.864933292847","145","312608","5560.0","5820.0","1.895","0.0","0.0","0.0","","","","-0.01811419572883692","-31.090752695118679","0.0","0.0","0.0","0.0","7.18324745616901E-08"
"3","25204.87012667121","25204.870012145257","19","313268","3587.673107973659","5818.895096995505","1.895","0.0","0.0","0.0","","","","-0.031408079348950578","32.372065784100808","0.0","0.0","0.0","0.0","4.85414670931903E-07"
"3","25204.89163341345","25204.891522682505","421","316429","3591.1943714410888","5805.724432220348","1.895","0.0","0.0","0.0","","","","-0.017464259149925156","-30.005780252887506","0.0","0.0","0.0","0.0","3.48232246731267E-07"
"2","25204.899999999998","","","","3584.341737656117","5851.264062962001","1.895","","","","0.0","0.0","0.0","-0.034147111481543989","35.23193894912599","0.0","0.0","0.0","0.0",""
"3","25204.90270452388","25204.90259847138","37","317386","3589.800917461148","6018.130494837337","1.895","0.0","0.0","0.0","","","","4.117651980634028","38.94164658912591","0.0","0.0","0.0","0.0","5.15609275589557E-09"
"3","25204.9161668133","25204.916048120427","1417","318453","5560.0","5820.0","1.895","0.0","0.0","0.0","","","","-3.423537270499058","-29.707377453668685","0.0","0.0","0.0","0.0","9.32658846613097E-09"
"3","25204.98255237578","25204.982444882393","1231","323542","3591.1716939588029","5766.76168296817","1.895","0.0","0.0","0.0","","","","-0.017428200885920204","-29.9438276480421","0.0","0.0","0.0","0.0","3.84309458332233E-08"
"3","25204.998954109822","25204.998847002862","139","324636","5560.0","5820.0","1.895","0.0","0.0","0.0","","","","2.5125977354439934","-29.84644964316868","0.0","0.0","0.0","0.0","5.65409741334727E-09"
"2","25205.0","","","","3584.3383192596199","5854.791059286232","1.895","","","","0.0","0.0","0.0","-0.03418401271717209","35.2700125049267","0.0","0.0","0.0","0.0",""
"3","25205.00947443976","25205.009356701747","85","326025","5560.0","5820.0","1.895","0.0","0.0","0.0","","","","2.6639725340752435","-31.646756446170053","0.0","0.0","0.0","0.0","5.25708098079397E-09"
"3","25205.020219699134","25205.020107550547","91","326390","3610.9106811051058","5467.766353088415","1.895","0.0","0.0","0.0","","","","3.908226713852171","-31.56180297863194","0.0","0.0","0.0","0.0","7.51020749298595E-09"
"3","25205.030769768946","25205.030661048833","931","327531","3587.6282647717478","5865.114640258032","1.895","0.0","0.0","0.0","","","","-0.03129722535351685","32.257809423731199","0.0","0.0","0.0","0.0","8.06519112738304E-07"
"3","25205.06997232861","25205.069859017385","313","331553","5560.0","5820.0","1.895","0.0","0.0","0.0","","","","2.6830492664177729","-31.8690096005456","0.0","0.0","0.0","0.0","2.14339935724829E-08"
"2","25205.1","","","","3584.3349235639377","5858.294633608278","1.895","","","","0.0","0.0","0.0","-0.03395700424891416","35.035792155936139","0.0","0.0","0.0","0.0",""
"2","25205.2","","","","3584.3315150982759","5861.811383602023","1.895","","","","0.0","0.0","0.0","-0.03408470422364115","35.167549056949969","0.0","0.0","0.0","0.0",""
"3","25205.249903643835","25205.249796275046","109","338069","3611.16633786615","5537.394777554975","1.895","0.0","0.0","0.0","","","","2.5129940755033179","-29.84910986192524","0.0","0.0","0.0","0.0","2.5154959577898E-09"
"3","25205.28867672399","25205.288569958415","751","340203","3594.533019923134","5872.06957056867","1.895","0.0","0.0","0.0","","","","-0.017907728215080567","-30.736377016183299","0.0","0.0","0.0","0.0","0.0000010310695854889179"
"2","25205.3","","","","3584.328115875589","5865.318596978666","1.895","","","","0.0","0.0","0.0","-0.03399227434555968","35.072182752744129","0.0","0.0","0.0","0.0",""
"3","25205.357455589805","25205.357346880246","811","344059","3604.2165356892135","5580.651202419418","1.895","0.0","0.0","0.0","","","","2.6181003854103506","-31.09968627755426","0.0","0.0","0.0","0.0","3.20234041811906E-09"
"3","25205.35955559028","25205.35944446898","73","344949","3587.7368254007189","5753.222035059254","1.895","0.0","0.0","0.0","","","","-0.4900052694391774","32.61456971482817","0.0","0.0","0.0","0.0","4.68735676459533E-09"
"3","25205.383574804968","25205.383462226015","121","346739","3608.2373998146269","5572.184431271614","1.895","0.0","0.0","0.0","","","","2.520323058721391","-29.9361628428236","0.0","0.0","0.0","0.0","1.7659391011912E-08"
"2","25205.399999999998","","","","3584.32472808975","5868.814010167926","1.895","","","","0.0","0.0","0.0","-0.03387790571045875","34.954180714084838","0.0","0.0","0.0","0.0",""
"3","25205.437700880535","25205.437587209977","7","350123","3601.016708161361","6061.44284702398","1.895","0.0","0.0","0.0","","","","3.1425745701207585","29.75935792100764","0.0","0.0","0.0","0.0","2.33494080280622E-09"
"3","25205.447244619107","25205.447125378527","103","351256","3638.6419914887267","5302.172860804037","1.895","0.0","0.0","0.0","","","","4.649484835947053","-29.53548535576505","0.0","0.0","0.0","0.0","1.64154863119856E-09"
"3","25205.46642662353","25205.466310772812","55","352428","3615.917473097848","5390.317001721309","1.895","0.0","0.0","0.0","","","","-3.8033935785385259","32.956000741705398","0.0","0.0","0.0","0.0","1.3364133195107E-09"
"2","25205.5","","","","3584.321338033977","5872.311765405177","1.895","","","","0.0","0.0","0.0","-0.033900605077960447","34.977601226700539","0.0","0.0","0.0","0.0",""
"3","25205.57443765072","25205.574325255817","127","357260","3597.8094721316626","5831.636153751384","1.895","0.0","0.0","0.0","","","","-0.01838308969000887","-31.520105158130105","0.0","0.0","0.0","0.0","2.78671551421981E-08"
"3","25205.59218984556","25205.592080666684","565","358325","3587.6892783244709","5802.228440801657","1.895","0.0","0.0","0.0","","","","-0.03148457635329936","32.45091065804399","0.0","0.0","0.0","0.0","2.10529448572044E-08"
"2","25205.6","","","","3584.317964820442","5875.7921433394899","1.895","","","","0.0","0.0","0.0","-0.033732182466352667","34.80382795461204","0.0","0.0","0.0","0.0",""
"3","25205.621252031873","25205.621140327534","1207","360805","3581.842907476129","5903.546596339074","1.895","0.0","0.0","0.0","","","","1.430067047034955","33.42332580784755","0.0","0.0","0.0","0.0","1.81783116881921E-08"
"3","25205.63094411941","25205.630831810413","1039","361369","5560.0","5820.0","1.895","0.0","0.0","0.0","","","","-0.03231777885583317","33.37929358918542","0.0","0.0","0.0","0.0","0.000002373282571464675"
"3","25205.644103450337","25205.64399019652","115","362244","3605.4219758191818","5527.033102931782","1.895","0.0","0.0","0.0","","","","2.670266422227766","-31.721524914282634","0.0","0.0","0.0","0.0","1.2878635160201E-08"
"3","25205.670751420497","25205.6706378737","43","364077","3585.8843546800119","5920.896016972601","1.895","0.0","0.0","0.0","","","","1.462004128853724","34.253722998740929","0.0","0.0","0.0","0.0","8.28638580222002E-08"
"3","25205.682120718287","25205.682014642094","1369","365577","3601.8469079629655","5963.222691058235","1.895","0.0","0.0","0.0","","","","-2.257392758982523","-34.02434252386921","0.0","0.0","0.0","0.0","2.70608105892999E-08"
"2","25205.7","","","","3584.3145950028767","5879.269017416517","1.895","","","","0.0","0.0","0.0","-0.03369822271959159","34.76878933282012","0.0","0.0","0.0","0.0",""
"3","25205.722160830992","25205.722055605147","151","367128","3591.1996147611055","5814.733111423578","1.895","0.0","0.0","0.0","","","","-0.017478448928286633","-30.03016006583557","0.0","0.0","0.0","0.0","7.31558263301416E-08"
"3","25205.737392780888","25205.73727857764","787","368844","3609.0723025178497","5522.970898849337","1.895","0.0","0.0","0.0","","","","2.523882045858054","-29.980492827977924","0.0","0.0","0.0","0.0","8.32060782948704E-09"
"3","25205.750998057614","25205.75089203054","1345","369719","3595.9577045144467","5920.26020978059","1.895","0.0","0.0","0.0","","","","-1.3223761356448914","-33.77538605017551","0.0","0.0","0.0","0.0","1.28117381605576E-07"
"3","25205.752019572745","25205.751904670848","1393","370054","5560.0","5820.0","1.895","0.0","0.0","0.0","","","","-1.9834971918685825","-29.880051264644455","0.0","0.0","0.0","0.0","3.00695239891377E-09"
"2","25205.8","","","","3584.3112249788125","5882.7461045529","1.895","","","","0.0","0.0","0.0","-0.03370028771287","34.770919929346479","0.0","0.0","0.0","0.0",""
"3","25205.85888657558","25205.858777468093","703","375857","3590.4468038166785","5986.305062729662","1.895","0.0","0.0","0.0","","","","2.3549800241276017","31.67224429686328","0.0","0.0","0.0","0.0","4.51968346437312E-08"
"3","25205.86066157597","25205.86055117147","295","376160","5560.0","5820.0","1.895","0.0","0.0","0.0","","","","1.4751709505290714","32.00104433679275","0.0","0.0","0.0","0.0","3.2506694000719E-09"
"3","25205.865050252734","25205.864933292847","145","376750","5560.0","5820.0","1.895","0.0","0.0","0.0","","","","-0.018105909272760319","-31.076530029069717","0.0","0.0","0.0","0.0","9.78284302715125E-08"
"3","25205.870127252736","25205.870012145257","19","377390","3587.641794005627","5851.170162969519","1.895","0.0","0.0","0.0","","","","-0.03138250495053382","32.345706448379","0.0","0.0","0.0","0.0","5.66608040779325E-07"
"3","25205.891636756456","25205.891522682505","421","380479","3591.1769127919576","5775.7282906817149","1.895","0.0","0.0","0.0","","","","-0.017471917696355606","-30.01893859297373","0.0","0.0","0.0","0.0","3.88480350348221E-08"
"2","25205.899999999998","","","","3584.4040931225524","5886.214535330907","1.895","","","","0.0","0.0","0.0","0.7086820321831442","34.6971967063866","0.0","0.0","0.0","0.0",""
"3","25205.902707895144","25205.90259847138","37","381451","3593.920050359339","6057.086146827697","1.895","0.0","0.0","0.0","","","","4.115685751784428","38.923051479744497","0.0","0.0","0.0","0.0","3.48722071931512E-09"
"3","25205.982555895047","25205.982444882393","1231","387553","3591.5848959839906","5736.784664862257","1.895","0.0","0.0","0.0","","","","1.2835015763168348","-29.861057081702645","0.0","0.0","0.0","0.0","1.52511214108588E-09"
"3","25205.998957628977","25205.998847002862","139","388655","5560.0","5820.0","1.895","0.0","0.0","0.0","","","","3.0192785867462086","-29.84725975308446","0.0","0.0","0.0","0.0","3.14474168093246E-09"
"2","25206.0","","","","3584.5518242780269","5889.675771847308","1.895","","","","0.0","0.0","0.0","1.4773136181536014","34.612413508145539","0.0","0.0","0.0","0.0",""
"3","25206.03077318719","25206.030661048833","931","391571","3588.1787872105558","5897.299281336248","1.895","0.0","0.0","0.0","","","","1.366891427695385","32.10460221296898","0.0","0.0","0.0","0.0","0.0000015526648296319993"
"3","25206.044124361862","25206.044016361702","961","392545","3607.9077194270109","5402.207250407942","1.895","0.0","0.0","0.0","","","","-3.315590094867878","28.740986614059535","0.0","0.0","0.0","0.0","1.93603255057964E-09"
"3","25206.069975362647","25206.069859017385","313","395695","5560.0","5820.0","1.895","0.0","0.0","0.0","","","","2.662814390025029","-31.628661621073208","0.0","0.0","0.0","0.0","5.47621727154166E-09"
"2","25206.1","","","","3584.7000560561934","5893.148737599402","1.895","","","","0.0","0.0","0.0","1.4823198520634676","34.729706028892319","0.0","0.0","0.0","0.0",""
"2","25206.2","","","","3584.8472157872336","5896.596586045334","1.895","","","","0.0","0.0","0.0","1.4715993658248053","34.47853261646231","0.0","0.0","0.0","0.0",""
"3","25206.24990298649","25206.249796275046","109","402192","3613.6823169209","5507.510212387216","1.895","0.0","0.0","0.0","","","","2.5115392094607018","-29.83182909840743","0.0","0.0","0.0","0.0","4.96704563471928E-09"
"3","25206.288675987562","25206.288569958415","751","404293","3594.5150994229318","5841.311272034516","1.895","0.0","0.0","0.0","","","","-0.01788207468165037","-30.69234592796811","0.0","0.0","0.0","0.0","1.24765786642768E-07"
"2","25206.3","","","","3584.9943140909847","5900.042995293321","1.895","","","","0.0","0.0","0.0","1.470985092077533","34.464140616898699","0.0","0.0","0.0","0.0",""
"3","25206.35745925339","25206.357346880246","811","408338","3606.830523026366","5549.600373898138","1.895","0.0","0.0","0.0","","","","2.607489130892626","-30.9736381365244","0.0","0.0","0.0","0.0","4.78340297906946E-09"
"3","25206.359559253808","25206.35944446898","73","409238","3587.7052071834625","5785.810688368759","1.895","0.0","0.0","0.0","","","","-0.03147761782787499","32.44373856246797","0.0","0.0","0.0","0.0","3.01588122212778E-08"
"2","25206.399999999998","","","","3585.140886546946","5903.477084299414","1.895","","","","0.0","0.0","0.0","1.4657266068396309","34.340938025888579","0.0","0.0","0.0","0.0",""
"3","25206.46642270116","25206.466310772812","55","416353","3612.117807919065","5423.240696275762","1.895","0.0","0.0","0.0","","","","-3.8095693796683225","33.00951340147316","0.0","0.0","0.0","0.0","2.20161177543205E-09"
"2","25206.5","","","","3585.2873138067768","5906.907771462819","1.895","","","","0.0","0.0","0.0","1.4642746434964516","34.30691955148734","0.0","0.0","0.0","0.0",""
"3","25206.574433723887","25206.574325255817","127","421580","3597.79112179141","5800.172201596592","1.895","0.0","0.0","0.0","","","","-0.01833653685759962","-31.440284507864449","0.0","0.0","0.0","0.0","6.21014188341179E-08"
"3","25206.59219872646","25206.592080666684","565","422654","3587.657928186864","5834.540786477791","1.895","0.0","0.0","0.0","","","","-0.03141965542958182","32.383997161360557","0.0","0.0","0.0","0.0","6.53253521015486E-09"
"2","25206.6","","","","3585.4338741479175","5910.341576627221","1.895","","","","0.0","0.0","0.0","1.4656054584558858","34.338099605006679","0.0","0.0","0.0","0.0",""
"3","25206.62124790487","25206.621140327534","1207","424968","3583.473631899124","5936.968897321884","1.895","0.0","0.0","0.0","","","","2.4731320172541384","33.308261607154559","0.0","0.0","0.0","0.0","1.70764393605968E-07"
"3","25206.63094000117","25206.630831810413","1039","425518","5560.0","5820.0","1.895","0.0","0.0","0.0","","","","1.4228929928849584","33.25565482364337","0.0","0.0","0.0","0.0","3.92138634367166E-07"
"3","25206.670744070936","25206.6706378737","43","428244","3588.1084585004889","5954.856539453032","1.895","0.0","0.0","0.0","","","","2.506208300564271","33.70612096113354","0.0","0.0","0.0","0.0","1.1254043649143E-07"
"3","25206.68212609462","25206.682014642094","1369","429743","3599.6241419085329","5929.450975823537","1.895","0.0","0.0","0.0","","","","-2.0902751562462549","-33.51735578738234","0.0","0.0","0.0","0.0","1.87518820894871E-07"
"2","25206.7","","","","3585.5797663014948","5913.759726629468","1.895","","","","0.0","0.0","0.0","1.4589235734922466","34.18154776479198","0.0","0.0","0.0","0.0",""
"3","25206.722166910415","25206.722055605147","151","431282","3591.1821677654586","5784.756992028331","1.895","0.0","0.0","0.0","","","","-0.017369207630209554","-29.842469860571116","0.0","0.0","0.0","0.0","2.72884945846902E-09"
"3","25206.737385861463","25206.73727857764","787","432985","3611.5954211263144","5492.999474681833","1.895","0.0","0.0","0.0","","","","2.5269155040029416","-30.016526433528325","0.0","0.0","0.0","0.0","3.680056487321E-09"
"3","25206.751007915103","25206.75089203054","1345","433865","3594.6380777587266","5886.5550468430569","1.895","0.0","0.0","0.0","","","","-1.3151006066098299","-33.58955858757714","0.0","0.0","0.0","0.0","2.94970026323333E-07"
"3","25206.752016275048","25206.751904670848","1393","434168","5560.0","5820.0","1.895","0.0","0.0","0.0","","","","-1.979335309385795","-29.817355303963269","0.0","0.0","0.0","0.0","1.51577313349787E-07"
"2","25206.8","","","","3585.725524903739","5917.174747618412","1.895","","","","0.0","0.0","0.0","1.4575880582969354","34.15025758806952","0.0","0.0","0.0","0.0",""
"3","25206.858883583405","25206.858777468093","703","439913","3593.08325321406","6017.764267341353","1.895","0.0","0.0","0.0","","","","3.308222228912865","31.30729692736569","0.0","0.0","0.0","0.0","1.30288573937175E-08"
"3","25206.860658583977","25206.86055117147","295","440212","5560.0","5820.0","1.895","0.0","0.0","0.0","","","","2.3784752078311199","31.943045278235695","0.0","0.0","0.0","0.0","1.03210455760009E-07"
"3","25206.86504769628","25206.864933292847","145","440809","5560.0","5820.0","1.895","0.0","0.0","0.0","","","","-0.01812730820126088","-31.113258614976098","0.0","0.0","0.0","0.0","3.07788130645027E-09"
"3","25206.87012469628","25206.870012145257","19","441459","3587.6105336818325","5883.389938240941","1.895","0.0","0.0","0.0","","","","-0.031305286725145538","32.26611821745826","0.0","0.0","0.0","0.0","2.75050416192674E-08"
"3","25206.891631407212","25206.891522682505","421","444566","3591.199557833173","5745.749674901683","1.895","0.0","0.0","0.0","","","","0.24913417201590386","-29.945698690344284","0.0","0.0","0.0","0.0","2.32390744889183E-09"
"2","25206.899999999998","","","","3585.871541392345","5920.595810702466","1.895","","","","0.0","0.0","0.0","1.4601669255160115","34.21067862356404","0.0","0.0","0.0","0.0",""
"3","25206.916156963358","25206.916048120427","1417","446305","5560.0","5820.0","1.895","0.0","0.0","0.0","","","","-1.98308734782572","-29.873877239780105","0.0","0.0","0.0","0.0","3.91379753529124E-08"
"3","25206.99895812035","25206.998847002862","139","452480","5560.0","5820.0","1.895","0.0","0.0","0.0","","","","3.6827118261913496","-29.73340016798526","0.0","0.0","0.0","0.0","4.79302549920927E-09"
"2","25207.0","","","","3586.017621706312","5924.0183691696079","1.895","","","","0.0","0.0","0.0","1.460805180020488","34.22563247531286","0.0","0.0","0.0","0.0",""
"3","25207.020223532843","25207.020107550547","91","454236","3618.7307266716895","5404.613737969735","1.895","0.0","0.0","0.0","","","","3.899894806249695","-31.494516701391818","0.0","0.0","0.0","0.0","3.71292310187475E-09"
"3","25207.030767427223","25207.030661048833","931","455349","3589.547316942495","5929.442362908245","1.895","0.0","0.0","0.0","","","","1.368331431763903","32.138424034353267","0.0","0.0","0.0","0.0","0.0000060060110507557"
"3","25207.06997115522","25207.069859017385","313","459425","5560.0","5820.0","1.895","0.0","0.0","0.0","","","","2.6513065510657385","-31.491972580411315","0.0","0.0","0.0","0.0","6.45737896028408E-09"
"2","25207.1","","","","3586.1631841133628","5927.428793443891","1.895","","","","0.0","0.0","0.0","1.4556261036174847","34.10429037725192","0.0","0.0","0.0","0.0",""
"2","25207.2","","","","3586.323093486006","5930.845075950831","1.895","","","","0.0","0.0","0.0","1.5654241245437646","34.166367120893237","0.0","0.0","0.0","0.0",""
"3","25207.249908888472","25207.249796275046","109","466116","3616.334346189472","5477.624753750418","1.895","0.0","0.0","0.0","","","","3.3500883358412207","-30.02186870691697","0.0","0.0","0.0","0.0","3.40925111610123E-09"
"3","25207.288684971216","25207.288569958415","751","468561","3594.4972362994678","5810.6514534988259","1.895","0.0","0.0","0.0","","","","-0.017857758851266799","-30.650610849364587","0.0","0.0","0.0","0.0","3.19053709310024E-09"
"2","25207.3","","","","3586.5760547490465","5934.247164647364","1.895","","","","0.0","0.0","0.0","2.376363598289336","34.031982562031739","0.0","0.0","0.0","0.0",""
"3","25207.359550923255","25207.35944446898","73","473603","3587.673688954759","5818.296284244913","1.895","0.0","0.0","0.0","","","","-0.031586066542697518","32.55551581556209","0.0","0.0","0.0","0.0","1.24120062942633E-08"
"3","25207.38357097157","25207.383462226015","121","475378","3613.2861537475148","5512.215801708302","1.895","0.0","0.0","0.0","","","","2.5319503229238164","-30.074270405413974","0.0","0.0","0.0","0.0","4.54743745444937E-09"
"2","25207.399999999998","","","","3586.829196846483","5937.651685394751","1.895","","","","0.0","0.0","0.0","2.531424510075781","34.04525502584193","0.0","0.0","0.0","0.0",""
"2","25207.5","","","","3587.081810367579","5941.049097292466","1.895","","","","0.0","0.0","0.0","2.5261387392912195","33.974166429815358","0.0","0.0","0.0","0.0",""
"3","25207.57443380865","25207.574325255817","127","486249","3597.77278692274","5768.734777402919","1.895","0.0","0.0","0.0","","","","-0.018353116580586375","-31.468712515389169","0.0","0.0","0.0","0.0","1.56681492578043E-08"
"2","25207.6","","","","3587.333316320487","5944.431613450146","1.895","","","","0.0","0.0","0.0","2.5150630419413679","33.82520882141586","0.0","0.0","0.0","0.0",""
"3","25207.621247982377","25207.621140327534","1207","489711","3585.950358618669","5970.3255725533349","1.895","0.0","0.0","0.0","","","","2.4748215873269698","33.33101681860177","0.0","0.0","0.0","0.0","9.21574099693331E-08"
"3","25207.63094008441","25207.630831810413","1039","490277","5560.0","5820.0","1.895","0.0","0.0","0.0","","","","1.426762389252415","33.34608981110584","0.0","0.0","0.0","0.0","5.13126266443041E-07"
"3","25207.67074348725","25207.6706378737","43","493452","3590.6035375380627","5988.41298239878","1.895","0.0","0.0","0.0","","","","2.4826472770917387","33.38924757636561","0.0","0.0","0.0","0.0","5.54997612980666E-08"
"3","25207.68212581505","25207.682014642094","1369","494979","3598.312036812002","5896.010418860581","1.895","0.0","0.0","0.0","","","","-1.3069005403679808","-33.307912666923687","0.0","0.0","0.0","0.0","5.09625893492794E-08"
"2","25207.7","","","","3587.5845561435769","5947.8105504145619","1.895","","","","0.0","0.0","0.0","2.5124017400387199","33.78941683878627","0.0","0.0","0.0","0.0",""
"3","25207.722166753618","25207.722055605147","151","496559","3591.1647016145295","5754.747961463836","1.895","0.0","0.0","0.0","","","","-0.017508482779887818","-30.081761971886299","0.0","0.0","0.0","0.0","1.36077338360269E-08"
"3","25207.75100370489","25207.75089203054","1345","499549","3594.5220489364535","5853.2392433048939","1.895","0.0","0.0","0.0","","","","-0.01929552443719818","-33.11835575932221","0.0","0.0","0.0","0.0","9.33943906200883E-08"
"3","25207.752011709672","25207.751904670848","1393","499878","5560.0","5820.0","1.895","0.0","0.0","0.0","","","","-1.9834321650537748","-29.87907167941086","0.0","0.0","0.0","0.0","1.33260961030666E-07"
"2","25207.8","","","","3587.835622847273","5951.187159087592","1.895","","","","0.0","0.0","0.0","2.5106705436888885","33.766133892414028","0.0","0.0","0.0","0.0",""
"3","25207.858892358956","25207.858777468093","703","506137","3596.3861896440805","6049.021542213367","1.895","0.0","0.0","0.0","","","","3.290094162899271","31.13574232608561","0.0","0.0","0.0","0.0","2.45921013439249E-08"
"3","25207.860667359473","25207.86055117147","295","506419","5560.0","5820.0","1.895","0.0","0.0","0.0","","","","2.377481310367755","31.929697183798916","0.0","0.0","0.0","0.0","1.63139824683644E-07"
"3","25207.865043905396","25207.864933292847","145","507022","5560.0","5820.0","1.895","0.0","0.0","0.0","","","","1.3332288232321997","-31.04605118822792","0.0","0.0","0.0","0.0","4.80405706646309E-09"
"3","25207.870120905394","25207.870012145257","19","507699","3588.956728350093","5915.571025765889","1.895","0.0","0.0","0.0","","","","1.3700971829265308","32.17989677868902","0.0","0.0","0.0","0.0","1.55565738302709E-07"
"3","25207.883222597968","25207.88310359204","1381","508904","3612.480597607386","5362.567540187626","1.895","0.0","0.0","0.0","","","","-3.9877148457582058","34.56725823256845","0.0","0.0","0.0","0.0","2.60543128944212E-09"
"3","25207.884672776952","25207.884553708787","1399","509282","3618.8369882953086","5336.249434773997","1.895","0.0","0.0","0.0","","","","-4.215535861159253","36.534644130054399","0.0","0.0","0.0","0.0","2.07853036518787E-09"
"3","25207.89164059829","25207.891522682505","421","510949","3592.4880880350308","5715.771625307446","1.895","0.0","0.0","0.0","","","","1.2852313186760345","-29.90130006719658","0.0","0.0","0.0","0.0","2.36552072424824E-08"
"2","25207.899999999998","","","","3588.0860289461768","5954.554883253677","1.895","","","","0.0","0.0","0.0","2.504064486533885","33.67728869886305","0.0","0.0","0.0","0.0",""
"3","25207.916165730974","25207.916048120427","1417","512782","5560.0","5820.0","1.895","0.0","0.0","0.0","","","","-1.9837927320510072","-29.884503378723534","0.0","0.0","0.0","0.0","9.62163632992993E-08"
"3","25207.982559215867","25207.982444882393","1231","518046","3594.1610785693649","5676.84898838621","1.895","0.0","0.0","0.0","","","","1.2836377790680458","-29.864225880398427","0.0","0.0","0.0","0.0","4.59624264870924E-09"
"3","25207.998960948233","25207.998847002862","139","519168","5560.0","5820.0","1.895","0.0","0.0","0.0","","","","3.685472652848123","-29.755690471337834","0.0","0.0","0.0","0.0","1.79474328521423E-09"
"2","25208.0","","","","3588.3361581057508","5957.918882848846","1.895","","","","0.0","0.0","0.0","2.5012950893688807","33.64004293768189","0.0","0.0","0.0","0.0",""
"3","25208.030776310792","25208.030661048833","931","522214","3591.910761767972","5961.512251308726","1.895","0.0","0.0","0.0","","","","2.392719438157104","32.134346029572238","0.0","0.0","0.0","0.0","0.000014953626868854437"
"3","25208.044124629992","25208.044016361702","961","523238","3601.2668443572176","5459.773263101144","1.895","0.0","0.0","0.0","","","","-3.3158350076012867","28.743109624868646","0.0","0.0","0.0","0.0","1.35575986456361E-09"
"3","25208.06997139582","25208.069859017385","313","526774","5560.0","5820.0","1.895","0.0","0.0","0.0","","","","2.6246039548372965","-31.17480162637212","0.0","0.0","0.0","0.0","2.20895534383823E-09"
"2","25208.1","","","","3588.5856577853085","5961.274416535747","1.895","","","","0.0","0.0","0.0","2.4950002804138369","33.555383736761459","0.0","0.0","0.0","0.0",""
"2","25208.2","","","","3588.8358391941876","5964.639118834438","1.895","","","","0.0","0.0","0.0","2.5018175831502766","33.647069982717699","0.0","0.0","0.0","0.0",""
"3","25208.24990427367","25208.249796275046","109","533610","3620.0171812639975","5447.89757028602","1.895","0.0","0.0","0.0","","","","3.685107045389822","-29.745522405281986","0.0","0.0","0.0","0.0","2.81589320945188E-09"
"3","25208.288676265573","25208.288569958415","751","536312","3594.479418031834","5780.0686243892619","1.895","0.0","0.0","0.0","","","","-0.01776611224373466","-30.493310903356375","0.0","0.0","0.0","0.0","1.48424507715632E-08"
"2","25208.3","","","","3589.0857177710979","5967.999748330812","1.895","","","","0.0","0.0","0.0","2.498789259231469","33.60634190265594","0.0","0.0","0.0","0.0",""
"3","25208.332974786295","25208.33285815981","1459","539457","3602.1536967800009","6042.211327586851","1.895","0.0","0.0","0.0","","","","-3.6241671846232914","-31.44832201377233","0.0","0.0","0.0","0.0","3.37930720039244E-08"
"3","25208.35746643899","25208.357346880246","811","540547","3612.0294346665298","5487.843948554525","1.895","0.0","0.0","0.0","","","","2.5929830149464756","-30.801324019944088","0.0","0.0","0.0","0.0","1.99582579357138E-09"
"3","25208.359554566192","25208.35944446898","73","541497","3587.642149194637","5850.804072389187","1.895","0.0","0.0","0.0","","","","-0.031640617944423129","32.611741525694068","0.0","0.0","0.0","0.0","5.04312884733707E-09"
"2","25208.399999999998","","","","3589.334972868612","5971.351992621559","1.895","","","","0.0","0.0","0.0","2.492554456561918","33.5224897292746","0.0","0.0","0.0","0.0",""
"2","25208.5","","","","3589.5845241687245","5974.708220555883","1.895","","","","0.0","0.0","0.0","2.495516486679757","33.56232622068671","0.0","0.0","0.0","0.0",""
"3","25208.592193032313","25208.592080666684","565","555770","3588.253920891449","5899.063969364132","1.895","0.0","0.0","0.0","","","","1.3721447532889549","32.22798869780901","0.0","0.0","0.0","0.0","2.01689856869984E-08"
"2","25208.6","","","","3589.8340320373138","5978.063864377478","1.895","","","","0.0","0.0","0.0","2.495082170846261","33.55648508524308","0.0","0.0","0.0","0.0",""
"3","25208.62125520332","25208.621140327534","1207","558110","3588.4264299802805","6003.673421392449","1.895","0.0","0.0","0.0","","","","2.4732885735829366","33.31037011539612","0.0","0.0","0.0","0.0","9.34252021580788E-07"
"3","25208.630947307574","25208.630831810413","1039","558665","5560.0","5820.0","1.895","0.0","0.0","0.0","","","","2.4674385967381577","33.23158234434364","0.0","0.0","0.0","0.0","2.28091240327237E-07"
"3","25208.670754598348","25208.6706378737","43","561905","3593.477715841166","6021.49725676559","1.895","0.0","0.0","0.0","","","","3.4556486034943036","32.70246356508013","0.0","0.0","0.0","0.0","2.55505896853378E-07"
"3","25208.682124367344","25208.682014642094","1369","563458","3597.8276977243119","5862.886210548149","1.895","0.0","0.0","0.0","","","","-0.019234518708346094","-32.9799866352071","0.0","0.0","0.0","0.0","1.52537759752371E-08"
"2","25208.7","","","","3590.0815529500266","5981.392785529977","1.895","","","","0.0","0.0","0.0","2.4752125843296599","33.28925802103174","0.0","0.0","0.0","0.0",""
"3","25208.722165288644","25208.722055605147","151","565132","3592.100602953084","5724.786584356817","1.895","0.0","0.0","0.0","","","","1.2901732301156182","-30.01627514966868","0.0","0.0","0.0","0.0","3.85537238841075E-09"
"3","25208.73739723824","25208.73727857764","787","567261","3618.4761849163139","5433.509196956823","1.895","0.0","0.0","0.0","","","","3.593171599488574","-29.01047219605835","0.0","0.0","0.0","0.0","2.24820236765461E-09"
"3","25208.75100628892","25208.75089203054","1345","568123","3594.5028545788256","5820.294527731484","1.895","0.0","0.0","0.0","","","","-0.019079051973344156","-32.74680783413633","0.0","0.0","0.0","0.0","9.46477042863884E-09"
"3","25208.75201428892","25208.751904670848","1393","568451","5560.0","5820.0","1.895","0.0","0.0","0.0","","","","-1.1706217924142617","-29.964037371575409","0.0","0.0","0.0","0.0","1.85614788360759E-08"
"2","25208.8","","","","3590.3302228191516","5984.7371590548059","1.895","","","","0.0","0.0","0.0","2.4867021644944975","33.44378196014659","0.0","0.0","0.0","0.0",""
"3","25208.860662569616","25208.86055117147","295","575055","5560.0","5820.0","1.895","0.0","0.0","0.0","","","","3.3692752829602208","31.906154283008957","0.0","0.0","0.0","0.0","1.85468007726438E-07"
"3","25208.86503954622","25208.864933292847","145","575650","5560.0","5820.0","1.895","0.0","0.0","0.0","","","","1.333649154588431","-31.055839177042669","0.0","0.0","0.0","0.0","1.70824817728895E-08"
"3","25208.870129546223","25208.870012145257","19","576330","3590.883727649812","5947.719129887635","1.895","0.0","0.0","0.0","","","","2.3933201313894116","32.142413370790617","0.0","0.0","0.0","0.0","1.38606179120196E-07"
"3","25208.89163465595","25208.891522682505","421","579615","3593.776694287114","5685.791806381431","1.895","0.0","0.0","0.0","","","","1.2849331879918995","-29.89436396549543","0.0","0.0","0.0","0.0","4.1426427760035E-09"
"2","25208.899999999998","","","","3590.5779836039757","5988.069306259339","1.895","","","","0.0","0.0","0.0","2.47761130879033","33.32151858644667","0.0","0.0","0.0","0.0",""
"3","25208.91615967731","25208.916048120427","1417","581490","5560.0","5820.0","1.895","0.0","0.0","0.0","","","","-1.9812456569152988","-29.846133404749368","0.0","0.0","0.0","0.0","3.91633595805111E-08"
"3","25208.982552074758","25208.982444882393","1231","586755","3595.4498364529188","5646.865641707617","1.895","0.0","0.0","0.0","","","","1.2863698409317197","-29.927788135932035","0.0","0.0","0.0","0.0","8.4997113249286E-09"
"2","25209.0","","","","3590.8264922344699","5991.411511277751","1.895","","","","0.0","0.0","0.0","2.4850897759388155","33.42209686569582","0.0","0.0","0.0","0.0",""
"3","25209.030774698134","25209.030661048833","931","590938","3594.2959115624887","5993.544936631974","1.895","0.0","0.0","0.0","","","","2.3871190062223155","32.059131938510159","0.0","0.0","0.0","0.0","0.0000025692724923756269"
"3","25209.044133089592","25209.044016361702","961","591968","3598.2399333838327","5488.559890456323","1.895","0.0","0.0","0.0","","","","-2.3605649210691728","28.81553818127967","0.0","0.0","0.0","0.0","3.97349368673209E-09"
"3","25209.06996701593","25209.069859017385","313","595855","5560.0","5820.0","1.895","0.0","0.0","0.0","","","","2.550249091671421","-30.29162147841239","0.0","0.0","0.0","0.0","2.24488012818037E-09"
"2","25209.1","","","","3591.0740318815026","5994.7406843890489","1.895","","","","0.0","0.0","0.0","2.4753999277842144","33.2917776125354","0.0","0.0","0.0","0.0",""
"2","25209.2","","","","3591.321037478027","5998.062675028317","1.895","","","","0.0","0.0","0.0","2.4700594152468158","33.2199527919331","0.0","0.0","0.0","0.0",""
"3","25209.28868304477","25209.288569958415","751","605666","3594.461643290382","5749.560502529695","1.895","0.0","0.0","0.0","","","","-0.017730927291583634","-30.432920331106137","0.0","0.0","0.0","0.0","1.84716284252936E-08"
"2","25209.3","","","","3591.5685265930526","6001.391168532125","1.895","","","","0.0","0.0","0.0","2.4748946070109487","33.28498152814607","0.0","0.0","0.0","0.0",""
"3","25209.332968136616","25209.33285815981","1459","608879","3598.5290635505768","6010.758961519317","1.895","0.0","0.0","0.0","","","","-3.625691854525643","-31.461552173307138","0.0","0.0","0.0","0.0","0.0000013878345740994073"
"3","25209.359561996687","25209.35944446898","73","610934","3587.610726228347","5883.191482029228","1.895","0.0","0.0","0.0","","","","-0.031463170169217669","32.42884746877411","0.0","0.0","0.0","0.0","1.00417814849639E-08"
"3","25209.38357303198","25209.383462226015","121","612746","3619.345935701985","5453.315743939687","1.895","0.0","0.0","0.0","","","","3.497827663645567","-28.233836862065478","0.0","0.0","0.0","0.0","2.569008693633E-09"
"2","25209.399999999998","","","","3591.815734975845","6004.715886454068","1.895","","","","0.0","0.0","0.0","2.472087280757801","33.247225656758747","0.0","0.0","0.0","0.0",""
"3","25209.466429037286","25209.466310772812","55","618365","3602.1018627598616","5522.136441681272","1.895","0.0","0.0","0.0","","","","-2.7082514592797288","33.0606083473983","0.0","0.0","0.0","0.0","1.65914877326908E-09"
"2","25209.5","","","","3592.061703948335","6008.023935484775","1.895","","","","0.0","0.0","0.0","2.4596931604225684","33.080536511593859","0.0","0.0","0.0","0.0",""
"3","25209.58497741957","25209.584869698618","1525","625268","5560.0","5820.0","1.895","0.0","0.0","0.0","","","","-3.8791905933856647","-33.66126028927949","0.0","0.0","0.0","0.0","3.27640755137902E-07"
"3","25209.592186930062","25209.592080666684","565","625783","3589.6563995471576","5931.236049876851","1.895","0.0","0.0","0.0","","","","1.5434643473844832","32.12753008494961","0.0","0.0","0.0","0.0","1.36627081347421E-08"
"2","25209.6","","","","3592.404868259227","6011.344384473027","1.895","","","","0.0","0.0","0.0","3.1850841651909325","33.230201042544958","0.0","0.0","0.0","0.0",""
"3","25209.62124910074","25209.621140327534","1207","628181","3591.7895414361098","6036.937400422328","1.895","0.0","0.0","0.0","","","","3.511010295563271","33.204487106662408","0.0","0.0","0.0","0.0","3.08932772958609E-07"
"3","25209.630941205447","25209.630831810413","1039","628756","5560.0","5820.0","1.895","0.0","0.0","0.0","","","","2.4699122851838819","33.26489809995637","0.0","0.0","0.0","0.0","2.82151790776921E-07"
"3","25209.644101180427","25209.64399019652","115","629647","3619.252288413625","5400.401743593405","1.895","0.0","0.0","0.0","","","","3.914185859860951","-31.609927462199115","0.0","0.0","0.0","0.0","1.29287373187981E-09"
"3","25209.67074849293","25209.6706378737","43","632079","3596.9331725913395","6054.197904730487","1.895","0.0","0.0","0.0","","","","3.4339870268927989","32.49746965486119","0.0","0.0","0.0","0.0","7.30271514173545E-08"
"2","25209.7","","","","3592.7529396792886","6014.638351608774","1.895","","","","0.0","0.0","0.0","3.480719062233554","32.939717365297067","0.0","0.0","0.0","0.0",""
"3","25209.751004255668","25209.75089203054","1345","638316","3597.783707224578","5787.458999941794","1.895","0.0","0.0","0.0","","","","-0.018962394344321965","-32.5133954032589","0.0","0.0","0.0","0.0","8.1553292832575E-09"
"2","25209.8","","","","3593.1018589279476","6017.940342154022","1.895","","","","0.0","0.0","0.0","3.4891973600523245","33.01995157236936","0.0","0.0","0.0","0.0",""
"3","25209.86066052865","25209.86055117147","295","645195","5560.0","5820.0","1.895","0.0","0.0","0.0","","","","3.361636773609252","31.833819600503458","0.0","0.0","0.0","0.0","2.15539763499732E-07"
"3","25209.865048372976","25209.864933292847","145","645777","5560.0","5820.0","1.895","0.0","0.0","0.0","","","","1.33602915775788","-31.11126079636785","0.0","0.0","0.0","0.0","1.02547259492579E-08"
"3","25209.870125372985","25209.870012145257","19","646462","3593.270469996586","5979.773203270215","1.895","0.0","0.0","0.0","","","","2.3870465103475575","32.05815831513388","0.0","0.0","0.0","0.0","5.89633273456316E-08"
"3","25209.884668029896","25209.884553708787","1399","648050","3610.4097012976819","5409.2859220867599","1.895","0.0","0.0","0.0","","","","-4.216112346071447","36.53964033260173","0.0","0.0","0.0","0.0","1.38428268689818E-09"
"3","25209.891630030685","25209.891522682505","421","649690","3595.063762855845","5655.847762129318","1.895","0.0","0.0","0.0","","","","1.2873527693195773","-29.950656265842338","0.0","0.0","0.0","0.0","2.01859521506039E-09"
"2","25209.899999999998","","","","3593.4479250072465","6021.215331786342","1.895","","","","0.0","0.0","0.0","3.46066562659842","32.749942065968287","0.0","0.0","0.0","0.0",""
"3","25209.91615505167","25209.916048120427","1417","651313","5560.0","5820.0","1.895","0.0","0.0","0.0","","","","-1.1710194382301425","-29.97421578626695","0.0","0.0","0.0","0.0","3.4039188205096E-08"
"3","25209.982560416778","25209.982444882393","1231","656613","3597.849545964293","5616.990052659306","1.895","0.0","0.0","0.0","","","","2.507865242593884","-29.79227432603341","0.0","0.0","0.0","0.0","6.06293410624459E-09"
"2","25210.0","","","","3593.7960032330058","6024.509363327677","1.895","","","","0.0","0.0","0.0","3.480787119302301","32.94036142207944","0.0","0.0","0.0","0.0",""
"3","25210.0307671626","25210.030661048833","931","661035","3597.2217033638237","6025.505145766","1.895","0.0","0.0","0.0","","","","3.3668171665499488","31.8828765645178","0.0","0.0","0.0","0.0","0.000018422797549145509"
"2","25210.1","","","","3594.1426103434034","6027.789472997313","1.895","","","","0.0","0.0","0.0","3.4660759451452147","32.80114251064038","0.0","0.0","0.0","0.0",""
"2","25210.2","","","","3594.49023227135","6031.079186373146","1.895","","","","0.0","0.0","0.0","3.4762241348075388","32.89717970673684","0.0","0.0","0.0","0.0",""
"2","25210.3","","","","3594.8358604117477","6034.35003157916","1.895","","","","0.0","0.0","0.0","3.45628623146883","32.70849774502399","0.0","0.0","0.0","0.0",""
"3","25210.332965839094","25210.33285815981","1459","679365","3596.2860923631844","5979.199555131942","1.895","0.0","0.0","0.0","","","","-2.091731570215202","-31.51052938522751","0.0","0.0","0.0","0.0","2.30096116881509E-07"
"3","25210.359558265616","25210.35944446898","73","681445","3588.9553757815076","5915.539257568702","1.895","0.0","0.0","0.0","","","","1.374952076156628","32.29392515924627","0.0","0.0","0.0","0.0","3.07354265492763E-08"
"2","25210.399999999998","","","","3595.182305425517","6037.628607250497","1.895","","","","0.0","0.0","0.0","3.464454976598147","32.785802506220658","0.0","0.0","0.0","0.0",""
"2","25210.5","","","","3595.530196512026","6040.920867803169","1.895","","","","0.0","0.0","0.0","3.4789157241894808","32.92265151070969","0.0","0.0","0.0","0.0",""
"3","25210.58497571624","25210.584869698618","1525","695912","5560.0","5820.0","1.895","0.0","0.0","0.0","","","","-3.839372811955285","-33.31574576182831","0.0","0.0","0.0","0.0","8.62025431663974E-07"
"3","25210.59219814581","25210.592080666684","565","696404","3592.04679621217","5963.339200942723","1.895","0.0","0.0","0.0","","","","2.385031919404513","32.03110225440332","0.0","0.0","0.0","0.0","2.25307219133572E-08"
"2","25210.6","","","","3595.8749484362417","6044.183420954334","1.895","","","","0.0","0.0","0.0","3.4475240574096199","32.62557708071696","0.0","0.0","0.0","0.0",""
"3","25210.62124731913","25210.621140327534","1207","698858","3595.3077894860145","6070.210336750272","1.895","0.0","0.0","0.0","","","","3.510617267724061","33.200770145786638","0.0","0.0","0.0","0.0","9.3828732742403E-08"
"3","25210.630939421793","25210.630831810413","1039","699393","5560.0","5820.0","1.895","0.0","0.0","0.0","","","","3.517125464359339","33.26231976060589","0.0","0.0","0.0","0.0","8.70899046313401E-08"
"3","25210.68212306667","25210.682014642094","1369","703911","3597.789639455592","5797.630551543702","1.895","0.0","0.0","0.0","","","","-0.01887726467368528","-32.36742994174066","0.0","0.0","0.0","0.0","5.12307282081537E-09"
"2","25210.7","","","","3596.219566852543","6047.444710655941","1.895","","","","0.0","0.0","0.0","3.4461889764002939","32.61294256747471","0.0","0.0","0.0","0.0",""
"3","25210.72217313231","25210.722055605147","151","705855","3594.675146651084","5664.889037097228","1.895","0.0","0.0","0.0","","","","1.2883685609011602","-29.9742889679445","0.0","0.0","0.0","0.0","8.46681990412591E-09"
"3","25210.7510100451","25210.75089203054","1345","709175","3597.7648582185386","5755.1400229606419","1.895","0.0","0.0","0.0","","","","-0.018812945679289519","-32.2571469859727","0.0","0.0","0.0","0.0","5.65804873413462E-09"
"3","25210.752018046063","25210.751904670848","1393","709513","5560.0","5820.0","1.895","0.0","0.0","0.0","","","","-0.017398331475419389","-29.892508264341236","0.0","0.0","0.0","0.0","3.14311987381193E-09"
"2","25210.8","","","","3596.564876071246","6050.7125377526849","1.895","","","","0.0","0.0","0.0","3.453097010069017","32.67831661016725","0.0","0.0","0.0","0.0",""
"3","25210.865048295782","25210.864933292847","145","716697","5560.0","5820.0","1.895","0.0","0.0","0.0","","","","2.6107409884346608","-31.012266047789948","0.0","0.0","0.0","0.0","1.85248784932215E-09"
"3","25210.870130046344","25210.870012145257","19","717365","3595.7711861065865","6011.769127330937","1.895","0.0","0.0","0.0","","","","3.218532108972272","31.89304006544832","0.0","0.0","0.0","0.0","3.16064300968459E-07"
"3","25210.89163082543","25210.891522682505","421","720622","3597.0951314990586","5625.952146125119","1.895","0.0","0.0","0.0","","","","2.5196845619242689","-29.93268235029934","0.0","0.0","0.0","0.0","5.47630417621021E-09"
"2","25210.899999999998","","","","3596.908987206587","6053.969026810759","1.895","","","","0.0","0.0","0.0","3.441116159713525","32.56493606509882","0.0","0.0","0.0","0.0",""
"3","25210.98255580516","25210.982444882393","1231","727497","3600.3632423670758","5587.128506858471","1.895","0.0","0.0","0.0","","","","2.5092766180105094","-29.809040810475908","0.0","0.0","0.0","0.0","4.7294508716111E-09"
"2","25211.0","","","","3597.253296331877","6057.227389542878","1.895","","","","0.0","0.0","0.0","3.4430960619694619","32.58367283172035","0.0","0.0","0.0","0.0",""
"3","25211.0307668171","25211.030661048833","931","731743","3600.590410259506","6057.405917570374","1.895","0.0","0.0","0.0","","","","3.3689580028943846","31.903149723888065","0.0","0.0","0.0","0.0","0.000015087947738023119"
"3","25211.04412821506","25211.044016361702","961","732719","3593.5069686778399","5546.335435614548","1.895","0.0","0.0","0.0","","","","-2.3615893242620005","28.828043124075369","0.0","0.0","0.0","0.0","2.37624204867065E-09"
"2","25211.1","","","","3597.596277248213","6060.473182795307","1.895","","","","0.0","0.0","0.0","3.429813953874793","32.45797785926446","0.0","0.0","0.0","0.0",""
"2","25211.2","","","","3597.9403332035728","6063.729149658698","1.895","","","","0.0","0.0","0.0","3.4405643591305","32.55971411097903","0.0","0.0","0.0","0.0",""
"2","25211.3","","","","3598.282815992966","6066.970228896462","1.895","","","","0.0","0.0","0.0","3.4248326774901867","32.41083764676343","0.0","0.0","0.0","0.0",""
"3","25211.332974471425","25211.33285815981","1459","750601","3594.1913573200315","5947.643780446784","1.895","0.0","0.0","0.0","","","","-2.0964723666045774","-31.58194629457856","0.0","0.0","0.0","0.0","1.78303942955089E-09"
"3","25211.359553482616","25211.35944446898","73","752715","3590.8864385315098","5947.755537169293","1.895","0.0","0.0","0.0","","","","2.402598724654193","32.26702535910836","0.0","0.0","0.0","0.0","1.53351089602941E-08"
"2","25211.399999999998","","","","3598.6267823277478","6070.225347637252","1.895","","","","0.0","0.0","0.0","3.439668152100182","32.55123287312223","0.0","0.0","0.0","0.0",""
"3","25211.466417743097","25211.466310772812","55","759882","3596.6919259788076","5588.17750315277","1.895","0.0","0.0","0.0","","","","-2.7084972915925409","33.06360931162386","0.0","0.0","0.0","0.0","2.50730778345127E-09"
"2","25211.5","","","","3598.9699717228588","6073.47311382453","1.895","","","","0.0","0.0","0.0","3.431898744540521","32.4777072353056","0.0","0.0","0.0","0.0",""
"3","25211.5744417652","25211.574325255817","127","766223","3602.2362821790795","5643.465148303147","1.895","0.0","0.0","0.0","","","","1.6079178323081414","-31.28943650624698","0.0","0.0","0.0","0.0","2.755222761397E-09"
"3","25211.584978765335","25211.584869698618","1525","767485","5560.0","5820.0","1.895","0.0","0.0","0.0","","","","-2.2173266604511214","-33.4025349550971","0.0","0.0","0.0","0.0","4.87246728463232E-08"
"3","25211.592187772792","25211.592080666684","565","767996","3594.4313077999074","5995.363315115856","1.895","0.0","0.0","0.0","","","","2.381551541328976","31.98436059651836","0.0","0.0","0.0","0.0","3.48401342221401E-08"
"2","25211.6","","","","3599.311041022479","6076.700816529232","1.895","","","","0.0","0.0","0.0","3.4106977600199888","32.27707212931552","0.0","0.0","0.0","0.0",""
"3","25211.63094777467","25211.630831810413","1039","771026","5560.0","5820.0","1.895","0.0","0.0","0.0","","","","3.5155208048964825","33.24714410176139","0.0","0.0","0.0","0.0","6.4973273538199E-07"
"3","25211.682131851507","25211.682014642094","1369","775658","3597.7708387365616","5765.394368676267","1.895","0.0","0.0","0.0","","","","-0.018726253202524556","-32.10850189799672","0.0","0.0","0.0","0.0","2.38386076748881E-09"
"2","25211.7","","","","3599.653823883871","6079.944735492543","1.895","","","","0.0","0.0","0.0","3.427833401674608","32.43923494190816","0.0","0.0","0.0","0.0",""
"3","25211.722171162222","25211.722055605147","151","777614","3596.340071581192","5634.921907268421","1.895","0.0","0.0","0.0","","","","2.5205801199044175","-29.943321163169473","0.0","0.0","0.0","0.0","1.44886040790004E-09"
"3","25211.75100804858","25211.75089203054","1345","780985","3598.777563016636","5723.093132605421","1.895","0.0","0.0","0.0","","","","1.3705752054890435","-31.94470501723969","0.0","0.0","0.0","0.0","2.40056061815979E-09"
"3","25211.752016050035","25211.751904670848","1393","781326","5560.0","5820.0","1.895","0.0","0.0","0.0","","","","-0.017420327611047633","-29.930300374865156","0.0","0.0","0.0","0.0","1.25340509153163E-08"
