﻿"type","rcvTime","sendTime","sender","messageID","pos__001","pos__002","pos__003","pos_noise__001","pos_noise__002","pos_noise__003","noise__001","noise__002","noise__003","spd__001","spd__002","spd__003","spd_noise__001","spd_noise__002","spd_noise__003","RSSI"
"2","25279.5","","","","6069.798625690628","5180.362028990525","1.895","","","","0.0","0.0","0.0","10.898805467282966","7.9095666817421599","0.0","0.0","0.0","0.0",""
"2","25279.6","","","","6070.887667494111","5181.152376959366","1.895","","","","0.0","0.0","0.0","10.89105553096972","7.9039423371099579","0.0","0.0","0.0","0.0",""
"2","25279.7","","","","6071.974752171343","5181.941304587175","1.895","","","","0.0","0.0","0.0","10.871483122798948","7.889738095363945","0.0","0.0","0.0","0.0",""
"2","25279.8","","","","6073.063937566817","5182.731756764723","1.895","","","","0.0","0.0","0.0","10.892491534928026","7.904984485178162","0.0","0.0","0.0","0.0",""
"2","25279.899999999998","","","","6074.148816759254","5183.51908381079","1.895","","","","0.0","0.0","0.0","10.849426983819765","7.873731341002621","0.0","0.0","0.0","0.0",""
"2","25280.0","","","","6075.232330189279","5184.305419685035","1.895","","","","0.0","0.0","0.0","10.835768560217915","7.863819042577616","0.0","0.0","0.0","0.0",""
"2","25280.1","","","","6076.3188579757429","5185.0939431617039","1.895","","","","0.0","0.0","0.0","10.865913889126018","7.885696347372895","0.0","0.0","0.0","0.0",""
"2","25280.2","","","","6077.402301383394","5185.880228218763","1.895","","","","0.0","0.0","0.0","10.835068295499035","7.86331084096928","0.0","0.0","0.0","0.0",""
"2","25280.3","","","","6078.487790658112","5186.667998018533","1.895","","","","0.0","0.0","0.0","10.855528163758385","7.878159137211769","0.0","0.0","0.0","0.0",""
"2","25280.399999999998","","","","6079.579808393934","5187.460505704358","1.895","","","","0.0","0.0","0.0","10.920816596385514","7.925540771189051","0.0","0.0","0.0","0.0",""
"2","25280.5","","","","6080.66967111855","5188.251449438528","1.895","","","","0.0","0.0","0.0","10.899265222827001","7.909900339142888","0.0","0.0","0.0","0.0",""
"2","25280.6","","","","6081.755034190852","5189.03912764969","1.895","","","","0.0","0.0","0.0","10.854266065728686","7.877243197519593","0.0","0.0","0.0","0.0",""
"2","25280.7","","","","6082.839373476781","5189.826062870567","1.895","","","","0.0","0.0","0.0","10.844027602685136","7.869812859727389","0.0","0.0","0.0","0.0",""
"2","25280.8","","","","6083.922242168418","5190.611930840207","1.895","","","","0.0","0.0","0.0","10.82932079893566","7.859139722630942","0.0","0.0","0.0","0.0",""
"2","25280.899999999998","","","","6085.0098610989639","5191.401246190527","1.895","","","","0.0","0.0","0.0","10.876825968672549","7.893615547428339","0.0","0.0","0.0","0.0",""
"2","25281.0","","","","6086.096272009474","5192.189684847061","1.895","","","","0.0","0.0","0.0","10.864745061182293","7.884848096379873","0.0","0.0","0.0","0.0",""
"2","25281.1","","","","6087.183648352456","5192.97882414483","1.895","","","","0.0","0.0","0.0","10.8743999510381","7.8918549188614419","0.0","0.0","0.0","0.0",""
"2","25281.2","","","","6088.275770039352","5193.771407270843","1.895","","","","0.0","0.0","0.0","10.921856167975522","7.926295217241423","0.0","0.0","0.0","0.0",""
"2","25281.3","","","","6089.368811311481","5194.564657765474","1.895","","","","0.0","0.0","0.0","10.931052558606952","7.932969294065739","0.0","0.0","0.0","0.0",""
"2","25281.399999999998","","","","6090.455722906647","5195.3534597828079","1.895","","","","0.0","0.0","0.0","10.869752200821207","7.88848191707693","0.0","0.0","0.0","0.0",""
"2","25281.5","","","","6091.5438323341709","5196.143131100445","1.895","","","","0.0","0.0","0.0","10.881731225577833","7.897175428981306","0.0","0.0","0.0","0.0",""
"2","25281.6","","","","6092.625347297493","5196.928016631744","1.895","","","","0.0","0.0","0.0","10.815782723350928","7.84931476411857","0.0","0.0","0.0","0.0",""
"2","25281.7","","","","6093.708625685476","5197.714181929433","1.895","","","","0.0","0.0","0.0","10.833418002214972","7.862113177166269","0.0","0.0","0.0","0.0",""
"2","25281.8","","","","6094.800907782615","5198.506881469628","1.895","","","","0.0","0.0","0.0","10.923460364292568","7.927459427193572","0.0","0.0","0.0","0.0",""
"2","25281.899999999998","","","","6095.886264625232","5199.294555159734","1.895","","","","0.0","0.0","0.0","10.854203765231912","7.877197984313888","0.0","0.0","0.0","0.0",""
"2","25282.0","","","","6096.972211377301","5200.08265696356","1.895","","","","0.0","0.0","0.0","10.860103205061508","7.881479372112463","0.0","0.0","0.0","0.0",""
"2","25282.1","","","","6098.058237454617","5200.870816335927","1.895","","","","0.0","0.0","0.0","10.860896503961241","7.882055091219005","0.0","0.0","0.0","0.0",""
"2","25282.2","","","","6099.147686107224","5201.661459566508","1.895","","","","0.0","0.0","0.0","10.89512426036682","7.90689512735319","0.0","0.0","0.0","0.0",""
"2","25282.3","","","","6100.22884378793","5202.44608580786","1.895","","","","0.0","0.0","0.0","10.812209688027354","7.846721712867874","0.0","0.0","0.0","0.0",""
"2","25282.399999999998","","","","6101.319400923853","5203.237533495658","1.895","","","","0.0","0.0","0.0","10.906209742405388","7.914940170424762","0.0","0.0","0.0","0.0",""
"2","25282.5","","","","6102.410977885517","5204.029721299399","1.895","","","","0.0","0.0","0.0","10.916408596781226","7.922341763102387","0.0","0.0","0.0","0.0",""
"2","25282.6","","","","6103.499127800421","5204.819421999856","1.895","","","","0.0","0.0","0.0","10.882136123081346","7.897469274376833","0.0","0.0","0.0","0.0",""
"2","25282.7","","","","6104.583483629615","5205.606369226642","1.895","","","","0.0","0.0","0.0","10.844193045034434","7.8699329258501529","0.0","0.0","0.0","0.0",""
"2","25282.8","","","","6105.66981811613","5206.394752420154","1.895","","","","0.0","0.0","0.0","10.863980776487863","7.884293433694904","0.0","0.0","0.0","0.0",""
"2","25282.899999999998","","","","6106.752894109969","5207.180770834775","1.895","","","","0.0","0.0","0.0","10.831393942298467","7.860644260510634","0.0","0.0","0.0","0.0",""
"2","25283.0","","","","6107.844458696011","5207.972949657184","1.895","","","","0.0","0.0","0.0","10.916284833324199","7.92225194451381","0.0","0.0","0.0","0.0",""
"2","25283.1","","","","6108.932888652463","5208.762853591592","1.895","","","","0.0","0.0","0.0","10.884936702483513","7.899501732853589","0.0","0.0","0.0","0.0",""
"2","25283.2","","","","6110.014837499063","5209.548054004069","1.895","","","","0.0","0.0","0.0","10.820121810105105","7.852463760226598","0.0","0.0","0.0","0.0",""
"2","25283.3","","","","6111.096653212222","5210.3331577979","1.895","","","","0.0","0.0","0.0","10.81879039776833","7.851497517210492","0.0","0.0","0.0","0.0",""
"2","25283.399999999998","","","","6112.188426254839","5211.12548790305","1.895","","","","0.0","0.0","0.0","10.918369521095983","7.923764860492635","0.0","0.0","0.0","0.0",""
"2","25283.5","","","","6113.279803363805","5211.917530668123","1.895","","","","0.0","0.0","0.0","10.914409952811765","7.920891291509387","0.0","0.0","0.0","0.0",""
"2","25283.6","","","","6114.363420104497","5212.703941517797","1.895","","","","0.0","0.0","0.0","10.836801727370835","7.864568840758287","0.0","0.0","0.0","0.0",""
"2","25283.7","","","","6115.445948454179","5213.489562491801","1.895","","","","0.0","0.0","0.0","10.825917180153525","7.856669621682966","0.0","0.0","0.0","0.0",""
"2","25283.8","","","","6116.531197022463","5214.277157604208","1.895","","","","0.0","0.0","0.0","10.853120958506","7.876412161317211","0.0","0.0","0.0","0.0",""
"2","25283.899999999998","","","","6117.622701949202","5215.069293130197","1.895","","","","0.0","0.0","0.0","10.915688205360669","7.921818954984106","0.0","0.0","0.0","0.0",""
"2","25284.0","","","","6118.709829137044","5215.858251609141","1.895","","","","0.0","0.0","0.0","10.871908253792278","7.890046624766577","0.0","0.0","0.0","0.0",""
"2","25284.1","","","","6119.801256491102","5216.650330838477","1.895","","","","0.0","0.0","0.0","10.91491243315707","7.9212559554910879","0.0","0.0","0.0","0.0",""
"2","25284.2","","","","6120.886825675666","5217.438158631047","1.895","","","","0.0","0.0","0.0","10.856327308988983","7.878739099163452","0.0","0.0","0.0","0.0",""
"2","25284.3","","","","6121.9760489180239","5218.228638275133","1.895","","","","0.0","0.0","0.0","10.89287002591906","7.905259166629388","0.0","0.0","0.0","0.0",""
"2","25284.399999999998","","","","6123.067114853146","5219.020455212681","1.895","","","","0.0","0.0","0.0","10.911298032237168","7.918632884072292","0.0","0.0","0.0","0.0",""
"2","25284.5","","","","6124.157906865206","5219.812073356632","1.895","","","","0.0","0.0","0.0","10.908558641250796","7.916644831736557","0.0","0.0","0.0","0.0",""
"2","25284.6","","","","6125.25279216476","5220.582594667684","1.895","","","","0.0","0.0","0.0","10.870587119221156","7.817469141549365","0.0","0.0","0.0","0.0",""
"2","25284.7","","","","6126.361621129234","5221.337214379619","1.895","","","","0.0","0.0","0.0","10.958181016954735","7.731630866364759","0.0","0.0","0.0","0.0",""
"2","25284.8","","","","6127.477030793192","5222.096312623145","1.895","","","","0.0","0.0","0.0","11.093247511076907","7.6772985558449708","0.0","0.0","0.0","0.0",""
"2","25284.899999999998","","","","6128.584530351933","5222.850027600622","1.895","","","","0.0","0.0","0.0","11.07390551505983","7.536407919970221","0.0","0.0","0.0","0.0",""
"2","25285.0","","","","6129.6919226148279","5223.603669557314","1.895","","","","0.0","0.0","0.0","11.072832662202933","7.535677783999029","0.0","0.0","0.0","0.0",""
"2","25285.1","","","","6130.807818684449","5224.363098826917","1.895","","","","0.0","0.0","0.0","11.15786235948619","7.593545216871486","0.0","0.0","0.0","0.0",""
"3","25285.132261384093","25285.132148693127","2659","5570998","5949.743957723462","5325.653520034703","1.895","0.0","0.0","0.0","","","","6.63371680353059","13.340792244697225","0.0","0.0","0.0","0.0","2.02267219422966E-09"
"2","25285.2","","","","6131.919872966294","5225.119913546506","1.895","","","","0.0","0.0","0.0","11.119448263047872","7.567402290129612","0.0","0.0","0.0","0.0",""
"2","25285.3","","","","6133.030137659843","5225.875510351838","1.895","","","","0.0","0.0","0.0","11.101554141520206","7.555224346312173","0.0","0.0","0.0","0.0",""
"2","25285.399999999998","","","","6134.161385505242","5226.595316440212","1.895","","","","0.0","0.0","0.0","11.155688661274527","7.44283536773712","0.0","0.0","0.0","0.0",""
"2","25285.5","","","","6135.299382725773","5227.29868420586","1.895","","","","0.0","0.0","0.0","11.224733047699319","7.278746536743102","0.0","0.0","0.0","0.0",""
"2","25285.6","","","","6136.436052008079","5228.001231205933","1.895","","","","0.0","0.0","0.0","11.305576511621514","7.123290834918997","0.0","0.0","0.0","0.0",""
"2","25285.7","","","","6137.576230767268","5228.7059473263429","1.895","","","","0.0","0.0","0.0","11.401736447978673","7.047129593316009","0.0","0.0","0.0","0.0",""
"2","25285.8","","","","6138.71343523176","5229.408825109208","1.895","","","","0.0","0.0","0.0","11.371993634429354","7.028746300340574","0.0","0.0","0.0","0.0",""
"2","25285.899999999998","","","","6139.853666765506","5230.113573848258","1.895","","","","0.0","0.0","0.0","11.40226419119111","7.047455778263977","0.0","0.0","0.0","0.0",""
"2","25286.0","","","","6140.993145677766","5230.817857410695","1.895","","","","0.0","0.0","0.0","11.394738010077031","7.042804032991241","0.0","0.0","0.0","0.0",""
"2","25286.1","","","","6142.129614050453","5231.520280233532","1.895","","","","0.0","0.0","0.0","11.364632749395744","7.0241967204594719","0.0","0.0","0.0","0.0",""
"2","25286.2","","","","6143.2732784169","5232.227150721056","1.895","","","","0.0","0.0","0.0","11.436592364214919","7.0686731678347949","0.0","0.0","0.0","0.0",""
"2","25286.3","","","","6144.416409802897","5232.933691786627","1.895","","","","0.0","0.0","0.0","11.431262583613992","7.065378963064316","0.0","0.0","0.0","0.0",""
"2","25286.399999999998","","","","6145.564814190679","5233.643491963394","1.895","","","","0.0","0.0","0.0","11.483992364944428","7.097969928849064","0.0","0.0","0.0","0.0",""
"2","25286.5","","","","6146.703121647049","5234.347051478095","1.895","","","","0.0","0.0","0.0","11.383023503731705","7.03556358810691","0.0","0.0","0.0","0.0",""
"2","25286.6","","","","6147.845888358642","5235.05336714749","1.895","","","","0.0","0.0","0.0","11.427615855932713","7.063125011423006","0.0","0.0","0.0","0.0",""
"2","25286.7","","","","6148.9828965390829","5235.756123612067","1.895","","","","0.0","0.0","0.0","11.37003080272239","7.027533122902913","0.0","0.0","0.0","0.0",""
"2","25286.8","","","","6150.123714133779","5236.461234580808","1.895","","","","0.0","0.0","0.0","11.40812477440298","7.051078058920515","0.0","0.0","0.0","0.0",""
"2","25286.899999999998","","","","6151.265673561874","5237.16705128836","1.895","","","","0.0","0.0","0.0","11.419543057165935","7.058135415379403","0.0","0.0","0.0","0.0",""
"2","25287.0","","","","6152.4029804342949","5237.869992367018","1.895","","","","0.0","0.0","0.0","11.373017709124263","7.029379255427825","0.0","0.0","0.0","0.0",""
"2","25287.1","","","","6153.543368446672","5238.574837821617","1.895","","","","0.0","0.0","0.0","11.40382897047143","7.048422929399639","0.0","0.0","0.0","0.0",""
"2","25287.2","","","","6154.686175243843","5239.2811782669109","1.895","","","","0.0","0.0","0.0","11.428016709921352","7.063372769300766","0.0","0.0","0.0","0.0",""
"2","25287.3","","","","6155.825969324788","5239.985656627269","1.895","","","","0.0","0.0","0.0","11.397889682804712","7.044752003479615","0.0","0.0","0.0","0.0",""
"2","25287.399999999998","","","","6156.968745491587","5240.691978140692","1.895","","","","0.0","0.0","0.0","11.42771040757242","7.0631834514405","0.0","0.0","0.0","0.0",""
"2","25287.5","","","","6158.116331387404","5241.401272427943","1.895","","","","0.0","0.0","0.0","11.475807482011641","7.092911056369715","0.0","0.0","0.0","0.0",""
"2","25287.6","","","","6159.258436762837","5242.107179341913","1.895","","","","0.0","0.0","0.0","11.421002524000157","7.059037475514263","0.0","0.0","0.0","0.0",""
"2","25287.7","","","","6160.399064451627","5242.812172934539","1.895","","","","0.0","0.0","0.0","11.406225723854423","7.049904303032529","0.0","0.0","0.0","0.0",""
"2","25287.8","","","","6161.53982288855","5243.517247339332","1.895","","","","0.0","0.0","0.0","11.407533199318007","7.0507124210831428","0.0","0.0","0.0","0.0",""
"2","25287.899999999998","","","","6162.6823146768269","5244.223393085466","1.895","","","","0.0","0.0","0.0","11.424866635103907","7.061425786438248","0.0","0.0","0.0","0.0",""
"2","25288.0","","","","6163.826580068351","5244.930635051636","1.895","","","","0.0","0.0","0.0","11.44260258802477","7.072387937624208","0.0","0.0","0.0","0.0",""
"2","25288.1","","","","6164.974680475567","5245.640247345579","1.895","","","","0.0","0.0","0.0","11.480952572914769","7.096091109031858","0.0","0.0","0.0","0.0",""
"2","25288.2","","","","6166.114423312854","5246.344694033509","1.895","","","","0.0","0.0","0.0","11.39737724852747","7.044435280603563","0.0","0.0","0.0","0.0",""
"2","25288.3","","","","6167.256454544563","5247.050555121088","1.895","","","","0.0","0.0","0.0","11.420261090081569","7.0585792136580098","0.0","0.0","0.0","0.0",""
"2","25288.399999999998","","","","6168.3985606824639","5247.7564625063209","1.895","","","","0.0","0.0","0.0","11.421010148641584","7.059042188113724","0.0","0.0","0.0","0.0",""
"2","25288.5","","","","6169.536103206481","5248.459549235367","1.895","","","","0.0","0.0","0.0","11.375374214523843","7.030835752779256","0.0","0.0","0.0","0.0",""
"2","25288.6","","","","6170.673898731532","5249.162792338057","1.895","","","","0.0","0.0","0.0","11.377904213504455","7.032399482196145","0.0","0.0","0.0","0.0",""
"2","25288.7","","","","6171.818941872365","5249.870515011722","1.895","","","","0.0","0.0","0.0","11.450380046223192","7.07719499101033","0.0","0.0","0.0","0.0",""
"2","25288.8","","","","6172.96389001062","5250.578178966658","1.895","","","","0.0","0.0","0.0","11.44943002470634","7.07660780634811","0.0","0.0","0.0","0.0",""
"2","25288.899999999998","","","","6174.102646040123","5251.28201573325","1.895","","","","0.0","0.0","0.0","11.387509214935714","7.0383360945841428","0.0","0.0","0.0","0.0",""
"2","25289.0","","","","6175.250870638236","5251.9917047864969","1.895","","","","0.0","0.0","0.0","11.482194476325196","7.096858698629713","0.0","0.0","0.0","0.0",""
"2","25289.1","","","","6176.400769973016","5252.694996250444","1.895","","","","0.0","0.0","0.0","11.473167212194296","7.069022140449759","0.0","0.0","0.0","0.0",""
"2","25289.2","","","","6177.556792103221","5253.390010767513","1.895","","","","0.0","0.0","0.0","11.50240854287344","7.02871287860603","0.0","0.0","0.0","0.0",""
"2","25289.3","","","","6178.702500620325","5254.078824615372","1.895","","","","0.0","0.0","0.0","11.42513504427506","6.9243547757891978","0.0","0.0","0.0","0.0",""
"2","25289.399999999998","","","","6179.853686101196","5254.770931280234","1.895","","","","0.0","0.0","0.0","11.504417115420294","6.91659501727012","0.0","0.0","0.0","0.0",""
"2","25289.5","","","","6181.005928955849","5255.463673651032","1.895","","","","0.0","0.0","0.0","11.51498402164723","6.922947969377464","0.0","0.0","0.0","0.0",""
"2","25289.6","","","","6182.157259412936","5256.155867477353","1.895","","","","0.0","0.0","0.0","11.505865940894516","6.917466068706742","0.0","0.0","0.0","0.0",""
"2","25289.7","","","","6183.305699100607","5256.846323338063","1.895","","","","0.0","0.0","0.0","11.476976923711437","6.90009764140908","0.0","0.0","0.0","0.0",""
"2","25289.8","","","","6184.455671500999","5257.533823115871","1.895","","","","0.0","0.0","0.0","11.481614984786609","6.891354394970883","0.0","0.0","0.0","0.0",""
"2","25289.899999999998","","","","6185.612115912661","5258.210838715727","1.895","","","","0.0","0.0","0.0","11.51172806923369","6.855129879947547","0.0","0.0","0.0","0.0",""
"2","25290.0","","","","6186.771297868574","5258.889456952203","1.895","","","","0.0","0.0","0.0","11.562849078969418","6.831112910703429","0.0","0.0","0.0","0.0",""
"2","25290.1","","","","6187.927268248855","5259.566195040545","1.895","","","","0.0","0.0","0.0","11.554418938427363","6.772071763562436","0.0","0.0","0.0","0.0",""
"2","25290.2","","","","6189.090168331243","5260.246989974491","1.895","","","","0.0","0.0","0.0","11.627100255621908","6.806836692506385","0.0","0.0","0.0","0.0",""
"2","25290.3","","","","6190.244818670431","5260.922955273061","1.895","","","","0.0","0.0","0.0","11.544616306470243","6.758548231986034","0.0","0.0","0.0","0.0",""
"2","25290.399999999998","","","","6191.404903814778","5261.6021022618519","1.895","","","","0.0","0.0","0.0","11.598955475763809","6.7903599342381739","0.0","0.0","0.0","0.0",""
"2","25290.5","","","","6192.54625887884","5262.270284126498","1.895","","","","0.0","0.0","0.0","11.411685284134647","6.6807266134842548","0.0","0.0","0.0","0.0",""
"2","25290.6","","","","6193.65448819837","5262.919073233847","1.895","","","","0.0","0.0","0.0","11.080481977389037","6.486830734763728","0.0","0.0","0.0","0.0",""
"3","25290.6700399216","25290.669929015123","2803","5925793","6245.563517196482","5267.302518523678","1.895","0.0","0.0","0.0","","","","-12.334313088484884","7.342008002011999","0.0","0.0","0.0","0.0","1.90796175767641E-08"
"2","25290.7","","","","6194.734086876557","5263.551101145733","1.895","","","","0.0","0.0","0.0","10.794222356006845","6.3192461735577238","0.0","0.0","0.0","0.0",""
"2","25290.8","","","","6195.784474795347","5264.166028244476","1.895","","","","0.0","0.0","0.0","10.502162502211757","6.148265990581328","0.0","0.0","0.0","0.0",""
"2","25290.899999999998","","","","6196.810188116689","5264.766510128885","1.895","","","","0.0","0.0","0.0","10.255456854279217","6.003837455548803","0.0","0.0","0.0","0.0",""
"2","25291.0","","","","6197.803455864612","5265.347997447598","1.895","","","","0.0","0.0","0.0","9.931054147040637","5.813922842081574","0.0","0.0","0.0","0.0",""
"2","25291.1","","","","6198.766452017731","5265.91176290981","1.895","","","","0.0","0.0","0.0","9.62838767291396","5.636733240515209","0.0","0.0","0.0","0.0",""
"2","25291.2","","","","6199.701979716179","5266.459447553844","1.895","","","","0.0","0.0","0.0","9.353748018859454","5.475951340184423","0.0","0.0","0.0","0.0",""
"2","25291.3","","","","6200.612456894471","5266.992466907649","1.895","","","","0.0","0.0","0.0","9.103283758226697","5.329322405888256","0.0","0.0","0.0","0.0",""
"2","25291.399999999998","","","","6201.485116434352","5267.503346735425","1.895","","","","0.0","0.0","0.0","8.725169180821237","5.10796332900143","0.0","0.0","0.0","0.0",""
"2","25291.5","","","","6202.336302072094","5268.001655127349","1.895","","","","0.0","0.0","0.0","8.510465254987868","4.9822695164186909","0.0","0.0","0.0","0.0",""
"2","25291.6","","","","6203.164807101853","5268.486685643342","1.895","","","","0.0","0.0","0.0","8.283696242846798","4.8495124575967119","0.0","0.0","0.0","0.0",""
"3","25291.670041538262","25291.669929015123","2803","5993064","6233.199578813783","5274.631025847341","1.895","0.0","0.0","0.0","","","","-12.362051473296015","7.269206527407273","0.0","0.0","0.0","0.0","5.26528325445456E-08"
"2","25291.7","","","","6203.964183577414","5268.954663471463","1.895","","","","0.0","0.0","0.0","7.992458306695523","4.67901344869178","0.0","0.0","0.0","0.0",""
"2","25291.8","","","","6204.733689688888","5269.40515433501","1.895","","","","0.0","0.0","0.0","7.693803484008859","4.50417238249605","0.0","0.0","0.0","0.0",""
"2","25291.899999999998","","","","6205.480443161443","5269.842325153657","1.895","","","","0.0","0.0","0.0","7.466314280241441","4.37099370291905","0.0","0.0","0.0","0.0",""
"2","25292.0","","","","6206.193433991472","5270.259730356723","1.895","","","","0.0","0.0","0.0","7.128743034460326","4.173369850746023","0.0","0.0","0.0","0.0",""
"2","25292.1","","","","6206.883180673806","5270.663527771609","1.895","","","","0.0","0.0","0.0","6.896339546225778","4.0373142086322268","0.0","0.0","0.0","0.0",""
"2","25292.2","","","","6207.55642236402","5271.057662692538","1.895","","","","0.0","0.0","0.0","6.731316599716598","3.9407050608069489","0.0","0.0","0.0","0.0",""
"2","25292.3","","","","6208.198516068245","5271.433562692525","1.895","","","","0.0","0.0","0.0","6.419887646058077","3.7583856533641968","0.0","0.0","0.0","0.0",""
"2","25292.399999999998","","","","6208.811798351257","5271.792595663351","1.895","","","","0.0","0.0","0.0","6.1318205214392169","3.589742928123019","0.0","0.0","0.0","0.0",""
"2","25292.5","","","","6209.40724579184","5272.141187607853","1.895","","","","0.0","0.0","0.0","5.95350124527038","3.485349729017307","0.0","0.0","0.0","0.0",""
"2","25292.6","","","","6209.979044389371","5272.475934843949","1.895","","","","0.0","0.0","0.0","5.717051464868446","3.3469252718619857","0.0","0.0","0.0","0.0",""
"3","25292.670038473916","25292.669929015123","2803","6059868","6220.47198477838","5281.30736951257","1.895","0.0","0.0","0.0","","","","-12.765383932470846","6.69616660578065","0.0","0.0","0.0","0.0","6.51679203455299E-08"
"2","25292.7","","","","6210.519319902453","5272.792227565751","1.895","","","","0.0","0.0","0.0","5.401872139668362","3.162410289766256","0.0","0.0","0.0","0.0",""
"2","25292.8","","","","6211.039536174465","5273.096777034709","1.895","","","","0.0","0.0","0.0","5.201312512480362","3.044996953734107","0.0","0.0","0.0","0.0",""
"2","25292.899999999998","","","","6211.5391043532","5273.389238519917","1.895","","","","0.0","0.0","0.0","4.9948653256138269","2.924136872052584","0.0","0.0","0.0","0.0",""
"2","25293.0","","","","6212.01807588881","5273.669642141764","1.895","","","","0.0","0.0","0.0","4.78893255617447","2.803577945028237","0.0","0.0","0.0","0.0",""
"2","25293.1","","","","6212.4756070481039","5273.937493954733","1.895","","","","0.0","0.0","0.0","4.574563833773321","2.6780803701146249","0.0","0.0","0.0","0.0",""
"2","25293.2","","","","6212.905872894042","5274.189383874255","1.895","","","","0.0","0.0","0.0","4.3019552608663409","2.518487522717927","0.0","0.0","0.0","0.0",""
"2","25293.3","","","","6213.314582972885","5274.428654431841","1.895","","","","0.0","0.0","0.0","4.086432819260709","2.3923145276189339","0.0","0.0","0.0","0.0",""
"3","25293.359228577632","25293.359110657126","805","6106461","6062.149485363406","5366.681936849495","1.895","0.0","0.0","0.0","","","","-5.985056051213009","8.817762138064773","0.0","0.0","0.0","0.0","1.18029060257563E-08"
"2","25293.399999999998","","","","6213.698946444169","5274.653671789744","1.895","","","","0.0","0.0","0.0","3.843006534191226","2.249805825301625","0.0","0.0","0.0","0.0",""
"2","25293.5","","","","6214.068886601537","5274.870245327586","1.895","","","","0.0","0.0","0.0","3.6987969675412","2.1653814247122549","0.0","0.0","0.0","0.0",""
"2","25293.6","","","","6214.426639958419","5275.07968436423","1.895","","","","0.0","0.0","0.0","3.57694888001006","2.094048072897587","0.0","0.0","0.0","0.0",""
"3","25293.67003960041","25293.669929015123","2803","6125778","6207.412041074715","5287.2661037057009","1.895","0.0","0.0","0.0","","","","-13.138506960800834","5.878848205322469","0.0","0.0","0.0","0.0","3.77999738300287E-07"
"2","25293.7","","","","6214.758031251292","5275.2736902954","1.895","","","","0.0","0.0","0.0","3.313371324347192","1.9397422410252195","0.0","0.0","0.0","0.0",""
"2","25293.8","","","","6215.076083635868","5275.459887248542","1.895","","","","0.0","0.0","0.0","3.1800040416352846","1.8616652232323044","0.0","0.0","0.0","0.0",""
"2","25293.899999999998","","","","6215.374576698372","5275.634633615705","1.895","","","","0.0","0.0","0.0","2.984442787392753","1.7471780775338673","0.0","0.0","0.0","0.0",""
"2","25294.0","","","","6215.698963718953","5275.824539045753","1.895","","","","0.0","0.0","0.0","3.243340048756397","1.8987439314007746","0.0","0.0","0.0","0.0",""
"2","25294.1","","","","6216.0492446976099","5276.029603538687","1.895","","","","0.0","0.0","0.0","3.5022373101200419","2.050309785267682","0.0","0.0","0.0","0.0",""
"2","25294.2","","","","6216.425419634343","5276.249827094506","1.895","","","","0.0","0.0","0.0","3.761134571483686","2.201875639134589","0.0","0.0","0.0","0.0",""
"2","25294.3","","","","6216.827488529152","5276.485209713211","1.895","","","","0.0","0.0","0.0","4.02003183284733","2.353441493001496","0.0","0.0","0.0","0.0",""
"2","25294.399999999998","","","","6217.255451382039","5276.7357513948","1.895","","","","0.0","0.0","0.0","4.278929094210975","2.5050073468684039","0.0","0.0","0.0","0.0",""
"2","25294.5","","","","6217.709308193001","5277.001452139275","1.895","","","","0.0","0.0","0.0","4.537826355574619","2.656573200735311","0.0","0.0","0.0","0.0",""
"2","25294.6","","","","6218.18905896204","5277.282311946635","1.895","","","","0.0","0.0","0.0","4.796723616938753","2.808139054601383","0.0","0.0","0.0","0.0",""
"3","25294.670039765264","25294.669929015123","2803","6190456","6194.309626636557","5293.128802247853","1.895","0.0","0.0","0.0","","","","-13.104023934632752","5.863418714200902","0.0","0.0","0.0","0.0","1.0887782904937E-07"
"2","25294.7","","","","6218.694703689155","5277.578330816881","1.895","","","","0.0","0.0","0.0","5.055620878301908","2.9597049084691258","0.0","0.0","0.0","0.0",""
"2","25294.8","","","","6219.226633028152","5277.888778542637","1.895","","","","0.0","0.0","0.0","5.315090107991322","3.1102935484185458","0.0","0.0","0.0","0.0",""
"2","25294.899999999998","","","","6219.794238694396","5278.188348199821","1.895","","","","0.0","0.0","0.0","5.5626814713442249","3.2084843939459066","0.0","0.0","0.0","0.0",""
"2","25295.0","","","","6220.378679325458","5278.496802977325","1.895","","","","0.0","0.0","0.0","5.748905754580435","3.266550282465895","0.0","0.0","0.0","0.0",""
"3","25295.0831355339","25295.083029252804","2239","6219771","6082.245805534222","5349.020721111175","1.895","0.0","0.0","0.0","","","","8.299055296175622","-4.862780081105595","0.0","0.0","0.0","0.0","2.80281480515588E-09"
"2","25295.1","","","","6220.984701527528","5278.816648028418","1.895","","","","0.0","0.0","0.0","5.9837740304250499","3.347124091562494","0.0","0.0","0.0","0.0",""
"2","25295.2","","","","6221.60519651679","5279.1441314949729","1.895","","","","0.0","0.0","0.0","6.150067087535205","3.384902980236297","0.0","0.0","0.0","0.0",""
"2","25295.3","","","","6222.244103921906","5279.481332625451","1.895","","","","0.0","0.0","0.0","6.357054250318915","3.4404718072484345","0.0","0.0","0.0","0.0",""
"2","25295.399999999998","","","","6222.909097246172","5279.824557238451","1.895","","","","0.0","0.0","0.0","6.61799454229414","3.5063181794554385","0.0","0.0","0.0","0.0",""
"2","25295.5","","","","6223.617431897363","5280.14304677449","1.895","","","","0.0","0.0","0.0","6.916827976348529","3.541493446092382","0.0","0.0","0.0","0.0",""
"3","25295.572499357033","25295.57238443107","2395","6249032","5560.0","5820.0","1.895","0.0","0.0","0.0","","","","2.181404743086207","-3.214257707077975","0.0","0.0","0.0","0.0","8.4880602576094E-09"
"2","25295.6","","","","6224.345644967971","5280.470474273068","1.895","","","","0.0","0.0","0.0","7.151267141251343","3.561017186112511","0.0","0.0","0.0","0.0",""
"3","25295.670045364033","25295.669929015123","2803","6254798","6181.182504605721","5299.002556246102","1.895","0.0","0.0","0.0","","","","-13.167406168394346","5.8917792069349999","0.0","0.0","0.0","0.0","9.12875488436651E-09"
"2","25295.7","","","","6225.094692769028","5280.807269721701","1.895","","","","0.0","0.0","0.0","7.39758379185345","3.5779076699944749","0.0","0.0","0.0","0.0",""
"2","25295.8","","","","6225.857714775961","5281.150348412779","1.895","","","","0.0","0.0","0.0","7.577845112683151","3.555973430977289","0.0","0.0","0.0","0.0",""
"2","25295.899999999998","","","","6226.642873383681","5281.503380415758","1.895","","","","0.0","0.0","0.0","7.8412941251107359","3.5647433668915458","0.0","0.0","0.0","0.0",""
"2","25296.0","","","","6227.4603380167759","5281.835997016148","1.895","","","","0.0","0.0","0.0","8.081361391456636","3.565001403518673","0.0","0.0","0.0","0.0",""
"3","25296.083143119668","25296.083029252804","2239","6282957","6091.613192514263","5343.5871176939449","1.895","0.0","0.0","0.0","","","","10.230268534773762","-5.934122524047337","0.0","0.0","0.0","0.0","1.73537591307743E-09"
"2","25296.1","","","","6228.3073779972369","5282.165853931617","1.895","","","","0.0","0.0","0.0","8.358901996175798","3.5845811345771825","0.0","0.0","0.0","0.0",""
"2","25296.2","","","","6229.174048189011","5282.503355304375","1.895","","","","0.0","0.0","0.0","8.590974957235105","3.5768906620095599","0.0","0.0","0.0","0.0",""
"2","25296.3","","","","6230.063478068785","5282.849719824864","1.895","","","","0.0","0.0","0.0","8.85594901971549","3.574807954242733","0.0","0.0","0.0","0.0",""
"2","25296.399999999998","","","","6230.968693628816","5283.202231653529","1.895","","","","0.0","0.0","0.0","9.052796630029845","3.53838815098004","0.0","0.0","0.0","0.0",""
"2","25296.5","","","","6231.916606136752","5283.517671781312","1.895","","","","0.0","0.0","0.0","9.35518794237368","3.523738046811721","0.0","0.0","0.0","0.0",""
"3","25296.57249714889","25296.57238443107","2395","6312034","5560.0","5820.0","1.895","0.0","0.0","0.0","","","","3.79466555650264","-5.467950425699281","0.0","0.0","0.0","0.0","6.31944109000145E-09"
"2","25296.6","","","","6232.881301050116","5283.834251249005","1.895","","","","0.0","0.0","0.0","9.549922139354946","3.4640928881691059","0.0","0.0","0.0","0.0",""
"3","25296.670043158374","25296.669929015123","2803","6317779","6168.051014430595","5304.878264778249","1.895","0.0","0.0","0.0","","","","-13.118779816184185","5.870021259532016","0.0","0.0","0.0","0.0","5.07804302529795E-09"
"2","25296.7","","","","6233.872415937837","5284.1595008374829","1.895","","","","0.0","0.0","0.0","9.855487180288005","3.4351756763481999","0.0","0.0","0.0","0.0",""
"2","25296.8","","","","6234.885748782024","5284.492041589968","1.895","","","","0.0","0.0","0.0","10.12077660445048","3.3822368184143798","0.0","0.0","0.0","0.0",""
"2","25296.899999999998","","","","6235.933026809548","5284.800388131191","1.895","","","","0.0","0.0","0.0","10.398709035995513","3.3267245325011549","0.0","0.0","0.0","0.0",""
"2","25297.0","","","","6237.005095167256","5285.115176177285","1.895","","","","0.0","0.0","0.0","10.668606985124649","3.3213147791404338","0.0","0.0","0.0","0.0",""
"2","25297.1","","","","6238.101933197636","5285.437237264139","1.895","","","","0.0","0.0","0.0","10.941935171047108","3.3106242996645558","0.0","0.0","0.0","0.0",""
"2","25297.2","","","","6239.226476765071","5285.76743344034","1.895","","","","0.0","0.0","0.0","11.245773937006119","3.3021591299461718","0.0","0.0","0.0","0.0",""
"2","25297.3","","","","6240.374509806221","5286.104526756523","1.895","","","","0.0","0.0","0.0","11.480702797335623","3.3710425043140677","0.0","0.0","0.0","0.0",""
"2","25297.399999999998","","","","6241.5440940293269","5286.447948078202","1.895","","","","0.0","0.0","0.0","11.696221607429646","3.4343246118734109","0.0","0.0","0.0","0.0",""
"2","25297.5","","","","6242.74044250082","5286.799228101609","1.895","","","","0.0","0.0","0.0","11.963872772780207","3.5129141782660429","0.0","0.0","0.0","0.0",""
"2","25297.6","","","","6243.953865362768","5287.1555216243609","1.895","","","","0.0","0.0","0.0","12.134622215728195","3.563050797942217","0.0","0.0","0.0","0.0",""
"3","25297.670036815212","25297.669929015123","2803","6382212","6154.939086997389","5310.745219926882","1.895","0.0","0.0","0.0","","","","-13.170063340564609","5.892968163325279","0.0","0.0","0.0","0.0","1.95041169337685E-08"
"2","25297.7","","","","6245.191039604605","5287.5187891897789","1.895","","","","0.0","0.0","0.0","12.372143718813485","3.632793486761255","0.0","0.0","0.0","0.0",""
"2","25297.8","","","","6246.449234815156","5287.888229075852","1.895","","","","0.0","0.0","0.0","12.582360224501745","3.6945186954233519","0.0","0.0","0.0","0.0",""
"2","25297.899999999998","","","","6247.73266424587","5288.265078406297","1.895","","","","0.0","0.0","0.0","12.834710611312474","3.768615542535871","0.0","0.0","0.0","0.0",""
"2","25298.0","","","","6249.028271329189","5288.645503422418","1.895","","","","0.0","0.0","0.0","12.956491087412119","3.804373559128939","0.0","0.0","0.0","0.0",""
"2","25298.1","","","","6250.322378700593","5289.025488082866","1.895","","","","0.0","0.0","0.0","12.94149348180079","3.79996985955835","0.0","0.0","0.0","0.0",""
"2","25298.2","","","","6251.608229322609","5289.4030483400679","1.895","","","","0.0","0.0","0.0","12.8589233097015","3.7757250406958997","0.0","0.0","0.0","0.0",""
"2","25298.3","","","","6252.897173549846","5289.781516962799","1.895","","","","0.0","0.0","0.0","12.889860365371576","3.784808990647664","0.0","0.0","0.0","0.0",""
"2","25298.399999999998","","","","6254.187500383792","5290.160391555974","1.895","","","","0.0","0.0","0.0","12.903686880940019","3.7888688267501879","0.0","0.0","0.0","0.0",""
"2","25298.5","","","","6255.477753706034","5290.539244564137","1.895","","","","0.0","0.0","0.0","12.90295174004339","3.788652969650414","0.0","0.0","0.0","0.0",""
"2","25298.6","","","","6256.767001467425","5290.917802312644","1.895","","","","0.0","0.0","0.0","12.892895805375604","3.7857002773095957","0.0","0.0","0.0","0.0",""
"2","25298.7","","","","6258.052870690359","5291.295368031575","1.895","","","","0.0","0.0","0.0","12.85910932490815","3.7757796597570625","0.0","0.0","0.0","0.0",""
"2","25298.8","","","","6259.345237710747","5291.674841678249","1.895","","","","0.0","0.0","0.0","12.924089407123925","3.7948595560760975","0.0","0.0","0.0","0.0",""
"2","25298.899999999998","","","","6260.638999082462","5292.054724743902","1.895","","","","0.0","0.0","0.0","12.938033372686638","3.798953878649519","0.0","0.0","0.0","0.0",""
"2","25299.0","","","","6261.93397721467","5292.4349650830949","1.895","","","","0.0","0.0","0.0","12.950201372296283","3.802526729946228","0.0","0.0","0.0","0.0",""
"2","25299.1","","","","6263.220445121227","5292.812706591606","1.895","","","","0.0","0.0","0.0","12.865096355334745","3.7775376125904236","0.0","0.0","0.0","0.0",""
"2","25299.2","","","","6264.509212068571","5293.191123160203","1.895","","","","0.0","0.0","0.0","12.8880875089356","3.7842884324113594","0.0","0.0","0.0","0.0",""
"2","25299.3","","","","6265.798923787844","5293.569817139198","1.895","","","","0.0","0.0","0.0","12.897535534677007","3.7870626263740068","0.0","0.0","0.0","0.0",""
"2","25299.399999999998","","","","6267.087461712052","5293.948166460455","1.895","","","","0.0","0.0","0.0","12.885797203284432","3.783615937198909","0.0","0.0","0.0","0.0",""
"2","25299.5","","","","6268.37325849001","5294.325710907595","1.895","","","","0.0","0.0","0.0","12.858384851655146","3.775566934960293","0.0","0.0","0.0","0.0",""
"2","25299.6","","","","6269.655961726086","5294.702347007803","1.895","","","","0.0","0.0","0.0","12.827448429388293","3.766483170996211","0.0","0.0","0.0","0.0",""
"2","25299.7","","","","6270.95100945342","5295.082607781992","1.895","","","","0.0","0.0","0.0","12.95089734611668","3.8027310865383745","0.0","0.0","0.0","0.0",""
"2","25299.8","","","","6272.233673577871","5295.459232397977","1.895","","","","0.0","0.0","0.0","12.827057300441127","3.766368325035214","0.0","0.0","0.0","0.0",""
"2","25299.899999999998","","","","6273.518777396726","5295.836573373725","1.895","","","","0.0","0.0","0.0","12.851455035857335","3.7735321550331535","0.0","0.0","0.0","0.0",""
"2","25300.0","","","","6274.810547653921","5296.215871794709","1.895","","","","0.0","0.0","0.0","12.918121581624187","3.7931072423247707","0.0","0.0","0.0","0.0",""
