﻿"type","rcvTime","sendTime","sender","messageID","pos__001","pos__002","pos__003","pos_noise__001","pos_noise__002","pos_noise__003","noise__001","noise__002","noise__003","spd__001","spd__002","spd__003","spd_noise__001","spd_noise__002","spd_noise__003","RSSI"
"2","25204.0","","","","6095.735089939882","6079.246432987015","1.895","","","","0.0","0.0","0.0","7.39406324010944","-14.908365154699356","0.0","0.0","0.0","0.0",""
"2","25204.1","","","","6096.499322705904","6077.753410133974","1.895","","","","0.0","0.0","0.0","7.5292593009117489","-14.897416871686984","0.0","0.0","0.0","0.0",""
"2","25204.2","","","","6097.263972658092","6076.2595722563669","1.895","","","","0.0","0.0","0.0","7.609796866229342","-14.866675616923006","0.0","0.0","0.0","0.0",""
"2","25204.3","","","","6098.0247154420699","6074.773367513177","1.895","","","","0.0","0.0","0.0","7.570912725425074","-14.790710657786555","0.0","0.0","0.0","0.0",""
"2","25204.399999999998","","","","6099.173952234677","6073.582470933886","1.895","","","","0.0","0.0","0.0","8.988514797246584","-14.018923336068993","0.0","0.0","0.0","0.0",""
"2","25204.5","","","","6100.423347797032","6072.4668490378039","1.895","","","","0.0","0.0","0.0","10.66560009622718","-12.810864509387545","0.0","0.0","0.0","0.0",""
"2","25204.6","","","","6101.669838705964","6071.353820791847","1.895","","","","0.0","0.0","0.0","12.125445893054068","-11.382280659557761","0.0","0.0","0.0","0.0",""
"2","25204.7","","","","6102.916114779582","6070.240984378637","1.895","","","","0.0","0.0","0.0","12.402940368118579","-11.07494877314981","0.0","0.0","0.0","0.0",""
"3","25204.730588821596","25204.730478055077","997","304239","5560.0","5820.0","1.895","0.0","0.0","0.0","","","","-14.883839249073356","5.112973554986848","0.0","0.0","0.0","0.0","2.98264742417712E-09"
"2","25204.8","","","","6104.240316466634","6069.217648712775","1.895","","","","0.0","0.0","0.0","12.688495805987199","-10.80190580203723","0.0","0.0","0.0","0.0",""
"2","25204.899999999998","","","","6105.574946207395","6068.2171404648329","1.895","","","","0.0","0.0","0.0","12.940879460490692","-10.39684832548799","0.0","0.0","0.0","0.0",""
"3","25204.93541849328","25204.935301890364","733","321108","5560.0","5820.0","1.895","0.0","0.0","0.0","","","","16.91939274746658","-5.735316468480439","0.0","0.0","0.0","0.0","1.80204741546135E-09"
"2","25205.0","","","","6106.909700402914","6067.216538919096","1.895","","","","0.0","0.0","0.0","13.232397220604855","-10.025760560620924","0.0","0.0","0.0","0.0",""
"2","25205.1","","","","6108.248857197718","6066.212636954701","1.895","","","","0.0","0.0","0.0","13.3272893712135","-9.99083306131397","0.0","0.0","0.0","0.0",""
"2","25205.2","","","","6109.5838131806099","6065.211884138598","1.895","","","","0.0","0.0","0.0","13.285482888079759","-9.959492735292235","0.0","0.0","0.0","0.0",""
"2","25205.3","","","","6111.029455219657","6064.417746998167","1.895","","","","0.0","0.0","0.0","13.744402170711549","-9.339679522290542","0.0","0.0","0.0","0.0",""
"3","25205.34371860118","25205.343605499478","277","343314","5560.0","5820.0","1.895","0.0","0.0","0.0","","","","-6.570918415323247","16.067425176285736","0.0","0.0","0.0","0.0","2.60456382511362E-09"
"3","25205.359222893072","25205.359110657126","805","344590","6126.898531409061","5821.780649706536","1.895","0.0","0.0","0.0","","","","-3.765787055955636","-0.37938042544465047","0.0","0.0","0.0","0.0","5.50623256291635E-09"
"2","25205.399999999998","","","","6112.608484179736","6063.878566377652","1.895","","","","0.0","0.0","0.0","14.635170954269885","-7.845403649845328","0.0","0.0","0.0","0.0",""
"3","25205.44650916972","25205.44639441464","535","350883","6121.384457994252","5730.126245348273","1.895","0.0","0.0","0.0","","","","12.586350443291792","0.7242425115410138","0.0","0.0","0.0","0.0","1.0385375575299E-08"
"2","25205.5","","","","6114.193277926428","6063.3374172934159","1.895","","","","0.0","0.0","0.0","15.43472765299099","-6.2868753208571539","0.0","0.0","0.0","0.0",""
"2","25205.6","","","","6115.771734112582","6062.798432254241","1.895","","","","0.0","0.0","0.0","15.70879708356394","-5.363979491949837","0.0","0.0","0.0","0.0",""
"3","25205.60032696325","25205.60021286551","799","358953","5560.0","5820.0","1.895","0.0","0.0","0.0","","","","-5.492335258014428","-0.5533197857204369","0.0","0.0","0.0","0.0","5.41902318592669E-09"
"2","25205.7","","","","6117.359478148146","6062.256275754292","1.895","","","","0.0","0.0","0.0","15.801229767477042","-5.395541871822609","0.0","0.0","0.0","0.0",""
"3","25205.726334840532","25205.726227186387","757","367451","6110.397677744353","5729.49404514395","1.895","0.0","0.0","0.0","","","","11.078036675388402","0.63745127238237","0.0","0.0","0.0","0.0","4.07014669952487E-09"
"3","25205.730586776786","25205.730478055077","997","368380","5560.0","5820.0","1.895","0.0","0.0","0.0","","","","-14.910618212834914","5.111140779719146","0.0","0.0","0.0","0.0","1.10706235573846E-07"
"2","25205.8","","","","6118.944715923368","6061.714975050558","1.895","","","","0.0","0.0","0.0","15.776287462773605","-5.387024987289727","0.0","0.0","0.0","0.0",""
"3","25205.822231504557","25205.822117734933","271","374549","6091.357817566563","5818.203440541282","1.895","0.0","0.0","0.0","","","","-9.242012179190482","-0.9276583297078377","0.0","0.0","0.0","0.0","6.45735873447501E-09"
"3","25205.84054305883","25205.84042853536","229","375227","5560.0","5820.0","1.895","0.0","0.0","0.0","","","","10.989630471012191","0.6377910541217057","0.0","0.0","0.0","0.0","8.08019823905768E-09"
"3","25205.88296757507","25205.882859998383","289","378387","5560.0","5820.0","1.895","0.0","0.0","0.0","","","","1.282433298879719","-11.818225096855374","0.0","0.0","0.0","0.0","1.9174318135133E-08"
"3","25205.888377920157","25205.888265040936","1111","379749","6124.208301342872","5733.579363599975","1.895","0.0","0.0","0.0","","","","12.731990218434147","0.7047860452351499","0.0","0.0","0.0","0.0","9.00045879226585E-09"
"2","25205.899999999998","","","","6120.532946032587","6061.17265257424","1.895","","","","0.0","0.0","0.0","15.806067172824445","-5.397193668767484","0.0","0.0","0.0","0.0",""
"3","25205.9106515923","25205.91054471885","337","382016","6319.387736148235","5999.325569564636","1.895","0.0","0.0","0.0","","","","1.2941413760079448","-11.949238705133226","0.0","0.0","0.0","0.0","1.5063127675848E-08"
"3","25205.927322717183","25205.927211811068","667","383835","6061.691740700458","5815.218524137926","1.895","0.0","0.0","0.0","","","","-12.95279851407571","-1.304265935610783","0.0","0.0","0.0","0.0","9.27561800146611E-09"
"3","25205.93541606953","25205.935301890364","733","385116","5560.0","5820.0","1.895","0.0","0.0","0.0","","","","16.809845983024294","-6.242582624566952","0.0","0.0","0.0","0.0","6.06822176255387E-08"
"2","25206.0","","","","6122.118796866476","6060.631142533399","1.895","","","","0.0","0.0","0.0","15.782388623070723","-5.3891083103180119","0.0","0.0","0.0","0.0",""
"3","25206.059500593172","25206.059383184416","835","393489","6068.02292247657","5825.806127115784","1.895","0.0","0.0","0.0","","","","12.429181813436373","1.2512100780030243","0.0","0.0","0.0","0.0","6.97565856074789E-09"
"2","25206.1","","","","6123.704269834222","6060.0914367801419","1.895","","","","0.0","0.0","0.0","15.775245068455128","-5.381111279968924","0.0","0.0","0.0","0.0",""
"3","25206.168683199296","25206.16857640515","469","397843","6074.127189218637","5819.784303143509","1.895","0.0","0.0","0.0","","","","-11.19063146010428","-1.126394709205709","0.0","0.0","0.0","0.0","4.4115498538954E-09"
"2","25206.2","","","","6125.2889891711979","6059.554250425588","1.895","","","","0.0","0.0","0.0","15.764864375281354","-5.364521319867317","0.0","0.0","0.0","0.0",""
"3","25206.23595232272","25206.23583422345","943","400638","6128.97442244361","5831.9401625534669","1.895","0.0","0.0","0.0","","","","14.55171143165516","1.465818736893654","0.0","0.0","0.0","0.0","1.93822350465486E-09"
"2","25206.3","","","","6126.873132348929","6059.0172593768379","1.895","","","","0.0","0.0","0.0","15.763104038216909","-5.350886096057015","0.0","0.0","0.0","0.0",""
"2","25206.399999999998","","","","6128.452267635981","6058.481965897162","1.895","","","","0.0","0.0","0.0","15.715555496179564","-5.327241089199958","0.0","0.0","0.0","0.0",""
"2","25206.5","","","","6130.034749187925","6057.945538104427","1.895","","","","0.0","0.0","0.0","15.7488575267475","-5.338529773562559","0.0","0.0","0.0","0.0",""
"2","25206.6","","","","6131.622701012355","6057.407256004961","1.895","","","","0.0","0.0","0.0","15.803297682419523","-5.356983835480312","0.0","0.0","0.0","0.0",""
"3","25206.600324848074","25206.60021286551","799","423280","5560.0","5820.0","1.895","0.0","0.0","0.0","","","","-7.503136315005234","-0.7558959136706608","0.0","0.0","0.0","0.0","2.25477627165596E-08"
"2","25206.7","","","","6133.207199213917","6056.870144610637","1.895","","","","0.0","0.0","0.0","15.768927225187018","-5.345332977063754","0.0","0.0","0.0","0.0",""
"3","25206.72633545395","25206.726227186387","757","431616","6122.716602079857","5730.202899449288","1.895","0.0","0.0","0.0","","","","13.102339080999716","0.753933477844863","0.0","0.0","0.0","0.0","5.06936858195225E-09"
"3","25206.730590713232","25206.730478055077","997","432546","5560.0","5820.0","1.895","0.0","0.0","0.0","","","","-14.984428912061464","5.063333165932971","0.0","0.0","0.0","0.0","5.08403788855529E-08"
"3","25206.78053945448","25206.780426649144","265","435528","5560.0","5820.0","1.895","0.0","0.0","0.0","","","","-4.992049073126003","-0.502918957727021","0.0","0.0","0.0","0.0","4.02838173483651E-09"
"2","25206.8","","","","6134.794086651553","6056.332223315792","1.895","","","","0.0","0.0","0.0","15.792704904283479","-5.353393107621611","0.0","0.0","0.0","0.0",""
"3","25206.8048717955","25206.804758092992","1363","438162","5994.974743344488","5710.195084597876","1.895","0.0","0.0","0.0","","","","-8.746712859131954","-0.7568661742704226","0.0","0.0","0.0","0.0","4.89638676754692E-09"
"3","25206.822232112816","25206.822117734933","271","438646","6081.075022840757","5817.170299624006","1.895","0.0","0.0","0.0","","","","-11.174381404074623","-1.123902770916699","0.0","0.0","0.0","0.0","1.80640544161629E-08"
"3","25206.87440284531","25206.874287969895","259","441770","6047.020756191228","5817.055901010315","1.895","0.0","0.0","0.0","","","","-12.35321125826108","-1.2434143553565454","0.0","0.0","0.0","0.0","7.71903431043916E-09"
"3","25206.882965676","25206.882859998383","289","442454","5560.0","5820.0","1.895","0.0","0.0","0.0","","","","1.2648168168605163","-10.446703222507284","0.0","0.0","0.0","0.0","2.39748503435419E-09"
"3","25206.886070973553","25206.885962265544","433","443303","6108.291270748075","5826.543471907064","1.895","0.0","0.0","0.0","","","","14.835253583151254","1.4943804219131803","0.0","0.0","0.0","0.0","1.9457987896478E-09"
"3","25206.88940071122","25206.88928731694","637","444198","6103.497634426068","5735.687823562917","1.895","0.0","0.0","0.0","","","","14.22244942010049","0.9662641099547847","0.0","0.0","0.0","0.0","6.65109855356034E-09"
"2","25206.899999999998","","","","6136.377377145328","6055.795521308878","1.895","","","","0.0","0.0","0.0","15.756908116439846","-5.34125875328127","0.0","0.0","0.0","0.0",""
"3","25206.910662695278","25206.91054471885","337","445829","6320.906763742153","5986.512087302409","1.895","0.0","0.0","0.0","","","","1.6617272558551344","-13.660112764521435","0.0","0.0","0.0","0.0","1.68954640457525E-09"
"3","25206.927324409087","25206.927211811068","667","447663","6047.829119885158","5813.822644777337","1.895","0.0","0.0","0.0","","","","-14.742787654948481","-1.4845066657523467","0.0","0.0","0.0","0.0","1.07083345661578E-08"
"3","25206.935408695546","25206.935301890364","733","448940","5560.0","5820.0","1.895","0.0","0.0","0.0","","","","16.93477615618898","-5.832964205694388","0.0","0.0","0.0","0.0","1.01127004931752E-08"
"3","25206.949406852535","25206.949297479587","361","450130","5843.747481026934","5703.155407338106","1.895","0.0","0.0","0.0","","","","13.562081956696167","1.0090899236519478","0.0","0.0","0.0","0.0","4.19273556159876E-09"
"2","25207.0","","","","6137.96310507934","6055.257993061251","1.895","","","","0.0","0.0","0.0","15.78116552339016","-5.349481501436188","0.0","0.0","0.0","0.0",""
"3","25207.024687318084","25207.02457702509","1063","454881","5560.0","5820.0","1.895","0.0","0.0","0.0","","","","1.6470726112212542","-13.530790053482204","0.0","0.0","0.0","0.0","6.69136774388809E-09"
"3","25207.05128482874","25207.051170434566","853","456921","6000.387170955488","5818.997430034452","1.895","0.0","0.0","0.0","","","","14.210695223696455","1.4305499224492029","0.0","0.0","0.0","0.0","2.5951454105927E-09"
"3","25207.05949497036","25207.059383184416","835","457276","6080.524782683583","5827.064653519179","1.895","0.0","0.0","0.0","","","","12.496316573685652","1.2579683417299488","0.0","0.0","0.0","0.0","6.49359843966686E-09"
"3","25207.06571624796","25207.065604869276","655","458465","6098.95750294554","5785.236409888352","1.895","0.0","0.0","0.0","","","","0.624141945630778","-12.455135484199925","0.0","0.0","0.0","0.0","2.79521321607108E-09"
"2","25207.1","","","","6139.544691037125","6054.721868856003","1.895","","","","0.0","0.0","0.0","15.739944573054695","-5.335508470675921","0.0","0.0","0.0","0.0",""
"3","25207.168690671628","25207.16857640515","469","461666","6062.260406046701","5815.275785187657","1.895","0.0","0.0","0.0","","","","-13.055897312960595","-1.3146473409285027","0.0","0.0","0.0","0.0","2.02505243832804E-08"
"2","25207.2","","","","6141.127845944362","6054.185212810058","1.895","","","","0.0","0.0","0.0","15.755558759121673","-5.34080134967558","0.0","0.0","0.0","0.0",""
"3","25207.266810686964","25207.26669687568","577","466792","6097.608901546752","5812.148578271997","1.895","0.0","0.0","0.0","","","","0.10249521047961705","-9.981663254507425","0.0","0.0","0.0","0.0","4.01779286367611E-09"
"2","25207.3","","","","6142.710982247226","6053.648563070604","1.895","","","","0.0","0.0","0.0","15.755373608368944","-5.340738587480428","0.0","0.0","0.0","0.0",""
"3","25207.345624252404","25207.345505659236","883","472123","6086.9019323552379","5727.942226804478","1.895","0.0","0.0","0.0","","","","4.6445539449336119","0.36025065854964036","0.0","0.0","0.0","0.0","3.59283984495972E-09"
"3","25207.35922925635","25207.359110657126","805","473228","6115.699654235682","5820.65243010107","1.895","0.0","0.0","0.0","","","","-7.337854192449713","-0.7392447326461838","0.0","0.0","0.0","0.0","2.12781641255608E-08"
"3","25207.365218080104","25207.36509987572","643","474219","6058.189404964526","5553.0966830364609","1.895","0.0","0.0","0.0","","","","-5.925936715147648","-14.073372768063346","0.0","0.0","0.0","0.0","3.45245744016047E-09"
"2","25207.399999999998","","","","6144.299577493163","6053.110062864847","1.895","","","","0.0","0.0","0.0","15.809701013722238","-5.359154429427687","0.0","0.0","0.0","0.0",""
"3","25207.40213925669","25207.402025997777","1453","476360","6177.3326294515959","5826.861582135263","1.895","0.0","0.0","0.0","","","","-0.6578366865353201","-0.0662730946552167","0.0","0.0","0.0","0.0","3.16274634822515E-09"
"3","25207.475398869847","25207.47528944444","325","481724","5560.0","5820.0","1.895","0.0","0.0","0.0","","","","9.410828885793038","0.6232830024881245","0.0","0.0","0.0","0.0","3.53134955931421E-09"
"2","25207.5","","","","6145.878674241383","6052.574782449021","1.895","","","","0.0","0.0","0.0","15.715171957689032","-5.327111077758587","0.0","0.0","0.0","0.0",""
"3","25207.558158242184","25207.558051239932","979","485149","6319.941917211667","5994.443540770763","1.895","0.0","0.0","0.0","","","","1.528191691152336","-13.403491064119839","0.0","0.0","0.0","0.0","6.1516853503883E-09"
"2","25207.6","","","","6147.458352256029","6052.039304996164","1.895","","","","0.0","0.0","0.0","15.720956721579931","-5.329071990428737","0.0","0.0","0.0","0.0",""
"3","25207.6003256062","25207.60021286551","799","487993","5560.0","5820.0","1.895","0.0","0.0","0.0","","","","-9.239986119433836","-0.9308730985066007","0.0","0.0","0.0","0.0","6.83717107030019E-09"
"2","25207.7","","","","6149.045378456956","6051.501336663498","1.895","","","","0.0","0.0","0.0","15.79408587666667","-5.353861228064005","0.0","0.0","0.0","0.0",""
"3","25207.73059265516","25207.730478055077","997","497851","5560.0","5820.0","1.895","0.0","0.0","0.0","","","","-14.994552062753089","5.066753842486041","0.0","0.0","0.0","0.0","1.47671139370057E-07"
"3","25207.780534085472","25207.780426649144","265","501253","5560.0","5820.0","1.895","0.0","0.0","0.0","","","","-6.758588919567035","-0.6808872359513067","0.0","0.0","0.0","0.0","4.20800421315158E-09"
"3","25207.784844695925","25207.784730568528","889","502252","6120.121953815212","5730.053598459759","1.895","0.0","0.0","0.0","","","","12.130850234820493","0.6980321643496614","0.0","0.0","0.0","0.0","4.01354207295012E-09"
"3","25207.794413195104","25207.79430566984","1297","503206","6097.101913957983","5657.356450462894","1.895","0.0","0.0","0.0","","","","-0.9635802621274366","-14.049901411976509","0.0","0.0","0.0","0.0","5.49035395248451E-09"
"2","25207.8","","","","6150.6268304799509","6050.965257859312","1.895","","","","0.0","0.0","0.0","15.738611653915659","-5.335056639268466","0.0","0.0","0.0","0.0",""
"3","25207.82222723584","25207.822117734933","271","504858","6068.991486499524","5815.953562961697","1.895","0.0","0.0","0.0","","","","-12.802817413166194","-1.2891637752032817","0.0","0.0","0.0","0.0","2.14267400350341E-09"
"3","25207.874394463055","25207.874287969895","259","507997","6034.652199450164","5815.8109420530549","1.895","0.0","0.0","0.0","","","","-12.392327316016429","-1.2473515880932074","0.0","0.0","0.0","0.0","1.50100631745548E-09"
"3","25207.886075635462","25207.885962265544","433","509627","6123.066568691479","5828.031812895021","1.895","0.0","0.0","0.0","","","","14.831978618514985","1.4940505291339657","0.0","0.0","0.0","0.0","1.71954767520283E-08"
"3","25207.889405372054","25207.88928731694","637","510555","6117.649778559985","5736.519674648572","1.895","0.0","0.0","0.0","","","","14.016404573565075","0.8134520511457066","0.0","0.0","0.0","0.0","2.19295873560394E-09"
"2","25207.899999999998","","","","6152.206364245711","6050.429829303779","1.895","","","","0.0","0.0","0.0","15.719521156565643","-5.328585364233474","0.0","0.0","0.0","0.0",""
"3","25207.919631418386","25207.919524366454","1333","513487","6120.14507892136","5824.416747593656","1.895","0.0","0.0","0.0","","","","-13.311484326023186","-1.3425118948310182","0.0","0.0","0.0","0.0","1.29452209015866E-08"
"3","25207.927329134323","25207.927211811068","667","514246","6032.642995112103","5812.293496831903","1.895","0.0","0.0","0.0","","","","-15.237412351493744","-1.5343122843539763","0.0","0.0","0.0","0.0","3.86403906256871E-09"
"3","25207.935413991974","25207.935301890364","733","515571","5560.0","5820.0","1.895","0.0","0.0","0.0","","","","17.302362136443916","-4.544682730908109","0.0","0.0","0.0","0.0","5.70858308697515E-08"
"3","25207.949411449","25207.949297479587","361","516732","5857.289533936154","5704.360064807331","1.895","0.0","0.0","0.0","","","","13.520094675970148","1.2184330982998493","0.0","0.0","0.0","0.0","4.27156005165058E-09"
"2","25208.0","","","","6153.791030759671","6049.89266085511","1.895","","","","0.0","0.0","0.0","15.77060227029332","-5.34590078194464","0.0","0.0","0.0","0.0",""
"3","25208.000170804014","25208.000055350363","205","519895","6101.23989767381","5739.689822660743","1.895","0.0","0.0","0.0","","","","2.33115078884654E-15","-4.65195443320598E-14","0.0","0.0","0.0","0.0","5.95267374618601E-09"
"3","25208.03246589642","25208.032356234035","937","522520","5560.0","5820.0","1.895","0.0","0.0","0.0","","","","3.18558718513724E-15","4.65235754840649E-14","0.0","0.0","0.0","0.0","7.72253297780434E-09"
"3","25208.051284088815","25208.051170434566","853","523930","6014.646778897866","5820.432903859977","1.895","0.0","0.0","0.0","","","","14.148932882827002","1.4243324847693245","0.0","0.0","0.0","0.0","7.38521063993016E-09"
"3","25208.06571558128","25208.065604869276","655","525762","6099.555314686707","5773.306709789809","1.895","0.0","0.0","0.0","","","","0.5263874549457006","-10.504384642711047","0.0","0.0","0.0","0.0","4.52244695882646E-09"
"2","25208.1","","","","6155.381832561985","6049.353412673388","1.895","","","","0.0","0.0","0.0","15.831660664338214","-5.366598286762431","0.0","0.0","0.0","0.0",""
"3","25208.168690046543","25208.16857640515","469","529085","6048.251108314673","5813.865136377375","1.895","0.0","0.0","0.0","","","","-14.57867241350052","-1.4679812856409547","0.0","0.0","0.0","0.0","1.80745625360123E-08"
"2","25208.2","","","","6156.965725877663","6048.816506322592","1.895","","","","0.0","0.0","0.0","15.762907400441119","-5.343292383732902","0.0","0.0","0.0","0.0",""
"3","25208.240808688013","25208.24069597921","1201","532368","5560.0","5820.0","1.895","0.0","0.0","0.0","","","","3.20079139871455E-15","4.67525432172605E-14","0.0","0.0","0.0","0.0","1.7788823778645E-09"
"3","25208.266815692008","25208.26669687568","577","534292","6098.118129322011","5801.9866255662559","1.895","0.0","0.0","0.0","","","","0.4754208717458944","-9.487315202987548","0.0","0.0","0.0","0.0","1.92054726676231E-08"
"2","25208.3","","","","6158.549251708001","6048.279724541559","1.895","","","","0.0","0.0","0.0","15.759250186076577","-5.342052665373162","0.0","0.0","0.0","0.0",""
"3","25208.34371199541","25208.343605499478","277","539759","5560.0","5820.0","1.895","0.0","0.0","0.0","","","","-19.654225285676867","5.107688655641277","0.0","0.0","0.0","0.0","3.44543666776905E-08"
"3","25208.345616188177","25208.345505659236","883","539963","6090.788694710759","5727.605701558202","1.895","0.0","0.0","0.0","","","","4.277006952963205","-0.05991465701460897","0.0","0.0","0.0","0.0","2.06294191271222E-09"
"3","25208.359221188337","25208.359110657126","805","541109","6107.680963926107","5819.8445952192919","1.895","0.0","0.0","0.0","","","","-8.125714540031336","-0.8186169301203312","0.0","0.0","0.0","0.0","1.89181380070196E-09"
"3","25208.365210098174","25208.36509987572","643","542150","6052.239890201722","5538.967315297515","1.895","0.0","0.0","0.0","","","","-5.943823138391541","-14.11585082915595","0.0","0.0","0.0","0.0","1.52187475378142E-09"
"3","25208.368025098487","25208.367917491123","847","542460","6098.890592990924","5786.571639087126","1.895","0.0","0.0","0.0","","","","0.4897421929781907","-9.773105955423418","0.0","0.0","0.0","0.0","1.52340620841523E-08"
"2","25208.399999999998","","","","6160.139171497872","6047.74077534341","1.895","","","","0.0","0.0","0.0","15.822882875878582","-5.363622802032455","0.0","0.0","0.0","0.0",""
"3","25208.409171696563","25208.409054094227","391","545005","6092.225016848808","5787.749807374836","1.895","0.0","0.0","0.0","","","","-0.5922865152679296","11.819440825595372","0.0","0.0","0.0","0.0","5.08005345238435E-09"
"3","25208.446502154082","25208.44639441464","535","547252","6163.643685137392","5732.300959344905","1.895","0.0","0.0","0.0","","","","14.35278913038949","0.735499709315658","0.0","0.0","0.0","0.0","1.65754676467904E-09"
"3","25208.473440581405","25208.473326199222","1183","549547","5560.0","5820.0","1.895","0.0","0.0","0.0","","","","1.2551330555350074","-10.366720588416673","0.0","0.0","0.0","0.0","8.5355314114845E-09"
"2","25208.5","","","","6161.717991647916","6047.205588688517","1.895","","","","0.0","0.0","0.0","15.712419252459434","-5.326177968877444","0.0","0.0","0.0","0.0",""
"3","25208.55816657388","25208.558051239932","979","553250","6321.602995715822","5980.787965977952","1.895","0.0","0.0","0.0","","","","1.6735882623258756","-13.760072952033737","0.0","0.0","0.0","0.0","8.77735631871643E-09"
"2","25208.6","","","","6163.303557235431","6046.66811547292","1.895","","","","0.0","0.0","0.0","15.779549850939559","-5.348933822633475","0.0","0.0","0.0","0.0",""
"3","25208.600326373344","25208.60021286551","799","556423","5560.0","5820.0","1.895","0.0","0.0","0.0","","","","-5.1213851096993319","-7.969069273535941","0.0","0.0","0.0","0.0","2.61132533192489E-09"
"2","25208.7","","","","6164.885021958288","6046.13203236375","1.895","","","","0.0","0.0","0.0","15.738738042967427","-5.335099482485174","0.0","0.0","0.0","0.0",""
"3","25208.73059410151","25208.730478055077","997","566423","5560.0","5820.0","1.895","0.0","0.0","0.0","","","","-14.961609266152215","5.05562226346009","0.0","0.0","0.0","0.0","5.75750620063607E-07"
"3","25208.780535579855","25208.780426649144","265","569831","5560.0","5820.0","1.895","0.0","0.0","0.0","","","","-7.425834398892417","-0.7481082099631377","0.0","0.0","0.0","0.0","2.51623199410549E-08"
"3","25208.79442179533","25208.79430566984","1297","571818","6096.13599762807","5643.272486997776","1.895","0.0","0.0","0.0","","","","-0.957476826577795","-13.960907613454623","0.0","0.0","0.0","0.0","5.05834360807191E-09"
"2","25208.8","","","","6166.464996635542","6045.596454348541","1.895","","","","0.0","0.0","0.0","15.723909108062476","-5.330072787033402","0.0","0.0","0.0","0.0",""
"3","25208.80486671063","25208.804758092992","1363","572922","5973.945390054891","5708.375383136539","1.895","0.0","0.0","0.0","","","","-12.137838020490037","-1.0503053174856292","0.0","0.0","0.0","0.0","1.3561390391813E-09"
"3","25208.82222871732","25208.822117734933","271","573450","6056.238352369704","5814.6694019829169","1.895","0.0","0.0","0.0","","","","-12.842301882907194","-1.2931396147702619","0.0","0.0","0.0","0.0","6.86657649893241E-09"
"3","25208.84054030635","25208.84042853536","229","574410","5560.0","5820.0","1.895","0.0","0.0","0.0","","","","11.962014618399533","0.6122247672934497","0.0","0.0","0.0","0.0","6.38091714781448E-09"
"3","25208.874401144567","25208.874287969895","259","576625","6022.297582512455","5814.567386208819","1.895","0.0","0.0","0.0","","","","-12.277628364820349","-1.2358065477382834","0.0","0.0","0.0","0.0","6.64249326778828E-09"
"3","25208.888377983392","25208.888265040936","1111","578839","6162.854351874382","5735.560302071092","1.895","0.0","0.0","0.0","","","","12.933429776232912","0.6629481733535264","0.0","0.0","0.0","0.0","1.16022331607009E-08"
"2","25208.899999999998","","","","6168.053067451754","6045.058131913375","1.895","","","","0.0","0.0","0.0","15.804481888718513","-5.357385256382784","0.0","0.0","0.0","0.0",""
"3","25208.91963817502","25208.919524366454","1333","582183","6106.814015750436","5823.072261100685","1.895","0.0","0.0","0.0","","","","-13.348111616724474","-1.3462058911025539","0.0","0.0","0.0","0.0","2.14946210937571E-08"
"3","25208.920386689166","25208.920271761017","925","582548","5560.0","5820.0","1.895","0.0","0.0","0.0","","","","2.38244189520085E-15","-4.75430898304059E-14","0.0","0.0","0.0","0.0","1.29575945706753E-08"
"3","25208.927322948173","25208.927211811068","667","582942","6017.397946920725","5810.758415666151","1.895","0.0","0.0","0.0","","","","-15.328171405478733","-1.543451154404925","0.0","0.0","0.0","0.0","1.74514666164487E-08"
"3","25208.935415804237","25208.935301890364","733","584255","5560.0","5820.0","1.895","0.0","0.0","0.0","","","","14.191961018534256","-3.727696810995123","0.0","0.0","0.0","0.0","1.15299345195767E-08"
"2","25209.0","","","","6169.637539216986","6044.521029480409","1.895","","","","0.0","0.0","0.0","15.768664130802712","-5.345243793629242","0.0","0.0","0.0","0.0",""
"3","25209.000170264288","25209.000055350363","205","588581","6101.23989767381","5739.689822660743","1.895","0.0","0.0","0.0","","","","2.27052908422674E-15","-4.5309801020285E-14","0.0","0.0","0.0","0.0","3.76784430511568E-09"
"3","25209.032469447488","25209.032356234035","937","591235","5560.0","5820.0","1.895","0.0","0.0","0.0","","","","3.17150099847591E-15","4.63178552415053E-14","0.0","0.0","0.0","0.0","5.71958966442281E-09"
"3","25209.051287608127","25209.051170434566","853","592926","6028.910183305682","5821.868759864787","1.895","0.0","0.0","0.0","","","","14.279497629042034","1.437476063224308","0.0","0.0","0.0","0.0","6.48429153704574E-09"
"3","25209.05949773436","25209.059383184416","835","593555","6105.425637162837","5829.568053206892","1.895","0.0","0.0","0.0","","","","12.450047105479023","1.2541145011134132","0.0","0.0","0.0","0.0","2.57062632588443E-09"
"2","25209.1","","","","6171.21946113977","6043.984791390129","1.895","","","","0.0","0.0","0.0","15.743288096961035","-5.336641854601687","0.0","0.0","0.0","0.0",""
"3","25209.168693685366","25209.16857640515","469","598100","6033.719796213957","5812.401923979523","1.895","0.0","0.0","0.0","","","","-14.584933318536838","-1.4686117196859685","0.0","0.0","0.0","0.0","1.88661414659412E-09"
"2","25209.2","","","","6172.804385271878","6043.447535614355","1.895","","","","0.0","0.0","0.0","15.773166086289459","-5.346769861365708","0.0","0.0","0.0","0.0",""
"3","25209.240812303484","25209.24069597921","1201","601605","5560.0","5820.0","1.895","0.0","0.0","0.0","","","","3.15706944644443E-15","4.61139160127908E-14","0.0","0.0","0.0","0.0","2.04718907152852E-09"
"3","25209.266806309104","25209.26669687568","577","603582","6098.559685695581","5793.175097202811","1.895","0.0","0.0","0.0","","","","0.4128682341832526","-8.239038939600516","0.0","0.0","0.0","0.0","1.33377098456376E-08"
"2","25209.3","","","","6174.393385769487","6042.908898036849","1.895","","","","0.0","0.0","0.0","15.813734078637639","-5.3605215531747218","0.0","0.0","0.0","0.0",""
"3","25209.343719385317","25209.343605499478","277","609184","5560.0","5820.0","1.895","0.0","0.0","0.0","","","","-19.24059288184236","6.824819519211433","0.0","0.0","0.0","0.0","3.4024360461027E-07"
"3","25209.34561530855","25209.345505659236","883","609420","6095.51483200101","5725.113408841387","1.895","0.0","0.0","0.0","","","","5.818059751383439","-2.4714956189912149","0.0","0.0","0.0","0.0","2.79757356600201E-09"
"3","25209.359220317787","25209.359110657126","805","610557","6098.973326130601","5818.73414182575","1.895","0.0","0.0","0.0","","","","-9.523673749382699","-1.4098167462006826","0.0","0.0","0.0","0.0","1.45489457365833E-08"
"3","25209.368033744646","25209.367917491123","847","611856","6099.324012586981","5777.922485111511","1.895","0.0","0.0","0.0","","","","0.3865457123873875","-7.713756866247373","0.0","0.0","0.0","0.0","1.39068504944315E-08"
"2","25209.399999999998","","","","6175.981440697211","6042.370580987545","1.895","","","","0.0","0.0","0.0","15.804323766470523","-5.3573316562833919","0.0","0.0","0.0","0.0",""
"3","25209.409167266847","25209.409054094227","391","614449","6091.719013785514","5797.84740897472","1.895","0.0","0.0","0.0","","","","-0.43563071588237869","8.693278228448909","0.0","0.0","0.0","0.0","9.00078572629204E-09"
"2","25209.5","","","","6177.571464190687","6041.831596636066","1.895","","","","0.0","0.0","0.0","15.823914934227999","-5.363972647998405","0.0","0.0","0.0","0.0",""
"2","25209.6","","","","6179.156355724448","6041.294351910443","1.895","","","","0.0","0.0","0.0","15.77284166750812","-5.346659890256989","0.0","0.0","0.0","0.0",""
"2","25209.7","","","","6180.7355379055","6040.759042534692","1.895","","","","0.0","0.0","0.0","15.71602218530232","-5.327399286945833","0.0","0.0","0.0","0.0",""
"3","25209.730586600384","25209.730478055077","997","636576","5560.0","5820.0","1.895","0.0","0.0","0.0","","","","-14.943279579251304","5.049428546495053","0.0","0.0","0.0","0.0","4.61100480259053E-09"
"2","25209.8","","","","6182.317899890657","6040.222655272571","1.895","","","","0.0","0.0","0.0","15.747667598006994","-5.338126412874406","0.0","0.0","0.0","0.0",""
"3","25209.874401441826","25209.874287969895","259","646766","6009.908922100543","5813.320403713516","1.895","0.0","0.0","0.0","","","","-12.366444791173926","-1.24474637862449","0.0","0.0","0.0","0.0","1.14801093384574E-08"
"2","25209.899999999998","","","","6183.8969756158899","6039.687381983093","1.895","","","","0.0","0.0","0.0","15.714962736912808","-5.327040156338336","0.0","0.0","0.0","0.0",""
"3","25209.927323403463","25209.927211811068","667","652797","6002.146611203677","5809.222701385822","1.895","0.0","0.0","0.0","","","","-15.341618509319993","-1.5448051938040819","0.0","0.0","0.0","0.0","1.526543079918E-08"
"3","25209.935415947057","25209.935301890364","733","654098","5560.0","5820.0","1.895","0.0","0.0","0.0","","","","10.897647263483924","-2.8624039270109487","0.0","0.0","0.0","0.0","1.01381723439859E-07"
"2","25210.0","","","","6185.4790926963719","6039.151077738478","1.895","","","","0.0","0.0","0.0","15.745230306509498","-5.337300222580658","0.0","0.0","0.0","0.0",""
"2","25210.1","","","","6187.058476859928","6038.615699894929","1.895","","","","0.0","0.0","0.0","15.718032315337556","-5.328080678532","0.0","0.0","0.0","0.0",""
"2","25210.2","","","","6188.641262992401","6038.079168855834","1.895","","","","0.0","0.0","0.0","15.751888712391212","-5.339557281418078","0.0","0.0","0.0","0.0",""
"2","25210.3","","","","6190.223006455885","6037.542991259484","1.895","","","","0.0","0.0","0.0","15.741512069884346","-5.336039818968599","0.0","0.0","0.0","0.0",""
"3","25210.343722520523","25210.343605499478","277","679683","5560.0","5820.0","1.895","0.0","0.0","0.0","","","","-19.176375111623359","7.079129129991173","0.0","0.0","0.0","0.0","8.66804508122619E-08"
"2","25210.399999999998","","","","6191.805169144217","6037.006671554774","1.895","","","","0.0","0.0","0.0","15.745684195860886","-5.337454081472629","0.0","0.0","0.0","0.0",""
"3","25210.452215291894","25210.45210903813","181","687743","6316.964144114062","5991.620852938996","1.895","0.0","0.0","0.0","","","","1.4693493258079576","-12.299334237117375","0.0","0.0","0.0","0.0","2.76603522715107E-09"
"2","25210.5","","","","6193.388952575147","6036.469802452584","1.895","","","","0.0","0.0","0.0","15.76181382735368","-5.342921685571186","0.0","0.0","0.0","0.0",""
"2","25210.6","","","","6194.972488452693","6035.933017265758","1.895","","","","0.0","0.0","0.0","15.759350175893346","-5.3420865598102928","0.0","0.0","0.0","0.0",""
"2","25210.7","","","","6196.5628948732869","6035.393903110082","1.895","","","","0.0","0.0","0.0","15.827725825175462","-5.365264459468048","0.0","0.0","0.0","0.0",""
"3","25210.730585775065","25210.730478055077","997","707209","5560.0","5820.0","1.895","0.0","0.0","0.0","","","","-14.941307987311319","5.04876233312379","0.0","0.0","0.0","0.0","6.4294470784766E-09"
"2","25210.8","","","","6198.145009723167","6034.857599621595","1.895","","","","0.0","0.0","0.0","15.74520810756297","-5.337292697604056","0.0","0.0","0.0","0.0",""
"3","25210.88837164022","25210.888265040936","1111","719842","6188.430535288017","5740.175397239313","1.895","0.0","0.0","0.0","","","","12.87588729437345","0.6589974476687042","0.0","0.0","0.0","0.0","1.59085124236459E-09"
"2","25210.899999999998","","","","6199.728075345543","6034.320973841331","1.895","","","","0.0","0.0","0.0","15.754670196117218","-5.340500145601131","0.0","0.0","0.0","0.0",""
"3","25210.935409608588","25210.935301890364","733","724965","5560.0","5820.0","1.895","0.0","0.0","0.0","","","","7.738722081090235","-2.0326725521006958","0.0","0.0","0.0","0.0","1.34283531706782E-07"
"2","25211.0","","","","6201.314772599702","6033.783117014665","1.895","","","","0.0","0.0","0.0","15.790812198182856","-5.352751520264965","0.0","0.0","0.0","0.0",""
"2","25211.1","","","","6202.902712318142","6033.244839018872","1.895","","","","0.0","0.0","0.0","15.803177203598688","-5.35694299570695","0.0","0.0","0.0","0.0",""
"2","25211.2","","","","6204.487465952844","6032.689263203195","1.895","","","","0.0","0.0","0.0","15.810751678957116","-5.42065241885059","0.0","0.0","0.0","0.0",""
"2","25211.3","","","","6206.052464847093","6032.108077931505","1.895","","","","0.0","0.0","0.0","15.663958372601432","-5.538152817201666","0.0","0.0","0.0","0.0",""
"3","25211.3437206882","25211.343605499478","277","750929","5560.0","5820.0","1.895","0.0","0.0","0.0","","","","-19.27733690964675","6.515477922765172","0.0","0.0","0.0","0.0","4.46445679189911E-07"
"2","25211.399999999998","","","","6207.624148337904","6031.5244102369319","1.895","","","","0.0","0.0","0.0","15.676765427636756","-5.712514000505807","0.0","0.0","0.0","0.0",""
"2","25211.5","","","","6209.192503089059","6030.941978718605","1.895","","","","0.0","0.0","0.0","15.60826759528898","-5.796358883262472","0.0","0.0","0.0","0.0",""
"2","25211.6","","","","6210.758552727688","6030.360403237593","1.895","","","","0.0","0.0","0.0","15.585327113796695","-5.787839599306723","0.0","0.0","0.0","0.0",""
"3","25211.611859563604","25211.611748417607","445","769659","6180.016942859266","5736.440030692218","1.895","0.0","0.0","0.0","","","","13.02603717746661","0.6676950895671989","0.0","0.0","0.0","0.0","1.68810617855094E-09"
"2","25211.7","","","","6212.322755913783","6029.779513463786","1.895","","","","0.0","0.0","0.0","15.566951216870726","-5.781015440716767","0.0","0.0","0.0","0.0",""
"3","25211.730589387873","25211.730478055077","997","778987","5560.0","5820.0","1.895","0.0","0.0","0.0","","","","-14.950490093473386","5.153101581817962","0.0","0.0","0.0","0.0","2.87670814747322E-08"
"3","25211.784842060668","25211.784730568528","889","784058","6170.343711716777","5732.6442980198339","1.895","0.0","0.0","0.0","","","","12.765200746919084","0.6541447347565277","0.0","0.0","0.0","0.0","1.92493831263005E-09"
"2","25211.8","","","","6213.894901270481","6029.223814467884","1.895","","","","0.0","0.0","0.0","15.587684361447665","-5.695757338291917","0.0","0.0","0.0","0.0",""
"3","25211.886073050464","25211.885962265544","433","791562","6182.1581604493289","5833.995231569616","1.895","0.0","0.0","0.0","","","","14.81819669120894","1.529189296234879","0.0","0.0","0.0","0.0","1.08415254928386E-08"
"3","25211.889402796813","25211.88928731694","637","792498","6168.5345123300689","5739.157104049238","1.895","0.0","0.0","0.0","","","","11.693536321395463","0.5984838492170009","0.0","0.0","0.0","0.0","2.44727613177919E-09"
"2","25211.899999999998","","","","6215.480796420301","6028.677991475941","1.895","","","","0.0","0.0","0.0","15.723206208532549","-5.6022724935904659","0.0","0.0","0.0","0.0",""
"3","25211.91964213539","25211.919524366454","1333","795505","6066.791800491726","5819.045958477131","1.895","0.0","0.0","0.0","","","","-13.311924568888398","-1.339913789244687","0.0","0.0","0.0","0.0","1.91151646156135E-08"
"3","25211.93540733944","25211.935301890364","733","797601","5560.0","5820.0","1.895","0.0","0.0","0.0","","","","5.171744976355307","-1.3584237745905834","0.0","0.0","0.0","0.0","3.48106776422331E-08"
"2","25212.0","","","","6217.064658117346","6028.132868344437","1.895","","","","0.0","0.0","0.0","15.747504480455725","-5.468708357960489","0.0","0.0","0.0","0.0",""
"2","25212.1","","","","6218.651299982302","6027.586788352975","1.895","","","","0.0","0.0","0.0","15.790260964801206","-5.4345884621414088","0.0","0.0","0.0","0.0",""
"3","25212.168693614476","25212.16857640515","469","813077","5990.107310101","5808.01041893584","1.895","0.0","0.0","0.0","","","","-14.551403719839293","-1.4652354984496952","0.0","0.0","0.0","0.0","4.04660368152978E-09"
"2","25212.2","","","","6220.239733751544","6027.040091635648","1.895","","","","0.0","0.0","0.0","15.808093997526948","-5.440726118391191","0.0","0.0","0.0","0.0",""
"2","25212.3","","","","6221.820621304868","6026.495992125426","1.895","","","","0.0","0.0","0.0","15.73299405136503","-5.4148787114445959","0.0","0.0","0.0","0.0",""
"3","25212.34372225395","25212.343605499478","277","824620","5560.0","5820.0","1.895","0.0","0.0","0.0","","","","-19.34588916688015","6.538647654178457","0.0","0.0","0.0","0.0","1.79849951748045E-07"
"2","25212.399999999998","","","","6223.407402813952","6025.949864072163","1.895","","","","0.0","0.0","0.0","15.791650703261152","-5.435066773210278","0.0","0.0","0.0","0.0",""
"3","25212.402136939287","25212.402025997777","1453","829279","6151.477565998251","5824.256839799312","1.895","0.0","0.0","0.0","","","","-8.542118239898818","-0.8605671016171417","0.0","0.0","0.0","0.0","1.89525685366967E-08"
"3","25212.475403742545","25212.47528944444","325","834799","5560.0","5820.0","1.895","0.0","0.0","0.0","","","","12.204300994063417","0.6254017774542205","0.0","0.0","0.0","0.0","2.69565241450364E-09"
"2","25212.5","","","","6224.992858783324","6025.4039120646389","1.895","","","","0.0","0.0","0.0","15.779030845475189","-5.431653945276178","0.0","0.0","0.0","0.0",""
"3","25212.530645309627","25212.530537214596","487","837722","5560.0","5820.0","1.895","0.0","0.0","0.0","","","","13.826240914194355","0.7087123305289959","0.0","0.0","0.0","0.0","5.23497848708996E-09"
"2","25212.6","","","","6226.57294716835","6024.859671095246","1.895","","","","0.0","0.0","0.0","15.725606884160334","-5.414642519310591","0.0","0.0","0.0","0.0",""
"3","25212.65223399451","25212.652124596527","967","845947","6085.811318504057","5598.258000881059","1.895","0.0","0.0","0.0","","","","-0.3396369027743693","0.27132862102016866","0.0","0.0","0.0","0.0","2.23443544667774E-09"
"2","25212.7","","","","6228.151199755874","6024.3160624425149","1.895","","","","0.0","0.0","0.0","15.706912854430684","-5.409581457611024","0.0","0.0","0.0","0.0",""
"3","25212.794418473306","25212.79430566984","1297","858072","6077.595636471827","5590.709636620589","1.895","0.0","0.0","0.0","","","","-5.456125439567363","-12.958297918970019","0.0","0.0","0.0","0.0","2.0586960436534E-09"
"2","25212.8","","","","6229.731919886983","6023.771603876369","1.895","","","","0.0","0.0","0.0","15.731327865360912","-5.418452036238623","0.0","0.0","0.0","0.0",""
"2","25212.899999999998","","","","6231.316619943464","6023.225774476503","1.895","","","","0.0","0.0","0.0","15.770936085478088","-5.432094574410546","0.0","0.0","0.0","0.0",""
"3","25212.935416868142","25212.935301890364","733","870160","5560.0","5820.0","1.895","0.0","0.0","0.0","","","","3.007955617785451","-0.7900773226046912","0.0","0.0","0.0","0.0","4.32476373667189E-08"
"2","25213.0","","","","6232.893939343306","6022.682487248176","1.895","","","","0.0","0.0","0.0","15.697483785381783","-5.406794881442344","0.0","0.0","0.0","0.0",""
"2","25213.1","","","","6234.470331586446","6022.1395193669609","1.895","","","","0.0","0.0","0.0","15.688256721226404","-5.403616738758577","0.0","0.0","0.0","0.0",""
"3","25213.168688314527","25213.16857640515","469","885816","5975.538603653434","5807.303487676043","1.895","0.0","0.0","0.0","","","","-14.70827794208138","-0.04992073278048347","0.0","0.0","0.0","0.0","8.67252053038242E-09"
"2","25213.2","","","","6236.0567344818969","6021.593103446276","1.895","","","","0.0","0.0","0.0","15.787882740117558","-5.437931630008906","0.0","0.0","0.0","0.0",""
"2","25213.3","","","","6237.633191649692","6021.050113202605","1.895","","","","0.0","0.0","0.0","15.688902851435828","-5.4038392899366409","0.0","0.0","0.0","0.0",""
"3","25213.343711177138","25213.343605499478","277","897824","5560.0","5820.0","1.895","0.0","0.0","0.0","","","","-19.26739303313852","6.512117027633218","0.0","0.0","0.0","0.0","6.42442986801694E-08"
"2","25213.399999999998","","","","6239.227260662771","6020.524547378961","1.895","","","","0.0","0.0","0.0","15.82392585822101","-5.3722006804202249","0.0","0.0","0.0","0.0",""
"2","25213.5","","","","6240.846450495051","6020.099246832666","1.895","","","","0.0","0.0","0.0","15.905046241640795","-4.960955317587866","0.0","0.0","0.0","0.0",""
"3","25213.579974674558","25213.579867018943","1495","914255","5560.0","5820.0","1.895","0.0","0.0","0.0","","","","-1.9280521208705018","15.839051831668197","0.0","0.0","0.0","0.0","3.55857610119719E-08"
"2","25213.6","","","","6242.465033577935","6019.674105656721","1.895","","","","0.0","0.0","0.0","16.017816657554964","-4.561044740297094","0.0","0.0","0.0","0.0",""
"2","25213.7","","","","6244.078588287142","6019.250285246277","1.895","","","","0.0","0.0","0.0","16.058097609873604","-4.21786102517967","0.0","0.0","0.0","0.0",""
"2","25213.8","","","","6245.700837050419","6018.824181233335","1.895","","","","0.0","0.0","0.0","16.144620842130789","-4.240587438853543","0.0","0.0","0.0","0.0",""
"2","25213.899999999998","","","","6247.290307833952","6018.4066867684609","1.895","","","","0.0","0.0","0.0","15.818414364491762","-4.154905210387796","0.0","0.0","0.0","0.0",""
"3","25213.93540767013","25213.935301890364","733","943443","5560.0","5820.0","1.895","0.0","0.0","0.0","","","","1.4913153443441266","-0.39171270594948728","0.0","0.0","0.0","0.0","4.62776010415578E-08"
"2","25214.0","","","","6248.845810083019","6017.998114565806","1.895","","","","0.0","0.0","0.0","15.480359485395866","-4.066110850457298","0.0","0.0","0.0","0.0",""
"3","25214.051282733362","25214.051170434566","853","952870","6100.147478145916","5829.036375237626","1.895","0.0","0.0","0.0","","","","14.174709504775763","1.424462025838797","0.0","0.0","0.0","0.0","1.8843850310912E-09"
"2","25214.1","","","","6250.368326470411","6017.598206514018","1.895","","","","0.0","0.0","0.0","15.152084166630552","-3.979885214885155","0.0","0.0","0.0","0.0",""
"2","25214.2","","","","6251.858503146316","6017.206792893636","1.895","","","","0.0","0.0","0.0","14.830239334983848","-3.895348627514489","0.0","0.0","0.0","0.0",""
"2","25214.3","","","","6253.317395548575","6016.823596480654","1.895","","","","0.0","0.0","0.0","14.51889822147766","-3.8135709736438256","0.0","0.0","0.0","0.0",""
"3","25214.343712464488","25214.343605499478","277","970809","5560.0","5820.0","1.895","0.0","0.0","0.0","","","","-19.255047621283216","6.507944446179302","0.0","0.0","0.0","0.0","2.24731035540355E-09"
"2","25214.399999999998","","","","6254.744659914742","6016.448707568596","1.895","","","","0.0","0.0","0.0","14.204135983879347","-3.730894718560072","0.0","0.0","0.0","0.0",""
"2","25214.5","","","","6256.134642249468","6016.083611250354","1.895","","","","0.0","0.0","0.0","13.833105180537041","-3.6334388179559129","0.0","0.0","0.0","0.0",""
"3","25214.537647276982","25214.5375361084","1435","984603","6303.770388666279","5990.742183429703","1.895","0.0","0.0","0.0","","","","-1.6807828566022015","13.807721531641635","0.0","0.0","0.0","0.0","9.22529056082868E-08"
"3","25214.57997662956","25214.579867018943","1495","986593","5560.0","5820.0","1.895","0.0","0.0","0.0","","","","-1.721278706218986","15.888726518948719","0.0","0.0","0.0","0.0","1.78680797203712E-08"
"2","25214.6","","","","6257.49870198328","6015.725323828828","1.895","","","","0.0","0.0","0.0","13.5751234378648","-3.5656766730205815","0.0","0.0","0.0","0.0",""
"2","25214.7","","","","6258.8266011044029","6015.376534446397","1.895","","","","0.0","0.0","0.0","13.215252994749575","-3.4711521812023164","0.0","0.0","0.0","0.0",""
"2","25214.8","","","","6260.121386105724","6015.036442903443","1.895","","","","0.0","0.0","0.0","12.885701251023713","-3.3845912765771035","0.0","0.0","0.0","0.0",""
"2","25214.899999999998","","","","6261.39111713634","6014.702932100568","1.895","","","","0.0","0.0","0.0","12.636364116786043","-3.319099746624241","0.0","0.0","0.0","0.0",""
"3","25214.935419249792","25214.935301890364","733","1015468","5560.0","5820.0","1.895","0.0","0.0","0.0","","","","0.6109805796993832","-0.16048172310725299","0.0","0.0","0.0","0.0","4.76179087645603E-08"
"2","25215.0","","","","6262.632581945","6014.3768457759119","1.895","","","","0.0","0.0","0.0","12.35505865585701","-3.245211334145427","0.0","0.0","0.0","0.0",""
"3","25215.014233421763","25215.01412652507","1531","1021751","6311.179575919301","5984.473913953272","1.895","0.0","0.0","0.0","","","","-1.7199414103750924","14.132793186271519","0.0","0.0","0.0","0.0","3.34940482381487E-08"
"2","25215.1","","","","6263.834269952888","6014.061207327571","1.895","","","","0.0","0.0","0.0","11.95919990636691","-3.1412340616476297","0.0","0.0","0.0","0.0",""
"2","25215.2","","","","6265.001974144107","6013.75449515551","1.895","","","","0.0","0.0","0.0","11.620992938796724","-3.052399753772867","0.0","0.0","0.0","0.0",""
"3","25215.276996433364","25215.276885217798","1489","1037505","5560.0","5820.0","1.895","0.0","0.0","0.0","","","","-1.578362543904468","13.00157612013252","0.0","0.0","0.0","0.0","1.3988741567419E-07"
"2","25215.3","","","","6266.150767587566","6013.452750128866","1.895","","","","0.0","0.0","0.0","11.432793163678106","-3.002966719069409","0.0","0.0","0.0","0.0",""
"2","25215.399999999998","","","","6267.262095084083","6013.160846003754","1.895","","","","0.0","0.0","0.0","11.059932033140982","-2.905030060038349","0.0","0.0","0.0","0.0",""
"2","25215.5","","","","6268.339693502889","6012.877801244536","1.895","","","","0.0","0.0","0.0","10.724260227862209","-2.8168616443813296","0.0","0.0","0.0","0.0",""
"3","25215.537653128817","25215.5375361084","1435","1056125","6295.754574038055","6002.224114444471","1.895","0.0","0.0","0.0","","","","-13.946605381960645","6.323704836842909","0.0","0.0","0.0","0.0","3.96517348990173E-07"
"2","25215.6","","","","6269.389602150855","6012.60202955141","1.895","","","","0.0","0.0","0.0","10.448691608830316","-2.7444800854823878","0.0","0.0","0.0","0.0",""
"2","25215.7","","","","6270.412896682791","6012.33324839013","1.895","","","","0.0","0.0","0.0","10.183827907235378","-2.6749103075974656","0.0","0.0","0.0","0.0",""
"3","25215.773807296446","25215.773694703123","1573","1071066","5560.0","5820.0","1.895","0.0","0.0","0.0","","","","-1.6720346905104869","13.750523555895566","0.0","0.0","0.0","0.0","3.29039057974806E-08"
"2","25215.8","","","","6271.40175562648","6012.07351216861","1.895","","","","0.0","0.0","0.0","9.8411249085838","-2.584895060689535","0.0","0.0","0.0","0.0",""
"2","25215.899999999998","","","","6272.3566356068799","6011.82270094857","1.895","","","","0.0","0.0","0.0","9.502966241845578","-2.496073439636737","0.0","0.0","0.0","0.0",""
"3","25215.93540699419","25215.935301890364","733","1084883","5560.0","5820.0","1.895","0.0","0.0","0.0","","","","0.4181504871601478","-0.1098324773768786","0.0","0.0","0.0","0.0","3.51329236241909E-07"
"2","25216.0","","","","6273.2863390760489","6011.5785026554199","1.895","","","","0.0","0.0","0.0","9.25240958423164","-2.4302615865485048","0.0","0.0","0.0","0.0",""
"3","25216.014242715988","25216.01412652507","1531","1090689","6309.5103626881659","5998.562036724626","1.895","0.0","0.0","0.0","","","","-1.6165041647006116","14.175343922321437","0.0","0.0","0.0","0.0","4.1582863728506E-08"
"2","25216.1","","","","6274.189745753723","6011.341211544839","1.895","","","","0.0","0.0","0.0","8.990703896641309","-2.3615213007081587","0.0","0.0","0.0","0.0",""
"2","25216.2","","","","6275.059420245859","6011.112780616463","1.895","","","","0.0","0.0","0.0","8.655001162239279","-2.27334476112997","0.0","0.0","0.0","0.0",""
"3","25216.27699515374","25216.276885217798","1489","1106167","5560.0","5820.0","1.895","0.0","0.0","0.0","","","","-1.5811625591972274","12.989335432539818","0.0","0.0","0.0","0.0","3.99033129102232E-08"
"2","25216.3","","","","6275.905930066255","6010.890434180065","1.895","","","","0.0","0.0","0.0","8.424466332669205","-2.212791892651149","0.0","0.0","0.0","0.0",""
"3","25216.343719423934","25216.343605499478","277","1110456","5560.0","5820.0","1.895","0.0","0.0","0.0","","","","-12.976259258398509","15.688305446878449","0.0","0.0","0.0","0.0","1.26532532168448E-08"
"2","25216.399999999998","","","","6276.723012596383","6010.675817191061","1.895","","","","0.0","0.0","0.0","8.131605919064493","-2.1358684267215888","0.0","0.0","0.0","0.0",""
"2","25216.5","","","","6277.506684018745","6010.46997604915","1.895","","","","0.0","0.0","0.0","7.799098550872581","-2.0485311902094915","0.0","0.0","0.0","0.0",""
"3","25216.505873720453","25216.50576611054","1549","1122011","6308.43036606366","5953.3135974351339","1.895","0.0","0.0","0.0","","","","-1.9927513584381032","12.364291247145906","0.0","0.0","0.0","0.0","4.878505090185E-09"
"3","25216.53765272048","25216.5375361084","1435","1123304","6280.067627714854","6006.30079702097","1.895","0.0","0.0","0.0","","","","-16.10435978163068","4.185158894206276","0.0","0.0","0.0","0.0","0.0000019202690106540715"
"2","25216.6","","","","6278.258658025207","6010.2724606316419","1.895","","","","0.0","0.0","0.0","7.4836458453865088","-1.9656735750621757","0.0","0.0","0.0","0.0",""
"2","25216.7","","","","6278.989842128924","6010.080405943208","1.895","","","","0.0","0.0","0.0","7.276744718519209","-1.9113283954363703","0.0","0.0","0.0","0.0",""
"3","25216.773812029664","25216.773694703123","1573","1137842","5560.0","5820.0","1.895","0.0","0.0","0.0","","","","-1.6861575621569638","13.851875026747266","0.0","0.0","0.0","0.0","3.03384343294684E-08"
"2","25216.8","","","","6279.68802187301","6009.897020264362","1.895","","","","0.0","0.0","0.0","6.948285308086903","-1.8250544058724192","0.0","0.0","0.0","0.0",""
"3","25216.827361748066","25216.827243641295","1513","1142445","6305.6018449297239","5975.685982971242","1.895","0.0","0.0","0.0","","","","-1.5509151278000227","12.781102725873648","0.0","0.0","0.0","0.0","6.94966252473564E-08"
"2","25216.899999999998","","","","6280.366249762383","6009.718875190751","1.895","","","","0.0","0.0","0.0","6.749724435824226","-1.7728998988694594","0.0","0.0","0.0","0.0",""
"3","25216.935411765775","25216.935301890364","733","1151344","5560.0","5820.0","1.895","0.0","0.0","0.0","","","","3.24684553793183E-12","-8.52824760561712E-13","0.0","0.0","0.0","0.0","9.41726158490366E-07"
"2","25217.0","","","","6281.0072766346979","6009.55050143151","1.895","","","","0.0","0.0","0.0","6.379499887692996","-1.6756557713217899","0.0","0.0","0.0","0.0",""
"3","25217.014237839372","25217.01412652507","1531","1156739","6307.985702541613","6012.669897343008","1.895","0.0","0.0","0.0","","","","-1.5185479997387208","14.098112244249974","0.0","0.0","0.0","0.0","7.85472049530835E-08"
"2","25217.1","","","","6281.625331458416","6009.388161569359","1.895","","","","0.0","0.0","0.0","6.150882043791515","-1.6156064232074639","0.0","0.0","0.0","0.0",""
"2","25217.2","","","","6282.221487403728","6009.23157372267","1.895","","","","0.0","0.0","0.0","5.93294439034801","-1.5583623612560374","0.0","0.0","0.0","0.0",""
"3","25217.277000849288","25217.276885217798","1489","1172237","5560.0","5820.0","1.895","0.0","0.0","0.0","","","","-1.4009244900830583","12.945154714371029","0.0","0.0","0.0","0.0","4.83310341210945E-07"
"2","25217.3","","","","6282.791899009232","6009.081747950177","1.895","","","","0.0","0.0","0.0","5.676736702342722","-1.4910661940623169","0.0","0.0","0.0","0.0",""
"2","25217.399999999998","","","","6283.334192952056","6008.9393076349419","1.895","","","","0.0","0.0","0.0","5.396909703407346","-1.4175661181954443","0.0","0.0","0.0","0.0",""
"2","25217.5","","","","6283.859258299681","6008.801392626625","1.895","","","","0.0","0.0","0.0","5.225450711779079","-1.3725302605368653","0.0","0.0","0.0","0.0",""
"3","25217.50587494329","25217.50576611054","1549","1188737","6306.791852890617","5965.879118804314","1.895","0.0","0.0","0.0","","","","-1.528043061234304","12.592613860767372","0.0","0.0","0.0","0.0","8.6295909787426E-08"
"3","25217.537644960328","25217.5375361084","1435","1189991","6263.9890008469969","6010.479268512855","1.895","0.0","0.0","0.0","","","","-16.147427575053564","4.1963512397007449","0.0","0.0","0.0","0.0","2.49570262700563E-07"
"2","25217.6","","","","6284.362420124175","6008.669230853764","1.895","","","","0.0","0.0","0.0","5.007466834049386","-1.3152740571975539","0.0","0.0","0.0","0.0",""
"2","25217.7","","","","6284.842837765209","6008.543043126353","1.895","","","","0.0","0.0","0.0","4.781116704143095","-1.25582035264598","0.0","0.0","0.0","0.0",""
"3","25217.70891440363","25217.708808277406","1669","1199415","5560.0","5820.0","1.895","0.0","0.0","0.0","","","","-3.0696391790494386","13.603158875692524","0.0","0.0","0.0","0.0","1.38367743964994E-08"
"3","25217.77380548619","25217.773694703123","1573","1204736","5560.0","5820.0","1.895","0.0","0.0","0.0","","","","-1.5089835587651824","13.92907900398767","0.0","0.0","0.0","0.0","8.70968855136513E-09"
"2","25217.8","","","","6285.301447285581","6008.4225835757429","1.895","","","","0.0","0.0","0.0","4.564082271845099","-1.1988135330731036","0.0","0.0","0.0","0.0",""
"3","25217.827359541847","25217.827243641295","1513","1209778","6304.008698218741","5988.784457643893","1.895","0.0","0.0","0.0","","","","-1.6235408340990057","13.337475239270307","0.0","0.0","0.0","0.0","4.7035691814721E-08"
"2","25217.899999999998","","","","6285.744629859121","6008.306176106477","1.895","","","","0.0","0.0","0.0","4.410553286042996","-1.1584872166459935","0.0","0.0","0.0","0.0",""
"3","25217.919634179543","25217.919524366454","1333","1216746","5986.635317942411","5810.977795552275","1.895","0.0","0.0","0.0","","","","-13.292442127849033","-1.3379527811829526","0.0","0.0","0.0","0.0","2.36200804957264E-09"
"3","25217.935409551694","25217.935301890364","733","1218748","5560.0","5820.0","1.895","0.0","0.0","0.0","","","","1.5434781271547183","-0.41084125754178416","0.0","0.0","0.0","0.0","3.3142582039092E-07"
"2","25218.0","","","","6286.180204762331","6008.191766887376","1.895","","","","0.0","0.0","0.0","4.334841745527139","-1.1386006296008369","0.0","0.0","0.0","0.0",""
"3","25218.014235675862","25218.01412652507","1531","1224200","6306.504512006497","6026.85939194153","1.895","0.0","0.0","0.0","","","","-1.4956114923946414","14.108765843267232","0.0","0.0","0.0","0.0","2.90644916020361E-08"
"2","25218.1","","","","6286.604439878792","6008.080336205691","1.895","","","","0.0","0.0","0.0","4.221988179742942","-1.108958223118178","0.0","0.0","0.0","0.0",""
"2","25218.2","","","","6287.029224980421","6007.968761063494","1.895","","","","0.0","0.0","0.0","4.22746163254419","-1.1103958942433928","0.0","0.0","0.0","0.0",""
"3","25218.27699868116","25218.276885217798","1489","1239238","5560.0","5820.0","1.895","0.0","0.0","0.0","","","","-1.3701069569533165","13.026050745775633","0.0","0.0","0.0","0.0","7.79137144139106E-07"
"2","25218.3","","","","6287.448322961548","6007.858679714926","1.895","","","","0.0","0.0","0.0","4.170863405269789","-1.0955296589812416","0.0","0.0","0.0","0.0",""
"2","25218.399999999998","","","","6287.86561785765","6007.749071969287","1.895","","","","0.0","0.0","0.0","4.152919101827763","-1.0908163623037093","0.0","0.0","0.0","0.0",""
"2","25218.5","","","","6288.2776134489799","6007.640856152605","1.895","","","","0.0","0.0","0.0","4.100180416974016","-1.0769638843349736","0.0","0.0","0.0","0.0",""
"3","25218.505883885","25218.50576611054","1549","1255743","6305.260034148036","5978.502848082198","1.895","0.0","0.0","0.0","","","","-1.5253016515448846","12.570021883773477","0.0","0.0","0.0","0.0","1.67580909483483E-07"
"3","25218.537642918593","25218.5375361084","1435","1256948","6247.943423151635","6014.649151272242","1.895","0.0","0.0","0.0","","","","-16.151631879914374","4.197443843450334","0.0","0.0","0.0","0.0","2.78285323315859E-07"
"2","25218.6","","","","6288.684539160967","6007.533972003409","1.895","","","","0.0","0.0","0.0","4.049724974167057","-1.0637111285668928","0.0","0.0","0.0","0.0",""
"2","25218.7","","","","6289.0974927853399","6007.425504547315","1.895","","","","0.0","0.0","0.0","4.109714762491795","-1.079468199936121","0.0","0.0","0.0","0.0",""
"3","25218.708919754386","25218.708808277406","1669","1266106","5560.0","5820.0","1.895","0.0","0.0","0.0","","","","-2.2209296325723426","13.780053743404688","0.0","0.0","0.0","0.0","1.1968196865128E-08"
"3","25218.773800302544","25218.773694703123","1573","1271064","5560.0","5820.0","1.895","0.0","0.0","0.0","","","","-1.4636465083392588","13.973902405472206","0.0","0.0","0.0","0.0","1.10728336433603E-07"
"2","25218.8","","","","6289.512716847229","6007.316440732291","1.895","","","","0.0","0.0","0.0","4.132310158276078","-1.0854031644337874","0.0","0.0","0.0","0.0",""
"3","25218.827354340327","25218.827243641295","1513","1276066","6297.268765354549","5998.35075226677","1.895","0.0","0.0","0.0","","","","-13.553565095245683","5.63535531350008","0.0","0.0","0.0","0.0","3.06132521674475E-07"
"2","25218.899999999998","","","","6289.930285309374","6007.206761131094","1.895","","","","0.0","0.0","0.0","4.155641631277558","-1.0915314688591474","0.0","0.0","0.0","0.0",""
"3","25218.93540915649","25218.935301890364","733","1285037","5560.0","5820.0","1.895","0.0","0.0","0.0","","","","3.624702830203755","-1.039777651338708","0.0","0.0","0.0","0.0","8.58510369849339E-07"
"2","25219.0","","","","6290.358134075918","6007.094381278828","1.895","","","","0.0","0.0","0.0","4.257951227944833","-1.1184043694203474","0.0","0.0","0.0","0.0",""
"2","25219.1","","","","6290.79355447963","6006.980012640961","1.895","","","","0.0","0.0","0.0","4.333304166408719","-1.1381967651325334","0.0","0.0","0.0","0.0",""
"2","25219.2","","","","6291.2326894491129","6006.864668325738","1.895","","","","0.0","0.0","0.0","4.370271527593979","-1.1479067068548797","0.0","0.0","0.0","0.0",""
"3","25219.276993991294","25219.276885217798","1489","1305555","5560.0","5820.0","1.895","0.0","0.0","0.0","","","","-1.4213461295363002","13.04524144473941","0.0","0.0","0.0","0.0","2.16668776923233E-09"
"2","25219.3","","","","6291.647649333712","6006.755673900198","1.895","","","","0.0","0.0","0.0","4.129681065691646","-1.0847126002453718","0.0","0.0","0.0","0.0",""
"2","25219.399999999998","","","","6292.044626563887","6006.651402844702","1.895","","","","0.0","0.0","0.0","3.9507176761135525","-1.0377056182128713","0.0","0.0","0.0","0.0",""
"2","25219.5","","","","6292.4147777872599","6006.554177976825","1.895","","","","0.0","0.0","0.0","3.6837452374053187","-0.9675819540410319","0.0","0.0","0.0","0.0",""
"3","25219.505879117103","25219.50576611054","1549","1321913","6303.724127804021","5991.122218900305","1.895","0.0","0.0","0.0","","","","-1.524841035861701","12.526651090311845","0.0","0.0","0.0","0.0","6.02951817998696E-07"
"3","25219.537645516022","25219.5375361084","1435","1323059","6232.049176730956","6019.326965367978","1.895","0.0","0.0","0.0","","","","-15.656944733440712","5.553665767173021","0.0","0.0","0.0","0.0","8.64544152849349E-08"
"2","25219.6","","","","6292.7633634794169","6006.462617566582","1.895","","","","0.0","0.0","0.0","3.4691250554522754","-0.9112092676449272","0.0","0.0","0.0","0.0",""
"2","25219.7","","","","6293.090251467832","6006.3767563307469","1.895","","","","0.0","0.0","0.0","3.253189492441548","-0.8544910798937696","0.0","0.0","0.0","0.0",""
"3","25219.708921911988","25219.708808277406","1669","1331704","5560.0","5820.0","1.895","0.0","0.0","0.0","","","","-2.2046373869573547","13.678966335299478","0.0","0.0","0.0","0.0","1.14991445658864E-08"
"3","25219.773812070456","25219.773694703123","1573","1336619","5560.0","5820.0","1.895","0.0","0.0","0.0","","","","-1.5431699730465248","13.944108917363878","0.0","0.0","0.0","0.0","2.11873365019959E-07"
"2","25219.8","","","","6293.442407743145","6006.284258061992","1.895","","","","0.0","0.0","0.0","3.5046595015593535","-0.9205428362238706","0.0","0.0","0.0","0.0",""
"3","25219.82735313916","25219.827243641295","1513","1341564","6282.419573291181","6002.282440101561","1.895","0.0","0.0","0.0","","","","-15.633201197507625","4.061020154771901","0.0","0.0","0.0","0.0","9.71297492420734E-07"
"2","25219.899999999998","","","","6293.819832305356","6006.185122760316","1.895","","","","0.0","0.0","0.0","3.756129510677048","-0.986594592554392","0.0","0.0","0.0","0.0",""
"3","25219.935418752055","25219.935301890364","733","1350317","5560.0","5820.0","1.895","0.0","0.0","0.0","","","","5.617359939356359","-1.6884997898998114","0.0","0.0","0.0","0.0","0.0000024589827824867689"
"2","25220.0","","","","6294.222525154464","6006.079350425719","1.895","","","","0.0","0.0","0.0","4.0075995197945579","-1.0526463488856164","0.0","0.0","0.0","0.0",""
"3","25220.014232046848","25220.01412652507","1531","1356004","6302.593255911368","6055.116976044251","1.895","0.0","0.0","0.0","","","","-2.079253310902551","14.046931431240925","0.0","0.0","0.0","0.0","4.30464496657794E-08"
"3","25220.06530381214","25220.065192755123","1723","1359926","6321.109705284466","5893.1153499026909","1.895","0.0","0.0","0.0","","","","-4.327878851098538","13.690605399712642","0.0","0.0","0.0","0.0","3.51633888660893E-08"
"2","25220.1","","","","6294.65048629047","6005.966941058202","1.895","","","","0.0","0.0","0.0","4.25906952891224","-1.118698105216182","0.0","0.0","0.0","0.0",""
"2","25220.2","","","","6295.103715713374","6005.847894657764","1.895","","","","0.0","0.0","0.0","4.510539538029923","-1.1847498615467474","0.0","0.0","0.0","0.0",""
"3","25220.27700306449","25220.276885217798","1489","1370543","5560.0","5820.0","1.895","0.0","0.0","0.0","","","","-1.9036546121202327","12.955727814766599","0.0","0.0","0.0","0.0","1.98087026754692E-09"
"2","25220.3","","","","6295.582213423176","6005.722211224406","1.895","","","","0.0","0.0","0.0","4.762009547147606","-1.250801617877313","0.0","0.0","0.0","0.0",""
"2","25220.399999999998","","","","6296.085979419875","6005.589890758128","1.895","","","","0.0","0.0","0.0","5.0134795562655809","-1.3168533742067692","0.0","0.0","0.0","0.0",""
"2","25220.5","","","","6296.615013703472","6005.450933258928","1.895","","","","0.0","0.0","0.0","5.264949565383035","-1.382905130538201","0.0","0.0","0.0","0.0",""
"3","25220.505875114017","25220.50576611054","1549","1386127","6295.684684228858","5998.8365762511189","1.895","0.0","0.0","0.0","","","","-13.252999968865808","4.41098108671899","0.0","0.0","0.0","0.0","0.000001251869178786898"
"3","25220.537641645304","25220.5375361084","1435","1387236","6216.396966157723","6024.810773808785","1.895","0.0","0.0","0.0","","","","-15.780372742186645","5.430722871635387","0.0","0.0","0.0","0.0","4.29860575164559E-08"
"2","25220.6","","","","6297.169316273966","6005.305338726808","1.895","","","","0.0","0.0","0.0","5.516419574500908","-1.4489568868680419","0.0","0.0","0.0","0.0",""
"2","25220.7","","","","6297.762270913017","6005.137152498003","1.895","","","","0.0","0.0","0.0","5.731422031359889","-1.5200515951611314","0.0","0.0","0.0","0.0",""
"3","25220.708917933902","25220.708808277406","1669","1395852","5560.0","5820.0","1.895","0.0","0.0","0.0","","","","-1.672455046595466","13.782714071055655","0.0","0.0","0.0","0.0","6.13110602225695E-08"
"3","25220.7738081888","25220.773694703123","1573","1400727","5560.0","5820.0","1.895","0.0","0.0","0.0","","","","-2.154711898515754","14.075900153940957","0.0","0.0","0.0","0.0","8.8236340252675E-08"
"2","25220.8","","","","6298.386015628298","6004.953021216739","1.895","","","","0.0","0.0","0.0","5.9267224282315269","-1.596297785822165","0.0","0.0","0.0","0.0",""
"3","25220.827360835392","25220.827243641295","1513","1405689","6266.660706945197","6006.376104159157","1.895","0.0","0.0","0.0","","","","-15.702660146233049","4.079063432481919","0.0","0.0","0.0","0.0","1.16131059936084E-07"
"3","25220.840543668797","25220.84042853536","229","1406143","5560.0","5820.0","1.895","0.0","0.0","0.0","","","","12.465192393118791","0.7516698930503467","0.0","0.0","0.0","0.0","1.42842615444437E-08"
"2","25220.899999999998","","","","6299.034677999087","6004.761534170012","1.895","","","","0.0","0.0","0.0","6.156879473587938","-1.6844045888564146","0.0","0.0","0.0","0.0",""
"3","25220.93540748815","25220.935301890364","733","1414468","5560.0","5820.0","1.895","0.0","0.0","0.0","","","","7.353158198464493","-3.4259468929577676","0.0","0.0","0.0","0.0","0.0000023735795734556547"
"2","25221.0","","","","6299.7058323816559","6004.56340741501","1.895","","","","0.0","0.0","0.0","6.363288150393291","-1.768477754640776","0.0","0.0","0.0","0.0",""
"3","25221.01423388596","25221.01412652507","1531","1420326","6300.260206980933","6069.186435573226","1.895","0.0","0.0","0.0","","","","-2.522641567906786","13.95590415792698","0.0","0.0","0.0","0.0","7.15713010462786E-09"
"3","25221.06530789041","25221.065192755123","1723","1424516","6317.248247173173","5906.943384283325","1.895","0.0","0.0","0.0","","","","-3.7294463268657758","13.781605147425787","0.0","0.0","0.0","0.0","5.05947789941164E-08"
"2","25221.1","","","","6300.395722984547","6004.359749672459","1.895","","","","0.0","0.0","0.0","6.533447097560098","-1.8445544018916258","0.0","0.0","0.0","0.0",""
"2","25221.2","","","","6301.108773894517","6004.149254938889","1.895","","","","0.0","0.0","0.0","6.744789350426965","-1.9345621283107409","0.0","0.0","0.0","0.0",""
"3","25221.27699689905","25221.276885217798","1489","1435048","5560.0","5820.0","1.895","0.0","0.0","0.0","","","","-1.7912756821077567","12.276827559458946","0.0","0.0","0.0","0.0","2.35939159800356E-07"
"2","25221.3","","","","6301.8435304089739","6003.932352646798","1.895","","","","0.0","0.0","0.0","6.941621079012583","-2.0227922298748135","0.0","0.0","0.0","0.0",""
"2","25221.399999999998","","","","6302.595552384026","6003.710353539772","1.895","","","","0.0","0.0","0.0","7.097444574841054","-2.0951865903589508","0.0","0.0","0.0","0.0",""
"2","25221.5","","","","6303.369882706872","6003.481768942621","1.895","","","","0.0","0.0","0.0","7.30798664313359","-2.157339230447","0.0","0.0","0.0","0.0",""
"3","25221.50587196063","25221.50576611054","1549","1450751","6281.175522508644","6002.605605858696","1.895","0.0","0.0","0.0","","","","-14.73015309718029","3.826436304038885","0.0","0.0","0.0","0.0","6.51043002652414E-08"
"3","25221.537654287113","25221.5375361084","1435","1451918","6200.762463428856","6030.39047437414","1.895","0.0","0.0","0.0","","","","-15.765715369519486","5.5376945224703","0.0","0.0","0.0","0.0","1.18451683886841E-08"
"2","25221.6","","","","6304.161693003285","6003.248024205673","1.895","","","","0.0","0.0","0.0","7.472959406789174","-2.2060396772822399","0.0","0.0","0.0","0.0",""
"2","25221.7","","","","6304.967359665026","6003.010189028775","1.895","","","","0.0","0.0","0.0","7.603733224831227","-2.244644494415088","0.0","0.0","0.0","0.0",""
"3","25221.708917462292","25221.708808277406","1669","1460694","5560.0","5820.0","1.895","0.0","0.0","0.0","","","","-1.6660774163211838","13.730155974083019","0.0","0.0","0.0","0.0","4.87019073943936E-07"
"3","25221.773807826623","25221.773694703123","1573","1465498","5560.0","5820.0","1.895","0.0","0.0","0.0","","","","-1.9579573789976839","14.068286352800396","0.0","0.0","0.0","0.0","9.54540842270011E-08"
"2","25221.8","","","","6305.789961680069","6002.738300518139","1.895","","","","0.0","0.0","0.0","7.837407806456593","-2.3585215325875028","0.0","0.0","0.0","0.0",""
"3","25221.827360632342","25221.827243641295","1513","1470405","6250.906600087628","6010.468531849477","1.895","0.0","0.0","0.0","","","","-15.695302630848758","4.077152178485559","0.0","0.0","0.0","0.0","8.56228873864112E-08"
"3","25221.889398567826","25221.88928731694","637","1473760","6290.712861065405","5747.144265298068","1.895","0.0","0.0","0.0","","","","12.412787311735436","1.1075068378394384","0.0","0.0","0.0","0.0","2.44624040850206E-09"
"2","25221.899999999998","","","","6306.613833488131","6002.409591053123","1.895","","","","0.0","0.0","0.0","7.978127896193578","-2.536319036778452","0.0","0.0","0.0","0.0",""
"3","25221.935410724393","25221.935301890364","733","1478551","5560.0","5820.0","1.895","0.0","0.0","0.0","","","","1.5832602996040295","-10.197867668808417","0.0","0.0","0.0","0.0","1.82166089483311E-07"
"2","25222.0","","","","6307.45600794185","6002.0735791743049","1.895","","","","0.0","0.0","0.0","8.113246403874287","-2.7216031252286476","0.0","0.0","0.0","0.0",""
"3","25222.010427142166","25222.010320951602","1741","1484177","6319.093435624374","5912.774917808642","1.895","0.0","0.0","0.0","","","","-3.9117452531936025","14.557296692803709","0.0","0.0","0.0","0.0","8.18466630608046E-08"
"3","25222.059491003485","25222.059383184416","835","1487243","6283.361949239329","5844.400222245944","1.895","0.0","0.0","0.0","","","","14.971680668615408","0.9840975103894102","0.0","0.0","0.0","0.0","4.92984603375229E-09"
"3","25222.06530194278","25222.065192755123","1723","1488382","6313.781350905234","5921.046345508323","1.895","0.0","0.0","0.0","","","","-3.261062751410266","13.966436783698827","0.0","0.0","0.0","0.0","2.01407706661782E-08"
"2","25222.1","","","","6308.322278458351","6001.727953416448","1.895","","","","0.0","0.0","0.0","8.298614726254307","-2.93520280965652","0.0","0.0","0.0","0.0",""
"2","25222.2","","","","6309.201544451809","6001.3771427059859","1.895","","","","0.0","0.0","0.0","8.37264855618972","-3.1182273734062537","0.0","0.0","0.0","0.0",""
"3","25222.27699316584","25222.276885217798","1489","1499198","5560.0","5820.0","1.895","0.0","0.0","0.0","","","","-1.5577247565829214","8.970310358867874","0.0","0.0","0.0","0.0","8.8091591044628E-09"
"2","25222.3","","","","6310.101370468751","6001.018128930125","1.895","","","","0.0","0.0","0.0","8.513195474417782","-3.3356914915361","0.0","0.0","0.0","0.0",""
"2","25222.399999999998","","","","6311.01959925312","6000.651772793748","1.895","","","","0.0","0.0","0.0","8.666073758847534","-3.457601584597771","0.0","0.0","0.0","0.0",""
"2","25222.5","","","","6311.909187923369","6000.178260378092","1.895","","","","0.0","0.0","0.0","8.794381584413032","-3.72291735152679","0.0","0.0","0.0","0.0",""
"3","25222.505883973292","25222.50576611054","1549","1515218","6266.38744211621","6006.447089875011","1.895","0.0","0.0","0.0","","","","-14.750558632721015","3.831737028443656","0.0","0.0","0.0","0.0","8.83769593517421E-08"
"3","25222.530648675096","25222.530537214596","487","1515733","5560.0","5820.0","1.895","0.0","0.0","0.0","","","","13.78503136669556","1.0505132945445977","0.0","0.0","0.0","0.0","2.36247449844192E-09"
"2","25222.6","","","","6312.786208660838","5999.624098923098","1.895","","","","0.0","0.0","0.0","8.873189232654834","-4.139028443970862","0.0","0.0","0.0","0.0",""
"3","25222.611861578578","25222.611748417607","445","1520016","6323.062986208362","5745.885713400216","1.895","0.0","0.0","0.0","","","","13.039511350110308","0.8372077913390345","0.0","0.0","0.0","0.0","1.98798151257234E-09"
"2","25222.7","","","","6313.684505897375","5999.056493526386","1.895","","","","0.0","0.0","0.0","8.92552731433192","-4.572504068667015","0.0","0.0","0.0","0.0",""
"3","25222.70891876025","25222.708808277406","1669","1525550","5560.0","5820.0","1.895","0.0","0.0","0.0","","","","-1.6798228844177293","13.799835308555489","0.0","0.0","0.0","0.0","4.75590604248349E-07"
"3","25222.773809230544","25222.773694703123","1573","1530056","5560.0","5820.0","1.895","0.0","0.0","0.0","","","","-2.529285520235099","13.992660216787897","0.0","0.0","0.0","0.0","2.59140364511402E-08"
"2","25222.8","","","","6314.60117397324","5998.477280181744","1.895","","","","0.0","0.0","0.0","8.925600554429704","-5.00620871021102","0.0","0.0","0.0","0.0",""
"3","25222.82735053921","25222.827243641295","1513","1534711","6235.201860366193","6014.70542269299","1.895","0.0","0.0","0.0","","","","-15.51962483178097","4.538199647404115","0.0","0.0","0.0","0.0","2.0300208563134E-08"
"3","25222.840542605572","25222.84042853536","229","1535159","5560.0","5820.0","1.895","0.0","0.0","0.0","","","","12.433363213874813","0.798289772961871","0.0","0.0","0.0","0.0","4.78957561542922E-09"
"2","25222.899999999998","","","","6315.349160179261","5997.703135426188","1.895","","","","0.0","0.0","0.0","8.613403938173472","-5.867538275347955","0.0","0.0","0.0","0.0",""
"3","25222.93541060764","25222.935301890364","733","1542845","5560.0","5820.0","1.895","0.0","0.0","0.0","","","","1.4899022409115888","-12.304184496579149","0.0","0.0","0.0","0.0","4.77966358245172E-07"
"2","25223.0","","","","6315.939958672296","5996.753637848097","1.895","","","","0.0","0.0","0.0","8.02300928786655","-6.857418704240861","0.0","0.0","0.0","0.0",""
"3","25223.010429988775","25223.010320951602","1741","1548512","6315.937083368697","5927.482595064793","1.895","0.0","0.0","0.0","","","","-2.5663291236100447","14.805255102143269","0.0","0.0","0.0","0.0","5.74112592792235E-09"
"3","25223.065303498486","25223.065192755123","1723","1553034","6311.347760150964","5935.212237210044","1.895","0.0","0.0","0.0","","","","-2.278349995518857","14.136326033960552","0.0","0.0","0.0","0.0","1.35789265989989E-07"
"2","25223.1","","","","6319.732424118817","5996.16566409854","1.895","","","","0.0","0.0","0.0","9.678678136061027","-4.783947123584885","0.0","0.0","0.0","0.0",""
"2","25223.2","","","","6319.864321206726","5995.081413305999","1.895","","","","0.0","0.0","0.0","9.21628750629105","-5.932957326004069","0.0","0.0","0.0","0.0",""
"3","25223.276993160463","25223.276885217798","1489","1563744","5560.0","5820.0","1.895","0.0","0.0","0.0","","","","-1.0700216211064456","6.144271538411228","0.0","0.0","0.0","0.0","2.98656597872278E-08"
"2","25223.3","","","","6319.999050305538","5993.9738821657679","1.895","","","","0.0","0.0","0.0","8.537497716071794","-7.243313832351061","0.0","0.0","0.0","0.0",""
"2","25223.399999999998","","","","6320.135587790225","5992.851485315835","1.895","","","","0.0","0.0","0.0","8.112279014869762","-7.93303771676284","0.0","0.0","0.0","0.0",""
"2","25223.5","","","","6320.27386882889","5991.714755702296","1.895","","","","0.0","0.0","0.0","7.627887528254321","-8.594562376095624","0.0","0.0","0.0","0.0",""
"3","25223.50588400026","25223.50576611054","1549","1579820","6251.587271476321","6010.291714562132","1.895","0.0","0.0","0.0","","","","-14.718764459104","3.8234778895645458","0.0","0.0","0.0","0.0","3.78044397643252E-09"
"2","25223.6","","","","6320.414333905472","5990.560072357708","1.895","","","","0.0","0.0","0.0","1.4095888473748726","-11.58742660020515","0.0","0.0","0.0","0.0",""
"2","25223.7","","","","6320.557667592164","5989.381807804204","1.895","","","","0.0","0.0","0.0","1.4383757951144199","-11.82406769208945","0.0","0.0","0.0","0.0",""
"3","25223.708919179833","25223.708808277406","1669","1589971","5560.0","5820.0","1.895","0.0","0.0","0.0","","","","-14.774339414670897","4.1942352761806769","0.0","0.0","0.0","0.0","7.91392720772646E-08"
"2","25223.8","","","","6320.70357313956","5988.182401449532","1.895","","","","0.0","0.0","0.0","1.4641848165046266","-12.036228948571184","0.0","0.0","0.0","0.0",""
"3","25223.82735668565","25223.827243641295","1513","1598279","6219.879782335243","6020.125902111455","1.895","0.0","0.0","0.0","","","","-15.267045624763603","5.352183729141388","0.0","0.0","0.0","0.0","1.97502982407547E-08"
"3","25223.88940095196","25223.88928731694","637","1601331","6315.60952809605","5748.710643858495","1.895","0.0","0.0","0.0","","","","12.504117716344691","0.8028325981586256","0.0","0.0","0.0","0.0","5.49427220984089E-09"
"2","25223.899999999998","","","","6320.851916981191","5986.962951267526","1.895","","","","0.0","0.0","0.0","1.4886534776341294","-12.237371867210902","0.0","0.0","0.0","0.0",""
"3","25223.935414952757","25223.935301890364","733","1606230","5560.0","5820.0","1.895","0.0","0.0","0.0","","","","1.764304814456145","-14.537871671114104","0.0","0.0","0.0","0.0","7.70351250903078E-08"
"3","25223.995092805446","25223.994983889024","1567","1610146","6167.270839291461","5729.177190186819","1.895","0.0","0.0","0.0","","","","-11.642901506525837","-0.5965236471059356","0.0","0.0","0.0","0.0","1.26037671559053E-08"
"2","25224.0","","","","6321.003062080343","5985.720473543852","1.895","","","","0.0","0.0","0.0","1.5167645316898575","-12.468456822324788","0.0","0.0","0.0","0.0",""
"3","25224.01043415335","25224.010320951602","1741","1611836","6313.539315946514","5942.3617642233789","1.895","0.0","0.0","0.0","","","","-2.404570648827939","14.921386080514156","0.0","0.0","0.0","0.0","1.09569632439522E-08"
"3","25224.065298353653","25224.065192755123","1723","1616320","6309.061596468842","5949.397044303363","1.895","0.0","0.0","0.0","","","","-2.2744214451445154","14.111950819876837","0.0","0.0","0.0","0.0","1.746843933001E-07"
"2","25224.1","","","","6321.156229189807","5984.461374025722","1.895","","","","0.0","0.0","0.0","1.537055719048881","-12.635259109827395","0.0","0.0","0.0","0.0",""
"2","25224.2","","","","6321.311816932887","5983.182375858149","1.895","","","","0.0","0.0","0.0","1.561347153118248","-12.834945145786982","0.0","0.0","0.0","0.0",""
"2","25224.3","","","","6321.470412188913","5981.878654640606","1.895","","","","0.0","0.0","0.0","1.591528012374617","-13.083044789888924","0.0","0.0","0.0","0.0",""
"3","25224.321091956004","25224.320981546585","1813","1629372","6324.404892420087","5882.691512188164","1.895","0.0","0.0","0.0","","","","-4.014423651808359","12.699036182638585","0.0","0.0","0.0","0.0","1.03216517822362E-07"
"2","25224.399999999998","","","","6321.630539178184","5980.560883198833","1.895","","","","0.0","0.0","0.0","1.6081864858491888","-13.223884677838335","0.0","0.0","0.0","0.0",""
"3","25224.475405188063","25224.47528944444","325","1639879","5560.0","5820.0","1.895","0.0","0.0","0.0","","","","12.175708693540806","0.7817469466159525","0.0","0.0","0.0","0.0","3.46405137538948E-09"
"2","25224.5","","","","6321.792536999875","5979.225288019282","1.895","","","","0.0","0.0","0.0","1.6286272476017434","-13.402546322425743","0.0","0.0","0.0","0.0",""
"3","25224.50588002852","25224.50576611054","1549","1643534","6236.783546301431","6014.143604494655","1.895","0.0","0.0","0.0","","","","-14.705689976845667","3.841401741650549","0.0","0.0","0.0","0.0","1.80917343761489E-08"
"2","25224.6","","","","6321.956693771335","5977.87189332319","1.895","","","","0.0","0.0","0.0","1.6490300356195343","-13.581320602338982","0.0","0.0","0.0","0.0",""
"2","25224.7","","","","6322.123243808","5976.498767290979","1.895","","","","0.0","0.0","0.0","1.6717312505191362","-13.779487294054786","0.0","0.0","0.0","0.0",""
"3","25224.708915359428","25224.708808277406","1669","1653898","5560.0","5820.0","1.895","0.0","0.0","0.0","","","","-16.164723359923796","4.199093105220207","0.0","0.0","0.0","0.0","2.51297934228942E-08"
"2","25224.8","","","","6322.289361482268","5975.1292058815929","1.895","","","","0.0","0.0","0.0","1.6670166471196278","-13.74376133518845","0.0","0.0","0.0","0.0",""
"2","25224.899999999998","","","","6322.456121135803","5973.754351657742","1.895","","","","0.0","0.0","0.0","1.673459008710398","-13.796875549911924","0.0","0.0","0.0","0.0",""
"3","25224.935417156223","25224.935301890364","733","1670275","5560.0","5820.0","1.895","0.0","0.0","0.0","","","","2.3743811496248798","-14.730474426293443","0.0","0.0","0.0","0.0","1.30270531036644E-07"
"3","25224.995097671585","25224.994983889024","1567","1673976","6155.631865610706","5728.580867781727","1.895","0.0","0.0","0.0","","","","-11.665321630070176","-0.5976723413431702","0.0","0.0","0.0","0.0","6.72385636628615E-09"
"2","25225.0","","","","6322.622439447701","5972.3831360862909","1.895","","","","0.0","0.0","0.0","1.6690300768774773","-13.760361108267527","0.0","0.0","0.0","0.0",""
"3","25225.01043893936","25225.010320951602","1741","1675698","6311.16761193456","5957.226874878936","1.895","0.0","0.0","0.0","","","","-2.325782055402743","14.928260692408444","0.0","0.0","0.0","0.0","7.93238178074846E-07"
"3","25225.059501506646","25225.059383184416","835","1679144","6315.131749445012","5846.4884701841669","1.895","0.0","0.0","0.0","","","","6.199357326044864","0.40748745886384887","0.0","0.0","0.0","0.0","1.67033709301887E-09"
"3","25225.065299413607","25225.065192755123","1723","1680259","6307.066277791377","5963.6175812228689","1.895","0.0","0.0","0.0","","","","-1.7243835519483464","14.21065725724215","0.0","0.0","0.0","0.0","1.45872489144699E-07"
"2","25225.1","","","","6322.788524600444","5971.013842801449","1.895","","","","0.0","0.0","0.0","1.6666902885657995","-13.74107066375629","0.0","0.0","0.0","0.0",""
"2","25225.2","","","","6322.9551480931609","5969.640111158948","1.895","","","","0.0","0.0","0.0","1.6720926137572224","-13.785610271812569","0.0","0.0","0.0","0.0",""
"3","25225.24081263223","25225.24069597921","1201","1688578","5560.0","5820.0","1.895","0.0","0.0","0.0","","","","3.23629526789818E-15","4.72711325195982E-14","0.0","0.0","0.0","0.0","2.45019076254886E-09"
"2","25225.3","","","","6323.122184390602","5968.262976137337","1.895","","","","0.0","0.0","0.0","1.6762351732607457","-13.819763709471172","0.0","0.0","0.0","0.0",""
"3","25225.32109484231","25225.320981546585","1813","1694008","6320.381705692432","5895.418269066698","1.895","0.0","0.0","0.0","","","","-4.028920665527794","12.74489534393572","0.0","0.0","0.0","0.0","1.70549872670461E-08"
"2","25225.399999999998","","","","6323.288552119753","5966.891353144083","1.895","","","","0.0","0.0","0.0","1.6695259866814885","-13.764449649313417","0.0","0.0","0.0","0.0",""
"3","25225.470727757976","25225.470620901324","607","1703842","6109.705155517927","5729.454196099636","1.895","0.0","0.0","0.0","","","","13.367747981199058","0.7692056100909628","0.0","0.0","0.0","0.0","1.08370600277529E-08"
"3","25225.47540215816","25225.47528944444","325","1704877","5560.0","5820.0","1.895","0.0","0.0","0.0","","","","11.860216869031499","0.7614906496972125","0.0","0.0","0.0","0.0","4.2100307161557E-09"
"3","25225.49617476168","25225.496058858418","1579","1706992","6120.432117437243","5723.4605526264199","1.895","0.0","0.0","0.0","","","","-13.927408485357035","-0.7681581459399901","0.0","0.0","0.0","0.0","3.66821534945956E-09"
"2","25225.5","","","","6323.4544662491239","5965.523469865806","1.895","","","","0.0","0.0","0.0","1.6649740424734335","-13.726921029002078","0.0","0.0","0.0","0.0",""
"3","25225.537348225527","25225.537235651398","745","1709412","5560.0","5820.0","1.895","0.0","0.0","0.0","","","","0.3513913380275218","5.132617740693586","0.0","0.0","0.0","0.0","6.43714005464755E-09"
"2","25225.6","","","","6323.620130735519","5964.157644775418","1.895","","","","0.0","0.0","0.0","1.662468836464033","-13.706266794055967","0.0","0.0","0.0","0.0",""
"2","25225.7","","","","6323.785877893838","5962.791138094237","1.895","","","","0.0","0.0","0.0","1.663298462058976","-13.713106663468287","0.0","0.0","0.0","0.0",""
"2","25225.8","","","","6323.951614129081","5961.424721468644","1.895","","","","0.0","0.0","0.0","1.663188847285132","-13.712202941662456","0.0","0.0","0.0","0.0",""
"2","25225.899999999998","","","","6324.118355859522","5960.050015012188","1.895","","","","0.0","0.0","0.0","1.6732791476933729","-13.795392681162073","0.0","0.0","0.0","0.0",""
"3","25225.920380034448","25225.920271761017","925","1733455","5560.0","5820.0","1.895","0.0","0.0","0.0","","","","2.27578028941219E-15","-4.54145920417797E-14","0.0","0.0","0.0","0.0","4.92421900197669E-09"
"3","25225.935415059856","25225.935301890364","733","1735048","5560.0","5820.0","1.895","0.0","0.0","0.0","","","","2.3818911422058295","-14.777065831249614","0.0","0.0","0.0","0.0","3.19225430711179E-08"
"3","25225.94941215435","25225.949297479587","361","1736165","6085.5675370770209","5727.838725632258","1.895","0.0","0.0","0.0","","","","5.343728306837822","0.4144814904667684","0.0","0.0","0.0","0.0","4.62556480679557E-09"
"3","25225.995095486673","25225.994983889024","1567","1738748","6143.994426727445","5727.98462401193","1.895","0.0","0.0","0.0","","","","-11.648089949789286","-0.596789476813125","0.0","0.0","0.0","0.0","6.61475875669755E-09"
"2","25226.0","","","","6324.285023959677","5958.675915602517","1.895","","","","0.0","0.0","0.0","1.672540256331488","-13.789300872452227","0.0","0.0","0.0","0.0",""
"3","25226.000172697277","25226.000055350363","205","1739455","6101.23989767381","5739.689822660743","1.895","0.0","0.0","0.0","","","","2.29681580216058E-15","-4.58343686055816E-14","0.0","0.0","0.0","0.0","1.98515101882231E-09"
"3","25226.010432172916","25226.010320951602","1741","1740482","6309.355695687674","5972.167007398386","1.895","0.0","0.0","0.0","","","","-1.8125243013307034","14.945146224672062","0.0","0.0","0.0","0.0","3.14198365570177E-07"
"3","25226.059490129242","25226.059383184416","835","1743849","6319.947922460616","5846.805040112364","1.895","0.0","0.0","0.0","","","","3.717994554256885","0.24438600217780097","0.0","0.0","0.0","0.0","3.0617469433421E-08"
"3","25226.065299219077","25226.065192755123","1723","1745005","6305.335984579848","5977.87694002723","1.895","0.0","0.0","0.0","","","","-1.722315104425476","14.193611166322336","0.0","0.0","0.0","0.0","3.29519793420663E-07"
"3","25226.06571256969","25226.065604869276","655","1745185","6100.639170282279","5751.677706351281","1.895","0.0","0.0","0.0","","","","0.0","0.0","0.0","0.0","0.0","0.0","8.88554607220159E-09"
"2","25226.1","","","","6324.497380121775","5957.307357984582","1.895","","","","0.0","0.0","0.0","1.801027076509861","-13.782211432970194","0.0","0.0","0.0","0.0",""
"2","25226.2","","","","6324.7180053089709","5955.938439500252","1.895","","","","0.0","0.0","0.0","1.9529937176455286","-13.776839941766437","0.0","0.0","0.0","0.0",""
"3","25226.240812810807","25226.24069597921","1201","1753235","5560.0","5820.0","1.895","0.0","0.0","0.0","","","","3.2544090393016E-15","4.75357123609168E-14","0.0","0.0","0.0","0.0","1.09722319422013E-08"
"2","25226.3","","","","6324.937554808755","5954.5761953598589","1.895","","","","0.0","0.0","0.0","2.0917809888010239","-13.68782531696042","0.0","0.0","0.0","0.0",""
"3","25226.32108888891","25226.320981546585","1813","1758583","6316.8789311467339","5908.308135832189","1.895","0.0","0.0","0.0","","","","-3.4817473208527298","12.866270913574587","0.0","0.0","0.0","0.0","2.08254451239366E-08"
"3","25226.36802893608","25226.367917491123","847","1762643","6100.313780449555","5758.1710601150039","1.895","0.0","0.0","0.0","","","","0.0","0.0","0.0","0.0","0.0","0.0","3.33520949704951E-09"
