﻿"type","rcvTime","sendTime","sender","messageID","pos__001","pos__002","pos__003","pos_noise__001","pos_noise__002","pos_noise__003","noise__001","noise__002","noise__003","spd__001","spd__002","spd__003","spd_noise__001","spd_noise__002","spd_noise__003","RSSI"
"2","25290.3","","","","6324.964917184139","5880.9199565780149","1.895","","","","0.0","0.0","0.0","-3.1106744494275286","9.840159089311614","0.0","0.0","0.0","0.0",""
"3","25290.32063409897","25290.320527116302","1423","5904424","5560.0","5820.0","1.895","0.0","0.0","0.0","","","","1.621849629370461","0.14030449204791599","0.0","0.0","0.0","0.0","1.83980464286259E-09"
"3","25290.338702557863","25290.338584923","2137","5906600","5560.0","5820.0","1.895","0.0","0.0","0.0","","","","1.404569605326143","-11.604298702908493","0.0","0.0","0.0","0.0","1.09072707498449E-07"
"3","25290.363277941255","25290.363161252113","409","5907679","6064.841799911491","5732.796530921104","1.895","0.0","0.0","0.0","","","","0.2424073653407121","0.020983865710305105","0.0","0.0","0.0","0.0","1.48984698061508E-08"
"3","25290.38073107224","25290.38062093537","2905","5908475","6324.033769488473","5907.139374837601","1.895","0.0","0.0","0.0","","","","-4.133019874245499","15.244745437790947","0.0","0.0","0.0","0.0","4.41007502334411E-07"
"2","25290.399999999998","","","","6324.649079795968","5881.919061497699","1.895","","","","0.0","0.0","0.0","-3.1516726961494809","9.969850986255422","0.0","0.0","0.0","0.0",""
"3","25290.431867077124","25290.431757178343","2887","5912830","5560.0","5820.0","1.895","0.0","0.0","0.0","","","","-3.132402373311951","10.4365051198175","0.0","0.0","0.0","0.0","1.70535803006783E-07"
"3","25290.471519118135","25290.471411835635","1543","5915148","6051.787811699322","5728.3536907976599","1.895","0.0","0.0","0.0","","","","8.725286967520594","0.7550577695222411","0.0","0.0","0.0","0.0","1.71544877322746E-09"
"3","25290.476544118297","25290.47643578532","1795","5915762","6056.869930498706","5732.106450250565","1.895","0.0","0.0","0.0","","","","0.2348026561149587","0.02032556806765123","0.0","0.0","0.0","0.0","1.22466362868097E-08"
"2","25290.5","","","","6324.331587935519","5882.923400096024","1.895","","","","0.0","0.0","0.0","-3.1681823156557447","10.022076728644345","0.0","0.0","0.0","0.0",""
"3","25290.502564125272","25290.502453079913","1123","5917717","6099.719820258514","5770.023900167567","1.895","0.0","0.0","0.0","","","","0.25599637370564279","-5.108564710791051","0.0","0.0","0.0","0.0","7.10707678555798E-09"
"3","25290.566818378535","25290.566700686144","2899","5918697","6172.446824579977","5826.369366642647","1.895","0.0","0.0","0.0","","","","-1.986217785444271","-0.20009951101080326","0.0","0.0","0.0","0.0","7.62763600023323E-09"
"3","25290.570154178076","25290.569893591102","2329","5919505","5560.0","5820.0","1.895","0.0","0.0","0.0","","","","-1.221370699248085","-0.07031927446757692","0.0","0.0","0.0","0.0","1.9317516149837E-09"
"3","25290.5740222409","25290.57391265398","2653","5920268","6100.420390375746","5756.043593624479","1.895","0.0","0.0","0.0","","","","0.06587065229779125","-1.3144892833193914","0.0","0.0","0.0","0.0","1.11582257160924E-08"
"2","25290.6","","","","6324.015790952532","5883.922377199872","1.895","","","","0.0","0.0","0.0","-3.151269501573842","9.968575539780142","0.0","0.0","0.0","0.0",""
"3","25290.643215293876","25290.643098967426","2611","5923652","6097.5628381119399","5747.253833708733","1.895","0.0","0.0","0.0","","","","0.26782061962671196","-5.344524793236015","0.0","0.0","0.0","0.0","7.62807220160564E-09"
"3","25290.64516503461","25290.6450568866","2923","5924035","6324.199515528412","5894.29715653354","1.895","0.0","0.0","0.0","","","","-4.500930162555496","14.249208087583334","0.0","0.0","0.0","0.0","5.32382412241576E-07"
"3","25290.652673400124","25290.652566528086","1933","5924668","6322.48195661349","5949.064214264546","1.895","0.0","0.0","0.0","","","","1.879947500052833","-11.663046843462585","0.0","0.0","0.0","0.0","3.76491168656273E-08"
"3","25290.66334222772","25290.66322414032","1447","5925115","6078.473247415013","5733.909253318758","1.895","0.0","0.0","0.0","","","","0.4351662720414815","0.035222200151260579","0.0","0.0","0.0","0.0","1.58353086779413E-08"
"3","25290.677194230644","25290.677081576316","193","5926608","6086.2888277251599","5734.514298243599","1.895","0.0","0.0","0.0","","","","1.5124640494621689","0.11708774791089678","0.0","0.0","0.0","0.0","2.13441051566626E-09"
"3","25290.680633366876","25290.680514482316","475","5926987","6067.427617502368","5726.393861077053","1.895","0.0","0.0","0.0","","","","0.43695257279827018","0.037800303841518449","0.0","0.0","0.0","0.0","1.00278069271869E-08"
"2","25290.7","","","","6323.696842546628","5884.9313233645739","1.895","","","","0.0","0.0","0.0","-3.1827168663866716","10.068054632732095","0.0","0.0","0.0","0.0",""
"2","25290.8","","","","6323.376714492853","5885.944001171047","1.895","","","","0.0","0.0","0.0","-3.194488316266686","10.105291875463335","0.0","0.0","0.0","0.0",""
"3","25290.81556315496","25290.815446905184","2857","5936524","6310.786832674868","5938.6925864536219","1.895","0.0","0.0","0.0","","","","-2.146146413911206","13.316051301744233","0.0","0.0","0.0","0.0","4.55067455572529E-08"
"2","25290.899999999998","","","","6323.057221870219","5886.954668884975","1.895","","","","0.0","0.0","0.0","-3.188147486924528","10.085233598552842","0.0","0.0","0.0","0.0",""
"3","25290.91536132729","25290.915246181936","2077","5943340","5560.0","5820.0","1.895","0.0","0.0","0.0","","","","1.913003378857262","-11.870335419199423","0.0","0.0","0.0","0.0","2.72520011103043E-07"
"3","25290.970897447452","25290.970787901337","2827","5947117","6286.836177232921","5692.025143632993","1.895","0.0","0.0","0.0","","","","-7.339860621482439","2.4434357933254948","0.0","0.0","0.0","0.0","1.6009409511947E-08"
"3","25290.974414397195","25290.974302685678","2863","5947717","6312.610713922543","5948.124135697707","1.895","0.0","0.0","0.0","","","","-2.263439733676247","14.045608579902498","0.0","0.0","0.0","0.0","1.52357605738511E-08"
"2","25291.0","","","","6322.735197564712","5887.973345203675","1.895","","","","0.0","0.0","0.0","-3.2134106004350007","10.165149726092365","0.0","0.0","0.0","0.0",""
"3","25291.037172558106","25291.0370652223","2605","5951958","6315.972874282007","5972.397525931932","1.895","0.0","0.0","0.0","","","","1.35500312097036","-11.194789421249226","0.0","0.0","0.0","0.0","3.13267726392976E-08"
"2","25291.1","","","","6322.414599059328","5888.987511214313","1.895","","","","0.0","0.0","0.0","-3.199182850682838","10.120142341578065","0.0","0.0","0.0","0.0",""
"3","25291.103881446343","25291.103766346165","2875","5957973","6313.789718459219","5921.010509057851","1.895","0.0","0.0","0.0","","","","-2.752131765263435","11.786793830734695","0.0","0.0","0.0","0.0","1.70834724410537E-07"
"2","25291.2","","","","6322.089321278981","5890.016479420043","1.895","","","","0.0","0.0","0.0","-3.2458763192031738","10.267850231343396","0.0","0.0","0.0","0.0",""
"3","25291.245599279526","25291.245487121305","2635","5967736","6324.015288420304","5960.899757147935","1.895","0.0","0.0","0.0","","","","1.456226933390964","-12.005900155217093","0.0","0.0","0.0","0.0","3.9976447887209E-09"
"2","25291.3","","","","6321.7646494490759","5891.043530791065","1.895","","","","0.0","0.0","0.0","-3.2398296713539147","10.248722554127058","0.0","0.0","0.0","0.0",""
"3","25291.338693690235","25291.338584923","2137","5973007","5560.0","5820.0","1.895","0.0","0.0","0.0","","","","1.8669660638375263","-11.584670282834767","0.0","0.0","0.0","0.0","3.47160202318397E-08"
"3","25291.380729690234","25291.38062093537","2905","5974944","6320.257329922787","5922.310920587042","1.895","0.0","0.0","0.0","","","","-3.6076287960562776","15.448051511325163","0.0","0.0","0.0","0.0","4.43090739109826E-07"
"2","25291.399999999998","","","","6321.440478359371","5892.068998144435","1.895","","","","0.0","0.0","0.0","-3.2348328936532955","10.232915986031492","0.0","0.0","0.0","0.0",""
"3","25291.43186569335","25291.431757178343","2887","5979496","5560.0","5820.0","1.895","0.0","0.0","0.0","","","","-2.912376626674244","10.762247580900274","0.0","0.0","0.0","0.0","0.0000010268971614823718"
"2","25291.5","","","","6321.113918620063","5893.102021637954","1.895","","","","0.0","0.0","0.0","-3.258668709224364","10.308317067382344","0.0","0.0","0.0","0.0",""
"2","25291.6","","","","6320.788007531709","5894.132993220006","1.895","","","","0.0","0.0","0.0","-3.2521959622445495","10.287841488521157","0.0","0.0","0.0","0.0",""
"3","25291.645170816202","25291.6450568866","2923","5991170","6320.198466761282","5908.660502525993","1.895","0.0","0.0","0.0","","","","-3.916072123315188","14.44108647805053","0.0","0.0","0.0","0.0","6.67319659807286E-08"
"3","25291.65267900957","25291.652566528086","1933","5991895","6324.357466791829","5937.428696216967","1.895","0.0","0.0","0.0","","","","1.8710079678008414","-11.60758668650948","0.0","0.0","0.0","0.0","3.43202931124556E-08"
"2","25291.7","","","","6320.461042264506","5895.167299541114","1.895","","","","0.0","0.0","0.0","-3.2627153840040337","10.321118125251799","0.0","0.0","0.0","0.0",""
"2","25291.8","","","","6320.153756231721","5896.206514762316","1.895","","","","0.0","0.0","0.0","-3.2185314437272676","10.32633875662553","0.0","0.0","0.0","0.0",""
"3","25291.815559004495","25291.815446905184","2857","6004269","6308.637921913777","5952.025789515677","1.895","0.0","0.0","0.0","","","","-2.1378609689708236","13.26464315495203","0.0","0.0","0.0","0.0","1.17690195353828E-07"
"2","25291.899999999998","","","","6319.865621090404","5897.271274621739","1.895","","","","0.0","0.0","0.0","-3.1782633269359916","10.538330861034709","0.0","0.0","0.0","0.0",""
"3","25291.915354006047","25291.915246181936","2077","6011124","5560.0","5820.0","1.895","0.0","0.0","0.0","","","","1.920020299433314","-11.913875959568563","0.0","0.0","0.0","0.0","5.68198783473124E-07"
"3","25291.97090189043","25291.970787901337","2827","6014878","6287.040611764636","5700.487587553004","1.895","0.0","0.0","0.0","","","","1.7476821861408954","9.428169372967531","0.0","0.0","0.0","0.0","3.74308429019376E-09"
"3","25291.9744202446","25291.974302685678","2863","6015488","6310.5602248858899","5962.235077114184","1.895","0.0","0.0","0.0","","","","-1.708965515608805","14.091253565531446","0.0","0.0","0.0","0.0","2.7179452205822E-08"
"2","25292.0","","","","6319.58223011959","5898.318503116212","1.895","","","","0.0","0.0","0.0","-3.0317646505789539","10.392751179868384","0.0","0.0","0.0","0.0",""
"3","25292.03717477907","25292.0370652223","2605","6019139","6317.347123332366","5961.043730141331","1.895","0.0","0.0","0.0","","","","1.3799701044095532","-11.40106209897223","0.0","0.0","0.0","0.0","9.31137512189395E-08"
"2","25292.1","","","","6319.29466395226","5899.381160418278","1.895","","","","0.0","0.0","0.0","-2.979211829805617","10.573743393546993","0.0","0.0","0.0","0.0",""
"3","25292.103880993935","25292.103766346165","2875","6025145","6311.71763266925","5932.917313901608","1.895","0.0","0.0","0.0","","","","-1.9142524681004279","11.87723442563098","0.0","0.0","0.0","0.0","2.81369264462669E-07"
"2","25292.2","","","","6319.009794187227","5900.433853573247","1.895","","","","0.0","0.0","0.0","-2.8556435891495797","10.501072472974674","0.0","0.0","0.0","0.0",""
"3","25292.297344345687","25292.297226578045","2641","6036023","6098.863751625351","5787.107275006382","1.895","0.0","0.0","0.0","","","","0.20571905707362246","-4.105250008379961","0.0","0.0","0.0","0.0","5.91626493307393E-09"
"2","25292.3","","","","6318.72102665265","5901.500950346372","1.895","","","","0.0","0.0","0.0","-2.88154850674993","10.648326923784568","0.0","0.0","0.0","0.0",""
"3","25292.338693525013","25292.338584923","2137","6039535","5560.0","5820.0","1.895","0.0","0.0","0.0","","","","1.8600377907327497","-11.541679806948295","0.0","0.0","0.0","0.0","1.08801026360678E-07"
"3","25292.380726168183","25292.38062093537","2905","6042136","6317.610325389166","5937.854712711969","1.895","0.0","0.0","0.0","","","","-2.5116529123394755","15.582998321884379","0.0","0.0","0.0","0.0","2.59456362117142E-08"
"3","25292.387056993583","25292.386944492486","2953","6042863","6155.977468750712","5824.710177971471","1.895","0.0","0.0","0.0","","","","-1.7534787572342774","-0.1766524519424641","0.0","0.0","0.0","0.0","7.92275146326325E-09"
"2","25292.399999999998","","","","6318.431941866667","5902.569219474107","1.895","","","","0.0","0.0","0.0","-2.8847142896144608","10.66002559580988","0.0","0.0","0.0","0.0",""
"3","25292.431875170907","25292.431757178343","2887","6046728","5560.0","5820.0","1.895","0.0","0.0","0.0","","","","-2.5791145606848207","11.045798016040868","0.0","0.0","0.0","0.0","4.07728535942734E-07"
"3","25292.441429991344","25292.441321470775","823","6048186","6200.214322657574","5838.899456612461","1.895","0.0","0.0","0.0","","","","14.849008348735032","1.2319054810477866","0.0","0.0","0.0","0.0","3.01112900982783E-09"
"2","25292.5","","","","6318.144898409465","5903.62994517991","1.895","","","","0.0","0.0","0.0","-2.864344313098682","10.584751426780282","0.0","0.0","0.0","0.0",""
"3","25292.50257115593","25292.502453079913","1123","6052024","6100.051827113489","5763.398499664774","1.895","0.0","0.0","0.0","","","","0.09372651104325541","-1.8703700362968683","0.0","0.0","0.0","0.0","3.58318450168829E-09"
"3","25292.539694740208","25292.539586794886","1867","6052708","5560.0","5820.0","1.895","0.0","0.0","0.0","","","","0.0","0.0","0.0","0.0","0.0","0.0","2.21916711796773E-09"
"3","25292.566806742507","25292.566700686144","2899","6053313","6165.643897478743","5825.684012601226","1.895","0.0","0.0","0.0","","","","-3.3306574489050395","-0.3355437312833318","0.0","0.0","0.0","0.0","5.0815755942072E-09"
"3","25292.574019166525","25292.57391265398","2653","6054608","6100.485404812461","5754.746190648466","1.895","0.0","0.0","0.0","","","","0.021844500964974778","-0.4359204200393547","0.0","0.0","0.0","0.0","9.85858956136123E-09"
"2","25292.6","","","","6317.855591561474","5904.699034904229","1.895","","","","0.0","0.0","0.0","-2.8869301981637296","10.668214150890785","0.0","0.0","0.0","0.0",""
"3","25292.64321224715","25292.643098967426","2611","6057921","6097.870519224419","5741.113868323154","1.895","0.0","0.0","0.0","","","","0.07417220680843939","-1.4801518972263508","0.0","0.0","0.0","0.0","1.33749905443347E-08"
"3","25292.645169343774","25292.6450568866","2923","6058311","6316.687540668802","5923.141211178284","1.895","0.0","0.0","0.0","","","","-3.324993224021754","14.457198730866459","0.0","0.0","0.0","0.0","0.0000013960174727121628"
"3","25292.677191253013","25292.677081576316","193","6060680","6094.661049828808","5739.137274565067","1.895","0.0","0.0","0.0","","","","4.798898919528143","3.634264578786451","0.0","0.0","0.0","0.0","1.98963146771864E-09"
"3","25292.680630443956","25292.680514482316","475","6061078","6068.728569670883","5726.506405069958","1.895","0.0","0.0","0.0","","","","1.4605065468428054","0.12634687302475929","0.0","0.0","0.0","0.0","1.39685831492506E-09"
"2","25292.7","","","","6317.567091966951","5905.765141545385","1.895","","","","0.0","0.0","0.0","-2.878874791142177","10.638446611922424","0.0","0.0","0.0","0.0",""
"3","25292.702503661167","25292.702395490043","1783","6062491","6033.918870875616","5726.807371157709","1.895","0.0","0.0","0.0","","","","12.200082628774793","1.05575521034051","0.0","0.0","0.0","0.0","5.89649406383095E-09"
"3","25292.71519881796","25292.715081511808","1507","6063379","6010.37237694572","5721.45807270309","1.895","0.0","0.0","0.0","","","","10.159873469817353","0.8789198829772826","0.0","0.0","0.0","0.0","8.12231576147038E-09"
"3","25292.719729840464","25292.719620154006","691","6063751","6077.6967401590759","5730.538863266655","1.895","0.0","0.0","0.0","","","","3.0929468105629467","0.23974795905068484","0.0","0.0","0.0","0.0","6.61622035143526E-09"
"3","25292.750905565063","25292.75079111508","2809","6066835","6095.655202085723","5785.321881093509","1.895","0.0","0.0","0.0","","","","0.6811091448247797","-13.59195089791918","0.0","0.0","0.0","0.0","7.25282525982543E-09"
"3","25292.782320567978","25292.78220991711","2971","6068742","5560.0","5820.0","1.895","0.0","0.0","0.0","","","","-1.6330598259818475","-0.16452096795483649","0.0","0.0","0.0","0.0","2.67957502860845E-09"
"2","25292.8","","","","6317.276564267045","5906.838742743411","1.895","","","","0.0","0.0","0.0","-2.8991128142557485","10.713233167102605","0.0","0.0","0.0","0.0",""
"3","25292.815554616325","25292.815446905184","2857","6070629","6306.850191346718","5965.398351167879","1.895","0.0","0.0","0.0","","","","-1.62057116680546","13.355138644428008","0.0","0.0","0.0","0.0","1.20713341677958E-07"
"3","25292.8981782816","25292.89806236094","547","6076280","6095.913757156887","5731.867642037175","1.895","0.0","0.0","0.0","","","","6.670541544749099","0.45472424051596468","0.0","0.0","0.0","0.0","2.55784464337181E-09"
"2","25292.899999999998","","","","6316.98451620409","5907.917962213259","1.895","","","","0.0","0.0","0.0","-2.914284186889336","10.769296681321011","0.0","0.0","0.0","0.0",""
"3","25292.974408680646","25292.974302685678","2863","6081223","6308.843776516234","5976.388030458198","1.895","0.0","0.0","0.0","","","","-1.7217533216302064","14.196695258502178","0.0","0.0","0.0","0.0","7.19647547778709E-09"
"2","25293.0","","","","6316.692628327944","5908.996589736974","1.895","","","","0.0","0.0","0.0","-2.912685717529042","10.763389779429133","0.0","0.0","0.0","0.0",""
"3","25293.018419921278","25293.01830714494","2593","6083361","6101.23989767381","5739.689822660743","1.895","0.0","0.0","0.0","","","","2.35582230097769E-15","-4.70118794944631E-14","0.0","0.0","0.0","0.0","2.44127587554834E-09"
"3","25293.033189210284","25293.03307458898","379","6084409","5560.0","5820.0","1.895","0.0","0.0","0.0","","","","6.249365849024275","0.4276998120661591","0.0","0.0","0.0","0.0","1.6169478769651E-09"
"3","25293.03717444283","25293.0370652223","2605","6084794","6319.046077081726","5949.631842014368","1.895","0.0","0.0","0.0","","","","1.839592969409114","-11.414818093383479","0.0","0.0","0.0","0.0","1.59666017174025E-07"
"3","25293.04281626407","25293.04270783686","2563","6085048","6099.571518097542","5772.983360784564","1.895","0.0","0.0","0.0","","","","0.12689343516422886","-2.532236357597162","0.0","0.0","0.0","0.0","6.92060860374202E-09"
"3","25293.05484360094","25293.05473179137","1477","6087328","6030.286794808257","5723.18084788029","1.895","0.0","0.0","0.0","","","","8.623995737960556","0.746052728640796","0.0","0.0","0.0","0.0","1.63924173560932E-09"
"2","25293.1","","","","6316.3976182736419","5910.086754798105","1.895","","","","0.0","0.0","0.0","-2.9438412551993218","10.878520359331653","0.0","0.0","0.0","0.0",""
"3","25293.103880797968","25293.103766346165","2875","6091052","6309.793389417408","5944.856537475773","1.895","0.0","0.0","0.0","","","","-1.9135409060869809","11.872819444323899","0.0","0.0","0.0","0.0","2.41258727259953E-09"
"3","25293.14766683394","25293.14755852711","2761","6093617","6098.12598057501","5801.829948995297","1.895","0.0","0.0","0.0","","","","0.34697892377349368","-6.924177322209688","0.0","0.0","0.0","0.0","2.80036895930087E-09"
"3","25293.191582295316","25293.191468020246","1999","6096981","5560.0","5820.0","1.895","0.0","0.0","0.0","","","","-1.275810884235417","-6.080218922110889","0.0","0.0","0.0","0.0","1.13007776278496E-08"
"2","25293.2","","","","6316.102480699951","5911.177391087856","1.895","","","","0.0","0.0","0.0","-2.9451137434672867","10.883222647375073","0.0","0.0","0.0","0.0",""
"3","25293.23235188589","25293.232234141557","283","6099523","6088.791024408775","5731.382092368149","1.895","0.0","0.0","0.0","","","","5.663733689670882","0.4179023234776994","0.0","0.0","0.0","0.0","3.90540391904118E-09"
"3","25293.293003906878","25293.29288856522","775","6101061","6087.889212003563","5728.0130625862179","1.895","0.0","0.0","0.0","","","","5.09549825077299","0.3893571570468152","0.0","0.0","0.0","0.0","7.86171384091109E-09"
"3","25293.2973399594","25293.297226578045","2641","6101445","6099.049559327781","5783.39936829704","1.895","0.0","0.0","0.0","","","","0.16962094595850925","-3.384890052118485","0.0","0.0","0.0","0.0","1.3413068893877E-08"
"2","25293.3","","","","6315.8277325969479","5912.282128836848","1.895","","","","0.0","0.0","0.0","-2.8849540179318895","10.861040316722715","0.0","0.0","0.0","0.0",""
"3","25293.320639105026","25293.320527116302","1423","6102722","5560.0","5820.0","1.895","0.0","0.0","0.0","","","","0.8284626780028647","0.07166942798685444","0.0","0.0","0.0","0.0","1.377220472658E-09"
"3","25293.338690216042","25293.338584923","2137","6105261","5560.0","5820.0","1.895","0.0","0.0","0.0","","","","1.8935833267362932","-11.749832478592877","0.0","0.0","0.0","0.0","6.42980096184774E-07"
"3","25293.36326968273","25293.363161252113","409","6106696","6069.822287479579","5733.227664200217","1.895","0.0","0.0","0.0","","","","3.8863637661592875","0.336421029352158","0.0","0.0","0.0","0.0","2.22171314495782E-09"
"3","25293.38072637782","25293.38062093537","2905","6107729","6315.0993976167569","5953.433212062579","1.895","0.0","0.0","0.0","","","","-2.5160684796365957","15.610393738445082","0.0","0.0","0.0","0.0","4.89885789682296E-08"
"3","25293.387050115947","25293.386944492486","2953","6108406","6153.824726475493","5824.4933021184","1.895","0.0","0.0","0.0","","","","-2.5699026294619049","-0.25890225294994909","0.0","0.0","0.0","0.0","1.65611486508305E-09"
"2","25293.399999999998","","","","6315.566856950806","5913.399403632821","1.895","","","","0.0","0.0","0.0","-2.7986749156721908","10.882797840356809","0.0","0.0","0.0","0.0",""
"3","25293.431862379584","25293.431757178343","2887","6112326","5560.0","5820.0","1.895","0.0","0.0","0.0","","","","-1.831084055735245","11.361204932683162","0.0","0.0","0.0","0.0","2.90342271340819E-07"
"3","25293.47152840128","25293.471411835635","1543","6114729","6068.700136240422","5729.817227996262","1.895","0.0","0.0","0.0","","","","4.605625345583096","0.3985557396146643","0.0","0.0","0.0","0.0","3.383772394539E-09"
"3","25293.476553449953","25293.47643578532","1795","6115391","6060.008622450715","5732.378149463724","1.895","0.0","0.0","0.0","","","","2.828369804497243","0.24483634015495329","0.0","0.0","0.0","0.0","6.53361475446588E-09"
"2","25293.5","","","","6315.306592430607","5914.514061106622","1.895","","","","0.0","0.0","0.0","-2.7069790329363085","10.878843625918988","0.0","0.0","0.0","0.0",""
"3","25293.502560451594","25293.502453079913","1123","6117658","6100.118646926712","5762.065069292797","1.895","0.0","0.0","0.0","","","","0.04524723772989037","-0.9029363915657541","0.0","0.0","0.0","0.0","1.11224023374977E-08"
"3","25293.570001782264","25293.569893591102","2329","6119913","5560.0","5820.0","1.895","0.0","0.0","0.0","","","","-0.6829493930687526","0.02870321602708332","0.0","0.0","0.0","0.0","1.46022348103652E-08"
"3","25293.574025816462","25293.57391265398","2653","6120535","6100.489013460533","5754.674177861997","1.895","0.0","0.0","0.0","","","","2.27645038106035E-15","-4.54279641318105E-14","0.0","0.0","0.0","0.0","1.07546284281806E-08"
"2","25293.6","","","","6315.04757390441","5915.62338225366","1.895","","","","0.0","0.0","0.0","-2.6102359882742744","10.847266348557515","0.0","0.0","0.0","0.0",""
"3","25293.643212761526","25293.643098967426","2611","6123839","6097.919591619902","5740.134598561574","1.895","0.0","0.0","0.0","","","","0.031710712982311348","-0.6328067345277895","0.0","0.0","0.0","0.0","9.99533785207304E-09"
"3","25293.645169882082","25293.6450568866","2923","6124231","6314.266562397764","5937.848889927057","1.895","0.0","0.0","0.0","","","","-2.372637920993603","14.723229889570185","0.0","0.0","0.0","0.0","0.0000010682496415682909"
"3","25293.680622041695","25293.680514482316","475","6126980","6071.083037329951","5726.710087571077","1.895","0.0","0.0","0.0","","","","3.0691925531323007","0.2655125939945495","0.0","0.0","0.0","0.0","2.08605379630373E-09"
"2","25293.7","","","","6314.785377215564","5916.746314793998","1.895","","","","0.0","0.0","0.0","-2.567949298791105","10.997979578832157","0.0","0.0","0.0","0.0",""
"3","25293.702508201528","25293.702395490043","1783","6128381","6045.0282687206449","5727.768742077523","1.895","0.0","0.0","0.0","","","","10.353485880899984","0.8959567731259532","0.0","0.0","0.0","0.0","9.68405453177996E-09"
"3","25293.719734394483","25293.719620154006","691","6129621","6081.711434948128","5730.8500599799649","1.895","0.0","0.0","0.0","","","","4.85662208113044","0.37645821384803787","0.0","0.0","0.0","0.0","6.19165324242033E-09"
"3","25293.750904297136","25293.75079111508","2809","6132777","6096.313487688581","5772.185387979579","1.895","0.0","0.0","0.0","","","","0.5953547330819999","-11.880668994652917","0.0","0.0","0.0","0.0","1.34548516083749E-08"
"2","25293.8","","","","6314.523844237886","5917.8664048008599","1.895","","","","0.0","0.0","0.0","-2.5614489244680755","10.970139860940895","0.0","0.0","0.0","0.0",""
"3","25293.81555514443","25293.815446905184","2857","6136622","6305.223928318359","5978.800396484319","1.895","0.0","0.0","0.0","","","","-1.6220225760619645","13.367099718549897","0.0","0.0","0.0","0.0","2.33346620998192E-08"
"3","25293.898177003746","25293.89806236094","547","6141796","6103.878767795815","5732.410608959603","1.895","0.0","0.0","0.0","","","","9.033015026096102","0.6157717285404216","0.0","0.0","0.0","0.0","9.0254674428314E-09"
"2","25293.899999999998","","","","6314.260596376738","5918.99383928815","1.895","","","","0.0","0.0","0.0","-2.5782444599882674","11.042071560190845","0.0","0.0","0.0","0.0",""
"3","25293.974416544275","25293.974302685678","2863","6146708","6307.126193477678","5990.516667594792","1.895","0.0","0.0","0.0","","","","-1.71498283163413","14.097896503054974","0.0","0.0","0.0","0.0","3.57750375019076E-09"
"2","25294.0","","","","6313.99749116908","5920.120662820952","1.895","","","","0.0","0.0","0.0","-2.57684731448253","11.036087883748716","0.0","0.0","0.0","0.0",""
"3","25294.01841865166","25294.01830714494","2593","6148799","6101.23989767381","5739.689822660743","1.895","0.0","0.0","0.0","","","","2.32517751999889E-15","-4.64003440870973E-14","0.0","0.0","0.0","0.0","1.71307262023668E-09"
"3","25294.0331879346","25294.03307458898","379","6149871","5560.0","5820.0","1.895","0.0","0.0","0.0","","","","8.407015901599632","0.5753670385135344","0.0","0.0","0.0","0.0","1.02607211453432E-08"
"3","25294.03717305664","25294.0370652223","2605","6150285","6320.9052755303359","5938.095370390869","1.895","0.0","0.0","0.0","","","","1.8639602488948957","-11.5660189662841","0.0","0.0","0.0","0.0","3.95092902120722E-07"
"3","25294.042814999197","25294.04270783686","2563","6150567","6099.671555844708","5770.987046159016","1.895","0.0","0.0","0.0","","","","0.08162665312909422","-1.6289099474291207","0.0","0.0","0.0","0.0","1.06665717630808E-08"
"3","25294.068967397256","25294.068851963617","871","6153968","6082.067308144195","5727.5672335163139","1.895","0.0","0.0","0.0","","","","5.208770432413767","0.4040136040526726","0.0","0.0","0.0","0.0","1.47652166000353E-09"
"2","25294.1","","","","6313.731632024891","5921.259280877005","1.895","","","","0.0","0.0","0.0","-2.603819315582898","11.15160321632354","0.0","0.0","0.0","0.0",""
"3","25294.103877187008","25294.103766346165","2875","6156398","6307.896791048365","5956.773315497106","1.895","0.0","0.0","0.0","","","","-1.8657202530914113","11.87373479155642","0.0","0.0","0.0","0.0","2.39023039097361E-07"
"3","25294.18008177688","25294.179963785133","2497","6160290","6100.864455567172","5747.18200026137","1.895","0.0","0.0","0.0","","","","2.29203505553227E-15","-4.5738965873211E-14","0.0","0.0","0.0","0.0","1.08533108081799E-08"
"3","25294.191581013438","25294.191468020246","1999","6161824","5560.0","5820.0","1.895","0.0","0.0","0.0","","","","-0.56206588123999","-8.195446221622396","0.0","0.0","0.0","0.0","6.47538910636684E-09"
"2","25294.2","","","","6313.477797503042","5922.391012484792","1.895","","","","0.0","0.0","0.0","-2.5733877532329214","11.12113455118423","0.0","0.0","0.0","0.0",""
"3","25294.232352177525","25294.232234141557","283","6164356","6095.5587219852209","5731.843439639557","1.895","0.0","0.0","0.0","","","","7.782099030691448","0.5304980184294437","0.0","0.0","0.0","0.0","6.4416370123325E-09"
"3","25294.29300420076","25294.29288856522","775","6165875","6094.166218619386","5728.442654102346","1.895","0.0","0.0","0.0","","","","7.244339077786921","0.49579469932759048","0.0","0.0","0.0","0.0","1.08679939386337E-08"
"3","25294.297340255973","25294.297226578045","2641","6166262","6099.192949729322","5780.537924853238","1.895","0.0","0.0","0.0","","","","0.12705068395532277","-2.5353743537099264","0.0","0.0","0.0","0.0","9.23353790952049E-09"
"2","25294.3","","","","6313.253783845166","5923.511080774171","1.895","","","","0.0","0.0","0.0","-2.486197256633547","11.107896833511296","0.0","0.0","0.0","0.0",""
"3","25294.3206394244","25294.320527116302","1423","6167527","5560.0","5820.0","1.895","0.0","0.0","0.0","","","","1.9245678017941444","0.166492320220411","0.0","0.0","0.0","0.0","7.9276001525144E-09"
"3","25294.338690486806","25294.338584923","2137","6170065","5560.0","5820.0","1.895","0.0","0.0","0.0","","","","2.680507725172957","-11.521480573114954","0.0","0.0","0.0","0.0","1.79908426434174E-07"
"3","25294.363269495334","25294.363161252113","409","6171535","6074.682651108392","5733.615803444733","1.895","0.0","0.0","0.0","","","","5.726939621916338","0.4582948868835537","0.0","0.0","0.0","0.0","3.75280442585445E-09"
"3","25294.380726772142","25294.38062093537","2905","6172603","6313.0521084512","5969.079447466304","1.895","0.0","0.0","0.0","","","","-1.9123047230170043","15.726462667994074","0.0","0.0","0.0","0.0","6.82895162368304E-08"
"2","25294.399999999998","","","","6313.051334522004","5924.642183100925","1.895","","","","0.0","0.0","0.0","-2.368219854311111","11.205248063373837","0.0","0.0","0.0","0.0",""
"3","25294.431862773385","25294.431757178343","2887","6177114","5560.0","5820.0","1.895","0.0","0.0","0.0","","","","-1.858112128939269","11.528904213155102","0.0","0.0","0.0","0.0","0.000001584338874046926"
"3","25294.441438537222","25294.441321470775","823","6178460","6230.3071404743","5840.912897985196","1.895","0.0","0.0","0.0","","","","15.064040442698272","0.9901683734898272","0.0","0.0","0.0","0.0","1.09793752100981E-08"
"3","25294.476553868073","25294.47643578532","1795","6180051","6063.734319159374","5732.700662433996","1.895","0.0","0.0","0.0","","","","4.57758922723524","0.3962565967671098","0.0","0.0","0.0","0.0","7.12460821328336E-09"
"2","25294.5","","","","6312.867697894354","5925.781581018436","1.895","","","","0.0","0.0","0.0","-2.1975656275173649","11.288925087355665","0.0","0.0","0.0","0.0",""
"3","25294.50256087001","25294.502453079913","1123","6182336","6100.147721586351","5761.484866620156","1.895","0.0","0.0","0.0","","","","0.02192699272773431","-0.4375665937810369","0.0","0.0","0.0","0.0","7.73985771507081E-09"
"3","25294.57015363556","25294.569893591102","2329","6184595","5560.0","5820.0","1.895","0.0","0.0","0.0","","","","-0.4331983252299477","0.029502668323514868","0.0","0.0","0.0","0.0","7.6725011204663E-09"
"3","25294.574021665954","25294.57391265398","2653","6185304","6100.489013460533","5754.674177861997","1.895","0.0","0.0","0.0","","","","0.0","0.0","0.0","0.0","0.0","0.0","2.47269186194731E-09"
"2","25294.6","","","","6312.684304971282","5926.9194668384229","1.895","","","","0.0","0.0","0.0","-2.0125350927759966","11.307872941751392","0.0","0.0","0.0","0.0",""
"3","25294.64517234007","25294.6450568866","2923","6188960","6311.8935625478529","5952.574365739878","1.895","0.0","0.0","0.0","","","","-2.3657453823483305","14.680458748600048","0.0","0.0","0.0","0.0","3.5092855034412E-07"
"3","25294.66334224476","25294.66322414032","1447","6189761","6095.382767160976","5735.136504675172","1.895","0.0","0.0","0.0","","","","8.073157118511484","0.5699715404664458","0.0","0.0","0.0","0.0","4.47623007076586E-09"
"3","25294.67719427357","25294.677081576316","193","6191265","6093.834421368718","5755.633152686392","1.895","0.0","0.0","0.0","","","","-0.5148351878325137","10.273852064254252","0.0","0.0","0.0","0.0","9.7465481540955E-09"
"3","25294.680633495856","25294.680514482316","475","6191643","6075.193603299369","5727.034080768734","1.895","0.0","0.0","0.0","","","","4.706099597633079","0.3772760427610457","0.0","0.0","0.0","0.0","5.04889787910683E-09"
"2","25294.7","","","","6312.501595774746","5928.053110386036","1.895","","","","0.0","0.0","0.0","-1.900459314698406","11.283826431667878","0.0","0.0","0.0","0.0",""
"3","25294.702506618913","25294.702395490043","1783","6193046","6054.7676000199739","5728.611551923766","1.895","0.0","0.0","0.0","","","","9.370941352012915","0.8109305862296107","0.0","0.0","0.0","0.0","1.28968345761537E-09"
"3","25294.719732829144","25294.719620154006","691","6194291","6087.685392238363","5731.306722513152","1.895","0.0","0.0","0.0","","","","6.848367538731056","0.5228489465377099","0.0","0.0","0.0","0.0","1.63454118450966E-09"
"3","25294.73023082972","25294.73012202629","175","6195011","6215.698567330062","5836.638043821956","1.895","0.0","0.0","0.0","","","","15.33297664107966","1.0091843421941893","0.0","0.0","0.0","0.0","2.60629581151306E-09"
"3","25294.75090284911","25294.75079111508","2809","6197391","6096.822787109676","5762.022005537189","1.895","0.0","0.0","0.0","","","","0.44431944371457246","-8.866667123538408","0.0","0.0","0.0","0.0","5.0426945606691E-09"
"2","25294.8","","","","6312.319155507194","5929.185085327952","1.895","","","","0.0","0.0","0.0","-1.8180506336947773","11.280337329520922","0.0","0.0","0.0","0.0",""
"3","25294.815557592687","25294.815446905184","2857","6200884","6303.594161049766","5992.189902773969","1.895","0.0","0.0","0.0","","","","-1.6237765223951278","13.339411431277077","0.0","0.0","0.0","0.0","1.46042855243338E-08"
"3","25294.89817554108","25294.89806236094","547","6206286","6114.220207552625","5733.01462946841","1.895","0.0","0.0","0.0","","","","11.307628197121052","0.6502991090471795","0.0","0.0","0.0","0.0","2.78656963524758E-09"
"2","25294.899999999998","","","","6312.13612386446","5930.320729535958","1.895","","","","0.0","0.0","0.0","-1.8239437955409213","11.316902237191764","0.0","0.0","0.0","0.0",""
"3","25294.974418858976","25294.974302685678","2863","6211252","6305.531730642385","6004.688327145254","1.895","0.0","0.0","0.0","","","","-1.5324292117807146","14.11007225054857","0.0","0.0","0.0","0.0","3.08566793630693E-08"
"2","25295.0","","","","6311.952208632312","5931.4618560921849","1.895","","","","0.0","0.0","0.0","-1.832748925658954","11.371534839906105","0.0","0.0","0.0","0.0",""
"3","25295.018422064142","25295.01830714494","2593","6213327","6101.23989767381","5739.689822660743","1.895","0.0","0.0","0.0","","","","2.2773973336803E-15","-4.5446861152285E-14","0.0","0.0","0.0","0.0","4.50485679244843E-09"
"3","25295.03006430067","25295.02995032142","631","6213713","6067.226922769273","5726.376499188457","1.895","0.0","0.0","0.0","","","","3.5950980214282719","0.3110081185235865","0.0","0.0","0.0","0.0","1.62459353839946E-09"
"3","25295.033191334584","25295.03307458898","379","6214399","5560.0","5820.0","1.895","0.0","0.0","0.0","","","","10.5866080982728","0.6091735386153968","0.0","0.0","0.0","0.0","2.01811727147413E-09"
"3","25295.037176388516","25295.0370652223","2605","6214793","6322.776829889831","5926.482229375014","1.895","0.0","0.0","0.0","","","","1.8588275823229473","-11.534170369232549","0.0","0.0","0.0","0.0","0.000001475358264317282"
"3","25295.042818422517","25295.04270783686","2563","6215084","6099.733112525722","5769.758644819598","1.895","0.0","0.0","0.0","","","","0.04820762566695286","-0.9620127492750269","0.0","0.0","0.0","0.0","9.65276246272901E-09"
"3","25295.054846636103","25295.05473179137","1477","6216972","6042.795335348669","5724.2629484616259","1.895","0.0","0.0","0.0","","","","4.850055507726339","0.41957316023143739","0.0","0.0","0.0","0.0","1.39127234641426E-09"
"3","25295.068958663214","25295.068851963617","871","6218214","6087.3820977181389","5727.957394769991","1.895","0.0","0.0","0.0","","","","4.464685299922035","0.326527364399198","0.0","0.0","0.0","0.0","2.63645224438139E-09"
"2","25295.1","","","","6311.768829947524","5932.599653568839","1.895","","","","0.0","0.0","0.0","-1.8274021330771238","11.338359953101703","0.0","0.0","0.0","0.0",""
"3","25295.1038736179","25295.103766346165","2875","6220596","6306.44373476823","5968.747962755346","1.895","0.0","0.0","0.0","","","","-1.4471426204350193","11.925912746101945","0.0","0.0","0.0","0.0","4.83368417237364E-08"
"3","25295.180074418087","25295.179963785133","2497","6224870","6100.864455567172","5747.18200026137","1.895","0.0","0.0","0.0","","","","2.32253683445543E-15","-4.63476475868136E-14","0.0","0.0","0.0","0.0","2.51598923251478E-09"
"3","25295.191586713026","25295.191468020246","1999","6226435","5560.0","5820.0","1.895","0.0","0.0","0.0","","","","-0.6928219855568075","-10.10199251242047","0.0","0.0","0.0","0.0","4.06777795321016E-09"
"2","25295.2","","","","6311.585173286537","5933.739175785857","1.895","","","","0.0","0.0","0.0","-1.8301722167527839","11.355547306268198","0.0","0.0","0.0","0.0",""
"3","25295.23235052764","25295.232234141557","283","6228972","6104.435820423175","5732.448582688004","1.895","0.0","0.0","0.0","","","","9.364817746489138","0.6383903928602057","0.0","0.0","0.0","0.0","5.01620615735805E-09"
"3","25295.29300255368","25295.29288856522","775","6230461","6102.439888719868","5729.008895099042","1.895","0.0","0.0","0.0","","","","8.634194314771133","0.5909148824030952","0.0","0.0","0.0","0.0","4.05692248027616E-09"
"2","25295.3","","","","6311.401399478373","5934.879424858131","1.895","","","","0.0","0.0","0.0","-1.8313396097852824","11.362790551829706","0.0","0.0","0.0","0.0",""
"3","25295.363269678164","25295.363161252113","409","6235699","6081.4111006358439","5734.136687893115","1.895","0.0","0.0","0.0","","","","7.526796454839787","0.5826886570923763","0.0","0.0","0.0","0.0","1.07828836016243E-08"
"3","25295.38072788632","25295.38062093537","2905","6236673","6311.147174624104","5984.740092335313","1.895","0.0","0.0","0.0","","","","-1.908281499741016","15.676635116152843","0.0","0.0","0.0","0.0","8.06332505388766E-08"
"2","25295.399999999998","","","","6311.216427323988","5936.02710922916","1.895","","","","0.0","0.0","0.0","-1.8432813490534988","11.43688466381221","0.0","0.0","0.0","0.0",""
"3","25295.431863887494","25295.431757178343","2887","6241083","5560.0","5820.0","1.895","0.0","0.0","0.0","","","","-1.8797535917901714","11.663181552158918","0.0","0.0","0.0","0.0","0.0000010107743966349309"
"3","25295.441439639115","25295.441321470775","823","6242452","6245.343842395115","5841.901269381318","1.895","0.0","0.0","0.0","","","","14.996984409657282","0.9857607403968703","0.0","0.0","0.0","0.0","1.44210209932025E-08"
"3","25295.471529950097","25295.471411835635","1543","6243398","6080.3314819116","5730.743093729216","1.895","0.0","0.0","0.0","","","","7.155234689554358","0.5546338228289089","0.0","0.0","0.0","0.0","9.18265857283871E-09"
"3","25295.476542011176","25295.47643578532","1795","6244048","6069.15538556932","5733.169934188148","1.895","0.0","0.0","0.0","","","","6.221645338818598","0.5385734468225898","0.0","0.0","0.0","0.0","8.18193249583656E-09"
"2","25295.5","","","","6311.031457145251","5937.174781342016","1.895","","","","0.0","0.0","0.0","-1.843261661358408","11.436762508885528","0.0","0.0","0.0","0.0",""
"3","25295.50256201326","25295.502453079913","1123","6246292","6100.163623626003","5761.167531661776","1.895","0.0","0.0","0.0","","","","5.39797934161618E-07","-0.00001077199898380892","0.0","0.0","0.0","0.0","1.34022110532351E-09"
"3","25295.57011566925","25295.569893591102","2329","6248532","5560.0","5820.0","1.895","0.0","0.0","0.0","","","","-9.81134587055318E-10","7.62297048097E-11","0.0","0.0","0.0","0.0","2.92831581141947E-09"
"3","25295.574022696936","25295.57391265398","2653","6249264","6100.489013460533","5754.674177861997","1.895","0.0","0.0","0.0","","","","0.0","0.0","0.0","0.0","0.0","0.0","4.38537355382963E-09"
"2","25295.6","","","","6310.844977734062","5938.331817688663","1.895","","","","0.0","0.0","0.0","-1.8583014387803246","11.53007881128088","0.0","0.0","0.0","0.0",""
"3","25295.643212668325","25295.643098967426","2611","6252983","6097.9498976738109","5739.529822660743","1.895","0.0","0.0","0.0","","","","5.08329522537327E-14","-1.01440275215619E-12","0.0","0.0","0.0","0.0","7.3576956131498E-09"
"3","25295.645169815074","25295.6450568866","2923","6253353","6309.942517463549","5967.328375860125","1.895","0.0","0.0","0.0","","","","-1.7947757470763184","14.798800744852333","0.0","0.0","0.0","0.0","6.0830456463534E-08"
"3","25295.663330686533","25295.66322414032","1447","6254097","6104.738503767214","5735.770359593634","1.895","0.0","0.0","0.0","","","","10.185934794820682","0.6905277541112025","0.0","0.0","0.0","0.0","1.34874124657006E-08"
"3","25295.68062201957","25295.680514482316","475","6255998","6079.254571069025","5727.349066089329","1.895","0.0","0.0","0.0","","","","3.565219496701611","0.2765330507057473","0.0","0.0","0.0","0.0","9.6942199140418E-09"
"2","25295.7","","","","6310.661614409504","5939.469519860727","1.895","","","","0.0","0.0","0.0","-1.8272490655770113","11.337410225420827","0.0","0.0","0.0","0.0",""
"3","25295.70250810935","25295.702395490043","1783","6257404","6064.048633619299","5729.414702187414","1.895","0.0","0.0","0.0","","","","9.276880886349954","0.8027909014641403","0.0","0.0","0.0","0.0","9.48501905172613E-09"
"3","25295.71973434283","25295.719620154006","691","6258634","6095.528536905089","5731.841381952405","1.895","0.0","0.0","0.0","","","","8.567835105836935","0.5840608720044295","0.0","0.0","0.0","0.0","3.84201345307058E-09"
"3","25295.730238328826","25295.73012202629","175","6259352","6231.0835186985","5837.650649031622","1.895","0.0","0.0","0.0","","","","15.417432636451329","1.0147430585562272","0.0","0.0","0.0","0.0","7.38370391623567E-09"
"3","25295.75089744088","25295.75079111508","2809","6261679","6097.185524358684","5754.783361165992","1.895","0.0","0.0","0.0","","","","0.29642107341774096","-5.915264397219194","0.0","0.0","0.0","0.0","2.73906553537243E-09"
"2","25295.8","","","","6310.476172314756","5940.620120039338","1.895","","","","0.0","0.0","0.0","-1.8479643907217927","11.465941219658987","0.0","0.0","0.0","0.0",""
"3","25295.815555053006","25295.815446905184","2857","6265566","6294.638219406463","6002.514229765964","1.895","0.0","0.0","0.0","","","","-14.261959328972328","4.832662267958106","0.0","0.0","0.0","0.0","2.19062316045909E-08"
"3","25295.89817006588","25295.89806236094","547","6270313","6126.8112977848909","5733.712789285686","1.895","0.0","0.0","0.0","","","","13.713625282422813","0.709473856936877","0.0","0.0","0.0","0.0","8.58063338741514E-09"
"2","25295.899999999998","","","","6310.289919863736","5941.775748181378","1.895","","","","0.0","0.0","0.0","-1.8560397391777133","11.51604579481453","0.0","0.0","0.0","0.0",""
"3","25295.90445612817","25295.90434478898","2773","6271038","5560.0","5820.0","1.895","0.0","0.0","0.0","","","","7.82750991195424","-2.0559937910425645","0.0","0.0","0.0","0.0","1.31858774739122E-09"
"3","25295.9744162324","25295.974302685678","2863","6274891","6307.309920299899","6019.217817700219","1.895","0.0","0.0","0.0","","","","-1.4663501076970547","14.208043846531627","0.0","0.0","0.0","0.0","2.48490090375264E-08"
"2","25296.0","","","","6310.10338701299","5942.9331161008699","1.895","","","","0.0","0.0","0.0","-1.8588339737325959","11.533382995317416","0.0","0.0","0.0","0.0",""
"3","25296.018417698288","25296.01830714494","2593","6276964","6101.23989767381","5739.689822660743","1.895","0.0","0.0","0.0","","","","2.37613851882505E-15","-4.74173020871718E-14","0.0","0.0","0.0","0.0","9.50425202117534E-09"
"3","25296.030059912642","25296.02995032142","631","6277347","6070.767734465083","5726.682811054503","1.895","0.0","0.0","0.0","","","","3.665833291714046","0.3171273517666612","0.0","0.0","0.0","0.0","1.198396331445E-08"
"3","25296.033186958957","25296.03307458898","379","6277991","5560.0","5820.0","1.895","0.0","0.0","0.0","","","","13.065062506152753","0.7008159149544475","0.0","0.0","0.0","0.0","1.36736122968755E-08"
"3","25296.068958195676","25296.068851963617","871","6281426","6091.351901984654","5727.547556677699","1.895","0.0","0.0","0.0","","","","4.699486716037925","-0.3349012436409025","0.0","0.0","0.0","0.0","1.59933534395697E-09"
"2","25296.1","","","","6309.918027955971","5944.083201060827","1.895","","","","0.0","0.0","0.0","-1.8471369045622428","11.460806971546179","0.0","0.0","0.0","0.0",""
"3","25296.103877233774","25296.103766346165","2875","6283746","6304.9873377771159","5980.744881056822","1.895","0.0","0.0","0.0","","","","-1.4546477997813876","11.977223062031176","0.0","0.0","0.0","0.0","7.26041098871454E-09"
"3","25296.180072402807","25296.179963785133","2497","6288007","6100.864455567172","5747.18200026137","1.895","0.0","0.0","0.0","","","","2.37907024802774E-15","-4.74758065422532E-14","0.0","0.0","0.0","0.0","1.393850330569E-08"
"3","25296.18045640326","25296.1803433124","3031","6288386","6179.393874377315","5827.0692401799819","1.895","0.0","0.0","0.0","","","","-0.7315503609259638","-0.07369930456452136","0.0","0.0","0.0","0.0","2.02327105632204E-09"
"3","25296.191584769433","25296.191468020246","1999","6289867","5560.0","5820.0","1.895","0.0","0.0","0.0","","","","-0.8212492103035226","-11.974581561051203","0.0","0.0","0.0","0.0","7.82408551782876E-09"
"2","25296.2","","","","6309.732075905622","5945.236965326898","1.895","","","","0.0","0.0","0.0","-1.8530461915614634","11.497471929888159","0.0","0.0","0.0","0.0",""
"3","25296.23234678332","25296.232234141557","283","6292101","6115.117694729156","5733.066243750477","1.895","0.0","0.0","0.0","","","","11.812203542041948","0.6793171216249871","0.0","0.0","0.0","0.0","1.81969087420283E-09"
"3","25296.292998827226","25296.29288856522","775","6293593","6109.496297520635","5729.442178013758","1.895","0.0","0.0","0.0","","","","6.562390204129936","0.3838210581999857","0.0","0.0","0.0","0.0","9.44259913394234E-09"
"2","25296.3","","","","6309.546546087699","5946.388109795628","1.895","","","","0.0","0.0","0.0","-1.8488385681984863","11.471365170244603","0.0","0.0","0.0","0.0",""
"3","25296.363268676665","25296.363161252113","409","6298458","6089.815147317624","5735.399290844807","1.895","0.0","0.0","0.0","","","","9.312783754912444","1.8961268264327989","0.0","0.0","0.0","0.0","1.14204673751629E-08"
"3","25296.38073718592","25296.38062093537","2905","6299455","6309.337914753446","6000.15386381435","1.895","0.0","0.0","0.0","","","","-1.6591749100834153","15.315460708466374","0.0","0.0","0.0","0.0","3.68118266648524E-08"
"2","25296.399999999998","","","","6309.359274804115","5947.550059420031","1.895","","","","0.0","0.0","0.0","-1.8661925920292682","11.57904052273901","0.0","0.0","0.0","0.0",""
"3","25296.431873186786","25296.431757178343","2887","6304191","5560.0","5820.0","1.895","0.0","0.0","0.0","","","","-1.4157449380095817","11.66716421936227","0.0","0.0","0.0","0.0","1.10934951621206E-07"
"3","25296.441435949135","25296.441321470775","823","6305529","6260.388821047109","5842.890184811923","1.895","0.0","0.0","0.0","","","","15.02849403167251","0.9878318866672736","0.0","0.0","0.0","0.0","2.33518487369837E-08"
"3","25296.471526279187","25296.471411835635","1543","6306464","6088.296881574291","5731.3484071383049","1.895","0.0","0.0","0.0","","","","8.604147871148676","0.6437109769767538","0.0","0.0","0.0","0.0","4.96943007918765E-09"
"2","25296.5","","","","6309.17302050815","5948.705699009277","1.895","","","","0.0","0.0","0.0","-1.856058124390523","11.516159868316406","0.0","0.0","0.0","0.0",""
"3","25296.570124881277","25296.569893591102","2329","6311547","5560.0","5820.0","1.895","0.0","0.0","0.0","","","","0.0","0.0","0.0","0.0","0.0","0.0","1.04256576760474E-08"
"2","25296.6","","","","6308.985123814571","5949.871529073301","1.895","","","","0.0","0.0","0.0","-1.8724249170130574","11.617709813275472","0.0","0.0","0.0","0.0",""
"3","25296.645171280317","25296.6450568866","2923","6316319","6308.147530443755","5982.120838448915","1.895","0.0","0.0","0.0","","","","-1.804406595348453","14.851351922619744","0.0","0.0","0.0","0.0","3.98821387285977E-08"
"3","25296.66333267943","25296.66322414032","1447","6317061","6115.996378518709","5736.423718396176","1.895","0.0","0.0","0.0","","","","12.106958871131113","0.7081012355888479","0.0","0.0","0.0","0.0","2.85676677352357E-09"
"3","25296.68062411257","25296.680514482316","475","6319027","6083.686549692368","5727.692828533833","1.895","0.0","0.0","0.0","","","","5.186793300961449","0.40230896757464","0.0","0.0","0.0","0.0","7.17662243085231E-09"
"2","25296.7","","","","6308.798442471878","5951.029818330862","1.895","","","","0.0","0.0","0.0","-1.8603137231491516","11.542564297692876","0.0","0.0","0.0","0.0",""
"3","25296.71973643624","25296.719620154006","691","6321705","6104.987459285997","5732.483656229179","1.895","0.0","0.0","0.0","","","","10.226564049634515","0.6924205020092827","0.0","0.0","0.0","0.0","1.12271483852963E-08"
"3","25296.730234458104","25296.73012202629","175","6322461","6246.463192383108","5838.662906875216","1.895","0.0","0.0","0.0","","","","15.427548902794135","1.0154088899752403","0.0","0.0","0.0","0.0","6.19094489703618E-09"
"2","25296.8","","","","6308.61120414259","5952.191563485935","1.895","","","","0.0","0.0","0.0","-1.865864196424821","11.577002948467405","0.0","0.0","0.0","0.0",""
"3","25296.89817351398","25296.89806236094","547","6334750","6140.740426001992","5734.426775464736","1.895","0.0","0.0","0.0","","","","13.991173225579093","0.7171665129396215","0.0","0.0","0.0","0.0","2.62508415634867E-09"
"2","25296.899999999998","","","","6308.425241072299","5953.345396126701","1.895","","","","0.0","0.0","0.0","-1.8531560072974359","11.498153296236913","0.0","0.0","0.0","0.0",""
"3","25296.904457512304","25296.90434478898","2773","6335475","5560.0","5820.0","1.895","0.0","0.0","0.0","","","","5.25115734593227","-1.3792824308695516","0.0","0.0","0.0","0.0","1.42488921718181E-08"
"3","25296.974417691607","25296.974302685678","2863","6339345","6305.772362025155","6033.448741773599","1.895","0.0","0.0","0.0","","","","-1.582605228609137","14.243447057488032","0.0","0.0","0.0","0.0","5.1067387344669E-08"
"2","25297.0","","","","6308.237980167932","5954.507281351871","1.895","","","","0.0","0.0","0.0","-1.8660891612342237","11.578398772593696","0.0","0.0","0.0","0.0",""
"3","25297.01842515839","25297.01830714494","2593","6341431","6101.23989767381","5739.689822660743","1.895","0.0","0.0","0.0","","","","2.38138615461354E-15","-4.75220218791599E-14","0.0","0.0","0.0","0.0","1.47194777328091E-09"
"3","25297.033181408835","25297.03307458898","379","6342455","5560.0","5820.0","1.895","0.0","0.0","0.0","","","","13.392267426684926","0.6862783748803686","0.0","0.0","0.0","0.0","3.34112587269289E-09"
"3","25297.050477186556","25297.050370058743","169","6344399","6248.810564896803","5842.129139121438","1.895","0.0","0.0","0.0","","","","13.594575768199304","0.8935795829734908","0.0","0.0","0.0","0.0","8.05293958043126E-09"
"3","25297.068965721428","25297.068851963617","871","6345939","6095.9798125598649","5724.149024995969","1.895","0.0","0.0","0.0","","","","5.201226236246717","-4.585401804164626","0.0","0.0","0.0","0.0","6.21639027669227E-09"
"3","25297.084500790323","25297.084393825706","3061","6347456","6324.290511997161","5906.192373780965","1.895","0.0","0.0","0.0","","","","-3.7824273696736565","13.95157636355053","0.0","0.0","0.0","0.0","1.07905024141596E-07"
"2","25297.1","","","","6308.0505328988579","5955.6703229016879","1.895","","","","0.0","0.0","0.0","-1.8679463196195568","11.589921759190747","0.0","0.0","0.0","0.0",""
"3","25297.103878037928","25297.103766346165","2875","6348245","6303.527354283331","5992.738723951989","1.895","0.0","0.0","0.0","","","","-1.4583415490203667","11.980354230648784","0.0","0.0","0.0","0.0","1.74980370700226E-07"
"3","25297.191578425536","25297.191468020246","1999","6354248","5560.0","5820.0","1.895","0.0","0.0","0.0","","","","-0.8266102378655497","-12.052750356784398","0.0","0.0","0.0","0.0","8.83502161448525E-09"
"2","25297.2","","","","6307.889065948668","5956.8369780992929","1.895","","","","0.0","0.0","0.0","-1.8072562272564597","11.598992611606223","0.0","0.0","0.0","0.0",""
"3","25297.29300548641","25297.29288856522","775","6357885","6117.193360534569","5729.8850816397","1.895","0.0","0.0","0.0","","","","8.65004969730132","0.4977402898447104","0.0","0.0","0.0","0.0","1.44465058010896E-08"
"2","25297.3","","","","6307.746100503269","5958.015157363347","1.895","","","","0.0","0.0","0.0","-1.7128001606857413","11.702211041678823","0.0","0.0","0.0","0.0",""
"3","25297.380730868616","25297.38062093537","2905","6363816","6307.713542994039","6015.3069584138179","1.895","0.0","0.0","0.0","","","","-1.570043786858492","15.026660019061302","0.0","0.0","0.0","0.0","1.02575104318526E-07"
"2","25297.399999999998","","","","6307.603980249072","5959.186371400632","1.895","","","","0.0","0.0","0.0","-1.5957971680960864","11.648171564093016","0.0","0.0","0.0","0.0",""
"3","25297.431866869276","25297.431757178343","2887","6368557","5560.0","5820.0","1.895","0.0","0.0","0.0","","","","-1.4236411978943547","11.732237353860562","0.0","0.0","0.0","0.0","0.000001596098097673036"
"3","25297.441429663835","25297.441321470775","823","6369919","6275.452034594481","5843.88029883309","1.895","0.0","0.0","0.0","","","","15.009324921906205","0.9865718896358828","0.0","0.0","0.0","0.0","7.23298474313163E-09"
"2","25297.5","","","","6307.462958353098","5960.348533859905","1.895","","","","0.0","0.0","0.0","-1.4781086232055725","11.572095274079113","0.0","0.0","0.0","0.0",""
"2","25297.6","","","","6307.319993540804","5961.526707906547","1.895","","","","0.0","0.0","0.0","-1.424670502157882","11.740719857721168","0.0","0.0","0.0","0.0",""
"3","25297.64516498256","25297.6450568866","2923","6380752","6306.376079897357","5996.913854497014","1.895","0.0","0.0","0.0","","","","-1.7142939080111035","14.859854184281108","0.0","0.0","0.0","0.0","2.61559288862271E-08"
"2","25297.7","","","","6307.175235702432","5962.719658293994","1.895","","","","0.0","0.0","0.0","-1.4425383349585924","11.887968796377507","0.0","0.0","0.0","0.0",""
"3","25297.730237508873","25297.73012202629","175","6386826","6261.837840669248","5839.67483395763","1.895","0.0","0.0","0.0","","","","15.40008341783477","1.0136011693988259","0.0","0.0","0.0","0.0","4.39117324472672E-09"
"2","25297.8","","","","6307.029041150149","5963.924448651111","1.895","","","","0.0","0.0","0.0","-1.456855451843804","12.005956259611484","0.0","0.0","0.0","0.0",""
"2","25297.899999999998","","","","6306.880225973185","5965.150835595094","1.895","","","","0.0","0.0","0.0","-1.4829704561093562","12.221170197659804","0.0","0.0","0.0","0.0",""
"3","25297.904451246388","25297.90434478898","2773","6399723","5560.0","5820.0","1.895","0.0","0.0","0.0","","","","2.9989787952623585","-0.7877194474210925","0.0","0.0","0.0","0.0","1.59326036371692E-07"
"3","25297.974411519208","25297.974302685678","2863","6404028","6303.7246708547559","6047.55477492046","1.895","0.0","0.0","0.0","","","","-2.1851384519150258","14.06357730487856","0.0","0.0","0.0","0.0","6.23177950750943E-08"
"2","25298.0","","","","6306.729043442089","5966.396731921494","1.895","","","","0.0","0.0","0.0","-1.5065615729951479","12.415584761636043","0.0","0.0","0.0","0.0",""
"3","25298.084506430252","25298.084393825706","3061","6411745","6320.787290837076","5920.0416007745729","1.895","0.0","0.0","0.0","","","","-3.2970346821595335","14.118071587712514","0.0","0.0","0.0","0.0","1.22874027390857E-08"
"2","25298.1","","","","6306.578568002524","5967.636801101511","1.895","","","","0.0","0.0","0.0","-1.499515276576254","12.357516182155111","0.0","0.0","0.0","0.0",""
"3","25298.103883655953","25298.103766346165","2875","6412613","6294.746211277476","5999.080362377972","1.895","0.0","0.0","0.0","","","","-12.629142996356505","4.175818877196018","0.0","0.0","0.0","0.0","7.43505466785737E-08"
"2","25298.2","","","","6306.428113790415","5968.876695345894","1.895","","","","0.0","0.0","0.0","-1.4993037410787845","12.355772916577769","0.0","0.0","0.0","0.0",""
"2","25298.3","","","","6306.2773268594469","5970.119331528813","1.895","","","","0.0","0.0","0.0","-1.5026193453875918","12.383096835560798","0.0","0.0","0.0","0.0",""
"3","25298.380733057937","25298.38062093537","2905","6428228","6306.113932885484","6030.3746040306409","1.895","0.0","0.0","0.0","","","","-1.6627246920378798","14.964522228347012","0.0","0.0","0.0","0.0","5.20037684362045E-08"
"2","25298.399999999998","","","","6306.127296656511","5971.355731510558","1.895","","","","0.0","0.0","0.0","-1.495078412126676","12.320951950306219","0.0","0.0","0.0","0.0",""
"3","25298.4318690587","25298.431757178343","2887","6433058","5560.0","5820.0","1.895","0.0","0.0","0.0","","","","-1.551296735068826","12.743986081626688","0.0","0.0","0.0","0.0","2.13931614014268E-07"
"3","25298.441429080212","25298.441321470775","823","6434060","6290.292646720434","5844.855781129904","1.895","0.0","0.0","0.0","","","","14.020960440623064","0.9216061020990067","0.0","0.0","0.0","0.0","1.59738405326176E-09"
"2","25298.5","","","","6305.976192393582","5972.600982828431","1.895","","","","0.0","0.0","0.0","-1.5057816163972049","12.409157133682596","0.0","0.0","0.0","0.0",""
"2","25298.6","","","","6305.825612617399","5973.841911847261","1.895","","","","0.0","0.0","0.0","-1.5005550100528782","12.366084633195202","0.0","0.0","0.0","0.0",""
"3","25298.645172330296","25298.6450568866","2923","6445245","6304.7693608692029","6011.713086729472","1.895","0.0","0.0","0.0","","","","-1.6004013527668673","14.752838433348286","0.0","0.0","0.0","0.0","3.68691968824837E-07"
"2","25298.7","","","","6305.674077267684","5975.090715754449","1.895","","","","0.0","0.0","0.0","-1.510077475075236","12.444559335953687","0.0","0.0","0.0","0.0",""
"2","25298.8","","","","6305.5234233516089","5976.332255760671","1.895","","","","0.0","0.0","0.0","-1.5012938276440702","12.372173234300327","0.0","0.0","0.0","0.0",""
"2","25298.899999999998","","","","6305.373325343984","5977.569214521344","1.895","","","","0.0","0.0","0.0","-1.4957540982521057","12.326520284524742","0.0","0.0","0.0","0.0",""
"3","25298.90445864192","25298.90434478898","2773","6464647","5560.0","5820.0","1.895","0.0","0.0","0.0","","","","3.0901197558345716","-0.8116587654358738","0.0","0.0","0.0","0.0","5.50519992647417E-08"
"3","25298.91641311668","25298.9162972942","3091","6465015","6323.59530218465","5908.756672269736","1.895","0.0","0.0","0.0","","","","-3.210972695762977","11.843751746668853","0.0","0.0","0.0","0.0","1.35436928870485E-08"
"3","25298.974413675278","25298.974302685678","2863","6469136","6301.620601186627","6061.660383757857","1.895","0.0","0.0","0.0","","","","-2.1492164157717146","14.037551131211693","0.0","0.0","0.0","0.0","4.97343611780741E-09"
"2","25299.0","","","","6305.221489066326","5978.82049837787","1.895","","","","0.0","0.0","0.0","-1.5130762770593079","12.46927248467852","0.0","0.0","0.0","0.0",""
"3","25299.050487616798","25299.050370058743","169","6473850","6276.031157059329","5843.918364898515","1.895","0.0","0.0","0.0","","","","13.116568252373881","0.8621598635254758","0.0","0.0","0.0","0.0","1.53328468820208E-09"
"3","25299.084505331408","25299.084393825706","3061","6476517","6318.207744650654","5934.148156243321","1.895","0.0","0.0","0.0","","","","-2.3066819434291","14.31130100699134","0.0","0.0","0.0","0.0","7.03570726964504E-08"
"2","25299.1","","","","6305.066192685368","5980.097083746015","1.895","","","","0.0","0.0","0.0","-1.5447092274237287","12.721752912752916","0.0","0.0","0.0","0.0",""
"3","25299.10388254328","25299.103766346165","2875","6477367","6280.945001020105","6002.665488182171","1.895","0.0","0.0","0.0","","","","-14.040049370938372","3.64716878833745","0.0","0.0","0.0","0.0","9.0519891574435E-08"
"2","25299.2","","","","6304.910489903305","5981.3761904717789","1.895","","","","0.0","0.0","0.0","-1.549011276679128","12.746848132289387","0.0","0.0","0.0","0.0",""
"2","25299.3","","","","6304.753646637388","5982.664666333722","1.895","","","","0.0","0.0","0.0","-1.5616122446019532","12.84006304724962","0.0","0.0","0.0","0.0",""
"3","25299.380731961603","25299.38062093537","2905","6492917","6300.743500779895","6045.241449862202","1.895","0.0","0.0","0.0","","","","-2.4142611670043094","15.614546201348976","0.0","0.0","0.0","0.0","1.08600438004669E-07"
"2","25299.399999999998","","","","6304.596316161955","5983.957144648034","1.895","","","","0.0","0.0","0.0","-1.5677257947920183","12.879795105360702","0.0","0.0","0.0","0.0",""
"3","25299.43186796293","25299.431757178343","2887","6497767","5560.0","5820.0","1.895","0.0","0.0","0.0","","","","-10.4737827944047","9.06833778088388","0.0","0.0","0.0","0.0","2.89203056567689E-07"
"2","25299.5","","","","6304.439824510878","5985.242731975161","1.895","","","","0.0","0.0","0.0","-1.5594679246277417","12.811112843183582","0.0","0.0","0.0","0.0",""
"2","25299.6","","","","6304.282624895513","5986.53413526697","1.895","","","","0.0","0.0","0.0","-1.566522918233036","12.869069994951829","0.0","0.0","0.0","0.0",""
"3","25299.645166110706","25299.6450568866","2923","6510070","6303.220553308794","6026.559715254025","1.895","0.0","0.0","0.0","","","","-1.5904896674899587","14.877752046936223","0.0","0.0","0.0","0.0","4.62542543146552E-07"
"2","25299.7","","","","6304.125088857209","5987.828302291317","1.895","","","","0.0","0.0","0.0","-1.5698754343591497","12.896611095170666","0.0","0.0","0.0","0.0",""
"2","25299.8","","","","6303.9686110403","5989.113775970008","1.895","","","","0.0","0.0","0.0","-1.5593300646126749","12.809980315728769","0.0","0.0","0.0","0.0",""
"3","25299.815552179403","25299.815446905184","2857","6523075","6232.875572248949","6019.033835094061","1.895","0.0","0.0","0.0","","","","-15.255897372921656","5.411410490996905","0.0","0.0","0.0","0.0","4.20504163260447E-08"
"2","25299.899999999998","","","","6303.81163820111","5990.403316283351","1.895","","","","0.0","0.0","0.0","-1.564263052179984","12.850505073808556","0.0","0.0","0.0","0.0",""
"3","25299.904453199095","25299.90434478898","2773","6529828","5560.0","5820.0","1.895","0.0","0.0","0.0","","","","5.3593748731395449","-1.5358708266308153","0.0","0.0","0.0","0.0","0.00000102272622211353"
"3","25299.916407679066","25299.9162972942","3091","6530184","6320.688643349865","5920.464014373658","1.895","0.0","0.0","0.0","","","","-2.7926452180505838","11.958250036264485","0.0","0.0","0.0","0.0","9.15954574332732E-09"
"3","25299.974413675056","25299.974302685678","2863","6534550","6299.118161773696","6075.713988914404","1.895","0.0","0.0","0.0","","","","-2.4183758109902886","14.042096868152078","0.0","0.0","0.0","0.0","3.21972551912374E-08"
"2","25300.0","","","","6303.6551287385659","5991.689049932649","1.895","","","","0.0","0.0","0.0","-1.559645419168681","12.812570970380117","0.0","0.0","0.0","0.0",""
