﻿"type","rcvTime","sendTime","sender","messageID","pos__001","pos__002","pos__003","pos_noise__001","pos_noise__002","pos_noise__003","noise__001","noise__002","noise__003","spd__001","spd__002","spd__003","spd_noise__001","spd_noise__002","spd_noise__003","RSSI"
"2","25200.0","","","","5506.1415298905699","5398.980976724054","1.895","","","","0.0","0.0","0.0","3.0018425553643657","-13.51274527148134","0.0","0.0","0.0","0.0",""
"2","25200.1","","","","5506.44221990398","5397.627425536089","1.895","","","","0.0","0.0","0.0","3.006929570173597","-13.535644385622608","0.0","0.0","0.0","0.0",""
"3","25200.166160702185","25200.166047821054","715","9135","5583.883369918507","5201.879153675014","1.895","0.0","0.0","0.0","","","","5.648539289383862","-3.202252286598768","0.0","0.0","0.0","0.0","2.59858009225947E-09"
"2","25200.2","","","","5506.743282826841","5396.2721957023209","1.895","","","","0.0","0.0","0.0","3.0106587011783656","-13.552431007981902","0.0","0.0","0.0","0.0",""
"3","25200.246879250233","25200.246772408253","1081","13343","5560.0","5820.0","1.895","0.0","0.0","0.0","","","","9.954233811525987","-6.136075381438608","0.0","0.0","0.0","0.0","2.03475113187231E-08"
"2","25200.3","","","","5507.043802239617","5394.919412470327","1.895","","","","0.0","0.0","0.0","3.0052235471271819","-13.52796475072478","0.0","0.0","0.0","0.0",""
"3","25200.304307259994","25200.304198691854","727","16603","5498.683210474643","5415.677564922385","1.895","0.0","0.0","0.0","","","","9.168264083350627","-10.359858039138118","0.0","0.0","0.0","0.0","3.33495275647724E-07"
"2","25200.399999999998","","","","5507.344436626719","5393.56611168329","1.895","","","","0.0","0.0","0.0","3.0063733016285827","-13.533140351834433","0.0","0.0","0.0","0.0",""
"2","25200.5","","","","5507.644474053265","5392.215498104441","1.895","","","","0.0","0.0","0.0","3.0004036376508846","-13.506268006869125","0.0","0.0","0.0","0.0",""
"3","25200.575858390854","25200.575751157245","355","34606","5560.0","5820.0","1.895","0.0","0.0","0.0","","","","-1.5352883660547104","-13.699628049934919","0.0","0.0","0.0","0.0","4.22772796886133E-08"
"2","25200.6","","","","5507.9440988149049","5390.86674212994","1.895","","","","0.0","0.0","0.0","2.9962769481772297","-13.487691781564293","0.0","0.0","0.0","0.0",""
"2","25200.7","","","","5508.009800390102","5389.493419289266","1.895","","","","0.0","0.0","0.0","2.372135114934121","-13.689961886264504","0.0","0.0","0.0","0.0",""
"2","25200.8","","","","5507.906775350941","5388.113044741125","1.895","","","","0.0","0.0","0.0","1.246486963555295","-13.786037388806188","0.0","0.0","0.0","0.0",""
"3","25200.801943484956","25200.801836150233","397","50675","5560.0","5820.0","1.895","0.0","0.0","0.0","","","","-11.814467986748504","5.860892056184385","0.0","0.0","0.0","0.0","9.6610177054843E-09"
"2","25200.899999999998","","","","5507.804423742491","5386.741693112286","1.895","","","","0.0","0.0","0.0","0.12462656291143398","-13.751228488943479","0.0","0.0","0.0","0.0",""
"2","25201.0","","","","5507.700813850666","5385.353482452295","1.895","","","","0.0","0.0","0.0","-1.0042690408481816","-13.884582185920288","0.0","0.0","0.0","0.0",""
"2","25201.1","","","","5507.597640392793","5383.971119325328","1.895","","","","0.0","0.0","0.0","-1.0317446789005145","-13.823766596188023","0.0","0.0","0.0","0.0",""
"3","25201.166158860142","25201.166047821054","715","74004","5589.193716327707","5196.561373259509","1.895","0.0","0.0","0.0","","","","5.2574125569272589","-6.749194493414867","0.0","0.0","0.0","0.0","1.00248539999069E-08"
"2","25201.2","","","","5507.494414214241","5382.588049823631","1.895","","","","0.0","0.0","0.0","-1.0322718908568803","-13.830830412634633","0.0","0.0","0.0","0.0",""
"2","25201.3","","","","5507.391438095188","5381.208330728504","1.895","","","","0.0","0.0","0.0","-1.0297712713864238","-13.797326018948484","0.0","0.0","0.0","0.0",""
"3","25201.304310047755","25201.304198691854","727","81608","5505.126650273519","5403.549440756892","1.895","0.0","0.0","0.0","","","","5.9065969425403559","-12.52888431678142","0.0","0.0","0.0","0.0","1.03197614558262E-07"
"2","25201.399999999998","","","","5507.28848834397","5379.828964921166","1.895","","","","0.0","0.0","0.0","-1.0295075904533385","-13.793793106480442","0.0","0.0","0.0","0.0",""
"2","25201.5","","","","5507.185168990212","5378.444647017306","1.895","","","","0.0","0.0","0.0","-1.033203652029601","-13.843314556472246","0.0","0.0","0.0","0.0",""
"3","25201.57586118021","25201.575751157245","355","99304","5560.0","5820.0","1.895","0.0","0.0","0.0","","","","-3.383212449722272","-13.461517006281975","0.0","0.0","0.0","0.0","0.0000010118011325339835"
"2","25201.6","","","","5507.082179680554","5377.064751188673","1.895","","","","0.0","0.0","0.0","-1.0299031787330236","-13.799093371318899","0.0","0.0","0.0","0.0",""
"2","25201.7","","","","5506.979071232491","5375.683259091577","1.895","","","","0.0","0.0","0.0","-1.031094574436702","-13.815056212195062","0.0","0.0","0.0","0.0",""
"2","25201.8","","","","5506.875748333631","5374.298893688884","1.895","","","","0.0","0.0","0.0","-1.033239103399493","-13.84378954946734","0.0","0.0","0.0","0.0",""
"2","25201.899999999998","","","","5506.733140365717","5372.923760310581","1.895","","","","0.0","0.0","0.0","-1.141302289947244","-13.806690087738359","0.0","0.0","0.0","0.0",""
"2","25202.0","","","","5506.395709364334","5371.581150814111","1.895","","","","0.0","0.0","0.0","-1.7945044190337974","-13.726962527016776","0.0","0.0","0.0","0.0",""
"2","25202.1","","","","5506.058541228132","5370.239587236029","1.895","","","","0.0","0.0","0.0","-2.443943220428554","-13.61537390450465","0.0","0.0","0.0","0.0",""
"3","25202.166159225","25202.166047821054","715","138641","5592.593514602326","5186.17049276139","1.895","0.0","0.0","0.0","","","","4.490114446928796","-9.636147063615312","0.0","0.0","0.0","0.0","1.77395592352375E-08"
"2","25202.2","","","","5505.719578527324","5368.890883236735","1.895","","","","0.0","0.0","0.0","-3.1080462808801636","-13.55483875747046","0.0","0.0","0.0","0.0",""
"2","25202.3","","","","5505.381146105333","5367.544289172122","1.895","","","","0.0","0.0","0.0","-3.384357350779086","-13.466072471026943","0.0","0.0","0.0","0.0",""
"3","25202.30431242921","25202.304198691854","727","146003","5508.052418781342","5390.0644391406399","1.895","0.0","0.0","0.0","","","","2.855618268355304","-13.474627668953909","0.0","0.0","0.0","0.0","1.47192549498613E-07"
"2","25202.399999999998","","","","5505.042066466274","5366.195119885388","1.895","","","","0.0","0.0","0.0","-3.390829584804645","-13.491824944353504","0.0","0.0","0.0","0.0",""
"2","25202.5","","","","5504.703287433383","5364.847146685236","1.895","","","","0.0","0.0","0.0","-3.3878234937106215","-13.47986396142622","0.0","0.0","0.0","0.0",""
"3","25202.575863563103","25202.575751157245","355","163576","5560.0","5820.0","1.895","0.0","0.0","0.0","","","","-3.399601826278896","-13.390237253055219","0.0","0.0","0.0","0.0","3.59751148100496E-07"
"2","25202.6","","","","5504.367782022853","5363.512198952375","1.895","","","","0.0","0.0","0.0","-3.355086949618037","-13.349608013395136","0.0","0.0","0.0","0.0",""
"2","25202.7","","","","5504.02963382017","5362.166735772424","1.895","","","","0.0","0.0","0.0","-3.381515129865782","-13.454763513708223","0.0","0.0","0.0","0.0",""
"2","25202.8","","","","5503.691619422725","5360.821804992228","1.895","","","","0.0","0.0","0.0","-3.3801770643882098","-13.449439464031915","0.0","0.0","0.0","0.0",""
"3","25202.801948396096","25202.801836150233","397","179964","5560.0","5820.0","1.895","0.0","0.0","0.0","","","","-11.832186532169642","5.569548592800347","0.0","0.0","0.0","0.0","3.68878714757959E-09"
"2","25202.899999999998","","","","5503.3556677351339","5359.485081560576","1.895","","","","0.0","0.0","0.0","-3.35954976392473","-13.367365175139544","0.0","0.0","0.0","0.0",""
"2","25203.0","","","","5503.01719485754","5358.138326526536","1.895","","","","0.0","0.0","0.0","-3.3847619107574329","-13.467682181053729","0.0","0.0","0.0","0.0",""
"2","25203.1","","","","5502.679843269111","5356.796033007516","1.895","","","","0.0","0.0","0.0","-3.3735489093424158","-13.423066594105717","0.0","0.0","0.0","0.0",""
"2","25203.2","","","","5502.341233400056","5355.448732896003","1.895","","","","0.0","0.0","0.0","-3.3861318387853656","-13.473133009148317","0.0","0.0","0.0","0.0",""
"2","25203.3","","","","5502.004937519056","5354.110639947806","1.895","","","","0.0","0.0","0.0","-3.3629917317050657","-13.381060474653575","0.0","0.0","0.0","0.0",""
"3","25203.30430671472","25203.304198691854","727","211922","5507.0260675872709","5376.312936813816","1.895","0.0","0.0","0.0","","","","-1.023805599375854","-13.717395335408208","0.0","0.0","0.0","0.0","5.17576534904177E-07"
"2","25203.399999999998","","","","5501.668065294142","5352.770253775788","1.895","","","","0.0","0.0","0.0","-3.3687552272553766","-13.403992937360317","0.0","0.0","0.0","0.0",""
"2","25203.5","","","","5501.329773039951","5351.42421742703","1.895","","","","0.0","0.0","0.0","-3.382955659057557","-13.460495257881944","0.0","0.0","0.0","0.0",""
"3","25203.575857848435","25203.575751157245","355","229007","5560.0","5820.0","1.895","0.0","0.0","0.0","","","","-5.68744710191877","-12.666246927460833","0.0","0.0","0.0","0.0","6.79787978029646E-07"
"2","25203.6","","","","5500.992684715179","5350.082971411903","1.895","","","","0.0","0.0","0.0","-3.370916246991407","-13.412591452632788","0.0","0.0","0.0","0.0",""
"2","25203.7","","","","5500.655192487678","5348.740118301871","1.895","","","","0.0","0.0","0.0","-3.374955313841866","-13.428662558996607","0.0","0.0","0.0","0.0",""
"3","25203.788655952216","25203.788545514457","307","244271","5154.151444905617","5343.686584819943","1.895","0.0","0.0","0.0","","","","3.0885412812592887","-2.2327404128790295","0.0","0.0","0.0","0.0","9.88279515399631E-09"
"2","25203.8","","","","5500.316591470989","5347.39285341318","1.895","","","","0.0","0.0","0.0","-3.386043314249645","-13.47278077748661","0.0","0.0","0.0","0.0",""
"3","25203.801943663304","25203.801836150233","397","245735","5560.0","5820.0","1.895","0.0","0.0","0.0","","","","-11.87069243347786","5.587673770920436","0.0","0.0","0.0","0.0","1.2610161442456E-08"
"2","25203.899999999998","","","","5499.972557301984","5346.04594554098","1.895","","","","0.0","0.0","0.0","-3.400993324631089","-13.471210529591124","0.0","0.0","0.0","0.0",""
"2","25204.0","","","","5499.6227953520979","5344.697587879099","1.895","","","","0.0","0.0","0.0","-3.43449684128026","-13.48395767535497","0.0","0.0","0.0","0.0",""
"2","25204.1","","","","5499.236233123546","5343.363367758568","1.895","","","","0.0","0.0","0.0","-3.5595327780252248","-13.416266085161818","0.0","0.0","0.0","0.0",""
"2","25204.2","","","","5498.799960679622","5342.046187975061","1.895","","","","0.0","0.0","0.0","-3.828580165487012","-13.326898055546409","0.0","0.0","0.0","0.0",""
"2","25204.3","","","","5498.280012914589","5340.7537463876919","1.895","","","","0.0","0.0","0.0","-4.321373210038034","-13.227753125889967","0.0","0.0","0.0","0.0",""
"3","25204.30431510464","25204.304198691854","727","276364","5504.200660617031","5362.847236973185","1.895","0.0","0.0","0.0","","","","-3.3563314092978144","-13.35455961350438","0.0","0.0","0.0","0.0","5.62422967841676E-08"
"2","25204.399999999998","","","","5497.72606716347","5339.490293375277","1.895","","","","0.0","0.0","0.0","-4.8511061972503459","-12.899711318201013","0.0","0.0","0.0","0.0",""
"2","25204.5","","","","5497.161838585064","5338.22581682903","1.895","","","","0.0","0.0","0.0","-5.284901625934668","-12.781748590818518","0.0","0.0","0.0","0.0",""
"3","25204.575866238338","25204.575751157245","355","293307","5560.0","5820.0","1.895","0.0","0.0","0.0","","","","-6.072759870594659","-12.516324457235547","0.0","0.0","0.0","0.0","5.99746066144726E-07"
"2","25204.6","","","","5496.5934723113809","5336.958747514718","1.895","","","","0.0","0.0","0.0","-5.561862756335208","-12.722764946567864","0.0","0.0","0.0","0.0",""
"3","25204.60736040581","25204.607249377295","559","295064","5560.0","5820.0","1.895","0.0","0.0","0.0","","","","-15.810838610391631","-7.584278372012231","0.0","0.0","0.0","0.0","2.31054069038245E-09"
"2","25204.7","","","","5496.02747044064","5335.698231271185","1.895","","","","0.0","0.0","0.0","-5.645899744001223","-12.612495007617524","0.0","0.0","0.0","0.0",""
"3","25204.788660592512","25204.788545514457","307","308211","5156.0607709278","5339.147587146591","1.895","0.0","0.0","0.0","","","","2.3128923457820984","-5.721072815537811","0.0","0.0","0.0","0.0","2.62527770308233E-09"
"2","25204.8","","","","5495.459393748033","5334.433094289098","1.895","","","","0.0","0.0","0.0","-5.67481396105317","-12.65504744620556","0.0","0.0","0.0","0.0",""
"3","25204.801948189877","25204.801836150233","397","309639","5560.0","5820.0","1.895","0.0","0.0","0.0","","","","-11.894973726686084","5.599103259633409","0.0","0.0","0.0","0.0","3.80574068130124E-08"
"2","25204.899999999998","","","","5494.894326027683","5333.174658448126","1.895","","","","0.0","0.0","0.0","-5.651051322975548","-12.585191593679732","0.0","0.0","0.0","0.0",""
"2","25205.0","","","","5494.328130442586","5331.913710792428","1.895","","","","0.0","0.0","0.0","-5.6623307171808829","-12.610311403960623","0.0","0.0","0.0","0.0",""
"2","25205.1","","","","5493.764295219817","5330.658019789062","1.895","","","","0.0","0.0","0.0","-5.638725531163393","-12.557741400320295","0.0","0.0","0.0","0.0",""
"2","25205.2","","","","5493.197001231488","5329.394625930996","1.895","","","","0.0","0.0","0.0","-5.673315476731426","-12.634775047213353","0.0","0.0","0.0","0.0",""
"2","25205.3","","","","5492.630895683792","5328.133878793374","1.895","","","","0.0","0.0","0.0","-5.661430283559953","-12.608306090440168","0.0","0.0","0.0","0.0",""
"3","25205.30431434202","25205.304198691854","727","340811","5500.832383777259","5349.445147499271","1.895","0.0","0.0","0.0","","","","-3.36268937516358","-13.379857423470279","0.0","0.0","0.0","0.0","1.99583756333201E-07"
"2","25205.399999999998","","","","5492.059439207193","5326.861214852734","1.895","","","","0.0","0.0","0.0","-5.714943115335701","-12.727482010487466","0.0","0.0","0.0","0.0",""
"2","25205.5","","","","5491.492791685709","5325.5992607106859","1.895","","","","0.0","0.0","0.0","-5.66685038026561","-12.620376933828132","0.0","0.0","0.0","0.0",""
"3","25205.575865476174","25205.575751157245","355","357591","5560.0","5820.0","1.895","0.0","0.0","0.0","","","","-6.036496037214349","-12.441582508875474","0.0","0.0","0.0","0.0","4.6310672134281E-07"
"2","25205.6","","","","5490.928127262709","5324.341723034343","1.895","","","","0.0","0.0","0.0","-5.647018082460691","-12.576209352726354","0.0","0.0","0.0","0.0",""
"3","25205.607363013758","25205.607249377295","559","359294","5560.0","5820.0","1.895","0.0","0.0","0.0","","","","-15.806190205795348","-7.582048585514961","0.0","0.0","0.0","0.0","1.53011250790231E-09"
"2","25205.7","","","","5490.32571512152","5323.088806632545","1.895","","","","0.0","0.0","0.0","-5.787318392692696","-12.642012029342237","0.0","0.0","0.0","0.0",""
"3","25205.78866323228","25205.788545514457","307","372392","5153.365176152279","5332.536336071109","1.895","0.0","0.0","0.0","","","","-3.5986543032796778","-7.166181059333688","0.0","0.0","0.0","0.0","5.81365020555676E-09"
"2","25205.8","","","","5489.722196708153","5321.844918772894","1.895","","","","0.0","0.0","0.0","-5.858222848728702","-12.52420397975085","0.0","0.0","0.0","0.0",""
"3","25205.80195072559","25205.801836150233","397","373812","5560.0","5820.0","1.895","0.0","0.0","0.0","","","","-11.86943494242135","5.5870818551710779","0.0","0.0","0.0","0.0","2.89670587874952E-09"
"2","25205.899999999998","","","","5489.119396999327","5320.6025122066589","1.895","","","","0.0","0.0","0.0","-5.953619230163478","-12.460891874032385","0.0","0.0","0.0","0.0",""
"3","25205.92807184449","25205.92795836297","1237","384200","5263.40852989128","5536.893799176503","1.895","0.0","0.0","0.0","","","","-13.662195828201991","-6.654347868556647","0.0","0.0","0.0","0.0","4.26824703946123E-09"
"2","25206.0","","","","5488.5176135698679","5319.3622002535089","1.895","","","","0.0","0.0","0.0","-6.018232722778479","-12.403940716016438","0.0","0.0","0.0","0.0",""
"2","25206.1","","","","5487.910965557973","5318.111862102486","1.895","","","","0.0","0.0","0.0","-6.066881767856056","-12.50420933286766","0.0","0.0","0.0","0.0",""
"2","25206.2","","","","5487.306326253966","5316.865664019602","1.895","","","","0.0","0.0","0.0","-6.046793359063783","-12.462805910437015","0.0","0.0","0.0","0.0",""
"2","25206.3","","","","5486.703572431655","5315.623352028241","1.895","","","","0.0","0.0","0.0","-6.027937293773312","-12.42394242230451","0.0","0.0","0.0","0.0",""
"3","25206.30430387835","25206.304198691854","727","404905","5496.3452221999209","5336.405881324461","1.895","0.0","0.0","0.0","","","","-5.382615712812179","-12.714627307169494","0.0","0.0","0.0","0.0","8.32832558614069E-08"
"2","25206.399999999998","","","","5486.099331515437","5314.377975046627","1.895","","","","0.0","0.0","0.0","-6.042809217397898","-12.45459435409889","0.0","0.0","0.0","0.0",""
"2","25206.5","","","","5485.495111723934","5313.132641604322","1.895","","","","0.0","0.0","0.0","-6.042597956277379","-12.454158932189495","0.0","0.0","0.0","0.0",""
"3","25206.57586801265","25206.575751157245","355","421927","5560.0","5820.0","1.895","0.0","0.0","0.0","","","","-6.037685094035133","-12.444033226717801","0.0","0.0","0.0","0.0","5.40296301150574E-08"
"2","25206.6","","","","5484.892556962962","5311.89073989039","1.895","","","","0.0","0.0","0.0","-6.025946548583409","-12.419839376370847","0.0","0.0","0.0","0.0",""
"3","25206.607363641706","25206.607249377295","559","423648","5560.0","5820.0","1.895","0.0","0.0","0.0","","","","-15.744125760035793","-7.6033564226948029","0.0","0.0","0.0","0.0","3.52107898400011E-09"
"3","25206.671908239732","25206.67179430113","625","428546","5136.744427393248","5301.204009333563","1.895","0.0","0.0","0.0","","","","-5.655353875693487","-12.140026429271869","0.0","0.0","0.0","0.0","1.97216694181753E-09"
"2","25206.7","","","","5484.2883423258049","5310.645417071503","1.895","","","","0.0","0.0","0.0","-6.042546409405611","-12.454052690977008","0.0","0.0","0.0","0.0",""
"2","25206.8","","","","5483.682953965178","5309.397675137738","1.895","","","","0.0","0.0","0.0","-6.054284421187204","-12.478245441402179","0.0","0.0","0.0","0.0",""
"3","25206.801948693486","25206.801836150233","397","437928","5560.0","5820.0","1.895","0.0","0.0","0.0","","","","-5.9327075784335119","-11.722421692156408","0.0","0.0","0.0","0.0","4.00512785472197E-08"
"2","25206.899999999998","","","","5483.078706022893","5308.152283674972","1.895","","","","0.0","0.0","0.0","-6.042879482732834","-12.45473917520095","0.0","0.0","0.0","0.0",""
"3","25206.92807709731","25206.92795836297","1237","448031","5248.810248252961","5529.783518696993","1.895","0.0","0.0","0.0","","","","-15.018541856414688","-7.314973613884146","0.0","0.0","0.0","0.0","1.33930869554281E-09"
"2","25207.0","","","","5482.477396553834","5306.912948582803","1.895","","","","0.0","0.0","0.0","-6.013492804963808","-12.394171459445579","0.0","0.0","0.0","0.0",""
"2","25207.1","","","","5481.871178869949","5305.663497363768","1.895","","","","0.0","0.0","0.0","-6.062578202856705","-12.495339425779136","0.0","0.0","0.0","0.0",""
"2","25207.2","","","","5481.269313593381","5304.423016718791","1.895","","","","0.0","0.0","0.0","-6.019051248042143","-12.405627745968241","0.0","0.0","0.0","0.0",""
"2","25207.3","","","","5480.663711190154","5303.174833630311","1.895","","","","0.0","0.0","0.0","-6.056424988916851","-12.482657280631438","0.0","0.0","0.0","0.0",""
"3","25207.30430415279","25207.304198691854","727","469187","5490.672304595053","5323.803148446916","1.895","0.0","0.0","0.0","","","","-5.680166902587856","-12.58855817304127","0.0","0.0","0.0","0.0","9.43408863914616E-08"
"2","25207.399999999998","","","","5480.058630345346","5301.927725505197","1.895","","","","0.0","0.0","0.0","-6.05120905941179","-12.471906935251879","0.0","0.0","0.0","0.0",""
"2","25207.5","","","","5479.457652498311","5300.689073906026","1.895","","","","0.0","0.0","0.0","-6.010176365156468","-12.387336076927449","0.0","0.0","0.0","0.0",""
"3","25207.575868287142","25207.575751157245","355","486602","5560.0","5820.0","1.895","0.0","0.0","0.0","","","","-6.047924641814517","-12.465137552442079","0.0","0.0","0.0","0.0","3.19928055074955E-07"
"2","25207.6","","","","5478.8542092782549","5299.445341024323","1.895","","","","0.0","0.0","0.0","-6.034831727655943","-12.438152266468709","0.0","0.0","0.0","0.0",""
"2","25207.7","","","","5478.247492042196","5298.194860198121","1.895","","","","0.0","0.0","0.0","-6.067574055336554","-12.505636179135229","0.0","0.0","0.0","0.0",""
"2","25207.8","","","","5477.656349950944","5296.976480684999","1.895","","","","0.0","0.0","0.0","-5.911812295292753","-12.184601794723172","0.0","0.0","0.0","0.0",""
"3","25207.801952736212","25207.801836150233","397","504072","5560.0","5820.0","1.895","0.0","0.0","0.0","","","","-5.903895111537059","-11.665491212693825","0.0","0.0","0.0","0.0","3.90703453946171E-08"
"2","25207.899999999998","","","","5477.078826623751","5295.786170266212","1.895","","","","0.0","0.0","0.0","-5.775615637996577","-11.903892267413428","0.0","0.0","0.0","0.0",""
"3","25207.928067499153","25207.92795836297","1237","514597","5233.753618292986","5522.500259688952","1.895","0.0","0.0","0.0","","","","-15.10748797271113","-7.246889118934562","0.0","0.0","0.0","0.0","6.78616054672739E-09"
"2","25208.0","","","","5476.5136136138039","5294.621232153934","1.895","","","","0.0","0.0","0.0","-5.6525043151570009","-11.65015240385467","0.0","0.0","0.0","0.0",""
"2","25208.1","","","","5475.963215235471","5293.486827891171","1.895","","","","0.0","0.0","0.0","-5.504348190536492","-11.344793692886194","0.0","0.0","0.0","0.0",""
"2","25208.2","","","","5475.430823142011","5292.38953566783","1.895","","","","0.0","0.0","0.0","-5.324273420235352","-10.973648727557237","0.0","0.0","0.0","0.0",""
"3","25208.203727427357","25208.203620928107","1135","530338","5046.981624030277","5404.6480062147279","1.895","0.0","0.0","0.0","","","","-11.792259536008551","-3.5368074943409266","0.0","0.0","0.0","0.0","2.14341218119843E-09"
"2","25208.3","","","","5474.909748726027","5291.315569860554","1.895","","","","0.0","0.0","0.0","-5.211089152272081","-10.740369122983559","0.0","0.0","0.0","0.0",""
"3","25208.30430755424","25208.304198691854","727","536949","5484.733607820799","5311.563136119139","1.895","0.0","0.0","0.0","","","","-5.640715134763169","-11.625854191834114","0.0","0.0","0.0","0.0","6.88103512975511E-07"
"2","25208.399999999998","","","","5474.403496186594","5290.272152835038","1.895","","","","0.0","0.0","0.0","-5.062860573512997","-10.434861079671231","0.0","0.0","0.0","0.0",""
"2","25208.5","","","","5473.913495840663","5289.262232560811","1.895","","","","0.0","0.0","0.0","-4.900327878253364","-10.099871389293013","0.0","0.0","0.0","0.0",""
"3","25208.57585869459","25208.575751157245","355","554717","5560.0","5820.0","1.895","0.0","0.0","0.0","","","","-6.0763059471530449","-12.52363313495387","0.0","0.0","0.0","0.0","0.0000011377519047312683"
"2","25208.6","","","","5473.436012054397","5288.278109671165","1.895","","","","0.0","0.0","0.0","-4.775153994649405","-9.841880463561543","0.0","0.0","0.0","0.0",""
"2","25208.7","","","","5472.974922732271","5287.327776761175","1.895","","","","0.0","0.0","0.0","-4.611198498820182","-9.503958295371336","0.0","0.0","0.0","0.0",""
"2","25208.8","","","","5472.527329915134","5286.405260962198","1.895","","","","0.0","0.0","0.0","-4.476224513182543","-9.22576876812326","0.0","0.0","0.0","0.0",""
"3","25208.80194315182","25208.801836150233","397","572675","5560.0","5820.0","1.895","0.0","0.0","0.0","","","","-5.952481375932194","-11.76149268793201","0.0","0.0","0.0","0.0","1.63713147060023E-08"
"2","25208.899999999998","","","","5472.096677771662","5285.517660913661","1.895","","","","0.0","0.0","0.0","-4.306806560462309","-8.876588146734133","0.0","0.0","0.0","0.0",""
"3","25208.92806528436","25208.92795836297","1237","583307","5218.666739428385","5515.263256523366","1.895","0.0","0.0","0.0","","","","-15.108362455511497","-7.247308598327968","0.0","0.0","0.0","0.0","2.94189019977112E-09"
"2","25209.0","","","","5471.677228329979","5284.6531503093569","1.895","","","","0.0","0.0","0.0","-4.194772125511217","-8.6456784173706","0.0","0.0","0.0","0.0",""
"2","25209.1","","","","5471.269684479268","5283.813177846301","1.895","","","","0.0","0.0","0.0","-4.075708333333815","-8.400280758687093","0.0","0.0","0.0","0.0",""
"2","25209.2","","","","5470.879708408241","5283.009413637023","1.895","","","","0.0","0.0","0.0","-3.9000189052410385","-8.038174248203408","0.0","0.0","0.0","0.0",""
"3","25209.203730894737","25209.203620928107","1135","599378","5036.51504023339","5405.129629637601","1.895","0.0","0.0","0.0","","","","-10.327131277189045","2.0781769884324059","0.0","0.0","0.0","0.0","4.9910023603732E-09"
"2","25209.3","","","","5470.502409649672","5282.231778133528","1.895","","","","0.0","0.0","0.0","-3.7732373872840578","-7.776869891088203","0.0","0.0","0.0","0.0",""
"3","25209.30430929495","25209.304198691854","727","606294","5479.688282837473","5301.164416948753","1.895","0.0","0.0","0.0","","","","-4.549080817057517","-9.375930005757548","0.0","0.0","0.0","0.0","4.21893098860851E-07"
"2","25209.399999999998","","","","5470.136470409072","5281.477555281878","1.895","","","","0.0","0.0","0.0","-3.659634686688682","-7.5427278716160599","0.0","0.0","0.0","0.0",""
"2","25209.5","","","","5469.783413308008","5280.7498832969799","1.895","","","","0.0","0.0","0.0","-3.530804762338532","-7.277201625339625","0.0","0.0","0.0","0.0",""
"3","25209.57586044705","25209.575751157245","355","624391","5560.0","5820.0","1.895","0.0","0.0","0.0","","","","12.584325092912474","-5.921187880007862","0.0","0.0","0.0","0.0","3.79939082029056E-07"
"2","25209.6","","","","5469.44369572871","5280.049704871202","1.895","","","","0.0","0.0","0.0","-3.397400712856138","-7.002247831214463","0.0","0.0","0.0","0.0",""
"2","25209.7","","","","5469.119432729121","5279.381379266566","1.895","","","","0.0","0.0","0.0","-3.2428446836117379","-6.683698530720588","0.0","0.0","0.0","0.0",""
"3","25209.73696968847","25209.736853162292","919","637144","4944.565531572609","5432.681008962066","1.895","0.0","0.0","0.0","","","","18.127440277528547","0.8608689412693074","0.0","0.0","0.0","0.0","2.16327450915036E-09"
"2","25209.8","","","","5468.804749464917","5278.732798074493","1.895","","","","0.0","0.0","0.0","-3.147040987223377","-6.4862413327178","0.0","0.0","0.0","0.0",""
"3","25209.801945175408","25209.801836150233","397","642896","5560.0","5820.0","1.895","0.0","0.0","0.0","","","","-5.905532678600794","-11.671289753326251","0.0","0.0","0.0","0.0","5.87428010405592E-09"
"2","25209.899999999998","","","","5468.504215804587","5278.113380069638","1.895","","","","0.0","0.0","0.0","-3.005535580327273","-6.194590152214324","0.0","0.0","0.0","0.0",""
"2","25210.0","","","","5468.214524055897","5277.5163078987529","1.895","","","","0.0","0.0","0.0","-2.897109285738032","-5.971117017808619","0.0","0.0","0.0","0.0",""
"2","25210.1","","","","5467.9397275483229","5276.949935718425","1.895","","","","0.0","0.0","0.0","-2.7481470127388576","-5.664096786403404","0.0","0.0","0.0","0.0",""
"2","25210.2","","","","5467.676303094592","5276.407002027136","1.895","","","","0.0","0.0","0.0","-2.634418945102477","-5.429696377896473","0.0","0.0","0.0","0.0",""
"2","25210.3","","","","5467.41978353263","5275.878299734347","1.895","","","","0.0","0.0","0.0","-2.56536545583306","-5.287372970577328","0.0","0.0","0.0","0.0",""
"3","25210.30431593112","25210.304198691854","727","676767","5475.669786811376","5292.882054206848","1.895","0.0","0.0","0.0","","","","-3.560289646888008","-7.3379717511925739","0.0","0.0","0.0","0.0","0.0000012559901208279854"
"2","25210.399999999998","","","","5467.179468149661","5275.382995232044","1.895","","","","0.0","0.0","0.0","-2.4033129374653225","-4.953372953746196","0.0","0.0","0.0","0.0",""
"2","25210.5","","","","5466.950101564187","5274.910256861909","1.895","","","","0.0","0.0","0.0","-2.2938177135448218","-4.72769669150121","0.0","0.0","0.0","0.0",""
"3","25210.575867091222","25210.575751157245","355","695003","5560.0","5820.0","1.895","0.0","0.0","0.0","","","","12.492627968196106","-5.878042467004511","0.0","0.0","0.0","0.0","1.67350941364252E-07"
"2","25210.6","","","","5466.7288440383","5274.454231752796","1.895","","","","0.0","0.0","0.0","-2.212721748835434","-4.560553015790246","0.0","0.0","0.0","0.0",""
"2","25210.7","","","","5466.5184586475929","5274.020614770193","1.895","","","","0.0","0.0","0.0","-2.1039931988268196","-4.336456914730427","0.0","0.0","0.0","0.0",""
"3","25210.794617614523","25210.794506453676","877","713478","5266.9580836534319","5538.622654904274","1.895","0.0","0.0","0.0","","","","-14.27402730038179","-6.952348241555986","0.0","0.0","0.0","0.0","1.36922690416112E-09"
"2","25210.8","","","","5466.321463186862","5273.614595241077","1.895","","","","0.0","0.0","0.0","-1.9700850338556169","-4.060464108168324","0.0","0.0","0.0","0.0",""
"3","25210.80195114697","25210.801836150233","397","714033","5560.0","5820.0","1.895","0.0","0.0","0.0","","","","-5.115357521448351","-10.11329665667225","0.0","0.0","0.0","0.0","9.59093628196075E-09"
"2","25210.899999999998","","","","5466.129599936624","5273.2191535074039","1.895","","","","0.0","0.0","0.0","-1.918759531020577","-3.9546791504072558","0.0","0.0","0.0","0.0",""
"3","25210.928066024768","25210.92795836297","1237","724006","5187.091547016363","5504.0035198493519","1.895","0.0","0.0","0.0","","","","-15.169617350040675","-7.03512754580694","0.0","0.0","0.0","0.0","2.15115495445037E-09"
"2","25211.0","","","","5465.949057082301","5272.847043792662","1.895","","","","0.0","0.0","0.0","-1.8055480768664785","-3.721343513454165","0.0","0.0","0.0","0.0",""
"2","25211.1","","","","5465.77902094473","5272.496589055007","1.895","","","","0.0","0.0","0.0","-1.7004739530622617","-3.504779405270448","0.0","0.0","0.0","0.0",""
"2","25211.2","","","","5465.618813346654","5272.166391530198","1.895","","","","0.0","0.0","0.0","-1.6021820508457423","-3.3021938649412809","0.0","0.0","0.0","0.0",""
"3","25211.24688409028","25211.246772408253","1081","744285","5560.0","5820.0","1.895","0.0","0.0","0.0","","","","0.9726408029373547","-11.653207585333732","0.0","0.0","0.0","0.0","1.54365009838014E-08"
"2","25211.3","","","","5465.4667976803289","5271.853078070936","1.895","","","","0.0","0.0","0.0","-1.5202573096436003","-3.1333420308817736","0.0","0.0","0.0","0.0",""
"3","25211.30431208968","25211.304198691854","727","747986","5472.5747310539859","5286.502957569037","1.895","0.0","0.0","0.0","","","","-2.731150592029842","-5.629066137943428","0.0","0.0","0.0","0.0","2.91483084161562E-07"
"2","25211.399999999998","","","","5465.3034332402889","5271.516374104391","1.895","","","","0.0","0.0","0.0","-1.633752560561959","-3.367262590087199","0.0","0.0","0.0","0.0",""
"2","25211.5","","","","5465.128720026536","5271.156279630561","1.895","","","","0.0","0.0","0.0","-1.7472478114803177","-3.601183149292624","0.0","0.0","0.0","0.0",""
"3","25211.575863308608","25211.575751157245","355","766600","5560.0","5820.0","1.895","0.0","0.0","0.0","","","","12.548965150738097","-5.904550288443788","0.0","0.0","0.0","0.0","7.44555401642459E-08"
"2","25211.6","","","","5464.94265803907","5270.772794649446","1.895","","","","0.0","0.0","0.0","-1.8607430623983697","-3.835103708498197","0.0","0.0","0.0","0.0",""
"2","25211.7","","","","5464.7452472778909","5270.365919161049","1.895","","","","0.0","0.0","0.0","-1.9742383133170345","-4.069024267703473","0.0","0.0","0.0","0.0",""
"3","25211.73697234525","25211.736853162292","919","779807","4980.907444213348","5434.3273756685789","1.895","0.0","0.0","0.0","","","","18.23417037489424","0.7465959523575709","0.0","0.0","0.0","0.0","2.01822794512009E-09"
"3","25211.79461378241","25211.794506453676","877","785376","5252.6304471821099","5531.644195627795","1.895","0.0","0.0","0.0","","","","-14.324636927131916","-6.976998309973091","0.0","0.0","0.0","0.0","2.01778766891659E-09"
"2","25211.8","","","","5464.536487742997","5269.935653165366","1.895","","","","0.0","0.0","0.0","-2.087733564235393","-4.302944826908899","0.0","0.0","0.0","0.0",""
"3","25211.801947352335","25211.801836150233","397","785940","5560.0","5820.0","1.895","0.0","0.0","0.0","","","","-4.288697685882229","-6.9267373749595049","0.0","0.0","0.0","0.0","1.14362192336859E-07"
"2","25211.899999999998","","","","5464.316379434391","5269.481996662399","1.895","","","","0.0","0.0","0.0","-2.201228815153389","-4.536865386114499","0.0","0.0","0.0","0.0",""
"2","25212.0","","","","5464.084922352072","5269.004949652149","1.895","","","","0.0","0.0","0.0","-2.31472406607211","-4.770785945319749","0.0","0.0","0.0","0.0",""
"2","25212.1","","","","5463.842116496038","5268.504512134614","1.895","","","","0.0","0.0","0.0","-2.4282193169904686","-5.004706504525173","0.0","0.0","0.0","0.0",""
"2","25212.2","","","","5463.587961866292","5267.980684109795","1.895","","","","0.0","0.0","0.0","-2.541714567908827","-5.238627063730599","0.0","0.0","0.0","0.0",""
"3","25212.246881741947","25212.246772408253","1081","817728","5560.0","5820.0","1.895","0.0","0.0","0.0","","","","-0.8627905069850557","-11.560044683439175","0.0","0.0","0.0","0.0","1.27026713794855E-08"
"2","25212.3","","","","5463.324920256962","5267.446470714682","1.895","","","","0.0","0.0","0.0","-2.6028750392975326","-5.355237016964926","0.0","0.0","0.0","0.0",""
"3","25212.304309741903","25212.304198691854","727","821407","5469.869069999977","5280.926426906718","1.895","0.0","0.0","0.0","","","","-2.840343141571846","-5.85411857003249","0.0","0.0","0.0","0.0","5.02909092007872E-09"
"2","25212.399999999998","","","","5463.05206621326","5266.895794696509","1.895","","","","0.0","0.0","0.0","-2.6918621678210199","-5.5239719936532929","0.0","0.0","0.0","0.0",""
"2","25212.5","","","","5462.770888693543","5266.328320178426","1.895","","","","0.0","0.0","0.0","-2.7799646213432536","-5.689560855677478","0.0","0.0","0.0","0.0",""
"3","25212.57586103716","25212.575751157245","355","840176","5560.0","5820.0","1.895","0.0","0.0","0.0","","","","12.56303535420607","-5.911170613140854","0.0","0.0","0.0","0.0","7.37300384849056E-08"
"2","25212.6","","","","5462.479943232559","5265.741131930136","1.895","","","","0.0","0.0","0.0","-2.8829450536461906","-5.884078454326824","0.0","0.0","0.0","0.0",""
"3","25212.607356749082","25212.607249377295","559","842659","5560.0","5820.0","1.895","0.0","0.0","0.0","","","","-15.97682468809108","-7.109787977506115","0.0","0.0","0.0","0.0","3.01921922920983E-09"
"2","25212.7","","","","5462.180738644548","5265.137275051533","1.895","","","","0.0","0.0","0.0","-2.9715547654098777","-6.047788781258152","0.0","0.0","0.0","0.0",""
"3","25212.79462475789","25212.794506453676","877","858372","5238.329986598002","5524.695491201547","1.895","0.0","0.0","0.0","","","","-14.278843681446088","-6.896487728269787","0.0","0.0","0.0","0.0","1.35444133613225E-09"
"2","25212.8","","","","5461.874306046603","5264.518830550638","1.895","","","","0.0","0.0","0.0","-3.050437592974281","-6.1903952400162709","0.0","0.0","0.0","0.0",""
"3","25212.801945332067","25212.801836150233","397","858906","5560.0","5820.0","1.895","0.0","0.0","0.0","","","","-3.520307181395271","-4.136690554916538","0.0","0.0","0.0","0.0","1.29475602807889E-08"
"2","25212.899999999998","","","","5461.560065822557","5263.884628641882","1.895","","","","0.0","0.0","0.0","-3.135619338966938","-6.344439736267073","0.0","0.0","0.0","0.0",""
"2","25213.0","","","","5461.239121342562","5263.236896154946","1.895","","","","0.0","0.0","0.0","-3.2090644257121996","-6.476557195310157","0.0","0.0","0.0","0.0",""
"2","25213.1","","","","5460.909983328336","5262.572627417552","1.895","","","","0.0","0.0","0.0","-3.2909900572842676","-6.641900101606172","0.0","0.0","0.0","0.0",""
"2","25213.2","","","","5460.572631385122","5261.891781268853","1.895","","","","0.0","0.0","0.0","-3.3731196122478677","-6.807654567576133","0.0","0.0","0.0","0.0",""
"3","25213.203729735127","25213.203620928107","1135","887547","5021.051967806","5421.430114979781","1.895","0.0","0.0","0.0","","","","-3.403323717377873","5.95737463592647","0.0","0.0","0.0","0.0","1.90585534859254E-09"
"3","25213.246878239577","25213.246772408253","1081","890935","5560.0","5820.0","1.895","0.0","0.0","0.0","","","","-2.8412191985308299","-11.30497157006082","0.0","0.0","0.0","0.0","8.27409145870486E-09"
"2","25213.3","","","","5460.226581960265","5261.1933817993599","1.895","","","","0.0","0.0","0.0","-3.46008412067521","-6.983166971837731","0.0","0.0","0.0","0.0",""
"3","25213.304306240432","25213.304198691854","727","894612","5467.098723706772","5275.216576064013","1.895","0.0","0.0","0.0","","","","-2.3819997199283429","-4.909445126594039","0.0","0.0","0.0","0.0","0.0000011732796289093044"
"2","25213.399999999998","","","","5459.873332306326","5260.480450775092","1.895","","","","0.0","0.0","0.0","-3.532077877992932","-7.128465297183529","0.0","0.0","0.0","0.0",""
"2","25213.5","","","","5459.510285631838","5259.747747332604","1.895","","","","0.0","0.0","0.0","-3.6300364723248057","-7.326166045685105","0.0","0.0","0.0","0.0",""
"3","25213.569944337865","25213.569834214868","1321","912976","5560.0","5820.0","1.895","0.0","0.0","0.0","","","","13.653778017059004","6.076892751254792","0.0","0.0","0.0","0.0","1.49103296393624E-09"
"3","25213.57585761722","25213.575751157245","355","914004","5560.0","5820.0","1.895","0.0","0.0","0.0","","","","12.470566158626822","-6.001209994550297","0.0","0.0","0.0","0.0","1.72461679208562E-08"
"2","25213.6","","","","5459.139082943557","5258.9985833636769","1.895","","","","0.0","0.0","0.0","-3.7115869439929565","-7.490751801532283","0.0","0.0","0.0","0.0",""
"2","25213.7","","","","5458.7601245116779","5258.233766696538","1.895","","","","0.0","0.0","0.0","-3.7891351880790595","-7.647260232522418","0.0","0.0","0.0","0.0",""
"3","25213.794622617566","25213.794506453676","877","931866","5223.998529621193","5517.820855271913","1.895","0.0","0.0","0.0","","","","-14.30896946156779","-6.863848925877634","0.0","0.0","0.0","0.0","1.92178366215427E-09"
"2","25213.8","","","","5458.372004867366","5257.450460803746","1.895","","","","0.0","0.0","0.0","-3.880736454798089","-7.832130576140413","0.0","0.0","0.0","0.0",""
"3","25213.801943167393","25213.801836150233","397","932402","5560.0","5820.0","1.895","0.0","0.0","0.0","","","","-2.318910706066112","-2.7249372060981629","0.0","0.0","0.0","0.0","3.347125719048E-08"
"2","25213.899999999998","","","","5457.977442465432","5256.6541520906","1.895","","","","0.0","0.0","0.0","-3.9451563952444155","-7.962143369112391","0.0","0.0","0.0","0.0",""
"2","25214.0","","","","5457.574883164563","5255.841703977782","1.895","","","","0.0","0.0","0.0","-4.025115906903815","-8.123518237881543","0.0","0.0","0.0","0.0",""
"2","25214.1","","","","5457.163458247007","5255.011363212799","1.895","","","","0.0","0.0","0.0","-4.113761566499967","-8.30242355367711","0.0","0.0","0.0","0.0",""
"3","25214.169426626406","25214.16931268759","1147","959560","5560.0","5820.0","1.895","0.0","0.0","0.0","","","","-0.9380331515799801","-11.661058351014069","0.0","0.0","0.0","0.0","1.56516788327597E-09"
"2","25214.2","","","","5456.742633910326","5254.16205247168","1.895","","","","0.0","0.0","0.0","-4.2077446178311839","-8.492100832345886","0.0","0.0","0.0","0.0",""
"3","25214.203731364225","25214.203620928107","1135","960941","5012.780288078345","5424.962080787039","1.895","0.0","0.0","0.0","","","","-8.539015932423093","2.124542946493404","0.0","0.0","0.0","0.0","2.97020620478382E-09"
"3","25214.246887626603","25214.246772408253","1081","964240","5560.0","5820.0","1.895","0.0","0.0","0.0","","","","-2.830966973811593","-11.264178832550329","0.0","0.0","0.0","0.0","1.09215393398699E-08"
"2","25214.3","","","","5456.3101561433809","5253.291754677152","1.895","","","","0.0","0.0","0.0","-4.316294915590076","-8.706257486170161","0.0","0.0","0.0","0.0",""
"3","25214.304315628662","25214.304198691854","727","967599","5465.258962549533","5271.424717327867","1.895","0.0","0.0","0.0","","","","-1.5977728372178646","-3.2931062096522458","0.0","0.0","0.0","0.0","2.46026491913181E-07"
"2","25214.399999999998","","","","5455.865288413353","5252.412741670077","1.895","","","","0.0","0.0","0.0","-4.39108194515697","-8.820037104049672","0.0","0.0","0.0","0.0",""
"2","25214.5","","","","5455.412827502794","5251.518725317061","1.895","","","","0.0","0.0","0.0","-4.4812734550005699","-8.962976198583633","0.0","0.0","0.0","0.0",""
"3","25214.575867082727","25214.575751157245","355","986342","5560.0","5820.0","1.895","0.0","0.0","0.0","","","","12.353156405429278","-6.125249297984321","0.0","0.0","0.0","0.0","1.56283288099007E-08"
"2","25214.6","","","","5454.954409371172","5250.612938106219","1.895","","","","0.0","0.0","0.0","-4.55590985550857","-9.073151291445687","0.0","0.0","0.0","0.0",""
"2","25214.7","","","","5454.487299797078","5249.689977496484","1.895","","","","0.0","0.0","0.0","-4.6585086607318388","-9.23701237260991","0.0","0.0","0.0","0.0",""
"3","25214.794618525946","25214.794506453676","877","1003985","5209.6721802977049","5510.979853984956","1.895","0.0","0.0","0.0","","","","-14.437714860595042","-6.814967257526125","0.0","0.0","0.0","0.0","5.19069607148956E-09"
"2","25214.8","","","","5454.010728089623","5248.7483206817009","1.895","","","","0.0","0.0","0.0","-4.766147651443399","-9.417418923595875","0.0","0.0","0.0","0.0",""
"3","25214.801952043283","25214.801836150233","397","1004511","5560.0","5820.0","1.895","0.0","0.0","0.0","","","","-4.0338211295545058","-4.545109944205486","0.0","0.0","0.0","0.0","4.90427370150718E-08"
"2","25214.899999999998","","","","5453.525733596889","5247.790021307084","1.895","","","","0.0","0.0","0.0","-4.850383114109887","-9.583859558290227","0.0","0.0","0.0","0.0",""
"2","25215.0","","","","5453.031315207554","5246.813101279337","1.895","","","","0.0","0.0","0.0","-4.9446305944964978","-9.770082913125933","0.0","0.0","0.0","0.0",""
"2","25215.1","","","","5452.5290896703149","5245.820755128064","1.895","","","","0.0","0.0","0.0","-5.022709127212856","-9.924358085718824","0.0","0.0","0.0","0.0",""
"3","25215.169420255137","25215.16931268759","1147","1031063","5560.0","5820.0","1.895","0.0","0.0","0.0","","","","-2.836206954535669","-11.285028273926836","0.0","0.0","0.0","0.0","8.23560250090001E-09"
"2","25215.2","","","","5452.017393259577","5244.80969550213","1.895","","","","0.0","0.0","0.0","-5.11742641901083","-10.111509739717594","0.0","0.0","0.0","0.0",""
"3","25215.24688126083","25215.246772408253","1081","1035606","5560.0","5820.0","1.895","0.0","0.0","0.0","","","","3.9592469154625427","-10.967415901899554","0.0","0.0","0.0","0.0","6.1269151440798E-09"
"2","25215.3","","","","5451.498630623228","5243.784673739127","1.895","","","","0.0","0.0","0.0","-5.188095059388072","-10.251143725037349","0.0","0.0","0.0","0.0",""
"3","25215.304309262694","25215.304198691854","727","1038955","5463.104996363559","5267.002618711328","1.895","0.0","0.0","0.0","","","","-2.5886751794093305","-5.320744426814404","0.0","0.0","0.0","0.0","3.05396564883385E-07"
"2","25215.399999999998","","","","5450.971739628774","5242.7435911741899","1.895","","","","0.0","0.0","0.0","-5.269385984299495","-10.411766255131566","0.0","0.0","0.0","0.0",""
"2","25215.5","","","","5450.434020939745","5241.681114195303","1.895","","","","0.0","0.0","0.0","-5.37767271274873","-10.625729724216136","0.0","0.0","0.0","0.0",""
"2","25215.6","","","","5449.889896768411","5240.605980640353","1.895","","","","0.0","0.0","0.0","-5.441733323086297","-10.752306919924165","0.0","0.0","0.0","0.0",""
"2","25215.7","","","","5449.336274192539","5239.512079212233","1.895","","","","0.0","0.0","0.0","-5.536725950143538","-10.940002608155734","0.0","0.0","0.0","0.0",""
"2","25215.8","","","","5448.772329760815","5238.397782855601","1.895","","","","0.0","0.0","0.0","-5.639953834349468","-11.143970319871354","0.0","0.0","0.0","0.0",""
"2","25215.899999999998","","","","5448.196975790877","5237.260942421668","1.895","","","","0.0","0.0","0.0","-5.754059524864008","-11.369431461180346","0.0","0.0","0.0","0.0",""
"3","25215.92807341157","25215.92795836297","1237","1083952","5110.770765932709","5469.719250865192","1.895","0.0","0.0","0.0","","","","-15.216000924267985","-6.766927025219001","0.0","0.0","0.0","0.0","1.59699905880787E-09"
"2","25216.0","","","","5447.613959476113","5236.10896198024","1.895","","","","0.0","0.0","0.0","-5.830689895968186","-11.520845214956966","0.0","0.0","0.0","0.0",""
"2","25216.1","","","","5447.021079497346","5234.937491950399","1.895","","","","0.0","0.0","0.0","-5.929335447698975","-11.715758707684526","0.0","0.0","0.0","0.0",""
"3","25216.16942943079","25216.16931268759","1147","1099817","5560.0","5820.0","1.895","0.0","0.0","0.0","","","","-2.843989977379876","-11.315996265415082","0.0","0.0","0.0","0.0","1.39186393003262E-09"
"2","25216.2","","","","5446.420789829261","5233.751381134432","1.895","","","","0.0","0.0","0.0","-6.003439035454325","-11.862179796721126","0.0","0.0","0.0","0.0",""
"3","25216.246890470335","25216.246772408253","1081","1104295","5560.0","5820.0","1.895","0.0","0.0","0.0","","","","10.59824528564479","-4.846164549271826","0.0","0.0","0.0","0.0","1.33757589950103E-09"
"2","25216.3","","","","5445.812985804073","5232.550422719536","1.895","","","","0.0","0.0","0.0","-6.078589395607284","-12.010669200654132","0.0","0.0","0.0","0.0",""
"3","25216.304305472917","25216.304198691854","727","1107291","5460.018294026262","5260.773013574011","1.895","0.0","0.0","0.0","","","","-3.45530798982512","-6.973527749773367","0.0","0.0","0.0","0.0","4.7580706049196E-07"
"2","25216.399999999998","","","","5445.1973313052089","5231.333952573831","1.895","","","","0.0","0.0","0.0","-6.157101225184369","-12.165800523403114","0.0","0.0","0.0","0.0",""
"2","25216.5","","","","5444.571091396883","5230.096566744715","1.895","","","","0.0","0.0","0.0","-6.262964883580539","-12.374976254582835","0.0","0.0","0.0","0.0",""
"2","25216.6","","","","5443.941972881635","5228.853493083559","1.895","","","","0.0","0.0","0.0","-6.291753553608649","-12.431859713874277","0.0","0.0","0.0","0.0",""
"2","25216.7","","","","5443.309584144502","5227.603957799368","1.895","","","","0.0","0.0","0.0","-6.3244587270526","-12.496481782222764","0.0","0.0","0.0","0.0",""
"2","25216.8","","","","5442.67580783228","5226.351680809116","1.895","","","","0.0","0.0","0.0","-6.338335731604808","-12.523901319932893","0.0","0.0","0.0","0.0",""
"2","25216.899999999998","","","","5442.043296115233","5225.101902529229","1.895","","","","0.0","0.0","0.0","-6.325688637302308","-12.498911958729036","0.0","0.0","0.0","0.0",""
"3","25216.928065127096","25216.92795836297","1237","1150458","5095.421972179025","5462.893267627333","1.895","0.0","0.0","0.0","","","","-15.267230253952949","-6.78970995860961","0.0","0.0","0.0","0.0","5.27365841385097E-09"
"2","25217.0","","","","5441.412545857958","5223.855604713188","1.895","","","","0.0","0.0","0.0","-6.308072448125917","-12.464104175707627","0.0","0.0","0.0","0.0",""
"2","25217.1","","","","5440.780215544254","5222.606184867699","1.895","","","","0.0","0.0","0.0","-6.323874439980994","-12.495327290896146","0.0","0.0","0.0","0.0",""
"2","25217.2","","","","5440.147462450764","5221.3559296527159","1.895","","","","0.0","0.0","0.0","-6.3281026198228089","-12.503681740604103","0.0","0.0","0.0","0.0",""
"2","25217.3","","","","5439.51563953335","5220.107512370257","1.895","","","","0.0","0.0","0.0","-6.3188000186508479","-12.485300754796239","0.0","0.0","0.0","0.0",""
"3","25217.30430646857","25217.304198691854","727","1173363","5456.121546784163","5252.919081927888","1.895","0.0","0.0","0.0","","","","-4.263014013152737","-8.58924743502114","0.0","0.0","0.0","0.0","4.84999575689617E-08"
"3","25217.35663884284","25217.356532463895","1687","1176967","5396.140178600839","5183.16135063307","1.895","0.0","0.0","0.0","","","","-7.867385658041557","7.386829815054773","0.0","0.0","0.0","0.0","5.99674907510132E-08"
"2","25217.399999999998","","","","5438.881308204411","5218.854138723896","1.895","","","","0.0","0.0","0.0","-6.343886400230921","-12.53486887184126","0.0","0.0","0.0","0.0",""
"2","25217.5","","","","5438.247263819172","5217.601332048858","1.895","","","","0.0","0.0","0.0","-6.341016703963457","-12.529198646344576","0.0","0.0","0.0","0.0",""
"2","25217.6","","","","5437.617177748679","5216.356346597775","1.895","","","","0.0","0.0","0.0","-6.301429980231121","-12.450979340426269","0.0","0.0","0.0","0.0",""
"2","25217.7","","","","5436.984922447069","5215.107074968492","1.895","","","","0.0","0.0","0.0","-6.323124251262041","-12.49384499492993","0.0","0.0","0.0","0.0",""
"2","25217.8","","","","5436.354718168598","5213.861264163666","1.895","","","","0.0","0.0","0.0","-6.304330944609585","-12.458364079778605","0.0","0.0","0.0","0.0",""
"2","25217.899999999998","","","","5435.723275888786","5212.612873788109","1.895","","","","0.0","0.0","0.0","-6.316430584366867","-12.48430457110308","0.0","0.0","0.0","0.0",""
"2","25218.0","","","","5435.093158361177","5211.367102508477","1.895","","","","0.0","0.0","0.0","-6.302364543406097","-12.45852473574174","0.0","0.0","0.0","0.0",""
"2","25218.1","","","","5434.470551260842","5210.136179688352","1.895","","","","0.0","0.0","0.0","-6.226633521490179","-12.310340325421839","0.0","0.0","0.0","0.0",""
"2","25218.2","","","","5433.8629094534749","5208.934843939455","1.895","","","","0.0","0.0","0.0","-6.076967070840103","-12.014442881571723","0.0","0.0","0.0","0.0",""
"2","25218.3","","","","5433.270192106319","5207.7630145335519","1.895","","","","0.0","0.0","0.0","-5.9277089846482","-11.71935279300504","0.0","0.0","0.0","0.0",""
"3","25218.304306019767","25218.304198691854","727","1240366","5451.385732260983","5243.561598154651","1.895","0.0","0.0","0.0","","","","-5.050330712794267","-9.978935505846007","0.0","0.0","0.0","0.0","1.15981580530736E-07"
"3","25218.356638326335","25218.356532463895","1687","1243943","5387.156822528584","5191.033804249945","1.895","0.0","0.0","0.0","","","","-10.095038659915284","8.022878860772258","0.0","0.0","0.0","0.0","3.93334854832379E-08"
"2","25218.399999999998","","","","5432.692110865366","5206.6201213815279","1.895","","","","0.0","0.0","0.0","-5.781334699079925","-11.429964110656611","0.0","0.0","0.0","0.0",""
"2","25218.5","","","","5432.131319644232","5205.511411392438","1.895","","","","0.0","0.0","0.0","-5.6084188795630409","-11.088101597220517","0.0","0.0","0.0","0.0",""
"2","25218.6","","","","5431.584391604312","5204.430109549045","1.895","","","","0.0","0.0","0.0","-5.46977454218976","-10.813995377325997","0.0","0.0","0.0","0.0",""
"2","25218.7","","","","5431.052418880478","5203.378375052124","1.895","","","","0.0","0.0","0.0","-5.320207869382915","-10.51829519884829","0.0","0.0","0.0","0.0",""
"2","25218.8","","","","5430.5357440971679","5202.356885285917","1.895","","","","0.0","0.0","0.0","-5.167214642656589","-10.21582056597129","0.0","0.0","0.0","0.0",""
"2","25218.899999999998","","","","5430.032408136574","5201.361766984585","1.895","","","","0.0","0.0","0.0","-5.033814364000088","-9.952082090902886","0.0","0.0","0.0","0.0",""
"2","25219.0","","","","5429.546092634027","5200.400298910188","1.895","","","","0.0","0.0","0.0","-4.863594405760959","-9.615549418975008","0.0","0.0","0.0","0.0",""
"2","25219.1","","","","5429.073149555702","5199.4652687323809","1.895","","","","0.0","0.0","0.0","-4.729858081718208","-9.351146566750755","0.0","0.0","0.0","0.0",""
"2","25219.2","","","","5428.612246030428","5198.55404130367","1.895","","","","0.0","0.0","0.0","-4.609451673612233","-9.113097570285735","0.0","0.0","0.0","0.0",""
"2","25219.3","","","","5428.169684700848","5197.679077237904","1.895","","","","0.0","0.0","0.0","-4.426013144709593","-8.750431177317284","0.0","0.0","0.0","0.0",""
"3","25219.304312061908","25219.304198691854","727","1306681","5445.901284696113","5232.724892273911","1.895","0.0","0.0","0.0","","","","-5.835716598660618","-11.530777463919636","0.0","0.0","0.0","0.0","5.81441671409489E-08"
"3","25219.35664435964","25219.356532463895","1687","1310254","5376.702733347748","5198.829953922145","1.895","0.0","0.0","0.0","","","","-10.855607675669729","7.2916189086274409","0.0","0.0","0.0","0.0","9.17457910775563E-08"
"2","25219.399999999998","","","","5427.740626140576","5196.8308087669479","1.895","","","","0.0","0.0","0.0","-4.290973252037586","-8.483451110065062","0.0","0.0","0.0","0.0",""
"2","25219.5","","","","5427.323311774474","5196.005759107018","1.895","","","","0.0","0.0","0.0","-4.173520699608892","-8.251242021881879","0.0","0.0","0.0","0.0",""
"3","25219.569948409735","25219.569834214868","1321","1323756","5560.0","5820.0","1.895","0.0","0.0","0.0","","","","13.548923157005924","6.286898915825363","0.0","0.0","0.0","0.0","5.15496935655067E-09"
"2","25219.6","","","","5426.920941730597","5195.210255058198","1.895","","","","0.0","0.0","0.0","-4.024063975323558","-7.955759216683014","0.0","0.0","0.0","0.0",""
"2","25219.7","","","","5426.394727020831","5194.53501162092","1.895","","","","0.0","0.0","0.0","-4.132065953389613","-7.53930699251576","0.0","0.0","0.0","0.0",""
"2","25219.8","","","","5425.861681548603","5193.908633280428","1.895","","","","0.0","0.0","0.0","-4.231375613175731","-7.0538227244174609","0.0","0.0","0.0","0.0",""
"2","25219.899999999998","","","","5425.344153896485","5193.300489831544","1.895","","","","0.0","0.0","0.0","-4.365177964819607","-6.687606221542293","0.0","0.0","0.0","0.0",""
"2","25220.0","","","","5424.8452952413549","5192.714284202154","1.895","","","","0.0","0.0","0.0","-4.440905082514855","-6.287986051575726","0.0","0.0","0.0","0.0",""
"2","25220.1","","","","5424.369651436688","5192.155358195734","1.895","","","","0.0","0.0","0.0","-4.4405524280472259","-5.84420726383187","0.0","0.0","0.0","0.0",""
"2","25220.2","","","","5423.90541798404","5191.609840421321","1.895","","","","0.0","0.0","0.0","-4.524669295630278","-5.553996209718015","0.0","0.0","0.0","0.0",""
"2","25220.3","","","","5423.464873895757","5191.092159868142","1.895","","","","0.0","0.0","0.0","-4.405838909189546","-5.177273250029087","0.0","0.0","0.0","0.0",""
"3","25220.304306647602","25220.304198691854","727","1371638","5439.785419950649","5220.640570805052","1.895","0.0","0.0","0.0","","","","-6.011785674495364","-11.878671899400678","0.0","0.0","0.0","0.0","2.35470968358504E-08"
"3","25220.307488121958","25220.307376119075","649","1371868","5560.0","5820.0","1.895","0.0","0.0","0.0","","","","13.343112339111315","-0.3882155529694742","0.0","0.0","0.0","0.0","2.50727601446713E-09"
"3","25220.356648129782","25220.356532463895","1687","1375204","5365.731568232806","5205.9136547851699","1.895","0.0","0.0","0.0","","","","-11.032149436466384","7.1230763246538209","0.0","0.0","0.0","0.0","1.53718687775409E-07"
"2","25220.399999999998","","","","5423.044408306676","5190.598073431534","1.895","","","","0.0","0.0","0.0","-4.20503577648374","-4.941310767309787","0.0","0.0","0.0","0.0",""
"3","25220.42420634152","25220.424088987056","403","1380400","5560.0","5820.0","1.895","0.0","0.0","0.0","","","","-16.964024614143044","-8.262545966458254","0.0","0.0","0.0","0.0","4.46254925741374E-09"
"2","25220.5","","","","5422.639623736377","5190.122413660256","1.895","","","","0.0","0.0","0.0","-4.048211421052798","-4.757027465750028","0.0","0.0","0.0","0.0",""
"3","25220.569952419988","25220.569834214868","1321","1387929","5560.0","5820.0","1.895","0.0","0.0","0.0","","","","13.633675557778036","6.326225271902028","0.0","0.0","0.0","0.0","1.426235810777E-09"
"2","25220.6","","","","5422.252043560622","5189.666970663466","1.895","","","","0.0","0.0","0.0","-3.8761519316410069","-4.554841455252098","0.0","0.0","0.0","0.0",""
"2","25220.7","","","","5421.8760271707619","5189.225116197852","1.895","","","","0.0","0.0","0.0","-3.7605036249539705","-4.418943866401701","0.0","0.0","0.0","0.0",""
"2","25220.8","","","","5421.52405153479","5188.811511869065","1.895","","","","0.0","0.0","0.0","-3.5200743655328798","-4.1364169744789909","0.0","0.0","0.0","0.0",""
"2","25220.899999999998","","","","5421.1853092064179","5188.413457915782","1.895","","","","0.0","0.0","0.0","-3.3877293333956399","-3.9808991698607998","0.0","0.0","0.0","0.0",""
"2","25221.0","","","","5420.86174967642","5188.033245172198","1.895","","","","0.0","0.0","0.0","-3.235887632180492","-3.8024709535452545","0.0","0.0","0.0","0.0",""
"2","25221.1","","","","5420.558648410459","5187.677072804425","1.895","","","","0.0","0.0","0.0","-3.0312865080084","-3.5620454752352734","0.0","0.0","0.0","0.0",""
"2","25221.2","","","","5420.262853122185","5187.329485644515","1.895","","","","0.0","0.0","0.0","-2.9582201302718547","-3.476185639972854","0.0","0.0","0.0","0.0",""
"2","25221.3","","","","5419.98502667042","5187.003013549978","1.895","","","","0.0","0.0","0.0","-2.7785155305561135","-3.2650159090342618","0.0","0.0","0.0","0.0",""
"3","25221.30431061504","25221.304198691854","727","1436136","5434.481564932036","5210.157954221921","1.895","0.0","0.0","0.0","","","","-4.800919505482465","-9.490292603712926","0.0","0.0","0.0","0.0","1.17428951660163E-07"
"3","25221.307492732307","25221.307376119075","649","1436391","5560.0","5820.0","1.895","0.0","0.0","0.0","","","","13.106169906319267","-2.2440682872098067","0.0","0.0","0.0","0.0","1.46921988295313E-09"
"3","25221.35664302423","25221.356532463895","1687","1439681","5354.7576591859919","5212.999127309852","1.895","0.0","0.0","0.0","","","","-11.028530297592193","7.1207395721843069","0.0","0.0","0.0","0.0","1.483830941547E-09"
"2","25221.399999999998","","","","5419.72478665262","5186.697207162021","1.895","","","","0.0","0.0","0.0","-2.602635301763811","-3.05834017201705","0.0","0.0","0.0","0.0",""
"3","25221.42419601273","25221.424088987056","403","1444655","5560.0","5820.0","1.895","0.0","0.0","0.0","","","","-16.980113059429859","-8.145165946244712","0.0","0.0","0.0","0.0","6.52941269721768E-09"
"2","25221.5","","","","5419.477949016943","5186.407149827963","1.895","","","","0.0","0.0","0.0","-2.468599371646754","-2.900835403947941","0.0","0.0","0.0","0.0",""
"3","25221.569941973063","25221.569834214868","1321","1452630","5560.0","5820.0","1.895","0.0","0.0","0.0","","","","13.495697899843448","6.451516525498687","0.0","0.0","0.0","0.0","2.06650424886686E-09"
"2","25221.6","","","","5419.243319499327","5186.131438175707","1.895","","","","0.0","0.0","0.0","-2.346507161149103","-2.757365624759072","0.0","0.0","0.0","0.0",""
"2","25221.7","","","","5419.020768244188","5185.869919612786","1.895","","","","0.0","0.0","0.0","-2.225713623813598","-2.6154219081335219","0.0","0.0","0.0","0.0",""
"3","25221.7946170916","25221.794506453676","877","1468205","5108.418346137344","5465.062765916999","1.895","0.0","0.0","0.0","","","","-14.483941920226429","-6.445445709126073","0.0","0.0","0.0","0.0","3.13861471415034E-09"
"2","25221.8","","","","5418.781368205685","5185.588602151812","1.895","","","","0.0","0.0","0.0","-2.394216680123704","-2.813428776736995","0.0","0.0","0.0","0.0",""
"2","25221.899999999998","","","","5418.525119383819","5185.287485792784","1.895","","","","0.0","0.0","0.0","-2.56271973643315","-3.0114356453410306","0.0","0.0","0.0","0.0",""
"3","25221.928075042142","25221.92795836297","1237","1477674","5056.576424225583","5409.460467648131","1.895","0.0","0.0","0.0","","","","-8.044372358877512","-11.35878542448722","0.0","0.0","0.0","0.0","1.98848371017425E-09"
"2","25222.0","","","","5418.25202177859","5184.966570535702","1.895","","","","0.0","0.0","0.0","-2.7312227927429264","-3.2094425139447848","0.0","0.0","0.0","0.0",""
"2","25222.1","","","","5417.962075389996","5184.625856380568","1.895","","","","0.0","0.0","0.0","-2.8997258490531019","-3.4074493825481988","0.0","0.0","0.0","0.0",""
"2","25222.2","","","","5417.65528021804","5184.265343327379","1.895","","","","0.0","0.0","0.0","-3.0682289053629008","-3.605456251151933","0.0","0.0","0.0","0.0",""
"2","25222.3","","","","5417.33163626272","5183.885031376138","1.895","","","","0.0","0.0","0.0","-3.2367319616732308","-3.803463119755216","0.0","0.0","0.0","0.0",""
"3","25222.304309248022","25222.304198691854","727","1500249","5430.239077348708","5201.770361504781","1.895","0.0","0.0","0.0","","","","-3.980506977026223","-7.86964503142718","0.0","0.0","0.0","0.0","1.56887377612328E-07"
"3","25222.356649086385","25222.356532463895","1687","1503870","5343.784726398979","5220.083969497435","1.895","0.0","0.0","0.0","","","","-11.027015800802767","7.11976171412706","0.0","0.0","0.0","0.0","1.27372357487734E-08"
"2","25222.399999999998","","","","5416.991143524037","5183.484920526842","1.895","","","","0.0","0.0","0.0","-3.40523501798203","-4.001469988359801","0.0","0.0","0.0","0.0",""
"3","25222.42420532599","25222.424088987056","403","1508849","5560.0","5820.0","1.895","0.0","0.0","0.0","","","","-17.108565332959679","-7.991297289072806","0.0","0.0","0.0","0.0","2.47072483639227E-09"
"2","25222.5","","","","5416.633802001991","5183.065010779494","1.895","","","","0.0","0.0","0.0","-3.573738074292298","-4.199476856963136","0.0","0.0","0.0","0.0",""
"2","25222.6","","","","5416.2596116965819","5182.625302134092","1.895","","","","0.0","0.0","0.0","-3.7422411306020977","-4.39748372556687","0.0","0.0","0.0","0.0",""
"3","25222.6806224648","25222.680514482316","475","1523924","5245.4057004027649","5637.301535679951","1.895","0.0","0.0","0.0","","","","31.326363530609187","0.506559220964002","0.0","0.0","0.0","0.0","1.79654908219679E-09"
"2","25222.7","","","","5415.916138667442","5182.137714699208","1.895","","","","0.0","0.0","0.0","-3.82029126930323","-4.589557065439906","0.0","0.0","0.0","0.0",""
"2","25222.8","","","","5415.574316271325","5181.622970385055","1.895","","","","0.0","0.0","0.0","-3.8826356956653345","-4.806257532250159","0.0","0.0","0.0","0.0",""
"2","25222.899999999998","","","","5415.2746694456859","5181.072414314353","1.895","","","","0.0","0.0","0.0","-3.8505228104128199","-5.027752276365277","0.0","0.0","0.0","0.0",""
"2","25223.0","","","","5415.10396097836","5180.441310283635","1.895","","","","0.0","0.0","0.0","-3.6722324195951177","-5.4085090823171229","0.0","0.0","0.0","0.0",""
