﻿"type","rcvTime","sendTime","sender","messageID","pos__001","pos__002","pos__003","pos_noise__001","pos_noise__002","pos_noise__003","noise__001","noise__002","noise__003","spd__001","spd__002","spd__003","spd_noise__001","spd_noise__002","spd_noise__003","RSSI"
"2","25293.0","","","","3645.3340363902768","5182.797560784539","1.895","","","","0.0","0.0","0.0","-4.60605702538186","29.527557939407257","0.0","0.0","0.0","0.0",""
"3","25293.04847601556","25293.048358618096","2539","6085429","3633.31022404125","5293.580449064036","1.895","0.0","0.0","0.0","","","","4.5488457253219869","-28.892920808118629","0.0","0.0","0.0","0.0","5.44442002410723E-08"
"3","25293.048652016423","25293.04842617018","2479","6085664","5560.0","5820.0","1.895","0.0","0.0","0.0","","","","4.46836764288415","-28.381747863805847","0.0","0.0","0.0","0.0","1.07545343765018E-07"
"3","25293.060888498978","25293.060778156156","985","6087705","4027.886802004297","5257.899330172835","1.895","0.0","0.0","0.0","","","","-12.283434385966487","-2.033833382897694","0.0","0.0","0.0","0.0","4.74766774191202E-09"
"3","25293.062247649355","25293.062130806735","1285","6088032","4046.958302679685","5271.762115661616","1.895","0.0","0.0","0.0","","","","14.35423508820606","3.1546472716322317","0.0","0.0","0.0","0.0","3.54268409182393E-09"
"3","25293.06689269685","25293.06677743052","1837","6088351","3339.093080088681","5199.970652955744","1.895","0.0","0.0","0.0","","","","-14.279866318179224","2.870127316153973","0.0","0.0","0.0","0.0","9.18443312523796E-09"
"3","25293.069292981632","25293.0691826595","895","6088999","3833.1335871080725","5239.763823378154","1.895","0.0","0.0","0.0","","","","-10.89887292463661","6.978359625243787","0.0","0.0","0.0","0.0","1.83901386470921E-09"
"2","25293.1","","","","3644.8719689260294","5185.759687338181","1.895","","","","0.0","0.0","0.0","-4.626226332563913","29.65685516328746","0.0","0.0","0.0","0.0",""
"3","25293.106545081984","25293.106429412495","529","6091314","3847.911449815134","5231.184000455105","1.895","0.0","0.0","0.0","","","","-12.661010969254603","1.2181147579762697","0.0","0.0","0.0","0.0","2.29115281708622E-08"
"3","25293.12284348336","25293.12272618669","2731","6092165","3602.75095770616","5637.351880269274","1.895","0.0","0.0","0.0","","","","2.5756289461244656","-30.593081028695506","0.0","0.0","0.0","0.0","2.77820838092007E-09"
"3","25293.12897411897","25293.128860567696","331","6092827","3798.138343530634","5187.0877367284069","1.895","0.0","0.0","0.0","","","","-12.647454023131499","-11.727639185083806","0.0","0.0","0.0","0.0","2.53169856924086E-09"
"3","25293.165529483813","25293.1654187975","2599","6094006","5560.0","5820.0","1.895","0.0","0.0","0.0","","","","3.6553131880032669","-29.51934038421283","0.0","0.0","0.0","0.0","1.26674142370763E-08"
"3","25293.17177943046","25293.171671783504","2719","6095104","5560.0","5820.0","1.895","0.0","0.0","0.0","","","","-0.033629820839596678","34.7344311093065","0.0","0.0","0.0","0.0","1.49281289471636E-09"
"3","25293.19761949171","25293.197513209514","2917","6097689","5560.0","5820.0","1.895","0.0","0.0","0.0","","","","-4.609721385181593","29.551048659495444","0.0","0.0","0.0","0.0","2.79935598515741E-09"
"2","25293.2","","","","3644.4115735843899","5188.71109459397","1.895","","","","0.0","0.0","0.0","-4.609485016116609","29.549533393570827","0.0","0.0","0.0","0.0",""
"3","25293.200305944283","25293.20018988312","1303","6098079","3890.8874269742457","5238.540118767173","1.895","0.0","0.0","0.0","","","","-11.114793240718578","-1.570978324802221","0.0","0.0","0.0","0.0","4.76102454417964E-09"
"3","25293.261023252362","25293.26091104746","1177","6100139","3937.123237865586","5241.739897518856","1.895","0.0","0.0","0.0","","","","-12.088811532952077","-1.7088341904341465","0.0","0.0","0.0","0.0","2.54071570331186E-09"
"3","25293.269986270912","25293.269870004013","1771","6100493","5560.0","5820.0","1.895","0.0","0.0","0.0","","","","-13.76881547684927","2.764279375603549","0.0","0.0","0.0","0.0","9.64936090993272E-09"
"2","25293.3","","","","3643.9520648234927","5191.656818341264","1.895","","","","0.0","0.0","0.0","-4.6006085565229839","29.492630021879316","0.0","0.0","0.0","0.0",""
"3","25293.325224248136","25293.325117911445","589","6103410","5560.0","5820.0","1.895","0.0","0.0","0.0","","","","-11.924643237187406","-1.685627906175949","0.0","0.0","0.0","0.0","5.80602315889249E-09"
"3","25293.33156225186","25293.331451921254","1033","6104421","3871.0107652166768","5239.065919984678","1.895","0.0","0.0","0.0","","","","-11.942218307137648","-1.688112259608443","0.0","0.0","0.0","0.0","1.12401679482576E-08"
"3","25293.355008440485","25293.35489750933","2515","6106064","3640.3092842841808","5249.1244913241239","1.895","0.0","0.0","0.0","","","","4.456288275303802","-28.30502329851137","0.0","0.0","0.0","0.0","1.12907490884321E-08"
"3","25293.376543441897","25293.376431099652","2959","6107071","3638.269224189346","5228.0871979827929","1.895","0.0","0.0","0.0","","","","-4.618512204522585","29.60740302636489","0.0","0.0","0.0","0.0","1.55404035310509E-07"
"3","25293.399913319176","25293.399801690597","595","6109061","3937.8704616224788","5248.516984290618","1.895","0.0","0.0","0.0","","","","-14.237312232390977","-2.0125391033111494","0.0","0.0","0.0","0.0","8.11879176392995E-09"
"2","25293.399999999998","","","","3643.490260096815","5194.617260591227","1.895","","","","0.0","0.0","0.0","-4.62359580010937","29.63999188976848","0.0","0.0","0.0","0.0",""
"3","25293.410268336967","25293.41015417846","2161","6110190","3824.2594006519777","5255.8411986960459","1.895","0.0","0.0","0.0","","","","0.0","0.0","0.0","0.0","0.0","0.0","8.22859636398732E-09"
"3","25293.417024368846","25293.41691268119","2707","6110592","3603.3376929556536","5591.090730809281","1.895","0.0","0.0","0.0","","","","2.5630423930655628","-30.44566770033196","0.0","0.0","0.0","0.0","7.42325525516513E-09"
"3","25293.424966163024","25293.42485263804","1225","6111714","3950.8884758508208","5243.685705776726","1.895","0.0","0.0","0.0","","","","-11.001557070371814","-1.4755166347313134","0.0","0.0","0.0","0.0","1.82752374892608E-08"
"3","25293.435244368895","25293.435136346845","2551","6112620","5560.0","5820.0","1.895","0.0","0.0","0.0","","","","3.587626205167858","-28.972718252798886","0.0","0.0","0.0","0.0","5.75132586459604E-09"
"3","25293.436317608517","25293.43620527703","2569","6112990","3624.9714025785285","5354.215693576092","1.895","0.0","0.0","0.0","","","","3.5783694331300728","-28.897963015535088","0.0","0.0","0.0","0.0","1.08299851114345E-08"
"3","25293.471317408796","25293.47120091375","2833","6114404","3594.4744389843774","5771.522711810714","1.895","0.0","0.0","0.0","","","","-0.023925512544123049","-41.065151587902459","0.0","0.0","0.0","0.0","2.31606941734079E-09"
"3","25293.486898410356","25293.486788551232","2851","6116585","5560.0","5820.0","1.895","0.0","0.0","0.0","","","","-3.4387644685113014","29.796528293636589","0.0","0.0","0.0","0.0","4.10926730953706E-09"
"3","25293.49608665344","25293.495970296903","679","6117256","3854.571410349334","5233.864381647922","1.895","0.0","0.0","0.0","","","","-11.480069368933137","-0.5646391469500239","0.0","0.0","0.0","0.0","1.6015095926765E-08"
"2","25293.5","","","","3643.0293633336939","5197.571882256166","1.895","","","","0.0","0.0","0.0","-4.614505255455321","29.58171610584005","0.0","0.0","0.0","0.0",""
"3","25293.595590880028","25293.595475546503","2233","6121102","3814.2600098709078","5264.5412974254709","1.895","0.0","0.0","0.0","","","","0.7693145021516613","-0.2906119840238495","0.0","0.0","0.0","0.0","6.84779131534683E-09"
"3","25293.59754791497","25293.597430437945","2203","6121460","3819.743825785332","5260.7452004309229","1.895","0.0","0.0","0.0","","","","0.9300942754521563","-0.7499197106032499","0.0","0.0","0.0","0.0","3.0273942652679E-09"
"2","25293.6","","","","3642.5691301332105","5200.52225009096","1.895","","","","0.0","0.0","0.0","-4.607861656450769","29.53912669509739","0.0","0.0","0.0","0.0",""
"3","25293.64162020405","25293.641512781196","2755","6123495","3595.8581790089867","5640.646567215455","1.895","0.0","0.0","0.0","","","","2.514507179777662","-33.80639714492262","0.0","0.0","0.0","0.0","5.19721909019766E-09"
"3","25293.647331958196","25293.647217970807","1117","6124501","3825.1433196320397","5253.229601336572","1.895","0.0","0.0","0.0","","","","-11.7788143669887","8.103518009793734","0.0","0.0","0.0","0.0","2.67170273997074E-09"
"3","25293.667399255257","25293.66728484002","505","6125454","5560.0","5820.0","1.895","0.0","0.0","0.0","","","","14.542718144241542","-0.5555957266194493","0.0","0.0","0.0","0.0","7.77346967493282E-09"
"3","25293.67263376222","25293.672519360203","2671","6125966","3614.4214134087239","5498.7312930580069","1.895","0.0","0.0","0.0","","","","2.6934990446348614","-31.99313109413584","0.0","0.0","0.0","0.0","6.37054564712932E-09"
"3","25293.696058483143","25293.69594686199","1045","6127360","3412.63955935335","5195.160338199481","1.895","0.0","0.0","0.0","","","","12.79126705835123","-0.608668800179964","0.0","0.0","0.0","0.0","1.64314709516664E-08"
"3","25293.69645694524","25293.69634348573","187","6127669","3860.00106957728","5230.837502414764","1.895","0.0","0.0","0.0","","","","-12.580391646235587","-1.779971918142015","0.0","0.0","0.0","0.0","1.22131654033023E-08"
"2","25293.7","","","","3642.1087942592778","5203.47327612347","1.895","","","","0.0","0.0","0.0","-4.608889624547569","29.54571658041489","0.0","0.0","0.0","0.0",""
"3","25293.701248590554","25293.701130092377","2677","6128051","3956.334811716939","5239.446558600446","1.895","0.0","0.0","0.0","","","","-1.41052117794213E-14","4.41206558430073E-14","0.0","0.0","0.0","0.0","9.64594172288401E-09"
"3","25293.748770595103","25293.748663624516","235","6132094","5560.0","5820.0","1.895","0.0","0.0","0.0","","","","-12.50602128829802","-1.7676161803384468","0.0","0.0","0.0","0.0","4.65742276528233E-09"
"3","25293.7501161421","25293.749999247724","157","6132444","3463.2345464353309","5199.598141209499","1.895","0.0","0.0","0.0","","","","14.484390798246006","-0.5494556917407061","0.0","0.0","0.0","0.0","2.75941258554895E-09"
"3","25293.787877198174","25293.787762834363","2749","6135052","3596.816475351603","5586.657083761952","1.895","0.0","0.0","0.0","","","","-2.4398294453007556","29.783883416438529","0.0","0.0","0.0","0.0","9.74922519101627E-09"
"3","25293.78987922341","25293.789769615745","901","6135404","3950.129009848876","5256.909860035531","1.895","0.0","0.0","0.0","","","","4.71740929860884E-14","6.66837288161813E-15","0.0","0.0","0.0","0.0","2.56977649293818E-09"
"2","25293.8","","","","3641.6457303369304","5206.441790564655","1.895","","","","0.0","0.0","0.0","-4.636202885903467","29.72081078848835","0.0","0.0","0.0","0.0",""
"3","25293.805373469004","25293.80526385526","907","6136008","3414.713286227111","5198.359788714449","1.895","0.0","0.0","0.0","","","","13.084064262353138","-0.6250801601993242","0.0","0.0","0.0","0.0","4.79886690570031E-09"
"3","25293.823059103903","25293.822947126348","2695","6137884","5560.0","5820.0","1.895","0.0","0.0","0.0","","","","2.885702347297034","-34.27845555176201","0.0","0.0","0.0","0.0","7.61248216761619E-09"
"3","25293.85998191928","25293.859875148206","2767","6139446","5560.0","5820.0","1.895","0.0","0.0","0.0","","","","-2.837430841683422","34.637106220535198","0.0","0.0","0.0","0.0","6.55064933131958E-09"
"3","25293.866976782152","25293.866860911483","1099","6140046","3867.6159247504394","5235.250896485895","1.895","0.0","0.0","0.0","","","","-11.34084649157205","-1.6029289647875987","0.0","0.0","0.0","0.0","2.51141281447778E-08"
"3","25293.887978795607","25293.88786469363","2503","6141074","3651.8978557028538","5217.966029899391","1.895","0.0","0.0","0.0","","","","4.737839331056293","-30.09675031058399","0.0","0.0","0.0","0.0","8.06099980223702E-07"
"3","25293.89282380934","25293.892707168823","1075","6141467","3953.697208003303","5252.209419104516","1.895","0.0","0.0","0.0","","","","1.0520645571512835","-0.20530984015574994","0.0","0.0","0.0","0.0","9.57586111640716E-09"
"2","25293.899999999998","","","","3641.1852309084399","5209.393865078908","1.895","","","","0.0","0.0","0.0","-4.6105271352208139","29.556213995235024","0.0","0.0","0.0","0.0",""
"3","25293.90208681326","25293.901978535065","2575","6142195","3941.71173514479","5255.7200220795489","1.895","0.0","0.0","0.0","","","","4.54327478348843E-14","6.42222212283038E-15","0.0","0.0","0.0","0.0","5.75072812575984E-09"
"3","25293.93695981333","25293.93684468791","1189","6144248","3846.1372083515645","5239.280069649781","1.895","0.0","0.0","0.0","","","","-11.587833899601936","4.479882171478721","0.0","0.0","0.0","0.0","4.12732289049757E-09"
"3","25293.965033996654","25293.96492494573","955","6144900","5560.0","5820.0","1.895","0.0","0.0","0.0","","","","-12.289541112531702","-1.737208656170337","0.0","0.0","0.0","0.0","1.29666416992291E-08"
"3","25293.969077923743","25293.968971703667","415","6145782","3475.0974484524729","5196.884511976336","1.895","0.0","0.0","0.0","","","","14.734146863275959","2.2597232517472665","0.0","0.0","0.0","0.0","1.2665832502109E-08"
"2","25294.0","","","","3640.7246483480955","5212.3464725176559","1.895","","","","0.0","0.0","0.0","-4.611359452574662","29.561549643220773","0.0","0.0","0.0","0.0",""
"3","25294.06089458362","25294.060778156156","985","6153064","4015.9714756273376","5252.372918156818","1.895","0.0","0.0","0.0","","","","-12.308295775546588","-2.3628221501341049","0.0","0.0","0.0","0.0","1.9957340845823E-09"
"3","25294.066893076335","25294.06677743052","1837","6153724","3324.9776485508389","5203.088494856456","1.895","0.0","0.0","0.0","","","","-14.125619591933246","3.26364057265086","0.0","0.0","0.0","0.0","9.8916246862537E-09"
"3","25294.069293912587","25294.0691826595","895","6154358","3819.043797508001","5235.173162245906","1.895","0.0","0.0","0.0","","","","-5.8693333942392409","-13.506607115015087","0.0","0.0","0.0","0.0","3.29515968277868E-09"
"2","25294.1","","","","3640.2626412748556","5215.308211929116","1.895","","","","0.0","0.0","0.0","-4.625621696899993","29.652979089999556","0.0","0.0","0.0","0.0",""
"3","25294.106546032184","25294.106429412495","529","6156620","3836.164031167773","5237.823482517313","1.895","0.0","0.0","0.0","","","","-11.992977334596973","7.678895735082768","0.0","0.0","0.0","0.0","1.94821134523902E-09"
"3","25294.122844137597","25294.12272618669","2731","6157449","3605.3190271163468","5606.848590705255","1.895","0.0","0.0","0.0","","","","2.5687043598792669","-30.510831437422543","0.0","0.0","0.0","0.0","9.73932254209667E-09"
"3","25294.165530137805","25294.1654187975","2599","6158916","5560.0","5820.0","1.895","0.0","0.0","0.0","","","","3.5950253553160587","-29.032471828086405","0.0","0.0","0.0","0.0","5.51354272136369E-09"
"3","25294.171780013057","25294.171671783504","2719","6159716","5560.0","5820.0","1.895","0.0","0.0","0.0","","","","-0.03301198208503572","34.0962987279502","0.0","0.0","0.0","0.0","2.22085286367268E-09"
"3","25294.186740142566","25294.186623613536","2545","6161460","3644.6627636320247","5263.926381087851","1.895","0.0","0.0","0.0","","","","4.649688966996383","-29.536782082140307","0.0","0.0","0.0","0.0","1.53419145030517E-08"
"3","25294.19762833487","25294.197513209514","2917","6162550","5560.0","5820.0","1.895","0.0","0.0","0.0","","","","-4.621564096372514","29.62696746356639","0.0","0.0","0.0","0.0","2.00135741296693E-08"
"2","25294.2","","","","3639.8031279850408","5218.253964709459","1.895","","","","0.0","0.0","0.0","-4.60065390011489","29.492920701202175","0.0","0.0","0.0","0.0",""
"3","25294.20030757592","25294.20018988312","1303","6162887","3879.816623058471","5236.975357946783","1.895","0.0","0.0","0.0","","","","-11.154503223169467","-1.576590981768262","0.0","0.0","0.0","0.0","1.2376298206493E-08"
"3","25294.261024876745","25294.26091104746","1177","6164982","3924.8086332519708","5239.999145969536","1.895","0.0","0.0","0.0","","","","-12.052181935906403","-1.703656352427375","0.0","0.0","0.0","0.0","5.80675383887506E-09"
"3","25294.26998369021","25294.269870004013","1771","6165351","5560.0","5820.0","1.895","0.0","0.0","0.0","","","","-13.611462439326323","3.1423526932517529","0.0","0.0","0.0","0.0","2.44946324764111E-09"
"2","25294.3","","","","3639.34174141756","5221.211726310905","1.895","","","","0.0","0.0","0.0","-4.619409183996781","29.61315319690096","0.0","0.0","0.0","0.0",""
"3","25294.325225873767","25294.325117911445","589","6168213","5560.0","5820.0","1.895","0.0","0.0","0.0","","","","-12.274849138297832","-1.7351318475583049","0.0","0.0","0.0","0.0","7.59900032955791E-09"
"3","25294.32705312134","25294.326940450304","2689","6168599","3605.670269763121","5524.083486195729","1.895","0.0","0.0","0.0","","","","2.5096427393861866","-29.813390162383194","0.0","0.0","0.0","0.0","1.21833792591579E-08"
"3","25294.33155911748","25294.331451921254","1033","6169251","3859.3340715089059","5237.414867358416","1.895","0.0","0.0","0.0","","","","-11.8698120872664","-1.6788433618922474","0.0","0.0","0.0","0.0","1.34425206161858E-08"
"3","25294.355005117704","25294.35489750933","2515","6170915","3644.774041194416","5220.765677764709","1.895","0.0","0.0","0.0","","","","4.459201385201459","-28.323526509782373","0.0","0.0","0.0","0.0","0.000005486330396573172"
"3","25294.376540351062","25294.376431099652","2959","6171915","3633.657013745745","5257.654202983316","1.895","0.0","0.0","0.0","","","","-4.607088871951624","29.534172688031814","0.0","0.0","0.0","0.0","3.10403099798678E-07"
"3","25294.39991014983","25294.399801690597","595","6173904","3923.900568147063","5246.54224661335","1.895","0.0","0.0","0.0","","","","-14.199958835804959","-2.007258951406144","0.0","0.0","0.0","0.0","6.05793686657474E-09"
"2","25294.399999999998","","","","3638.8818312213527","5224.160023496677","1.895","","","","0.0","0.0","0.0","-4.604627732828639","29.518395326255705","0.0","0.0","0.0","0.0",""
"3","25294.410265158025","25294.41015417846","2161","6175034","3824.2594006519777","5255.8411986960459","1.895","0.0","0.0","0.0","","","","0.0","0.0","0.0","0.0","0.0","0.0","1.05007904800486E-08"
"3","25294.417020909743","25294.41691268119","2707","6175427","3605.8929535740364","5560.737500645964","1.895","0.0","0.0","0.0","","","","2.5513182720747187","-30.306400128039177","0.0","0.0","0.0","0.0","5.01031867641223E-09"
"3","25294.4249629226","25294.42485263804","1225","6176484","3939.5348317382674","5242.080792407643","1.895","0.0","0.0","0.0","","","","-11.32129349569801","-1.6003403934838474","0.0","0.0","0.0","0.0","1.31319905206876E-08"
"3","25294.435253909807","25294.435136346845","2551","6177371","5560.0","5820.0","1.895","0.0","0.0","0.0","","","","4.502268445637605","-28.597075722449117","0.0","0.0","0.0","0.0","2.61709200562983E-08"
"3","25294.436314148345","25294.43620527703","2569","6177677","3628.5491932333804","5325.322404620516","1.895","0.0","0.0","0.0","","","","3.5650426674017368","-28.79033958806877","0.0","0.0","0.0","0.0","3.67713834133608E-08"
"3","25294.457316222735","25294.4572048218","2725","6178757","5560.0","5820.0","1.895","0.0","0.0","0.0","","","","-0.034323701875061788","35.45110346728581","0.0","0.0","0.0","0.0","1.87540888259576E-09"
"3","25294.471311230598","25294.47120091375","2833","6179066","3595.157908583937","5730.488246929498","1.895","0.0","0.0","0.0","","","","1.7588490220509417","-40.95719790898452","0.0","0.0","0.0","0.0","2.81655016502482E-09"
"3","25294.48690523187","25294.486788551232","2851","6181233","5560.0","5820.0","1.895","0.0","0.0","0.0","","","","-3.429709858247437","29.718071058978244","0.0","0.0","0.0","0.0","1.2307469693516E-08"
"3","25294.49607823379","25294.495970296903","679","6181923","3843.743836044436","5236.892442088829","1.895","0.0","0.0","0.0","","","","-10.064324378299752","5.615051020958919","0.0","0.0","0.0","0.0","2.00599020310258E-08"
"2","25294.5","","","","3638.4208411886868","5227.115243074731","1.895","","","","0.0","0.0","0.0","-4.615439071530438","29.587702420840239","0.0","0.0","0.0","0.0",""
"3","25294.59753948092","25294.597430437945","2203","6186210","3821.1613093278299","5259.212439612378","1.895","0.0","0.0","0.0","","","","2.065764912710296","-2.0036367499584188","0.0","0.0","0.0","0.0","1.63551694226787E-09"
"2","25294.6","","","","3637.960136894404","5230.06863090024","1.895","","","","0.0","0.0","0.0","-4.61257825458105","29.569362887099858","0.0","0.0","0.0","0.0",""
"3","25294.641629782484","25294.641512781196","2755","6188230","3598.7004138939166","5606.882136833518","1.895","0.0","0.0","0.0","","","","2.8382492756226296","-33.717083194452978","0.0","0.0","0.0","0.0","3.31454052477868E-09"
"3","25294.647331470776","25294.647217970807","1117","6189197","3813.500567232439","5261.296034513408","1.895","0.0","0.0","0.0","","","","-11.710829140743805","8.218094586642664","0.0","0.0","0.0","0.0","7.09088933151308E-09"
"3","25294.667398674257","25294.66728484002","505","6190143","5560.0","5820.0","1.895","0.0","0.0","0.0","","","","14.522464761877148","-0.5548219584279035","0.0","0.0","0.0","0.0","1.86824953847184E-08"
"3","25294.67263291689","25294.672519360203","2671","6190649","3617.666351841963","5466.873043286618","1.895","0.0","0.0","0.0","","","","3.9484644133905175","-31.871295793664165","0.0","0.0","0.0","0.0","1.13569156659096E-08"
"3","25294.6960579112","25294.69594686199","1045","6192017","3425.434015838589","5194.523795270975","1.895","0.0","0.0","0.0","","","","12.723050161431602","-0.6486260866605804","0.0","0.0","0.0","0.0","3.90348158791084E-09"
"3","25294.696462058808","25294.69634348573","187","6192322","3846.4670739263226","5231.322963733037","1.895","0.0","0.0","0.0","","","","-13.44051369212305","1.2931106467653242","0.0","0.0","0.0","0.0","2.88441598120049E-08"
"2","25294.7","","","","3637.497794155357","5233.032522128647","1.895","","","","0.0","0.0","0.0","-4.628982387957358","29.67452311330756","0.0","0.0","0.0","0.0",""
"3","25294.70124079451","25294.701130092377","2677","6192702","3956.334811716939","5239.446558600446","1.895","0.0","0.0","0.0","","","","-1.42979105357184E-14","4.47234114514245E-14","0.0","0.0","0.0","0.0","1.13933826689552E-08"
"3","25294.745559033676","25294.745444998098","2737","6196015","3584.4051770267544","5785.809272318801","1.895","0.0","0.0","0.0","","","","-0.03621859656792084","37.36923352067857","0.0","0.0","0.0","0.0","1.38493820314414E-09"
"3","25294.748775795342","25294.748663624516","235","6196701","5560.0","5820.0","1.895","0.0","0.0","0.0","","","","-12.532736682207182","-1.7713921664375688","0.0","0.0","0.0","0.0","8.63014081145008E-09"
"3","25294.750109884117","25294.749999247724","157","6197069","3476.834248105512","5200.5720169382379","1.895","0.0","0.0","0.0","","","","14.209379749071662","2.447024272260638","0.0","0.0","0.0","0.0","4.80248997483189E-09"
"3","25294.78988597312","25294.789769615745","901","6199711","3950.129009848876","5256.909860035531","1.895","0.0","0.0","0.0","","","","4.65063607374573E-14","6.57398447185546E-15","0.0","0.0","0.0","0.0","5.04661571231997E-09"
"2","25294.8","","","","3637.036825953297","5235.987601759565","1.895","","","","0.0","0.0","0.0","-4.615220503179007","29.586301268048375","0.0","0.0","0.0","0.0",""
"3","25294.80537739487","25294.80526385526","907","6200315","3427.747038325342","5197.710436918868","1.895","0.0","0.0","0.0","","","","13.010008983119232","-0.6551803085018967","0.0","0.0","0.0","0.0","1.41662570816978E-08"
"3","25294.823059012248","25294.822947126348","2695","6202134","5560.0","5820.0","1.895","0.0","0.0","0.0","","","","3.96989148285494","-34.203912801921259","0.0","0.0","0.0","0.0","3.09643745558517E-08"
"3","25294.855509851175","25294.855399788914","2791","6203610","3597.763194690266","5752.287695796982","1.895","0.0","0.0","0.0","","","","-0.017478149440342179","-29.9684719839477","0.0","0.0","0.0","0.0","2.21639287266352E-09"
"3","25294.859988857017","25294.859875148206","2767","6203918","5560.0","5820.0","1.895","0.0","0.0","0.0","","","","-1.4520908305232617","34.74321788479117","0.0","0.0","0.0","0.0","5.41437815400864E-09"
"3","25294.866970788255","25294.866860911483","1099","6204498","3856.2900312202398","5233.700073938285","1.895","0.0","0.0","0.0","","","","-11.307467505436036","-1.484048957013114","0.0","0.0","0.0","0.0","7.54107017250668E-09"
"3","25294.887972913464","25294.88786469363","2503","6205553","3656.6353845276605","5187.871252055238","1.895","0.0","0.0","0.0","","","","4.745797067783708","-30.14730120490251","0.0","0.0","0.0","0.0","8.66426649601747E-08"
"3","25294.892817820313","25294.892707168823","1075","6205942","3955.241138984772","5250.401206584618","1.895","0.0","0.0","0.0","","","","2.7951826163333188","-1.9234195949013025","0.0","0.0","0.0","0.0","8.89928801130927E-09"
"2","25294.899999999998","","","","3636.575506927568","5238.9449303783189","1.895","","","","0.0","0.0","0.0","-4.618732954978102","29.608818167738425","0.0","0.0","0.0","0.0",""
"3","25294.90209382566","25294.901978535065","2575","6206664","3941.71173514479","5255.7200220795489","1.895","0.0","0.0","0.0","","","","4.59192458784709E-14","6.49099186816013E-15","0.0","0.0","0.0","0.0","1.84864006714405E-09"
"3","25294.93695981813","25294.93684468791","1189","6208761","3835.927210571482","5245.820849477645","1.895","0.0","0.0","0.0","","","","-10.4570299151371","6.699034789385928","0.0","0.0","0.0","0.0","5.30529766335294E-09"
"3","25294.968779329974","25294.968672068742","2815","6209997","3598.6650189548547","5523.730534379932","1.895","0.0","0.0","0.0","","","","-2.9212748450239727","35.66060734239571","0.0","0.0","0.0","0.0","6.34215561254022E-09"
"2","25295.0","","","","3636.113509653435","5241.906606971689","1.895","","","","0.0","0.0","0.0","-4.625523588093188","29.652350154347795","0.0","0.0","0.0","0.0",""
"3","25295.04847635764","25295.048358618096","2539","6215462","3642.270040212292","5236.6703503890689","1.895","0.0","0.0","0.0","","","","4.418681253433109","-28.06615463372274","0.0","0.0","0.0","0.0","7.25760837858736E-07"
"3","25295.048707030463","25295.048600236976","2617","6215867","4042.366743649303","5274.121687895563","1.895","0.0","0.0","0.0","","","","12.364838854999976","2.5503720591772427","0.0","0.0","0.0","0.0","4.34753193883826E-09"
"3","25295.06089504838","25295.060778156156","985","6217338","4003.6386305966577","5250.679229800169","1.895","0.0","0.0","0.0","","","","-12.413760036410551","-1.6939610049680319","0.0","0.0","0.0","0.0","1.30992884628052E-09"
"2","25295.1","","","","3635.653027694982","5244.858569492637","1.895","","","","0.0","0.0","0.0","-4.610352224945069","29.555092716607164","0.0","0.0","0.0","0.0",""
"3","25295.10653918513","25295.106429412495","529","6220795","3823.6785305752857","5246.229311209396","1.895","0.0","0.0","0.0","","","","-12.277423829118704","8.458214614656024","0.0","0.0","0.0","0.0","1.1811244967293E-08"
"3","25295.122836983446","25295.12272618669","2731","6221624","3607.881929810175","5576.4066709175199","1.895","0.0","0.0","0.0","","","","2.5638573500143555","-30.453259105094927","0.0","0.0","0.0","0.0","1.5013138310581E-08"
"3","25295.160622229505","25295.16051220363","3001","6223088","3641.34420362555","5208.3747556563789","1.895","0.0","0.0","0.0","","","","-4.621842752381005","29.62875381388065","0.0","0.0","0.0","0.0","3.12824471199583E-07"
"3","25295.16553087137","25295.1654187975","2599","6223468","5560.0","5820.0","1.895","0.0","0.0","0.0","","","","3.556313712324328","-28.71984686066735","0.0","0.0","0.0","0.0","7.87617555993666E-08"
"3","25295.186738262015","25295.186623613536","2545","6226031","3649.3136237791065","5234.382159176684","1.895","0.0","0.0","0.0","","","","4.6580734153855529","-29.59004362860238","0.0","0.0","0.0","0.0","3.57864315412163E-07"
"3","25295.197626754016","25295.197513209514","2917","6227125","5560.0","5820.0","1.895","0.0","0.0","0.0","","","","-4.24031471662362","29.625457030526737","0.0","0.0","0.0","0.0","1.02636665071305E-08"
"2","25295.2","","","","3635.1926368296419","5247.809948052692","1.895","","","","0.0","0.0","0.0","-4.609440199339292","29.549246091441998","0.0","0.0","0.0","0.0",""
"3","25295.200300147662","25295.20018988312","1303","6227501","3868.674897169246","5235.400572928856","1.895","0.0","0.0","0.0","","","","-11.136326242067982","-1.5740218252664425","0.0","0.0","0.0","0.0","1.37250528493516E-08"
"3","25295.261017439472","25295.26091104746","1177","6229596","3912.4514347132437","5238.25237348463","1.895","0.0","0.0","0.0","","","","-12.14988959629514","-1.7174679823222168","0.0","0.0","0.0","0.0","1.08752595179415E-08"
"3","25295.269983623606","25295.269870004013","1771","6229950","5560.0","5820.0","1.895","0.0","0.0","0.0","","","","-13.618208910811746","3.1439101888480267","0.0","0.0","0.0","0.0","4.49397048596186E-09"
"2","25295.3","","","","3634.7312308705966","5250.767833965573","1.895","","","","0.0","0.0","0.0","-4.619603332634998","29.614397804844854","0.0","0.0","0.0","0.0",""
"3","25295.325231439678","25295.325117911445","589","6232727","5560.0","5820.0","1.895","0.0","0.0","0.0","","","","-12.277622448816674","-1.7355238735091084","0.0","0.0","0.0","0.0","4.1098385994069E-09"
"3","25295.327046698363","25295.326940450304","2689","6233113","3608.18610166274","5494.196571684287","1.895","0.0","0.0","0.0","","","","2.5119324321287377","-29.840590648737018","0.0","0.0","0.0","0.0","1.48445892098295E-08"
"3","25295.33156576283","25295.331451921254","1033","6233748","3847.7646714588374","5238.237476096683","1.895","0.0","0.0","0.0","","","","-11.870296671326761","1.9816825056221009","0.0","0.0","0.0","0.0","3.14358385252883E-09"
"3","25295.355011930274","25295.35489750933","2515","6235104","3649.1973875728724","5192.669891638527","1.895","0.0","0.0","0.0","","","","4.413941585934385","-28.036049669507194","0.0","0.0","0.0","0.0","3.78923781937802E-08"
"3","25295.37654717618","25295.376431099652","2959","6236079","3629.0430251794707","5287.232606804998","1.895","0.0","0.0","0.0","","","","-4.619391234489177","29.613038129909204","0.0","0.0","0.0","0.0","1.98572615095765E-07"
"3","25295.38715546763","25295.3870413193","2587","6237558","3585.367331167283","5908.782521641543","1.895","0.0","0.0","0.0","","","","1.2359962270669103","28.95851766344248","0.0","0.0","0.0","0.0","1.55182520004121E-09"
"3","25295.399909535594","25295.399801690597","595","6237924","3909.93945852151","5244.568750591882","1.895","0.0","0.0","0.0","","","","-14.230651485107556","-2.011597562226416","0.0","0.0","0.0","0.0","3.11826564660993E-09"
"2","25295.399999999998","","","","3634.2704586995648","5253.721656921309","1.895","","","","0.0","0.0","0.0","-4.613257837601828","29.573719417405518","0.0","0.0","0.0","0.0",""
"3","25295.410264539405","25295.41015417846","2161","6239049","3824.2594006519777","5255.8411986960459","1.895","0.0","0.0","0.0","","","","0.0","0.0","0.0","0.0","0.0","0.0","1.44208074038176E-08"
"3","25295.417019997603","25295.41691268119","2707","6239427","3608.4444412342929","5530.429088402816","1.895","0.0","0.0","0.0","","","","2.548275529050386","-30.27025622996439","0.0","0.0","0.0","0.0","2.37312269943603E-08"
"3","25295.435252253064","25295.435136346845","2551","6241326","5560.0","5820.0","1.895","0.0","0.0","0.0","","","","4.472256550973036","-28.40644905621191","0.0","0.0","0.0","0.0","0.000002556434436343247"
"3","25295.43631248613","25295.43620527703","2569","6241718","3632.811608135347","5296.747509622439","1.895","0.0","0.0","0.0","","","","4.492380532073285","-28.53427062398964","0.0","0.0","0.0","0.0","4.64624970523797E-08"
"3","25295.457315746058","25295.4572048218","2725","6242752","5560.0","5820.0","1.895","0.0","0.0","0.0","","","","-0.033625901770015297","34.73038331263783","0.0","0.0","0.0","0.0","1.58566935692248E-09"
"3","25295.471310746718","25295.47120091375","2833","6243067","3596.9196708869187","5689.463209301442","1.895","0.0","0.0","0.0","","","","1.7606965906268855","-41.00022106260046","0.0","0.0","0.0","0.0","6.5465695441558E-09"
"3","25295.486904747857","25295.486788551232","2851","6245182","5560.0","5820.0","1.895","0.0","0.0","0.0","","","","-3.43071776621389","29.726804474261696","0.0","0.0","0.0","0.0","9.62069525157762E-09"
"3","25295.491060872624","25295.490941260476","2821","6245561","3597.7770780270168","5776.09241207309","1.895","0.0","0.0","0.0","","","","-0.017699556688483339","-30.34810238544893","0.0","0.0","0.0","0.0","3.19952372843697E-09"
"3","25295.49608754644","25295.495970296903","679","6245884","3834.021758701604","5243.121211759849","1.895","0.0","0.0","0.0","","","","-9.739300192763507","6.2398040581694709","0.0","0.0","0.0","0.0","2.43189818472E-09"
"2","25295.5","","","","3633.809372682012","5256.677491819427","1.895","","","","0.0","0.0","0.0","-4.616400073646867","29.593863014492546","0.0","0.0","0.0","0.0",""
"3","25295.57865185513","25295.578542751864","3013","6249638","3637.6629962673748","5210.566691443039","1.895","0.0","0.0","0.0","","","","-4.918855890828162","31.534012182794418","0.0","0.0","0.0","0.0","1.11728088443948E-07"
"3","25295.597542976968","25295.597430437945","2203","6250585","3822.346266419994","5257.931115527778","1.895","0.0","0.0","0.0","","","","0.9519098125880441","-1.0293241648166134","0.0","0.0","0.0","0.0","2.74888755608495E-09"
"2","25295.6","","","","3633.347884185805","5259.6359068444739","1.895","","","","0.0","0.0","0.0","-4.620429695921831","29.619695283728956","0.0","0.0","0.0","0.0",""
"3","25295.641621692423","25295.641512781196","2755","6252621","3601.5443582227796","5573.097399051599","1.895","0.0","0.0","0.0","","","","2.8421331022960127","-33.76322125151668","0.0","0.0","0.0","0.0","1.36989225726934E-08"
"3","25295.667390533927","25295.66728484002","505","6254483","5560.0","5820.0","1.895","0.0","0.0","0.0","","","","14.407604120150117","1.864638071470241","0.0","0.0","0.0","0.0","1.05686016700135E-08"
"3","25295.672637492193","25295.672519360203","2671","6254998","3621.6063519162187","5435.0700701186619","1.895","0.0","0.0","0.0","","","","3.944572810066517","-31.83988347040732","0.0","0.0","0.0","0.0","1.48833935224364E-08"
"3","25295.69605860297","25295.69594686199","1045","6256364","3438.218890261106","5193.944187573597","1.895","0.0","0.0","0.0","","","","12.708673916615953","-0.48552717924021079","0.0","0.0","0.0","0.0","1.76350341866828E-08"
"3","25295.696456923","25295.69634348573","187","6256685","3834.7946052734357","5238.70030220655","1.895","0.0","0.0","0.0","","","","-11.376399471630164","7.284111605157411","0.0","0.0","0.0","0.0","8.45541859303366E-09"
"2","25295.7","","","","3632.8869069914987","5262.591044121026","1.895","","","","0.0","0.0","0.0","-4.6153105336839099","29.586878416992727","0.0","0.0","0.0","0.0",""
"3","25295.70124247292","25295.701130092377","2677","6257073","3956.334811716939","5239.446558600446","1.895","0.0","0.0","0.0","","","","-1.40373693055688E-14","4.39084467328434E-14","0.0","0.0","0.0","0.0","2.53371928691522E-09"
"3","25295.76840170204","25295.768294677837","3019","6262562","3644.5766185057939","5187.653058739768","1.895","0.0","0.0","0.0","","","","-4.667282151168539","29.920047315696544","0.0","0.0","0.0","0.0","5.21866701064197E-09"
"3","25295.787870719156","25295.787762834363","2749","6264041","3592.0677856128988","5646.296145924629","1.895","0.0","0.0","0.0","","","","-1.7016805156679429","29.87062929230336","0.0","0.0","0.0","0.0","9.75583770239645E-09"
"3","25295.789886555795","25295.789769615745","901","6264373","3950.956178338532","5253.562183475376","1.895","0.0","0.0","0.0","","","","1.2074407645743888","0.14294978154162167","0.0","0.0","0.0","0.0","2.69497406866847E-09"
"2","25295.8","","","","3632.426408875571","5265.543110220972","1.895","","","","0.0","0.0","0.0","-4.610513993823996","29.556129751080247","0.0","0.0","0.0","0.0",""
"3","25295.805377889505","25295.80526385526","907","6264976","3440.7969901871376","5197.151226880391","1.895","0.0","0.0","0.0","","","","13.094997534763712","-0.5006051940654547","0.0","0.0","0.0","0.0","3.81945285490475E-09"
"3","25295.823052811516","25295.822947126348","2695","6266545","5560.0","5820.0","1.895","0.0","0.0","0.0","","","","4.242578383053582","-34.2536388294654","0.0","0.0","0.0","0.0","3.27555733379636E-09"
"3","25295.855513263006","25295.855399788914","2791","6268046","3598.8073870715095","5722.398007936945","1.895","0.0","0.0","0.0","","","","1.2824594321977965","-29.890945125853599","0.0","0.0","0.0","0.0","1.36100542325858E-09"
"3","25295.86697056581","25295.866860911483","1099","6268926","3845.269804389716","5235.914780112604","1.895","0.0","0.0","0.0","","","","-10.797127811386556","3.7642874132754589","0.0","0.0","0.0","0.0","8.64878185763933E-09"
"2","25295.899999999998","","","","3631.9657679261556","5268.496091968304","1.895","","","","0.0","0.0","0.0","-4.611944044825287","29.565297226339295","0.0","0.0","0.0","0.0",""
"3","25295.965032511627","25295.96492494573","955","6273409","5560.0","5820.0","1.895","0.0","0.0","0.0","","","","-12.25889539424204","1.1794272536755624","0.0","0.0","0.0","0.0","6.65768622082519E-09"
"3","25295.968785137968","25295.968672068742","2815","6273970","3595.7472380711185","5559.3484902129289","1.895","0.0","0.0","0.0","","","","-2.918897106931013","35.63158180081574","0.0","0.0","0.0","0.0","1.80194423045787E-08"
"3","25295.969078868216","25295.968971703667","415","6274298","3504.3371858500247","5202.521561944142","1.895","0.0","0.0","0.0","","","","14.607563934452017","2.6462246837766787","0.0","0.0","0.0","0.0","1.36690379381078E-09"
"2","25296.0","","","","3631.5047454611787","5271.451519456708","1.895","","","","0.0","0.0","0.0","-4.615763784307201","29.58978402236551","0.0","0.0","0.0","0.0",""
"3","25296.04846954895","25296.048358618096","2539","6278737","3646.6938119900717","5208.571862252377","1.895","0.0","0.0","0.0","","","","4.407941789605988","-27.99794074021751","0.0","0.0","0.0","0.0","1.6245621528311E-08"
"3","25296.069291019532","25296.0691826595","895","6281801","3805.788769690569","5204.670472927834","1.895","0.0","0.0","0.0","","","","-7.220333803036069","-16.615551608060714","0.0","0.0","0.0","0.0","2.53593604107021E-09"
"2","25296.1","","","","3631.044644900829","5274.401036989559","1.895","","","","0.0","0.0","0.0","-4.60653366145186","29.530613459366167","0.0","0.0","0.0","0.0",""
"3","25296.122840651726","25296.12272618669","2731","6284778","3610.4374511439875","5546.052426237409","1.895","0.0","0.0","0.0","","","","2.5525397418705255","-30.318829608357225","0.0","0.0","0.0","0.0","8.43042085826757E-09"
"3","25296.16062589774","25296.16051220363","3001","6286253","3636.736099931054","5237.915433958937","1.895","0.0","0.0","0.0","","","","-4.607368273966335","29.53596382069307","0.0","0.0","0.0","0.0","3.31690573811911E-07"
"3","25296.165534148073","25296.1654187975","2599","6286632","5560.0","5820.0","1.895","0.0","0.0","0.0","","","","4.498493667182857","-28.57309944766835","0.0","0.0","0.0","0.0","3.89921547522139E-07"
"3","25296.17224969207","25296.17213387564","2881","6287700","3591.210322124194","5833.129699630827","1.895","0.0","0.0","0.0","","","","-0.01741197048385615","-29.915941786258","0.0","0.0","0.0","0.0","2.49147498313921E-09"
"3","25296.186731633006","25296.186623613536","2545","6289496","3653.9662931558984","5204.8264442766189","1.895","0.0","0.0","0.0","","","","4.655858051608701","-29.57597070509471","0.0","0.0","0.0","0.0","1.20113340830055E-08"
"3","25296.19761969272","25296.197513209514","2917","6290533","5560.0","5820.0","1.895","0.0","0.0","0.0","","","","-3.428196926245241","29.70496166410354","0.0","0.0","0.0","0.0","2.40791795898932E-08"
"2","25296.2","","","","3630.583979633846","5277.3541746269279","1.895","","","","0.0","0.0","0.0","-4.6121875126789189","29.56685799971115","0.0","0.0","0.0","0.0",""
"2","25296.3","","","","3630.1222681541914","5280.314019108153","1.895","","","","0.0","0.0","0.0","-4.622662209522099","29.634007020273708","0.0","0.0","0.0","0.0",""
"3","25296.376546544114","25296.376431099652","2959","6298830","3624.434479132057","5316.77612085217","1.895","0.0","0.0","0.0","","","","-4.617141857845756","29.598618291248905","0.0","0.0","0.0","0.0","2.26874513626705E-07"
"3","25296.38715515191","25296.3870413193","2587","6300604","3586.8392622960016","5937.787056129468","1.895","0.0","0.0","0.0","","","","2.1548093072822844","28.980138300170525","0.0","0.0","0.0","0.0","1.48072020136174E-09"
"2","25296.399999999998","","","","3629.661040778864","5283.2707601934639","1.895","","","","0.0","0.0","0.0","-4.617815349793931","29.602935774160387","0.0","0.0","0.0","0.0",""
"3","25296.417023132097","25296.41691268119","2707","6302518","3610.988700882989","5500.206535698585","1.895","0.0","0.0","0.0","","","","2.541833170136578","-30.19372924031071","0.0","0.0","0.0","0.0","1.46621493652164E-08"
"3","25296.435243474174","25296.435136346845","2551","6304393","5560.0","5820.0","1.895","0.0","0.0","0.0","","","","4.40841452311834","-28.00094340347714","0.0","0.0","0.0","0.0","3.3498064738024E-08"
"3","25296.436316476076","25296.43620527703","2569","6304762","3637.273725773274","5268.405459939048","1.895","0.0","0.0","0.0","","","","4.430070628663815","-28.13849657195939","0.0","0.0","0.0","0.0","6.11291705017739E-07"
"3","25296.457315104144","25296.4572048218","2725","6305829","5560.0","5820.0","1.895","0.0","0.0","0.0","","","","-0.03314259972920592","34.23120665864375","0.0","0.0","0.0","0.0","3.01195042548582E-09"
"3","25296.486897104674","25296.486788551232","2851","6308254","5560.0","5820.0","1.895","0.0","0.0","0.0","","","","-2.4414404451846649","29.803549476624153","0.0","0.0","0.0","0.0","1.62006006691372E-09"
"2","25296.5","","","","3629.199045889314","5286.232421500241","1.895","","","","0.0","0.0","0.0","-4.625499713610158","29.652197104748749","0.0","0.0","0.0","0.0",""
"3","25296.578652399934","25296.578542751864","3013","6312655","3632.7417986111779","5242.115716315637","1.895","0.0","0.0","0.0","","","","-4.914363747538344","31.505213758044446","0.0","0.0","0.0","0.0","2.97295599731898E-09"
"2","25296.6","","","","3628.737419313106","5289.191721700011","1.895","","","","0.0","0.0","0.0","-4.621812154954811","29.628557666233175","0.0","0.0","0.0","0.0",""
"3","25296.64162760233","25296.641512781196","2755","6315580","3604.3854458421249","5539.346597651976","1.895","0.0","0.0","0.0","","","","2.8341721359190075","-33.66864866832523","0.0","0.0","0.0","0.0","2.81966810682159E-08"
"3","25296.667396427103","25296.66728484002","505","6317454","5560.0","5820.0","1.895","0.0","0.0","0.0","","","","14.210702817342007","2.7790486482116316","0.0","0.0","0.0","0.0","5.46219549888577E-09"
"3","25296.672630076562","25296.672519360203","2671","6317981","3625.545316350104","5403.275456453828","1.895","0.0","0.0","0.0","","","","3.9442320639311037","-31.837133028750878","0.0","0.0","0.0","0.0","4.29382943570004E-08"
"3","25296.696064279597","25296.69594686199","1045","6319404","3451.015273182205","5193.455309525036","1.895","0.0","0.0","0.0","","","","12.782060530299934","-0.48833087030741087","0.0","0.0","0.0","0.0","4.28950150892019E-09"
"2","25296.7","","","","3628.274861002102","5292.156994872544","1.895","","","","0.0","0.0","0.0","-4.631140697600995","29.688359158476446","0.0","0.0","0.0","0.0",""
"3","25296.745557105063","25296.745444998098","2737","6323470","3584.334495372765","5858.7364280847309","1.895","0.0","0.0","0.0","","","","-0.034573500205080317","35.67187371182964","0.0","0.0","0.0","0.0","1.51750762172609E-09"
"3","25296.767860715103","25296.76774989008","3043","6325722","3637.3193659690025","5191.3613213934809","1.895","0.0","0.0","0.0","","","","-4.50397861979751","28.875422624714667","0.0","0.0","0.0","0.0","3.00666351570061E-08"
"3","25296.7684007172","25296.768294677837","3019","6326107","3639.9306124398465","5217.436713727782","1.895","0.0","0.0","0.0","","","","-4.64484409757766","29.776206081450114","0.0","0.0","0.0","0.0","2.03625273491578E-08"
"3","25296.787869815955","25296.787762834363","2749","6327618","3590.819591580212","5676.191370340609","1.895","0.0","0.0","0.0","","","","-1.2477309283880705","29.884132705453437","0.0","0.0","0.0","0.0","4.25884367627929E-09"
"2","25296.8","","","","3627.814792642721","5295.106305978085","1.895","","","","0.0","0.0","0.0","-4.606211264878756","29.52854670608037","0.0","0.0","0.0","0.0",""
"3","25296.80537685978","25296.80526385526","907","6328537","3453.8195683319247","5196.653390188013","1.895","0.0","0.0","0.0","","","","12.98915800651277","-0.4965590827592707","0.0","0.0","0.0","0.0","1.65963523985644E-08"
"3","25296.82305479501","25296.822947126348","2695","6330140","5560.0","5820.0","1.895","0.0","0.0","0.0","","","","4.228332498157213","-34.13862070793923","0.0","0.0","0.0","0.0","1.30602222211954E-08"
"3","25296.82920593924","25296.8290970332","3007","6330566","5560.0","5820.0","1.895","0.0","0.0","0.0","","","","-2.1930792103152898","-33.03726342555665","0.0","0.0","0.0","0.0","1.31720943852498E-09"
"3","25296.830277555604","25296.830165809206","3055","6330841","3645.4087185978917","5182.318803530721","1.895","0.0","0.0","0.0","","","","-4.650468934035436","29.812264619924183","0.0","0.0","0.0","0.0","2.35505002885018E-08"
"3","25296.85550721225","25296.855399788914","2791","6332088","3600.0891857407038","5692.522463556085","1.895","0.0","0.0","0.0","","","","1.281421737360557","-29.866759035702488","0.0","0.0","0.0","0.0","3.42019677994623E-09"
"2","25296.899999999998","","","","3627.3531195626835","5298.065904294986","1.895","","","","0.0","0.0","0.0","-4.622277751982362","29.631542419381405","0.0","0.0","0.0","0.0",""
"2","25297.0","","","","3626.892371110279","5301.019575200253","1.895","","","","0.0","0.0","0.0","-4.613020366356002","29.572197085846999","0.0","0.0","0.0","0.0",""
"3","25297.069299110455","25297.0691826595","895","6346321","3796.3877984499415","5189.963273461623","1.895","0.0","0.0","0.0","","","","-13.20846983819847","-12.251077393551548","0.0","0.0","0.0","0.0","1.52887579303214E-09"
"2","25297.1","","","","3626.4321963607046","5303.969568330047","1.895","","","","0.0","0.0","0.0","-4.607276445077905","29.53537514304347","0.0","0.0","0.0","0.0",""
"3","25297.122835426457","25297.12272618669","2731","6349258","3612.986213211001","5515.778467499565","1.895","0.0","0.0","0.0","","","","2.547576842678353","-30.25988075341769","0.0","0.0","0.0","0.0","2.66455216820918E-08"
"3","25297.160618158046","25297.16051220363","3001","6351040","3632.1240444105935","5267.481445810228","1.895","0.0","0.0","0.0","","","","-4.611357808876393","29.561539106139795","0.0","0.0","0.0","0.0","2.93455278456334E-07"
"3","25297.165526162968","25297.1654187975","2599","6351383","5560.0","5820.0","1.895","0.0","0.0","0.0","","","","4.467681972019811","-28.377392685561593","0.0","0.0","0.0","0.0","8.0861503937025E-07"
"3","25297.17178770874","25297.171671783504","2719","6352157","5560.0","5820.0","1.895","0.0","0.0","0.0","","","","1.3936468288401117","32.57211759262566","0.0","0.0","0.0","0.0","2.56962877454988E-09"
"3","25297.17224970886","25297.17213387564","2881","6352441","3591.19287254087","5803.149134282689","1.895","0.0","0.0","0.0","","","","-0.0174461274519521","-29.974627727065277","0.0","0.0","0.0","0.0","3.58484442472644E-09"
"3","25297.197619709255","25297.197513209514","2917","6354866","5560.0","5820.0","1.895","0.0","0.0","0.0","","","","-3.436834332749501","29.779803872610616","0.0","0.0","0.0","0.0","1.02520879301472E-08"
"2","25297.2","","","","3625.9723557816939","5306.917419228287","1.895","","","","0.0","0.0","0.0","-4.603930724413623","29.513927088835879","0.0","0.0","0.0","0.0",""
"2","25297.3","","","","3625.5101231868204","5309.880604367203","1.895","","","","0.0","0.0","0.0","-4.6278796228540319","29.667453734812545","0.0","0.0","0.0","0.0",""
"3","25297.327058054085","25297.326940450304","2689","6360508","3615.008836515944","5434.670736297749","1.895","0.0","0.0","0.0","","","","3.683079859731171","-29.743576664937579","0.0","0.0","0.0","0.0","7.05596869762928E-09"
"3","25297.331564277363","25297.331451921254","1033","6361201","3828.0351865180566","5251.240072113797","1.895","0.0","0.0","0.0","","","","-9.897949165278716","6.809531657585779","0.0","0.0","0.0","0.0","2.63840588860518E-09"
"3","25297.35068022404","25297.350570917082","2965","6362016","5560.0","5820.0","1.895","0.0","0.0","0.0","","","","-0.9229042867873244","2.8868153878268316","0.0","0.0","0.0","0.0","5.27132225490502E-09"
"3","25297.37654439572","25297.376431099652","2959","6363165","3620.975967171575","5346.48568871013","1.895","0.0","0.0","0.0","","","","-3.4367992781031178","29.779500127825963","0.0","0.0","0.0","0.0","8.64013415398283E-08"
"3","25297.387157882138","25297.3870413193","2587","6364974","3588.995070002598","5966.78062195204","1.895","0.0","0.0","0.0","","","","2.158152081563423","29.025095438934558","0.0","0.0","0.0","0.0","1.72027887180068E-09"
"3","25297.39991409834","25297.399801690597","595","6365368","3881.98087498091","5240.616618213932","1.895","0.0","0.0","0.0","","","","-14.211021819328769","-2.008822777963815","0.0","0.0","0.0","0.0","1.25501255039721E-08"
"2","25297.399999999998","","","","3625.049175430088","5312.835552931443","1.895","","","","0.0","0.0","0.0","-4.615015804254481","29.5849890265106","0.0","0.0","0.0","0.0",""
"3","25297.41702992239","25297.41691268119","2707","6366900","3613.947804815887","5470.070335594163","1.895","0.0","0.0","0.0","","","","3.7243079950590389","-30.069238428720458","0.0","0.0","0.0","0.0","1.86914085934381E-09"
"3","25297.42496665021","25297.42485263804","1225","6367959","3904.2282624253796","5237.089973200613","1.895","0.0","0.0","0.0","","","","-11.670664864974592","-1.6497263682218518","0.0","0.0","0.0","0.0","5.66176680620203E-09"
"3","25297.435243915505","25297.435136346845","2551","6368759","5560.0","5820.0","1.895","0.0","0.0","0.0","","","","4.428015185904882","-28.125441008324246","0.0","0.0","0.0","0.0","6.21670756287363E-08"
"3","25297.436316915697","25297.43620527703","2569","6369115","3641.7141268764887","5240.201347252327","1.895","0.0","0.0","0.0","","","","4.423175352858365","-28.09469982222836","0.0","0.0","0.0","0.0","1.43036385439994E-08"
"3","25297.457322572034","25297.4572048218","2725","6370228","5560.0","5820.0","1.895","0.0","0.0","0.0","","","","-0.0326181547127486","33.689535640494067","0.0","0.0","0.0","0.0","1.64543715154393E-09"
"3","25297.47131757204","25297.47120091375","2833","6370520","3601.8859496174329","5608.335586134826","1.895","0.0","0.0","0.0","","","","3.3637153773504586","-39.95663938075308","0.0","0.0","0.0","0.0","1.73780610313753E-08"
"3","25297.48689857316","25297.486788551232","2851","6372703","5560.0","5820.0","1.895","0.0","0.0","0.0","","","","-2.4413732522093385","29.80272922759102","0.0","0.0","0.0","0.0","8.7000438674048E-09"
"3","25297.49105389713","25297.490941260476","2821","6373060","3599.095944248438","5715.672456605882","1.895","0.0","0.0","0.0","","","","1.2974437635825107","-30.24019268558484","0.0","0.0","0.0","0.0","1.0499318104767E-08"
"3","25297.496078795288","25297.495970296903","679","6373389","3815.0103997982607","5256.218294889032","1.895","0.0","0.0","0.0","","","","-9.523993933166569","6.593305018285212","0.0","0.0","0.0","0.0","4.8328923839954E-09"
"2","25297.5","","","","3624.5874111287955","5315.795736030704","1.895","","","","0.0","0.0","0.0","-4.623191060547716","29.637397269078538","0.0","0.0","0.0","0.0",""
"3","25297.57865607695","25297.578542751864","3013","6377133","3627.815242202325","5273.699095309449","1.895","0.0","0.0","0.0","","","","-4.930147292432975","31.606399584167347","0.0","0.0","0.0","0.0","3.64017622920398E-08"
"3","25297.5955831424","25297.595475546503","2233","6377615","3819.058054432523","5261.427975388671","1.895","0.0","0.0","0.0","","","","0.358606186481192","-0.2388985270186989","0.0","0.0","0.0","0.0","3.69379338681916E-09"
"3","25297.597540178558","25297.597430437945","2203","6377993","3822.8530316704725","5256.871138989236","1.895","0.0","0.0","0.0","","","","0.2668210489582677","-0.34590143385534535","0.0","0.0","0.0","0.0","4.40857851456644E-09"
"2","25297.6","","","","3624.177026945195","5318.748846309991","1.895","","","","0.0","0.0","0.0","-4.30800492297732","29.544039749020546","0.0","0.0","0.0","0.0",""
"3","25297.641631221537","25297.641512781196","2755","6379984","3607.2274796158897","5505.584556377281","1.895","0.0","0.0","0.0","","","","2.8368193379377897","-33.70009619883861","0.0","0.0","0.0","0.0","1.46573190275494E-08"
"3","25297.66740006258","25297.66728484002","505","6381886","5560.0","5820.0","1.895","0.0","0.0","0.0","","","","14.31198584093837","2.655137741102514","0.0","0.0","0.0","0.0","4.49334823190146E-09"
"3","25297.67263338534","25297.672519360203","2671","6382417","3629.4814305129227","5371.503849665268","1.895","0.0","0.0","0.0","","","","3.943339779199723","-31.829930666616386","0.0","0.0","0.0","0.0","2.15849583229263E-07"
"2","25297.7","","","","3623.8350861269066","5321.711727123776","1.895","","","","0.0","0.0","0.0","-3.6043367676063129","29.642979852480385","0.0","0.0","0.0","0.0",""
"3","25297.701248153768","25297.701130092377","2677","6384509","3956.334811716939","5239.446558600446","1.895","0.0","0.0","0.0","","","","-1.38622764578577E-14","4.33607618490402E-14","0.0","0.0","0.0","0.0","3.62062148712916E-09"
"3","25297.750116984815","25297.749999247724","157","6388889","3519.8792281571047","5208.090461207031","1.895","0.0","0.0","0.0","","","","14.361906728012288","1.822263434305377","0.0","0.0","0.0","0.0","1.82207074391413E-09"
"3","25297.767856185397","25297.76774989008","3043","6390138","3632.619053405624","5221.495459051074","1.895","0.0","0.0","0.0","","","","-4.845646749250778","31.06588853678473","0.0","0.0","0.0","0.0","1.4300844564944E-08"
"3","25297.787879761374","25297.787762834363","2749","6392045","3589.5722230924177","5706.06682231002","1.895","0.0","0.0","0.0","","","","-1.2495576086295469","29.927883127468705","0.0","0.0","0.0","0.0","6.59264357538092E-09"
"2","25297.8","","","","3623.4920998061108","5324.683667105565","1.895","","","","0.0","0.0","0.0","-3.4339841511241997","29.755107352030004","0.0","0.0","0.0","0.0",""
"3","25297.82306348844","25297.822947126348","2695","6394555","5560.0","5820.0","1.895","0.0","0.0","0.0","","","","4.233567138380779","-34.18088403449616","0.0","0.0","0.0","0.0","1.55456606424579E-07"
"3","25297.830273245614","25297.830165809206","3055","6395249","3640.753864444068","5212.159180010892","1.895","0.0","0.0","0.0","","","","-4.659540476903231","29.870418591130485","0.0","0.0","0.0","0.0","3.58967103506892E-09"
"3","25297.855515503907","25297.855399788914","2791","6396458","3601.371706564661","5662.63008754075","1.895","0.0","0.0","0.0","","","","1.2858384932712666","-29.969702649548457","0.0","0.0","0.0","0.0","4.26407564569885E-09"
"3","25297.866967217735","25297.866860911483","1099","6397360","3826.076354937616","5248.585427908498","1.895","0.0","0.0","0.0","","","","-9.472712985007309","6.519783709553836","0.0","0.0","0.0","0.0","2.02793684597719E-08"
"2","25297.899999999998","","","","3623.1490383968209","5327.656257721165","1.895","","","","0.0","0.0","0.0","-3.434735938245383","29.761621507433856","0.0","0.0","0.0","0.0",""
"3","25297.936958289523","25297.93684468791","1189","6401444","3804.3963979063175","5264.604952783944","1.895","0.0","0.0","0.0","","","","-11.62680710703941","4.077022324415897","0.0","0.0","0.0","0.0","1.5675483104595E-08"
"3","25297.96504062605","25297.96492494573","955","6402485","5560.0","5820.0","1.895","0.0","0.0","0.0","","","","-10.23828246316447","7.0534007430388059","0.0","0.0","0.0","0.0","3.73815100598792E-09"
"3","25297.968780419862","25297.968672068742","2815","6403070","3589.917312367437","5630.515601280387","1.895","0.0","0.0","0.0","","","","-2.8949252866970145","35.338952824080269","0.0","0.0","0.0","0.0","5.22143177502865E-09"
"3","25297.96907837856","25297.968971703667","415","6403405","3533.8581341401547","5206.490948252264","1.895","0.0","0.0","0.0","","","","14.766081031983111","1.8193276769432903","0.0","0.0","0.0","0.0","2.01066208469306E-09"
"2","25298.0","","","","3622.805436264561","5330.63353364378","1.895","","","","0.0","0.0","0.0","-3.4401496646727565","29.808530871022556","0.0","0.0","0.0","0.0",""
"2","25298.1","","","","3622.462474262885","5333.6052629029859","1.895","","","","0.0","0.0","0.0","-3.4337406677360216","29.75299759437915","0.0","0.0","0.0","0.0",""
"3","25298.106542560017","25298.106429412495","529","6412815","3782.9805725161565","5256.447528131796","1.895","0.0","0.0","0.0","","","","-14.133027034668013","-4.716302280108073","0.0","0.0","0.0","0.0","2.42593719821316E-09"
"3","25298.160624665663","25298.16051220363","3001","6415496","3627.515589788626","5297.02437376605","1.895","0.0","0.0","0.0","","","","-4.620809660610897","29.622131082788653","0.0","0.0","0.0","0.0","6.6283649131535E-08"
"3","25298.165532953502","25298.1654187975","2599","6415813","5560.0","5820.0","1.895","0.0","0.0","0.0","","","","4.366092271673245","-27.73212499693063","0.0","0.0","0.0","0.0","2.66325161502907E-08"
"3","25298.172241104254","25298.17213387564","2881","6416934","3591.1754177322275","5773.159591183245","1.895","0.0","0.0","0.0","","","","-0.017453632723452095","-29.987522721660633","0.0","0.0","0.0","0.0","6.28392691070549E-09"
"3","25298.197624104552","25298.197513209514","2917","6419174","5560.0","5820.0","1.895","0.0","0.0","0.0","","","","-3.435190429513266","29.7655596259353","0.0","0.0","0.0","0.0","5.57494878814903E-09"
"2","25298.2","","","","3622.1206553292047","5336.5670875996079","1.895","","","","0.0","0.0","0.0","-3.422296253938627","29.65383296631033","0.0","0.0","0.0","0.0",""
"3","25298.20029756896","25298.20018988312","1303","6419560","3836.731303047962","5241.385252761403","1.895","0.0","0.0","0.0","","","","-9.68473002633639","6.204841880272566","0.0","0.0","0.0","0.0","3.18097774258764E-09"
"3","25298.261027831155","25298.26091104746","1177","6421343","3875.4992739482097","5233.028938943227","1.895","0.0","0.0","0.0","","","","-12.108623155189355","-1.711634695459371","0.0","0.0","0.0","0.0","2.80054748813523E-09"
"2","25298.3","","","","3621.7784535962998","5339.532229210789","1.895","","","","0.0","0.0","0.0","-3.426128845478037","29.687041964276817","0.0","0.0","0.0","0.0",""
"3","25298.32522664687","25298.325117911445","589","6424513","5560.0","5820.0","1.895","0.0","0.0","0.0","","","","-11.137189750410853","7.130949762452076","0.0","0.0","0.0","0.0","2.32729554529966E-08"
"3","25298.327053988494","25298.326940450304","2689","6424910","3618.694341260171","5404.9075769083979","1.895","0.0","0.0","0.0","","","","3.6876271970814717","-29.78029975601175","0.0","0.0","0.0","0.0","1.94863751445037E-08"
"3","25298.33156030648","25298.331451921254","1033","6425599","3818.2605436999317","5257.964772210774","1.895","0.0","0.0","0.0","","","","-9.858491396208639","6.78238573845243","0.0","0.0","0.0","0.0","2.81980097808226E-09"
"3","25298.35067825224","25298.350570917082","2965","6426415","5560.0","5820.0","1.895","0.0","0.0","0.0","","","","-0.4501897533762187","1.408179294531946","0.0","0.0","0.0","0.0","9.66893577587992E-09"
"3","25298.376547496922","25298.376431099652","2959","6427576","3617.5485499753156","5376.18389409687","1.895","0.0","0.0","0.0","","","","-3.4249247982732564","29.676609023337517","0.0","0.0","0.0","0.0","4.65336845884717E-08"
"3","25298.381081516894","25298.38096730644","3025","6428418","3596.6600741564145","5984.8333393387279","1.895","0.0","0.0","0.0","","","","-2.190245094759787","-32.99456938074063","0.0","0.0","0.0","0.0","1.80570714421312E-09"
"3","25298.39991721461","25298.399801690597","595","6429804","3868.0116427467908","5238.641974007534","1.895","0.0","0.0","0.0","","","","-14.20867452657254","-2.0084909724641379","0.0","0.0","0.0","0.0","5.98365744388515E-09"
"2","25298.399999999998","","","","3621.4365753210088","5342.494568096158","1.895","","","","0.0","0.0","0.0","-3.422890383031822","29.658981031697644","0.0","0.0","0.0","0.0",""
"3","25298.41702673265","25298.41691268119","2707","6431361","3617.667923032712","5440.034924507576","1.895","0.0","0.0","0.0","","","","3.7232884707363516","-30.061007014965698","0.0","0.0","0.0","0.0","1.07216218386041E-07"
"3","25298.47131876326","25298.47120091375","2833","6434672","3605.2182008592255","5568.752700468885","1.895","0.0","0.0","0.0","","","","3.307943771275689","-39.294143984562207","0.0","0.0","0.0","0.0","1.74093143459999E-08"
"3","25298.48689976702","25298.486788551232","2851","6436870","5560.0","5820.0","1.895","0.0","0.0","0.0","","","","-2.4490428757178779","29.896355104956585","0.0","0.0","0.0","0.0","1.52024360744845E-08"
"3","25298.49608592269","25298.495970296903","679","6437570","3804.6683275410925","5261.108000966711","1.895","0.0","0.0","0.0","","","","-10.784644858160437","4.07889260853479","0.0","0.0","0.0","0.0","8.51240935644218E-09"
"2","25298.5","","","","3621.092991186484","5345.471688070308","1.895","","","","0.0","0.0","0.0","-3.4399694710760504","29.806969512676628","0.0","0.0","0.0","0.0",""
"3","25298.578650191183","25298.578542751864","3013","6441329","3622.8913898568346","5305.2651389779589","1.895","0.0","0.0","0.0","","","","-4.92845675342348","31.595561804244114","0.0","0.0","0.0","0.0","8.53033418997244E-08"
"3","25298.595584447285","25298.595475546503","2233","6442084","3819.3661261795634","5261.16582710198","1.895","0.0","0.0","0.0","","","","0.004299619773086917","-0.003019464751432599","0.0","0.0","0.0","0.0","8.41362304008287E-09"
"3","25298.59754148254","25298.597430437945","2203","6442455","3822.8804190789035","5256.793671748245","1.895","0.0","0.0","0.0","","","","4.99768550493961E-15","-6.59353806052745E-15","0.0","0.0","0.0","0.0","1.80185407386197E-08"
"2","25298.6","","","","3620.750527472652","5348.4390997183559","1.895","","","","0.0","0.0","0.0","-3.428751802423946","29.709769607175145","0.0","0.0","0.0","0.0",""
"3","25298.641619177826","25298.641512781196","2755","6444460","3610.4048675938636","5471.851168928083","1.895","0.0","0.0","0.0","","","","4.161953989654023","-33.61083720195327","0.0","0.0","0.0","0.0","9.84088259479241E-09"
"3","25298.66740106164","25298.66728484002","505","6446343","5560.0","5820.0","1.895","0.0","0.0","0.0","","","","14.431353207848098","1.9349663063705603","0.0","0.0","0.0","0.0","1.17075383355242E-08"
"3","25298.67263126342","25298.672519360203","2671","6446862","3633.4193962802225","5339.717297057798","1.895","0.0","0.0","0.0","","","","3.9519052600821849","-31.89906969035791","0.0","0.0","0.0","0.0","0.0000011867054882517262"
"3","25298.696450692354","25298.69634348573","187","6448577","3799.6986527130477","5258.860622224413","1.895","0.0","0.0","0.0","","","","-13.061346548806727","3.317978497546622","0.0","0.0","0.0","0.0","1.06127892353237E-08"
"2","25298.7","","","","3620.4080181076067","5351.406906929307","1.895","","","","0.0","0.0","0.0","-3.429208863048035","29.713729988859407","0.0","0.0","0.0","0.0",""
"3","25298.74877113509","25298.748663624516","235","6453184","5560.0","5820.0","1.895","0.0","0.0","0.0","","","","-12.570466552821417","-1.7767249520008087","0.0","0.0","0.0","0.0","1.23057873292716E-08"
"3","25298.767857010855","25298.76774989008","3043","6454812","3627.6016083349225","5253.662762482759","1.895","0.0","0.0","0.0","","","","-5.154601264394824","33.04662444822634","0.0","0.0","0.0","0.0","4.29286685726483E-08"
"3","25298.768410012966","25298.768294677837","3019","6455195","3630.6453807795398","5276.960556858622","1.895","0.0","0.0","0.0","","","","-4.663341168450369","29.894783278587139","0.0","0.0","0.0","0.0","1.06789834398692E-08"
"3","25298.78788058695","25298.787762834363","2749","6456662","3588.3247003206868","5735.9459695005239","1.895","0.0","0.0","0.0","","","","-1.2470709503901816","29.868325715647619","0.0","0.0","0.0","0.0","1.76243966191008E-09"
"2","25298.8","","","","3620.066327766215","5354.367617387426","1.895","","","","0.0","0.0","0.0","-3.421008786027395","29.642677193824178","0.0","0.0","0.0","0.0",""
"3","25298.805379067184","25298.80526385526","907","6457591","3479.7765034231767","5197.78542429704","1.895","0.0","0.0","0.0","","","","12.827583580415375","2.4658940984962895","0.0","0.0","0.0","0.0","1.00693894871671E-08"
"3","25298.823053114516","25298.822947126348","2695","6459182","5560.0","5820.0","1.895","0.0","0.0","0.0","","","","4.238566889731121","-34.22125092029307","0.0","0.0","0.0","0.0","5.46034513353573E-07"
"3","25298.830275762204","25298.830165809206","3055","6459865","3636.108046824112","5241.941626948312","1.895","0.0","0.0","0.0","","","","-4.669546152373178","29.93456090646303","0.0","0.0","0.0","0.0","4.15647915453795E-08"
"3","25298.855509967227","25298.855399788914","2791","6461427","3603.1367316675657","5632.76969304165","1.895","0.0","0.0","0.0","","","","2.5126840742552245","-29.845427695953963","0.0","0.0","0.0","0.0","1.17437964143116E-08"
"3","25298.86697121831","25298.866860911483","1099","6462323","3816.5952667085477","5255.110976046876","1.895","0.0","0.0","0.0","","","","-9.465011132283541","6.5144827557509219","0.0","0.0","0.0","0.0","7.52929429130767E-09"
"2","25298.899999999998","","","","3619.72287708591","5357.343580994963","1.895","","","","0.0","0.0","0.0","-3.438633325445766","29.795391952933369","0.0","0.0","0.0","0.0",""
"3","25298.936957220558","25298.93684468791","1189","6466658","3792.1519719867499","5265.749042454661","1.895","0.0","0.0","0.0","","","","-12.305641565237304","-0.9957249185581997","0.0","0.0","0.0","0.0","9.75943425451361E-09"
"3","25298.96503946839","25298.96492494573","955","6467667","5560.0","5820.0","1.895","0.0","0.0","0.0","","","","-10.240514997623299","7.054938790095762","0.0","0.0","0.0","0.0","4.28484210341438E-09"
"3","25298.96877933463","25298.968672068742","2815","6468210","3587.962966384216","5665.588310999081","1.895","0.0","0.0","0.0","","","","-1.4570155533319949","34.86104847358605","0.0","0.0","0.0","0.0","1.21727503210454E-08"
"2","25299.0","","","","3619.3806177172607","5360.309222013741","1.895","","","","0.0","0.0","0.0","-3.426705895411043","29.69204204055802","0.0","0.0","0.0","0.0",""
"2","25299.1","","","","3619.037691926312","5363.280637510838","1.895","","","","0.0","0.0","0.0","-3.4333781253883686","29.74985620347601","0.0","0.0","0.0","0.0",""
"3","25299.106541357516","25299.106429412495","529","6477557","3769.3275900282199","5250.748254715202","1.895","0.0","0.0","0.0","","","","-13.683015885631756","-5.884745337787354","0.0","0.0","0.0","0.0","5.20931852012351E-09"
"3","25299.1228378856","25299.12272618669","2731","6478381","3619.0831545390685","5455.4368663041","1.895","0.0","0.0","0.0","","","","3.726973538345217","-30.08346121924023","0.0","0.0","0.0","0.0","3.00259044424244E-08"
"3","25299.16062758097","25299.16051220363","3001","6480162","3623.27053571285","5326.603496403023","1.895","0.0","0.0","0.0","","","","-3.4347998138605355","29.762174982867724","0.0","0.0","0.0","0.0","3.73438773742064E-08"
"3","25299.1717795854","25299.171671783504","2719","6481349","5560.0","5820.0","1.895","0.0","0.0","0.0","","","","2.3517041498729087","31.6728652171256","0.0","0.0","0.0","0.0","1.47407308568175E-09"
"3","25299.172241585886","25299.17213387564","2881","6481638","3591.3094684720879","5743.192570241219","1.895","0.0","0.0","0.0","","","","0.6306029324560656","-29.963229013496695","0.0","0.0","0.0","0.0","5.18968715509183E-09"
"2","25299.2","","","","3618.6953953699755","5366.24660075697","1.895","","","","0.0","0.0","0.0","-3.4270782190908015","29.695268185634224","0.0","0.0","0.0","0.0",""
"3","25299.20029810082","25299.20018988312","1303","6484494","3827.2511843588029","5247.77682811941","1.895","0.0","0.0","0.0","","","","-9.397852597239293","6.468259554071707","0.0","0.0","0.0","0.0","8.08436005687096E-09"
"3","25299.26102836413","25299.26091104746","1177","6486220","3863.180861979083","5231.2876491987949","1.895","0.0","0.0","0.0","","","","-12.068853936759805","-1.706013051017963","0.0","0.0","0.0","0.0","4.54935008620282E-09"
"2","25299.3","","","","3618.3511242961938","5369.229672986709","1.895","","","","0.0","0.0","0.0","-3.4468471171527828","29.866563584267039","0.0","0.0","0.0","0.0",""
"3","25299.32522936564","25299.325117911445","589","6489329","5560.0","5820.0","1.895","0.0","0.0","0.0","","","","-15.096742590413984","-0.8448967061428269","0.0","0.0","0.0","0.0","8.498857179603E-09"
"3","25299.32705638924","25299.326940450304","2689","6489710","3622.3758085576316","5375.177022868914","1.895","0.0","0.0","0.0","","","","3.6714269345909549","-29.64947073037223","0.0","0.0","0.0","0.0","0.000005710754310396917"
"3","25299.331562810232","25299.331451921254","1033","6490425","3807.6666191215369","5263.497773122494","1.895","0.0","0.0","0.0","","","","-11.194834877446859","4.224943332279831","0.0","0.0","0.0","0.0","2.76237814940196E-09"
"3","25299.376537011616","25299.376431099652","2959","6492279","3614.1184127483559","5405.9056682602599","1.895","0.0","0.0","0.0","","","","-3.438184889132392","29.791506299983973","0.0","0.0","0.0","0.0","2.53967312515543E-07"
"3","25299.399919767613","25299.399801690597","595","6494504","3854.0051339335316","5237.232689167996","1.895","0.0","0.0","0.0","","","","-14.441218043979604","-0.34417248003394926","0.0","0.0","0.0","0.0","1.65319871209543E-08"
"2","25299.399999999998","","","","3618.008003379597","5372.20277922679","1.895","","","","0.0","0.0","0.0","-3.4353317262811666","29.766783947406066","0.0","0.0","0.0","0.0",""
"3","25299.4102617736","25299.41015417846","2161","6495642","3824.2594006519777","5255.8411986960459","1.895","0.0","0.0","0.0","","","","0.0","0.0","0.0","0.0","0.0","0.0","9.07162009832423E-09"
"3","25299.417028960543","25299.41691268119","2707","6496014","3621.3798825542219","5410.065384921149","1.895","0.0","0.0","0.0","","","","3.7047736753735385","-29.911522655227654","0.0","0.0","0.0","0.0","1.92253367596031E-07"
"3","25299.424967867344","25299.42485263804","1225","6497125","3880.153146732258","5233.686794921016","1.895","0.0","0.0","0.0","","","","-11.82495783613104","-1.6715367094401895","0.0","0.0","0.0","0.0","1.02658027256566E-08"
"3","25299.436311288096","25299.43620527703","2569","6497966","3650.0774883044548","5187.079752452398","1.895","0.0","0.0","0.0","","","","3.9154590773246724","-24.869836411203737","0.0","0.0","0.0","0.0","1.23429573154624E-08"
"3","25299.486900823948","25299.486788551232","2851","6501601","5560.0","5820.0","1.895","0.0","0.0","0.0","","","","-2.442678647197292","29.818664657887117","0.0","0.0","0.0","0.0","1.76845130105083E-08"
"3","25299.496087062824","25299.495970296903","679","6502301","3793.357761724769","5262.577032249935","1.895","0.0","0.0","0.0","","","","-11.551637677370464","0.10522452204350083","0.0","0.0","0.0","0.0","1.35200390640327E-08"
"2","25299.5","","","","3617.665983232415","5375.166347417004","1.895","","","","0.0","0.0","0.0","-3.424310806519705","29.671288850111269","0.0","0.0","0.0","0.0",""
"3","25299.578651318105","25299.578542751864","3013","6506115","3618.7600522527548","5336.916213809463","1.895","0.0","0.0","0.0","","","","-3.656932914281325","31.69341859044469","0.0","0.0","0.0","0.0","5.29847779367372E-08"
"3","25299.595585678555","25299.595475546503","2233","6506904","3819.366128549764","5261.165824768485","1.895","0.0","0.0","0.0","","","","0.0","0.0","0.0","0.0","0.0","0.0","9.68604620054717E-09"
"3","25299.59754271468","25299.597430437945","2203","6507279","3822.8804190789035","5256.793671748245","1.895","0.0","0.0","0.0","","","","0.0","0.0","0.0","0.0","0.0","0.0","1.67963329873622E-08"
"2","25299.6","","","","3617.322460700797","5378.142933608523","1.895","","","","0.0","0.0","0.0","-3.4393527018595146","29.801625273029094","0.0","0.0","0.0","0.0",""
"3","25299.64162005489","25299.641512781196","2755","6509282","3614.570289762747","5438.212323629995","1.895","0.0","0.0","0.0","","","","4.160640268209014","-33.60022793577379","0.0","0.0","0.0","0.0","2.18644184062426E-07"
"3","25299.667393550062","25299.66728484002","505","6511161","5560.0","5820.0","1.895","0.0","0.0","0.0","","","","14.379061834260858","1.773325981471217","0.0","0.0","0.0","0.0","3.50031909354536E-09"
"3","25299.696052957483","25299.69594686199","1045","6513108","3488.377060713986","5196.112543585717","1.895","0.0","0.0","0.0","","","","12.435720985986878","2.4319327509590566","0.0","0.0","0.0","0.0","1.37577224715771E-08"
"3","25299.696450921983","25299.69634348573","187","6513429","3786.562642151199","5257.642892942592","1.895","0.0","0.0","0.0","","","","-13.092328642391394","-3.6867592487484428","0.0","0.0","0.0","0.0","4.91212229518419E-09"
"2","25299.7","","","","3616.97870732538","5381.121520037","1.895","","","","0.0","0.0","0.0","-3.4416639134090256","29.821651675232038","0.0","0.0","0.0","0.0",""
"3","25299.745553866684","25299.745444998098","2737","6517447","3588.6802917631928","5962.547153644181","1.895","0.0","0.0","0.0","","","","2.503346751785025","33.66763584826458","0.0","0.0","0.0","0.0","2.3973301562501E-09"
"3","25299.748778069345","25299.748663624516","235","6518122","5560.0","5820.0","1.895","0.0","0.0","0.0","","","","-12.563252668706867","-1.7753029182183418","0.0","0.0","0.0","0.0","2.45049200032305E-09"
"3","25299.750111770216","25299.749999247724","157","6518507","3548.8384957197988","5211.660872054447","1.895","0.0","0.0","0.0","","","","14.42435235494581","1.771572313983084","0.0","0.0","0.0","0.0","1.0377924587358E-08"
"3","25299.7678638261","25299.76774989008","3043","6519773","3622.3335417468185","5287.436823593536","1.895","0.0","0.0","0.0","","","","-5.2671053857064928","33.767898753485507","0.0","0.0","0.0","0.0","1.65915419705862E-08"
"3","25299.768403828577","25299.768294677837","3019","6520090","3626.0107854163136","5306.671062473137","1.895","0.0","0.0","0.0","","","","-4.6411058513131","29.752241705309669","0.0","0.0","0.0","0.0","1.73453891518845E-08"
"2","25299.8","","","","3616.6365814839666","5384.086004056484","1.895","","","","0.0","0.0","0.0","-3.4253690187379686","29.68045814640675","0.0","0.0","0.0","0.0",""
"3","25299.805369746144","25299.80526385526","907","6522480","3492.57737444789","5200.295531670279","1.895","0.0","0.0","0.0","","","","12.856655193363716","2.521046023645004","0.0","0.0","0.0","0.0","5.45123181119222E-09"
"3","25299.823056864923","25299.822947126348","2695","6524399","5560.0","5820.0","1.895","0.0","0.0","0.0","","","","5.312161729028091","-33.74430007416557","0.0","0.0","0.0","0.0","7.90940992613703E-08"
"3","25299.829216276456","25299.8290970332","3007","6524764","5560.0","5820.0","1.895","0.0","0.0","0.0","","","","-1.2964724336200724","-33.18539660198676","0.0","0.0","0.0","0.0","3.64189669915348E-09"
"3","25299.830277031724","25299.830165809206","3055","6525049","3631.467459306872","5271.69054582472","1.895","0.0","0.0","0.0","","","","-4.6504797843397569","29.812334176811498","0.0","0.0","0.0","0.0","4.75508544828692E-09"
"3","25299.855518492943","25299.855399788914","2791","6526558","3605.6460621014109","5602.964099574526","1.895","0.0","0.0","0.0","","","","2.5106829635217284","-29.821658688788117","0.0","0.0","0.0","0.0","4.44590717085795E-09"
"3","25299.866978945454","25299.866860911483","1099","6527495","3806.485244974508","5260.420819220169","1.895","0.0","0.0","0.0","","","","-10.787903373883366","4.080125021458545","0.0","0.0","0.0","0.0","1.25482716261941E-08"
"2","25299.899999999998","","","","3616.292612437942","5387.066459247836","1.895","","","","0.0","0.0","0.0","-3.44382321074889","29.84036175696948","0.0","0.0","0.0","0.0",""
"3","25299.936956060865","25299.93684468791","1189","6531784","3780.1579727993018","5262.468874139112","1.895","0.0","0.0","0.0","","","","-11.672320017186144","-3.8867868909697345","0.0","0.0","0.0","0.0","3.25241183539721E-09"
"3","25299.95888730392","25299.958777511492","3067","6532424","3630.0904462164487","5259.113119893196","1.895","0.0","0.0","0.0","","","","-5.3149200691130968","34.07311739351875","0.0","0.0","0.0","0.0","4.45151551756551E-09"
"3","25299.9650312305","25299.96492494573","955","6532794","5560.0","5820.0","1.895","0.0","0.0","0.0","","","","-11.540053325542465","4.360260468796267","0.0","0.0","0.0","0.0","9.36369575193532E-09"
"3","25299.967270591536","25299.967157330273","3109","6533161","3604.9326830018","6066.325682450434","1.895","0.0","0.0","0.0","","","","-3.982741374376126","-34.559811084425337","0.0","0.0","0.0","0.0","1.49747259288608E-09"
"3","25299.96878559747","25299.968672068742","2815","6533598","3586.519501403643","5700.125143871318","1.895","0.0","0.0","0.0","","","","-1.4341280964466899","34.31343541476654","0.0","0.0","0.0","0.0","6.06252988781271E-09"
"3","25299.969081903462","25299.968971703667","415","6533948","3563.410033878396","5210.1321477119149","1.895","0.0","0.0","0.0","","","","14.84183348526944","1.8287174951665904","0.0","0.0","0.0","0.0","2.51014337929551E-09"
"2","25300.0","","","","3615.9504073784735","5390.031629683335","1.895","","","","0.0","0.0","0.0","-3.426162151081561","29.68733055376441","0.0","0.0","0.0","0.0",""
