﻿"type","rcvTime","sendTime","sender","messageID","pos__001","pos__002","pos__003","pos_noise__001","pos_noise__002","pos_noise__003","noise__001","noise__002","noise__003","spd__001","spd__002","spd__003","spd_noise__001","spd_noise__002","spd_noise__003","RSSI"
"2","25294.6","","","","3642.0928163258538","5182.167811135908","1.895","","","","0.0","0.0","0.0","-4.924320582060793","31.569045459582687","0.0","0.0","0.0","0.0",""
"3","25294.641629942835","25294.641512781196","2755","6188230","3598.7004138939166","5606.882136833518","1.895","0.0","0.0","0.0","","","","2.8382492756226296","-33.717083194452978","0.0","0.0","0.0","0.0","7.65700768423518E-09"
"3","25294.64733150578","25294.647217970807","1117","6189197","3813.500567232439","5261.296034513408","1.895","0.0","0.0","0.0","","","","-11.710829140743805","8.218094586642664","0.0","0.0","0.0","0.0","1.43650658241634E-08"
"3","25294.667398676338","25294.66728484002","505","6190143","5560.0","5820.0","1.895","0.0","0.0","0.0","","","","14.522464761877148","-0.5548219584279035","0.0","0.0","0.0","0.0","1.35705042624344E-08"
"3","25294.67263307726","25294.672519360203","2671","6190649","3617.666351841963","5466.873043286618","1.895","0.0","0.0","0.0","","","","3.9484644133905175","-31.871295793664165","0.0","0.0","0.0","0.0","1.33323870745771E-08"
"3","25294.696057916313","25294.69594686199","1045","6192017","3425.434015838589","5194.523795270975","1.895","0.0","0.0","0.0","","","","12.723050161431602","-0.6486260866605804","0.0","0.0","0.0","0.0","1.06483953657508E-08"
"3","25294.696462064447","25294.69634348573","187","6192322","3846.4670739263226","5231.322963733037","1.895","0.0","0.0","0.0","","","","-13.44051369212305","1.2931106467653242","0.0","0.0","0.0","0.0","2.75765863372486E-09"
"2","25294.7","","","","3641.5999466421856","5185.327521229937","1.895","","","","0.0","0.0","0.0","-4.928703720742346","31.597145072903478","0.0","0.0","0.0","0.0",""
"3","25294.745559193383","25294.745444998098","2737","6196015","3584.4051770267544","5785.809272318801","1.895","0.0","0.0","0.0","","","","-0.03621859656792084","37.36923352067857","0.0","0.0","0.0","0.0","2.1291905007705E-09"
"3","25294.748775800603","25294.748663624516","235","6196701","5560.0","5820.0","1.895","0.0","0.0","0.0","","","","-12.532736682207182","-1.7713921664375688","0.0","0.0","0.0","0.0","7.65483737346783E-09"
"3","25294.75010988932","25294.749999247724","157","6197069","3476.834248105512","5200.5720169382379","1.895","0.0","0.0","0.0","","","","14.209379749071662","2.447024272260638","0.0","0.0","0.0","0.0","4.92159384502209E-09"
"3","25294.789885983737","25294.789769615745","901","6199711","3950.129009848876","5256.909860035531","1.895","0.0","0.0","0.0","","","","4.65063607374573E-14","6.57398447185546E-15","0.0","0.0","0.0","0.0","5.90246963821396E-09"
"2","25294.8","","","","3641.1074289631076","5188.484974677852","1.895","","","","0.0","0.0","0.0","-4.925183669924971","31.57457858025706","0.0","0.0","0.0","0.0",""
"3","25294.805377397537","25294.80526385526","907","6200315","3427.747038325342","5197.710436918868","1.895","0.0","0.0","0.0","","","","13.010008983119232","-0.6551803085018967","0.0","0.0","0.0","0.0","1.8054821144885E-08"
"3","25294.823059171267","25294.822947126348","2695","6202134","5560.0","5820.0","1.895","0.0","0.0","0.0","","","","3.96989148285494","-34.203912801921259","0.0","0.0","0.0","0.0","7.61595171932917E-09"
"3","25294.85998901598","25294.859875148206","2767","6203918","5560.0","5820.0","1.895","0.0","0.0","0.0","","","","-1.4520908305232617","34.74321788479117","0.0","0.0","0.0","0.0","4.06363378213665E-09"
"3","25294.86697079031","25294.866860911483","1099","6204498","3856.2900312202398","5233.700073938285","1.895","0.0","0.0","0.0","","","","-11.307467505436036","-1.484048957013114","0.0","0.0","0.0","0.0","8.63223486138389E-09"
"3","25294.887972792","25294.88786469363","2503","6205553","3656.6353845276605","5187.871252055238","1.895","0.0","0.0","0.0","","","","4.745797067783708","-30.14730120490251","0.0","0.0","0.0","0.0","0.0000011158029166834353"
"3","25294.892817825807","25294.892707168823","1075","6205942","3955.241138984772","5250.401206584618","1.895","0.0","0.0","0.0","","","","2.7951826163333188","-1.9234195949013025","0.0","0.0","0.0","0.0","2.92252286949406E-09"
"2","25294.899999999998","","","","3640.615822081792","5191.636589144429","1.895","","","","0.0","0.0","0.0","-4.91607567957301","31.516188685317638","0.0","0.0","0.0","0.0",""
"3","25294.902093833145","25294.901978535065","2575","6206664","3941.71173514479","5255.7200220795489","1.895","0.0","0.0","0.0","","","","4.59192458784709E-14","6.49099186816013E-15","0.0","0.0","0.0","0.0","6.13361646797351E-09"
"3","25294.93695982886","25294.93684468791","1189","6208761","3835.927210571482","5245.820849477645","1.895","0.0","0.0","0.0","","","","-10.4570299151371","6.699034789385928","0.0","0.0","0.0","0.0","3.03422508559963E-09"
"3","25294.96503399807","25294.96492494573","955","6209449","5560.0","5820.0","1.895","0.0","0.0","0.0","","","","-12.281248464276962","-1.7360364349922626","0.0","0.0","0.0","0.0","1.17429508067132E-08"
"3","25294.968779488205","25294.968672068742","2815","6209997","3598.6650189548547","5523.730534379932","1.895","0.0","0.0","0.0","","","","-2.9212748450239727","35.66060734239571","0.0","0.0","0.0","0.0","2.37679650851161E-09"
"3","25294.96908601595","25294.968971703667","415","6210364","3489.711194222311","5199.733505843805","1.895","0.0","0.0","0.0","","","","14.659021579758554","2.8744698763706295","0.0","0.0","0.0","0.0","3.26089908700177E-09"
"2","25295.0","","","","3640.123995755592","5194.789610437679","1.895","","","","0.0","0.0","0.0","-4.918270131485045","31.530256971690045","0.0","0.0","0.0","0.0",""
"3","25295.048476470558","25295.048358618096","2539","6215462","3642.270040212292","5236.6703503890689","1.895","0.0","0.0","0.0","","","","4.418681253433109","-28.06615463372274","0.0","0.0","0.0","0.0","7.0088958387864E-08"
"3","25295.0608950489","25295.060778156156","985","6217338","4003.6386305966577","5250.679229800169","1.895","0.0","0.0","0.0","","","","-12.413760036410551","-1.6939610049680319","0.0","0.0","0.0","0.0","9.41430850701977E-09"
"3","25295.066893539562","25295.06677743052","1837","6218002","3310.8875249020218","5206.343934302115","1.895","0.0","0.0","0.0","","","","-14.091883171786387","3.2558459729983406","0.0","0.0","0.0","0.0","8.61439622319613E-09"
"3","25295.069300048905","25295.0691826595","895","6218588","3812.7900966620675","5220.782042391686","1.895","0.0","0.0","0.0","","","","-6.739485235078971","-15.509014927832198","0.0","0.0","0.0","0.0","3.19472685947421E-09"
"2","25295.1","","","","3639.6317114028176","5197.9455680673249","1.895","","","","0.0","0.0","0.0","-4.9228504036291949","31.559620376662637","0.0","0.0","0.0","0.0",""
"3","25295.10653919262","25295.106429412495","529","6220795","3823.6785305752857","5246.229311209396","1.895","0.0","0.0","0.0","","","","-12.277423829118704","8.458214614656024","0.0","0.0","0.0","0.0","1.72649885371976E-09"
"3","25295.122837140494","25295.12272618669","2731","6221624","3607.881929810175","5576.4066709175199","1.895","0.0","0.0","0.0","","","","2.5638573500143555","-30.453259105094927","0.0","0.0","0.0","0.0","1.38479890851374E-09"
"3","25295.160622141593","25295.16051220363","3001","6223088","3641.34420362555","5208.3747556563789","1.895","0.0","0.0","0.0","","","","-4.621842752381005","29.62875381388065","0.0","0.0","0.0","0.0","0.0000017974755069460162"
"3","25295.186738330347","25295.186623613536","2545","6226031","3649.3136237791065","5234.382159176684","1.895","0.0","0.0","0.0","","","","4.6580734153855529","-29.59004362860238","0.0","0.0","0.0","0.0","2.85940604960463E-07"
"3","25295.19762691083","25295.197513209514","2917","6227125","5560.0","5820.0","1.895","0.0","0.0","0.0","","","","-4.24031471662362","29.625457030526737","0.0","0.0","0.0","0.0","8.75730436083589E-09"
"2","25295.2","","","","3639.1389164575359","5201.104799025304","1.895","","","","0.0","0.0","0.0","-4.927956335836076","31.592353705725289","0.0","0.0","0.0","0.0",""
"3","25295.200300141903","25295.20018988312","1303","6227501","3868.674897169246","5235.400572928856","1.895","0.0","0.0","0.0","","","","-11.136326242067982","-1.5740218252664425","0.0","0.0","0.0","0.0","8.44694240911257E-09"
"3","25295.26101743414","25295.26091104746","1177","6229596","3912.4514347132437","5238.25237348463","1.895","0.0","0.0","0.0","","","","-12.14988959629514","-1.7174679823222168","0.0","0.0","0.0","0.0","2.17804352125638E-08"
"2","25295.3","","","","3638.647554189889","5204.25484531209","1.895","","","","0.0","0.0","0.0","-4.913629539470743","31.500506865500645","0.0","0.0","0.0","0.0",""
"3","25295.325231430215","25295.325117911445","589","6232727","5560.0","5820.0","1.895","0.0","0.0","0.0","","","","-12.277622448816674","-1.7355238735091084","0.0","0.0","0.0","0.0","2.302343752642E-09"
"3","25295.327046854025","25295.326940450304","2689","6233113","3608.18610166274","5494.196571684287","1.895","0.0","0.0","0.0","","","","2.5119324321287377","-29.840590648737018","0.0","0.0","0.0","0.0","2.56310554101383E-09"
"3","25295.331565757686","25295.331451921254","1033","6233748","3847.7646714588374","5238.237476096683","1.895","0.0","0.0","0.0","","","","-11.870296671326761","1.9816825056221009","0.0","0.0","0.0","0.0","5.5137428312792E-09"
"3","25295.35501178283","25295.35489750933","2515","6235104","3649.1973875728724","5192.669891638527","1.895","0.0","0.0","0.0","","","","4.413941585934385","-28.036049669507194","0.0","0.0","0.0","0.0","5.92842525707168E-07"
"3","25295.376547331707","25295.376431099652","2959","6236079","3629.0430251794707","5287.232606804998","1.895","0.0","0.0","0.0","","","","-4.619391234489177","29.613038129909204","0.0","0.0","0.0","0.0","2.79916446500919E-08"
"3","25295.399909532236","25295.399801690597","595","6237924","3909.93945852151","5244.568750591882","1.895","0.0","0.0","0.0","","","","-14.230651485107556","-2.011597562226416","0.0","0.0","0.0","0.0","1.04181964564297E-08"
"2","25295.399999999998","","","","3638.154881169427","5207.413294629205","1.895","","","","0.0","0.0","0.0","-4.926737085931084","31.58453728615919","0.0","0.0","0.0","0.0",""
"3","25295.41026454708","25295.41015417846","2161","6239049","3824.2594006519777","5255.8411986960459","1.895","0.0","0.0","0.0","","","","0.0","0.0","0.0","0.0","0.0","0.0","5.38094355517491E-09"
"3","25295.424962228008","25295.42485263804","1225","6240471","3927.9194294534206","5240.438877773942","1.895","0.0","0.0","0.0","","","","-11.423038194940109","-1.6147226857599298","0.0","0.0","0.0","0.0","1.94840668912191E-08"
"3","25295.435252404182","25295.435136346845","2551","6241326","5560.0","5820.0","1.895","0.0","0.0","0.0","","","","4.472256550973036","-28.40644905621191","0.0","0.0","0.0","0.0","9.84467854755429E-08"
"3","25295.43631264105","25295.43620527703","2569","6241718","3632.811608135347","5296.747509622439","1.895","0.0","0.0","0.0","","","","4.492380532073285","-28.53427062398964","0.0","0.0","0.0","0.0","1.28140094144931E-07"
"3","25295.486904902744","25295.486788551232","2851","6245182","5560.0","5820.0","1.895","0.0","0.0","0.0","","","","-3.43071776621389","29.726804474261696","0.0","0.0","0.0","0.0","2.99495242172296E-09"
"3","25295.49106102762","25295.490941260476","2821","6245561","3597.7770780270168","5776.09241207309","1.895","0.0","0.0","0.0","","","","-0.017699556688483339","-30.34810238544893","0.0","0.0","0.0","0.0","2.19866877721394E-09"
"3","25295.49608754331","25295.495970296903","679","6245884","3834.021758701604","5243.121211759849","1.895","0.0","0.0","0.0","","","","-9.739300192763507","6.2398040581694709","0.0","0.0","0.0","0.0","1.39224535707993E-08"
"2","25295.5","","","","3637.6629962673748","5210.566691443039","1.895","","","","0.0","0.0","0.0","-4.918855890828162","31.534012182794418","0.0","0.0","0.0","0.0",""
"3","25295.557376700785","25295.557263799943","2989","6247535","3633.809372682012","5256.677491819427","1.895","0.0","0.0","0.0","","","","-4.616400073646867","29.593863014492546","0.0","0.0","0.0","0.0","1.2768596895052E-08"
"3","25295.595585948777","25295.595475546503","2233","6250202","3817.3042241405357","5262.757963360094","1.895","0.0","0.0","0.0","","","","2.004558784521821","-1.0208966384587808","0.0","0.0","0.0","0.0","1.79710499605095E-09"
"3","25295.597542984036","25295.597430437945","2203","6250585","3822.346266419994","5257.931115527778","1.895","0.0","0.0","0.0","","","","0.9519098125880441","-1.0293241648166134","0.0","0.0","0.0","0.0","1.77679722900624E-08"
"2","25295.6","","","","3637.171722056055","5213.71617321455","1.895","","","","0.0","0.0","0.0","-4.912748974972938","31.494861704853638","0.0","0.0","0.0","0.0",""
"3","25295.6416218461","25295.641512781196","2755","6252621","3601.5443582227796","5573.097399051599","1.895","0.0","0.0","0.0","","","","2.8421331022960127","-33.76322125151668","0.0","0.0","0.0","0.0","1.16133333462112E-08"
"3","25295.647336431466","25295.647217970807","1117","6253555","3799.8307563069367","5265.578470433983","1.895","0.0","0.0","0.0","","","","-13.98739565054887","2.982489152396434","0.0","0.0","0.0","0.0","8.46701691264049E-09"
"3","25295.667390506558","25295.66728484002","505","6254483","5560.0","5820.0","1.895","0.0","0.0","0.0","","","","14.407604120150117","1.864638071470241","0.0","0.0","0.0","0.0","1.33944799937832E-09"
"3","25295.672637645876","25295.672519360203","2671","6254998","3621.6063519162187","5435.0700701186619","1.895","0.0","0.0","0.0","","","","3.944572810066517","-31.83988347040732","0.0","0.0","0.0","0.0","2.87599834635351E-08"
"3","25295.6960585831","25295.69594686199","1045","6256364","3438.218890261106","5193.944187573597","1.895","0.0","0.0","0.0","","","","12.708673916615953","-0.48552717924021079","0.0","0.0","0.0","0.0","1.12129469197453E-08"
"2","25295.7","","","","3636.678894914176","5216.875610579853","1.895","","","","0.0","0.0","0.0","-4.928278302255578","31.594417781847939","0.0","0.0","0.0","0.0",""
"3","25295.701242460163","25295.701130092377","2677","6257073","3956.334811716939","5239.446558600446","1.895","0.0","0.0","0.0","","","","-1.40373693055688E-14","4.39084467328434E-14","0.0","0.0","0.0","0.0","1.34358902409327E-09"
"3","25295.748777461144","25295.748663624516","235","6261005","5560.0","5820.0","1.895","0.0","0.0","0.0","","","","-12.515093327458132","-1.768898433330057","0.0","0.0","0.0","0.0","5.57583344338726E-09"
"3","25295.768401550024","25295.768294677837","3019","6262562","3644.5766185057939","5187.653058739768","1.895","0.0","0.0","0.0","","","","-4.667282151168539","29.920047315696544","0.0","0.0","0.0","0.0","3.08309409459875E-07"
"3","25295.787870872136","25295.787762834363","2749","6264041","3592.0677856128988","5646.296145924629","1.895","0.0","0.0","0.0","","","","-1.7016805156679429","29.87062929230336","0.0","0.0","0.0","0.0","3.84033034259097E-09"
"3","25295.78988654984","25295.789769615745","901","6264373","3950.956178338532","5253.562183475376","1.895","0.0","0.0","0.0","","","","1.2074407645743888","0.14294978154162167","0.0","0.0","0.0","0.0","1.859393953539E-09"
"2","25295.8","","","","3636.18628049284","5220.033684227181","1.895","","","","0.0","0.0","0.0","-4.926151093852023","31.58078058304198","0.0","0.0","0.0","0.0",""
"3","25295.823052963835","25295.822947126348","2695","6266545","5560.0","5820.0","1.895","0.0","0.0","0.0","","","","4.242578383053582","-34.2536388294654","0.0","0.0","0.0","0.0","1.3648862433431E-08"
"3","25295.855513415325","25295.855399788914","2791","6268046","3598.8073870715095","5722.398007936945","1.895","0.0","0.0","0.0","","","","1.2824594321977965","-29.890945125853599","0.0","0.0","0.0","0.0","4.07396750395876E-09"
"3","25295.86697054843","25295.866860911483","1099","6268926","3845.269804389716","5235.914780112604","1.895","0.0","0.0","0.0","","","","-10.797127811386556","3.7642874132754589","0.0","0.0","0.0","0.0","1.00525183198549E-08"
"2","25295.899999999998","","","","3635.6944650829329","5223.186635537795","1.895","","","","0.0","0.0","0.0","-4.918160968407746","31.529557144361509","0.0","0.0","0.0","0.0",""
"3","25295.90208531294","25295.901978535065","2575","6270697","3942.3128450732508","5255.804992979721","1.895","0.0","0.0","0.0","","","","1.4730768138705089","0.20822923889722876","0.0","0.0","0.0","0.0","1.09595511541252E-08"
"3","25295.93695831492","25295.93684468791","1189","6272743","3825.8415019679607","5252.7492700437119","1.895","0.0","0.0","0.0","","","","-10.159167993530782","6.989243419166612","0.0","0.0","0.0","0.0","3.85352937875552E-09"
"3","25295.965032489003","25295.96492494573","955","6273409","5560.0","5820.0","1.895","0.0","0.0","0.0","","","","-12.25889539424204","1.1794272536755624","0.0","0.0","0.0","0.0","5.83456929698434E-09"
"2","25296.0","","","","3635.202299589558","5226.341831178504","1.895","","","","0.0","0.0","0.0","-4.921661807967799","31.552000476663769","0.0","0.0","0.0","0.0",""
"3","25296.048469403762","25296.048358618096","2539","6278737","3646.6938119900717","5208.571862252377","1.895","0.0","0.0","0.0","","","","4.407941789605988","-27.99794074021751","0.0","0.0","0.0","0.0","1.57948537268939E-07"
"3","25296.048708887003","25296.048600236976","2617","6279140","4054.671897123739","5276.94055844934","1.895","0.0","0.0","0.0","","","","12.343530873238077","2.8680557028989166","0.0","0.0","0.0","0.0","3.75859040550545E-09"
"3","25296.06089368098","25296.060778156156","985","6280574","3991.3491848669884","5248.82680284433","1.895","0.0","0.0","0.0","","","","-12.245094396460705","-1.9136519614928205","0.0","0.0","0.0","0.0","3.23427184927236E-09"
"3","25296.0668866304","25296.06677743052","1837","6281200","3296.8106850750257","5209.584557676441","1.895","0.0","0.0","0.0","","","","-14.065828710531785","3.734533477027464","0.0","0.0","0.0","0.0","1.02370927016072E-08"
"3","25296.069290970554","25296.0691826595","895","6281801","3805.788769690569","5204.670472927834","1.895","0.0","0.0","0.0","","","","-7.220333803036069","-16.615551608060714","0.0","0.0","0.0","0.0","3.30730588041853E-09"
"2","25296.1","","","","3634.7102323897486","5229.496396674616","1.895","","","","0.0","0.0","0.0","-4.9206788709470949","31.545699021879618","0.0","0.0","0.0","0.0",""
"3","25296.10654315813","25296.106429412495","529","6283939","3811.340071291631","5254.853306638692","1.895","0.0","0.0","0.0","","","","-12.096570821391797","8.701771433833079","0.0","0.0","0.0","0.0","8.5118375099374E-09"
"3","25296.12284080201","25296.12272618669","2731","6284778","3610.4374511439875","5546.052426237409","1.895","0.0","0.0","0.0","","","","2.5525397418705255","-30.318829608357225","0.0","0.0","0.0","0.0","4.87028848590507E-09"
"3","25296.160625803448","25296.16051220363","3001","6286253","3636.736099931054","5237.915433958937","1.895","0.0","0.0","0.0","","","","-4.607368273966335","29.53596382069307","0.0","0.0","0.0","0.0","0.0000029037744309615476"
"3","25296.165534298212","25296.1654187975","2599","6286632","5560.0","5820.0","1.895","0.0","0.0","0.0","","","","4.498493667182857","-28.57309944766835","0.0","0.0","0.0","0.0","1.27659325054199E-07"
"3","25296.186731493053","25296.186623613536","2545","6289496","3653.9662931558984","5204.8264442766189","1.895","0.0","0.0","0.0","","","","4.655858051608701","-29.57597070509471","0.0","0.0","0.0","0.0","4.26346988477415E-07"
"2","25296.2","","","","3634.2175782910837","5232.654724687066","1.895","","","","0.0","0.0","0.0","-4.926547867696074","31.583324237808424","0.0","0.0","0.0","0.0",""
"3","25296.26102910778","25296.26091104746","1177","6292715","3900.1285276668775","5236.51044833103","1.895","0.0","0.0","0.0","","","","-12.059941464483846","-1.7047532135803918","0.0","0.0","0.0","0.0","3.4536463333975E-09"
"3","25296.269979709003","25296.269870004013","1771","6293084","5560.0","5820.0","1.895","0.0","0.0","0.0","","","","-13.456991215229357","3.634995171341205","0.0","0.0","0.0","0.0","3.97250503777398E-09"
"2","25296.3","","","","3633.7245094808747","5235.815711350057","1.895","","","","0.0","0.0","0.0","-4.930694988928925","31.60991078036685","0.0","0.0","0.0","0.0",""
"3","25296.32522523656","25296.325117911445","589","6295833","5560.0","5820.0","1.895","0.0","0.0","0.0","","","","-12.32601848347667","-1.742364976001361","0.0","0.0","0.0","0.0","3.00126695706539E-09"
"3","25296.327053382713","25296.326940450304","2689","6296231","3611.3263769968045","5464.409303256501","1.895","0.0","0.0","0.0","","","","3.6767130386184889","-29.69215990529913","0.0","0.0","0.0","0.0","2.14831751206862E-08"
"3","25296.33155935103","25296.331451921254","1033","6296887","3837.8600717243386","5244.582610301597","1.895","0.0","0.0","0.0","","","","-10.10398264051414","6.472863879080193","0.0","0.0","0.0","0.0","6.66669256601142E-09"
"3","25296.37654669285","25296.376431099652","2959","6298830","3624.434479132057","5316.77612085217","1.895","0.0","0.0","0.0","","","","-4.617141857845756","29.598618291248905","0.0","0.0","0.0","0.0","2.2717764702411E-08"
"3","25296.399916235012","25296.399801690597","595","6300995","3895.970973554963","5242.594212016742","1.895","0.0","0.0","0.0","","","","-14.260902116473874","-2.015873690861746","0.0","0.0","0.0","0.0","1.52147599243373E-08"
"2","25296.399999999998","","","","3633.2332342995284","5238.965199340255","1.895","","","","0.0","0.0","0.0","-4.912758675248858","31.494923891818965","0.0","0.0","0.0","0.0",""
"3","25296.410271242887","25296.41015417846","2161","6302127","3824.2594006519777","5255.8411986960459","1.895","0.0","0.0","0.0","","","","0.0","0.0","0.0","0.0","0.0","0.0","1.33538775713482E-08"
"3","25296.41702328036","25296.41691268119","2707","6302518","3610.988700882989","5500.206535698585","1.895","0.0","0.0","0.0","","","","2.541833170136578","-30.19372924031071","0.0","0.0","0.0","0.0","2.82776966906951E-08"
"3","25296.424968858577","25296.42485263804","1225","6303589","3916.134861871","5238.773050496427","1.895","0.0","0.0","0.0","","","","-11.62278294245311","-1.642957938911375","0.0","0.0","0.0","0.0","2.01089411509324E-08"
"3","25296.43524333902","25296.435136346845","2551","6304393","5560.0","5820.0","1.895","0.0","0.0","0.0","","","","4.40841452311834","-28.00094340347714","0.0","0.0","0.0","0.0","0.0000017524547095858128"
"3","25296.43631651949","25296.43620527703","2569","6304762","3637.273725773274","5268.405459939048","1.895","0.0","0.0","0.0","","","","4.430070628663815","-28.13849657195939","0.0","0.0","0.0","0.0","5.5936474700761E-08"
"3","25296.471310252447","25296.47120091375","2833","6306126","3598.6762275068929","5648.559393100864","1.895","0.0","0.0","0.0","","","","1.7482225528653226","-40.709746083263699","0.0","0.0","0.0","0.0","8.07583854404114E-09"
"3","25296.486897252842","25296.486788551232","2851","6308254","5560.0","5820.0","1.895","0.0","0.0","0.0","","","","-2.4414404451846649","29.803549476624153","0.0","0.0","0.0","0.0","4.4596759116757E-09"
"3","25296.49105297734","25296.490941260476","2821","6308628","3597.8012676661376","5745.848153166482","1.895","0.0","0.0","0.0","","","","0.2365027845184636","-30.347399504051255","0.0","0.0","0.0","0.0","3.55687154822368E-09"
"3","25296.496083137416","25296.495970296903","679","6308953","3824.50953856508","5249.663820537693","1.895","0.0","0.0","0.0","","","","-9.535576745999079","6.563050947298415","0.0","0.0","0.0","0.0","1.86248088223033E-08"
"2","25296.5","","","","3632.7417986111779","5242.115716315637","1.895","","","","0.0","0.0","0.0","-4.914363747538344","31.505213758044446","0.0","0.0","0.0","0.0",""
"3","25296.557377252302","25296.557263799943","2989","6310598","3629.199045889314","5286.232421500241","1.895","0.0","0.0","0.0","","","","-4.625499713610158","29.652197104748749","0.0","0.0","0.0","0.0","1.47806375445825E-07"
"3","25296.595592167105","25296.595475546503","2233","6313210","3818.5356390224508","5261.824140407976","1.895","0.0","0.0","0.0","","","","0.8687105779507774","-0.5362321489851796","0.0","0.0","0.0","0.0","4.51475520927882E-09"
"3","25296.597536200283","25296.597430437945","2203","6313588","3822.720660935105","5257.245559069275","1.895","0.0","0.0","0.0","","","","0.3718089325883159","-0.4434959827843076","0.0","0.0","0.0","0.0","9.46591154118754E-09"
"2","25296.6","","","","3632.2485792146596","5245.277668363793","1.895","","","","0.0","0.0","0.0","-4.932200854121805","31.619564645491555","0.0","0.0","0.0","0.0",""
"3","25296.641627749264","25296.641512781196","2755","6315580","3604.3854458421249","5539.346597651976","1.895","0.0","0.0","0.0","","","","2.8341721359190075","-33.66864866832523","0.0","0.0","0.0","0.0","1.85192792921529E-08"
"3","25296.667396371937","25296.66728484002","505","6317454","5560.0","5820.0","1.895","0.0","0.0","0.0","","","","14.210702817342007","2.7790486482116316","0.0","0.0","0.0","0.0","3.25185101469328E-09"
"3","25296.672630223373","25296.672519360203","2671","6317981","3625.545316350104","5403.275456453828","1.895","0.0","0.0","0.0","","","","3.9442320639311037","-31.837133028750878","0.0","0.0","0.0","0.0","3.23496318584221E-09"
"3","25296.696064234995","25296.69594686199","1045","6319404","3451.015273182205","5193.455309525036","1.895","0.0","0.0","0.0","","","","12.782060530299934","-0.48833087030741087","0.0","0.0","0.0","0.0","2.04357469400945E-09"
"3","25296.69644949868","25296.69634348573","187","6319736","3823.427998698004","5246.40190868712","1.895","0.0","0.0","0.0","","","","-11.126530475546753","7.665336310658311","0.0","0.0","0.0","0.0","1.4691106595198E-08"
"2","25296.7","","","","3631.7565560384489","5248.431951631529","1.895","","","","0.0","0.0","0.0","-4.92023863434291","31.542876734187563","0.0","0.0","0.0","0.0",""
"3","25296.701241387993","25296.701130092377","2677","6320135","3956.334811716939","5239.446558600446","1.895","0.0","0.0","0.0","","","","-1.43884176405486E-14","4.50065148096731E-14","0.0","0.0","0.0","0.0","1.93715782135574E-09"
"3","25296.748776388118","25296.748663624516","235","6324154","5560.0","5820.0","1.895","0.0","0.0","0.0","","","","-12.51666157415609","-1.7691200912158203","0.0","0.0","0.0","0.0","8.19879762647138E-09"
"3","25296.750108379365","25296.749999247724","157","6324526","3505.4566803569084","5206.036977279743","1.895","0.0","0.0","0.0","","","","14.239911307409882","2.4765237902982615","0.0","0.0","0.0","0.0","2.48594851601122E-09"
"3","25296.767860568798","25296.76774989008","3043","6325722","3637.3193659690025","5191.3613213934809","1.895","0.0","0.0","0.0","","","","-4.50397861979751","28.875422624714667","0.0","0.0","0.0","0.0","6.13159764819738E-08"
"3","25296.768400571873","25296.768294677837","3019","6326107","3639.9306124398465","5217.436713727782","1.895","0.0","0.0","0.0","","","","-4.64484409757766","29.776206081450114","0.0","0.0","0.0","0.0","2.51513537988425E-07"
"3","25296.789885584567","25296.789769615745","901","6327952","3952.5307173254548","5253.184579102946","1.895","0.0","0.0","0.0","","","","1.232677610008375","0.022100296614449269","0.0","0.0","0.0","0.0","5.21494705695637E-09"
"2","25296.8","","","","3631.263278169952","5251.594278534354","1.895","","","","0.0","0.0","0.0","-4.9327855747279429","31.623313197416377","0.0","0.0","0.0","0.0",""
"3","25296.805376812536","25296.80526385526","907","6328537","3453.8195683319247","5196.653390188013","1.895","0.0","0.0","0.0","","","","12.98915800651277","-0.4965590827592707","0.0","0.0","0.0","0.0","7.00315884522035E-09"
"3","25296.830277410678","25296.830165809206","3055","6330841","3645.4087185978917","5182.318803530721","1.895","0.0","0.0","0.0","","","","-4.650468934035436","29.812264619924183","0.0","0.0","0.0","0.0","1.94574138450347E-08"
"3","25296.866968261045","25296.866860911483","1099","6333004","3835.5889531686909","5242.117136908256","1.895","0.0","0.0","0.0","","","","-9.686634485474406","6.206062034865468","0.0","0.0","0.0","0.0","2.59825209870894E-09"
"3","25296.892820088793","25296.892707168823","1075","6334437","3959.660556575214","5239.874401358972","1.895","0.0","0.0","0.0","","","","2.590483858498828","-7.240432481071595","0.0","0.0","0.0","0.0","1.94617320455397E-09"
"2","25296.899999999998","","","","3630.7708775051348","5254.75098182223","1.895","","","","0.0","0.0","0.0","-4.924013525681434","31.56707696938447","0.0","0.0","0.0","0.0",""
"3","25296.902096114358","25296.901978535065","2575","6335126","3944.815726319058","5256.158791947946","1.895","0.0","0.0","0.0","","","","3.282166689841528","0.46395616666030578","0.0","0.0","0.0","0.0","1.59195854382827E-09"
"3","25296.936956114743","25296.93684468791","1189","6337225","3815.7899804365317","5259.762924995314","1.895","0.0","0.0","0.0","","","","-10.044088913523389","7.154009064908584","0.0","0.0","0.0","0.0","8.39646586159892E-09"
"3","25296.965043296055","25296.96492494573","955","6337857","5560.0","5820.0","1.895","0.0","0.0","0.0","","","","-10.391418180776788","6.653445139068463","0.0","0.0","0.0","0.0","1.48483949835299E-08"
"3","25296.968788982158","25296.968672068742","2815","6338432","3592.8287550860898","5594.97501674188","1.895","0.0","0.0","0.0","","","","-2.9219512869753085","35.668864809464569","0.0","0.0","0.0","0.0","2.41511896842473E-09"
"3","25296.96908691241","25296.968971703667","415","6338783","3519.065857444766","5204.656163767358","1.895","0.0","0.0","0.0","","","","14.731201900600383","1.86531452637715","0.0","0.0","0.0","0.0","8.83894083062003E-09"
"2","25297.0","","","","3630.277848156364","5257.911715504141","1.895","","","","0.0","0.0","0.0","-4.930300373995702","31.60738096603198","0.0","0.0","0.0","0.0",""
"3","25297.048471519247","25297.048358618096","2539","6343207","3651.1008282836958","5180.579799988543","1.895","0.0","0.0","0.0","","","","4.396279203414855","-27.92386344684247","0.0","0.0","0.0","0.0","5.62593490042156E-08"
"3","25297.060890154655","25297.060778156156","985","6345080","3979.0343028638915","5247.342565067747","1.895","0.0","0.0","0.0","","","","-12.189780474380984","-1.402018326405419","0.0","0.0","0.0","0.0","1.15899371349792E-08"
"2","25297.1","","","","3629.784647403575","5261.07354803028","1.895","","","","0.0","0.0","0.0","-4.932014416571008","31.618369423649598","0.0","0.0","0.0","0.0",""
"3","25297.10653822401","25297.106429412495","529","6348443","3797.3177551899409","5259.368679854867","1.895","0.0","0.0","0.0","","","","-14.575322529501542","3.110215267800654","0.0","0.0","0.0","0.0","1.20391115215058E-08"
"3","25297.122835569964","25297.12272618669","2731","6349258","3612.986213211001","5515.778467499565","1.895","0.0","0.0","0.0","","","","2.547576842678353","-30.25988075341769","0.0","0.0","0.0","0.0","6.83510479921869E-09"
"3","25297.16061805762","25297.16051220363","3001","6351040","3632.1240444105935","5267.481445810228","1.895","0.0","0.0","0.0","","","","-4.611357808876393","29.561539106139795","0.0","0.0","0.0","0.0","0.000004520444744933534"
"3","25297.165526166755","25297.1654187975","2599","6351383","5560.0","5820.0","1.895","0.0","0.0","0.0","","","","4.467681972019811","-28.377392685561593","0.0","0.0","0.0","0.0","5.5218171340916E-07"
"3","25297.197619852686","25297.197513209514","2917","6354866","5560.0","5820.0","1.895","0.0","0.0","0.0","","","","-3.436834332749501","29.779803872610616","0.0","0.0","0.0","0.0","6.57873426060288E-09"
"2","25297.2","","","","3629.2920590299765","5264.231454689658","1.895","","","","0.0","0.0","0.0","-4.925890616118179","31.579110701214444","0.0","0.0","0.0","0.0",""
"3","25297.200306093513","25297.20018988312","1303","6355241","3846.346900999191","5235.224702626355","1.895","0.0","0.0","0.0","","","","-11.189066521966579","2.5677779563158316","0.0","0.0","0.0","0.0","2.269024640856E-09"
"3","25297.261023369247","25297.26091104746","1177","6357027","3887.8056401436599","5234.768525937157","1.895","0.0","0.0","0.0","","","","-12.077790388976622","-1.7072762781786564","0.0","0.0","0.0","0.0","5.60609663392075E-09"
"2","25297.3","","","","3628.7996767702536","5267.388039985365","1.895","","","","0.0","0.0","0.0","-4.9238294744771819","31.565897046041728","0.0","0.0","0.0","0.0",""
"3","25297.325234786233","25297.325117911445","589","6360145","5560.0","5820.0","1.895","0.0","0.0","0.0","","","","-12.34480363058093","1.1876924775789504","0.0","0.0","0.0","0.0","2.50494254902237E-08"
"3","25297.327058196246","25297.326940450304","2689","6360508","3615.008836515944","5434.670736297749","1.895","0.0","0.0","0.0","","","","3.683079859731171","-29.743576664937579","0.0","0.0","0.0","0.0","6.83075738922049E-09"
"3","25297.376544537816","25297.376431099652","2959","6363165","3620.975967171575","5346.48568871013","1.895","0.0","0.0","0.0","","","","-3.4367992781031178","29.779500127825963","0.0","0.0","0.0","0.0","9.18768279160502E-08"
"3","25297.39991406143","25297.399801690597","595","6365368","3881.98087498091","5240.616618213932","1.895","0.0","0.0","0.0","","","","-14.211021819328769","-2.008822777963815","0.0","0.0","0.0","0.0","1.65708573702324E-08"
"2","25297.399999999998","","","","3628.3082562429606","5270.5384597655879","1.895","","","","0.0","0.0","0.0","-4.914212136748777","31.50424180508197","0.0","0.0","0.0","0.0",""
"3","25297.417030063894","25297.41691268119","2707","6366900","3613.947804815887","5470.070335594163","1.895","0.0","0.0","0.0","","","","3.7243079950590389","-30.069238428720458","0.0","0.0","0.0","0.0","6.15827869283426E-09"
"3","25297.435243775828","25297.435136346845","2551","6368759","5560.0","5820.0","1.895","0.0","0.0","0.0","","","","4.428015185904882","-28.125441008324246","0.0","0.0","0.0","0.0","1.23036849638583E-08"
"3","25297.436316777752","25297.43620527703","2569","6369115","3641.7141268764887","5240.201347252327","1.895","0.0","0.0","0.0","","","","4.423175352858365","-28.09469982222836","0.0","0.0","0.0","0.0","2.93768337957306E-07"
"3","25297.47131771355","25297.47120091375","2833","6370520","3601.8859496174329","5608.335586134826","1.895","0.0","0.0","0.0","","","","3.3637153773504586","-39.95663938075308","0.0","0.0","0.0","0.0","2.39711911553063E-09"
"3","25297.4868987146","25297.486788551232","2851","6372703","5560.0","5820.0","1.895","0.0","0.0","0.0","","","","-2.4413732522093385","29.80272922759102","0.0","0.0","0.0","0.0","4.37959616252662E-09"
"2","25297.5","","","","3627.815242202325","5273.699095309449","1.895","","","","0.0","0.0","0.0","-4.930147292432975","31.606399584167347","0.0","0.0","0.0","0.0",""
"3","25297.55738093612","25297.557263799943","2989","6375018","3624.5874111287955","5315.795736030704","1.895","0.0","0.0","0.0","","","","-4.623191060547716","29.637397269078538","0.0","0.0","0.0","0.0","9.64367046578803E-08"
"2","25297.6","","","","3627.323372920887","5276.852391981984","1.895","","","","0.0","0.0","0.0","-4.918699684469691","31.533010768382515","0.0","0.0","0.0","0.0",""
"3","25297.64163136167","25297.641512781196","2755","6379984","3607.2274796158897","5505.584556377281","1.895","0.0","0.0","0.0","","","","2.8368193379377897","-33.70009619883861","0.0","0.0","0.0","0.0","5.34422592812945E-09"
"3","25297.67263352429","25297.672519360203","2671","6382417","3629.4814305129227","5371.503849665268","1.895","0.0","0.0","0.0","","","","3.943339779199723","-31.829930666616386","0.0","0.0","0.0","0.0","9.6657606486537E-08"
"2","25297.7","","","","3626.8302687374236","5280.013605417351","1.895","","","","0.0","0.0","0.0","-4.931048721967244","31.61217850729103","0.0","0.0","0.0","0.0",""
"3","25297.745560999265","25297.745444998098","2737","6387835","3584.7381549213766","5894.041367072045","1.895","0.0","0.0","0.0","","","","1.4920851547208408","34.95850016539287","0.0","0.0","0.0","0.0","1.37017344625744E-09"
"3","25297.750116901036","25297.749999247724","157","6388889","3519.8792281571047","5208.090461207031","1.895","0.0","0.0","0.0","","","","14.361906728012288","1.822263434305377","0.0","0.0","0.0","0.0","2.08191891888666E-09"
"3","25297.767856045975","25297.76774989008","3043","6390138","3632.619053405624","5221.495459051074","1.895","0.0","0.0","0.0","","","","-4.845646749250778","31.06588853678473","0.0","0.0","0.0","0.0","2.72142526079645E-08"
"3","25297.76840904906","25297.768294677837","3019","6390522","3635.2819916288515","5247.237130782676","1.895","0.0","0.0","0.0","","","","-4.654074634859685","29.835379301189467","0.0","0.0","0.0","0.0","3.02830906236082E-07"
"2","25297.8","","","","3626.3383242073448","5283.167384497092","1.895","","","","0.0","0.0","0.0","-4.919452171921847","31.537834847194817","0.0","0.0","0.0","0.0",""
"3","25297.80537613329","25297.80526385526","907","6392958","3466.8624083586339","5196.165089366945","1.895","0.0","0.0","0.0","","","","13.033311932201812","-0.47134953402792309","0.0","0.0","0.0","0.0","1.41811116832201E-09"
"3","25297.823063626744","25297.822947126348","2695","6394555","5560.0","5820.0","1.895","0.0","0.0","0.0","","","","4.233567138380779","-34.18088403449616","0.0","0.0","0.0","0.0","1.52438881553681E-08"
"3","25297.830273107575","25297.830165809206","3055","6395249","3640.753864444068","5212.159180010892","1.895","0.0","0.0","0.0","","","","-4.659540476903231","29.870418591130485","0.0","0.0","0.0","0.0","2.6383757177204E-09"
"3","25297.859982275986","25297.859875148206","2767","6396813","5560.0","5820.0","1.895","0.0","0.0","0.0","","","","-0.03376326291285793","34.83589580408732","0.0","0.0","0.0","0.0","5.9144271101342E-09"
"3","25297.86696717205","25297.866860911483","1099","6397360","3826.076354937616","5248.585427908498","1.895","0.0","0.0","0.0","","","","-9.472712985007309","6.519783709553836","0.0","0.0","0.0","0.0","1.78417510211334E-08"
"2","25297.899999999998","","","","3625.8454758763798","5286.326957702297","1.895","","","","0.0","0.0","0.0","-4.928490193410445","31.595776182752397","0.0","0.0","0.0","0.0",""
"3","25297.958883553918","25297.958777511492","3067","6402117","3640.1275412668167","5194.76688072235","1.895","0.0","0.0","0.0","","","","-4.691082329932223","30.07379167549545","0.0","0.0","0.0","0.0","1.0932245798641E-07"
"3","25297.96504057663","25297.96492494573","955","6402485","5560.0","5820.0","1.895","0.0","0.0","0.0","","","","-10.23828246316447","7.0534007430388059","0.0","0.0","0.0","0.0","7.61208161332055E-09"
"3","25297.968780557898","25297.968672068742","2815","6403070","3589.917312367437","5630.515601280387","1.895","0.0","0.0","0.0","","","","-2.8949252866970145","35.338952824080269","0.0","0.0","0.0","0.0","1.13443357590644E-08"
"3","25297.969078282793","25297.968971703667","415","6403405","3533.8581341401547","5206.490948252264","1.895","0.0","0.0","0.0","","","","14.766081031983111","1.8193276769432903","0.0","0.0","0.0","0.0","7.58112252867654E-09"
"2","25298.0","","","","3625.353430898431","5289.48138073755","1.895","","","","0.0","0.0","0.0","-4.920456652027897","31.544274411313905","0.0","0.0","0.0","0.0",""
"3","25298.069290345673","25298.0691826595","895","6410612","3781.311048577567","5180.629257065653","1.895","0.0","0.0","0.0","","","","-15.735584167902636","-8.819541126364446","0.0","0.0","0.0","0.0","7.18217228413937E-09"
"2","25298.1","","","","3624.862103467442","5292.631203691995","1.895","","","","0.0","0.0","0.0","-4.913281172403689","31.498273538975054","0.0","0.0","0.0","0.0",""
"3","25298.122839556625","25298.12272618669","2731","6413673","3615.5330790222167","5485.527032311695","1.895","0.0","0.0","0.0","","","","2.545833464167867","-30.2391730656812","0.0","0.0","0.0","0.0","2.61047560842416E-08"
"3","25298.16062455961","25298.16051220363","3001","6415496","3627.515589788626","5297.02437376605","1.895","0.0","0.0","0.0","","","","-4.620809660610897","29.622131082788653","0.0","0.0","0.0","0.0","0.0000011027489902389143"
"3","25298.165532819872","25298.1654187975","2599","6415813","5560.0","5820.0","1.895","0.0","0.0","0.0","","","","4.366092271673245","-27.73212499693063","0.0","0.0","0.0","0.0","2.23328444672993E-07"
"3","25298.171779241093","25298.171671783504","2719","6416662","5560.0","5820.0","1.895","0.0","0.0","0.0","","","","1.4022468275058098","32.13205004953883","0.0","0.0","0.0","0.0","1.33410087239065E-09"
"3","25298.19762424132","25298.197513209514","2917","6419174","5560.0","5820.0","1.895","0.0","0.0","0.0","","","","-3.435190429513266","29.7655596259353","0.0","0.0","0.0","0.0","3.23957298674127E-08"
"2","25298.2","","","","3624.3703630416305","5295.783674291353","1.895","","","","0.0","0.0","0.0","-4.917411126403991","31.52475002508252","0.0","0.0","0.0","0.0",""
"2","25298.3","","","","3623.8770917964236","5298.945958733308","1.895","","","","0.0","0.0","0.0","-4.932719341738717","31.622888588123588","0.0","0.0","0.0","0.0",""
"3","25298.32705412406","25298.326940450304","2689","6424910","3618.694341260171","5404.9075769083979","1.895","0.0","0.0","0.0","","","","3.6876271970814717","-29.78029975601175","0.0","0.0","0.0","0.0","2.20364452126131E-08"
"3","25298.37654763236","25298.376431099652","2959","6427576","3617.5485499753156","5376.18389409687","1.895","0.0","0.0","0.0","","","","-3.4249247982732564","29.676609023337517","0.0","0.0","0.0","0.0","2.33179909301668E-09"
"3","25298.38108165245","25298.38096730644","3025","6428418","3596.6600741564145","5984.8333393387279","1.895","0.0","0.0","0.0","","","","-2.190245094759787","-32.99456938074063","0.0","0.0","0.0","0.0","1.47585770078245E-09"
"2","25298.399999999998","","","","3623.384234843805","5302.105587210575","1.895","","","","0.0","0.0","0.0","-4.928576410061788","31.59632890415634","0.0","0.0","0.0","0.0",""
"3","25298.436312852773","25298.43620527703","2569","6433257","3646.043787803017","5212.700623369816","1.895","0.0","0.0","0.0","","","","4.118173471805968","-26.1574182066929","0.0","0.0","0.0","0.0","1.24795938155694E-07"
"3","25298.471318898108","25298.47120091375","2833","6434672","3605.2182008592255","5568.752700468885","1.895","0.0","0.0","0.0","","","","3.307943771275689","-39.294143984562207","0.0","0.0","0.0","0.0","1.81702039304459E-08"
"3","25298.486899901724","25298.486788551232","2851","6436870","5560.0","5820.0","1.895","0.0","0.0","0.0","","","","-2.4490428757178779","29.896355104956585","0.0","0.0","0.0","0.0","9.38920658604067E-09"
"3","25298.49104767752","25298.490941260476","2821","6437220","3600.3905495566048","5685.498421268394","1.895","0.0","0.0","0.0","","","","1.2939498992068757","-30.158759381964907","0.0","0.0","0.0","0.0","4.01794795665968E-09"
"2","25298.5","","","","3622.8913898568346","5305.2651389779589","1.895","","","","0.0","0.0","0.0","-4.92845675342348","31.595561804244114","0.0","0.0","0.0","0.0",""
"3","25298.557375056935","25298.557263799943","2989","6439212","3621.092991186484","5345.471688070308","1.895","0.0","0.0","0.0","","","","-3.4399694710760504","29.806969512676628","0.0","0.0","0.0","0.0","1.53393509049047E-07"
"3","25298.59558440029","25298.595475546503","2233","6442084","3819.3661261795634","5261.16582710198","1.895","0.0","0.0","0.0","","","","0.004299619773086917","-0.003019464751432599","0.0","0.0","0.0","0.0","1.59312716908777E-08"
"3","25298.597541433726","25298.597430437945","2203","6442455","3822.8804190789035","5256.793671748245","1.895","0.0","0.0","0.0","","","","4.99768550493961E-15","-6.59353806052745E-15","0.0","0.0","0.0","0.0","4.76046824413423E-09"
"2","25298.6","","","","3622.399593382837","5308.417968893429","1.895","","","","0.0","0.0","0.0","-4.917971609042142","31.52834319122394","0.0","0.0","0.0","0.0",""
"3","25298.641619311347","25298.641512781196","2755","6444460","3610.4048675938636","5471.851168928083","1.895","0.0","0.0","0.0","","","","4.161953989654023","-33.61083720195327","0.0","0.0","0.0","0.0","7.72179900816699E-09"
"3","25298.667400961487","25298.66728484002","505","6446343","5560.0","5820.0","1.895","0.0","0.0","0.0","","","","14.431353207848098","1.9349663063705603","0.0","0.0","0.0","0.0","1.93735717033361E-09"
"3","25298.6726313228","25298.672519360203","2671","6446862","3633.4193962802225","5339.717297057798","1.895","0.0","0.0","0.0","","","","3.9519052600821849","-31.89906969035791","0.0","0.0","0.0","0.0","3.21189256328004E-07"
"3","25298.696052544135","25298.69594686199","1045","6448278","3476.7788685729344","5193.848408863259","1.895","0.0","0.0","0.0","","","","10.843234795343856","1.7535007060063408","0.0","0.0","0.0","0.0","7.52003447136748E-09"
"2","25298.7","","","","3621.906335956142","5311.580164747073","1.895","","","","0.0","0.0","0.0","-4.932581156421641","31.622002703776315","0.0","0.0","0.0","0.0",""
"3","25298.74877108284","25298.748663624516","235","6453184","5560.0","5820.0","1.895","0.0","0.0","0.0","","","","-12.570466552821417","-1.7767249520008087","0.0","0.0","0.0","0.0","8.0671191595472E-09"
"3","25298.767856878054","25298.76774989008","3043","6454812","3627.6016083349225","5253.662762482759","1.895","0.0","0.0","0.0","","","","-5.154601264394824","33.04662444822634","0.0","0.0","0.0","0.0","3.95043586532745E-08"
"3","25298.768409881406","25298.768294677837","3019","6455195","3630.6453807795398","5276.960556858622","1.895","0.0","0.0","0.0","","","","-4.663341168450369","29.894783278587139","0.0","0.0","0.0","0.0","9.13571125908648E-08"
"3","25298.787880719767","25298.787762834363","2749","6456662","3588.3247003206868","5735.9459695005239","1.895","0.0","0.0","0.0","","","","-1.2470709503901816","29.868325715647619","0.0","0.0","0.0","0.0","5.33644407956319E-09"
"2","25298.8","","","","3621.4133969739839","5314.740319102832","1.895","","","","0.0","0.0","0.0","-4.929396706610567","31.601587696411053","0.0","0.0","0.0","0.0",""
"3","25298.80537897861","25298.80526385526","907","6457591","3479.7765034231767","5197.78542429704","1.895","0.0","0.0","0.0","","","","12.827583580415375","2.4658940984962895","0.0","0.0","0.0","0.0","1.8307261128139E-09"
"3","25298.823053144763","25298.822947126348","2695","6459182","5560.0","5820.0","1.895","0.0","0.0","0.0","","","","4.238566889731121","-34.22125092029307","0.0","0.0","0.0","0.0","4.16370050425205E-07"
"3","25298.83027563112","25298.830165809206","3055","6459865","3636.108046824112","5241.941626948312","1.895","0.0","0.0","0.0","","","","-4.669546152373178","29.93456090646303","0.0","0.0","0.0","0.0","1.59084570446356E-08"
"3","25298.85551009945","25298.855399788914","2791","6461427","3603.1367316675657","5632.76969304165","1.895","0.0","0.0","0.0","","","","2.5126840742552245","-29.845427695953963","0.0","0.0","0.0","0.0","1.81870922532232E-08"
"3","25298.85999016239","25298.859875148206","2767","6461770","5560.0","5820.0","1.895","0.0","0.0","0.0","","","","-0.033713511789214629","34.7845641255236","0.0","0.0","0.0","0.0","5.6409194093108E-09"
"3","25298.866971164658","25298.866860911483","1099","6462323","3816.5952667085477","5255.110976046876","1.895","0.0","0.0","0.0","","","","-9.465011132283541","6.5144827557509219","0.0","0.0","0.0","0.0","1.81084960496436E-08"
"2","25298.899999999998","","","","3620.954525896627","5317.897442229237","1.895","","","","0.0","0.0","0.0","-4.684993789180645","31.562075550003173","0.0","0.0","0.0","0.0",""
"3","25298.936957166246","25298.93684468791","1189","6466658","3792.1519719867499","5265.749042454661","1.895","0.0","0.0","0.0","","","","-12.305641565237304","-0.9957249185581997","0.0","0.0","0.0","0.0","1.74510319625285E-09"
"3","25298.95889541975","25298.958777511492","3067","6467290","3635.270542516378","5225.904336498137","1.895","0.0","0.0","0.0","","","","-4.997955025402891","32.041104305167298","0.0","0.0","0.0","0.0","2.38442735984113E-08"
"3","25298.96503941171","25298.96492494573","955","6467667","5560.0","5820.0","1.895","0.0","0.0","0.0","","","","-10.240514997623299","7.054938790095762","0.0","0.0","0.0","0.0","2.90290991268812E-09"
"2","25299.0","","","","3620.589066792939","5321.064754461199","1.895","","","","0.0","0.0","0.0","-3.788856232586523","31.6573865194694","0.0","0.0","0.0","0.0",""
"2","25299.1","","","","3620.2236278655325","5324.231891832057","1.895","","","","0.0","0.0","0.0","-3.6543943782604417","31.671417944936655","0.0","0.0","0.0","0.0",""
"3","25299.122838015872","25299.12272618669","2731","6478381","3619.0831545390685","5455.4368663041","1.895","0.0","0.0","0.0","","","","3.726973538345217","-30.08346121924023","0.0","0.0","0.0","0.0","4.20671999559671E-09"
"3","25299.160627470694","25299.16051220363","3001","6480162","3623.27053571285","5326.603496403023","1.895","0.0","0.0","0.0","","","","-3.4347998138605355","29.762174982867724","0.0","0.0","0.0","0.0","0.000005099128105883213"
"3","25299.16553611826","25299.1654187975","2599","6480509","5560.0","5820.0","1.895","0.0","0.0","0.0","","","","4.075678132361321","-25.88750039647723","0.0","0.0","0.0","0.0","1.10044309715592E-07"
"3","25299.19762471617","25299.197513209514","2917","6484103","5560.0","5820.0","1.895","0.0","0.0","0.0","","","","-3.4382950610759166","29.79246092814571","0.0","0.0","0.0","0.0","6.57716314701773E-09"
"2","25299.2","","","","3619.8568168302738","5327.410920804296","1.895","","","","0.0","0.0","0.0","-3.668115475945649","31.790334124847086","0.0","0.0","0.0","0.0",""
"3","25299.20029804179","25299.20018988312","1303","6484494","3827.2511843588029","5247.77682811941","1.895","0.0","0.0","0.0","","","","-9.397852597239293","6.468259554071707","0.0","0.0","0.0","0.0","1.22403050115708E-08"
"2","25299.3","","","","3619.491431843361","5330.577590690873","1.895","","","","0.0","0.0","0.0","-3.6538549725683278","31.666743095598706","0.0","0.0","0.0","0.0",""
"3","25299.32522930116","25299.325117911445","589","6489329","5560.0","5820.0","1.895","0.0","0.0","0.0","","","","-15.096742590413984","-0.8448967061428269","0.0","0.0","0.0","0.0","6.94833216294816E-09"
"3","25299.32705651436","25299.326940450304","2689","6489710","3622.3758085576316","5375.177022868914","1.895","0.0","0.0","0.0","","","","3.6714269345909549","-29.64947073037223","0.0","0.0","0.0","0.0","1.25942380557638E-07"
"3","25299.331562753305","25299.331451921254","1033","6490425","3807.6666191215369","5263.497773122494","1.895","0.0","0.0","0.0","","","","-11.194834877446859","4.224943332279831","0.0","0.0","0.0","0.0","6.0138904213502E-09"
"3","25299.376537140368","25299.376431099652","2959","6492279","3614.1184127483559","5405.9056682602599","1.895","0.0","0.0","0.0","","","","-3.438184889132392","29.791506299983973","0.0","0.0","0.0","0.0","1.67997834817428E-08"
"3","25299.399919708587","25299.399801690597","595","6494504","3854.0051339335316","5237.232689167996","1.895","0.0","0.0","0.0","","","","-14.441218043979604","-0.34417248003394926","0.0","0.0","0.0","0.0","2.86799108572772E-09"
"2","25299.399999999998","","","","3619.1257450334089","5333.7468763771289","1.895","","","","0.0","0.0","0.0","-3.6568732071812235","31.692901128916775","0.0","0.0","0.0","0.0",""
"3","25299.410261715617","25299.41015417846","2161","6495642","3824.2594006519777","5255.8411986960459","1.895","0.0","0.0","0.0","","","","0.0","0.0","0.0","0.0","0.0","0.0","1.43424363122338E-08"
"3","25299.42496781083","25299.42485263804","1225","6497125","3880.153146732258","5233.686794921016","1.895","0.0","0.0","0.0","","","","-11.82495783613104","-1.6715367094401895","0.0","0.0","0.0","0.0","1.64951402380209E-08"
"3","25299.457324632727","25299.4572048218","2725","6499070","5560.0","5820.0","1.895","0.0","0.0","0.0","","","","1.3968376248821304","32.6466924288446","0.0","0.0","0.0","0.0","1.64531276014665E-09"
"3","25299.471306632753","25299.47120091375","2833","6499353","3608.5030843182137","5529.732483519961","1.895","0.0","0.0","0.0","","","","3.262874672164438","-38.75878069177196","0.0","0.0","0.0","0.0","5.9405615465599E-09"
"3","25299.486900952008","25299.486788551232","2851","6501601","5560.0","5820.0","1.895","0.0","0.0","0.0","","","","-2.442678647197292","29.818664657887117","0.0","0.0","0.0","0.0","2.03012915078281E-09"
"3","25299.491055476035","25299.490941260476","2821","6501955","3601.6831301912059","5655.371576044607","1.895","0.0","0.0","0.0","","","","1.2941258749193867","-30.162860938954954","0.0","0.0","0.0","0.0","1.00776266539595E-08"
"3","25299.49608700081","25299.495970296903","679","6502301","3793.357761724769","5262.577032249935","1.895","0.0","0.0","0.0","","","","-11.551637677370464","0.10522452204350083","0.0","0.0","0.0","0.0","6.87312372447317E-09"
"2","25299.5","","","","3618.7600522527548","5336.916213809463","1.895","","","","0.0","0.0","0.0","-3.656932914281325","31.69341859044469","0.0","0.0","0.0","0.0",""
"3","25299.557376190463","25299.557263799943","2989","6503973","3617.665983232415","5375.166347417004","1.895","0.0","0.0","0.0","","","","-3.424310806519705","29.671288850111269","0.0","0.0","0.0","0.0","1.84640387199287E-07"
"3","25299.595585620995","25299.595475546503","2233","6506904","3819.366128549764","5261.165824768485","1.895","0.0","0.0","0.0","","","","0.0","0.0","0.0","0.0","0.0","0.0","1.75858895169226E-08"
"3","25299.597542655887","25299.597430437945","2203","6507279","3822.8804190789035","5256.793671748245","1.895","0.0","0.0","0.0","","","","0.0","0.0","0.0","0.0","0.0","0.0","1.12598056200223E-08"
"2","25299.6","","","","3618.394298045213","5340.086083608156","1.895","","","","0.0","0.0","0.0","-3.6575471840138169","31.698742261437919","0.0","0.0","0.0","0.0",""
"3","25299.641620181872","25299.641512781196","2755","6509282","3614.570289762747","5438.212323629995","1.895","0.0","0.0","0.0","","","","4.160640268209014","-33.60022793577379","0.0","0.0","0.0","0.0","2.13669443452625E-08"
"3","25299.667393440282","25299.66728484002","505","6511161","5560.0","5820.0","1.895","0.0","0.0","0.0","","","","14.379061834260858","1.773325981471217","0.0","0.0","0.0","0.0","4.91671976269172E-09"
"3","25299.672631715963","25299.672519360203","2671","6511702","3637.727751520884","5307.980498022916","1.895","0.0","0.0","0.0","","","","4.998845062862803","-31.754768616177633","0.0","0.0","0.0","0.0","1.14655641371436E-07"
"3","25299.696052860476","25299.69594686199","1045","6513108","3488.377060713986","5196.112543585717","1.895","0.0","0.0","0.0","","","","12.435720985986878","2.4319327509590566","0.0","0.0","0.0","0.0","5.77502105287959E-09"
"3","25299.696450853717","25299.69634348573","187","6513429","3786.562642151199","5257.642892942592","1.895","0.0","0.0","0.0","","","","-13.092328642391394","-3.6867592487484428","0.0","0.0","0.0","0.0","1.11732746076825E-08"
"2","25299.7","","","","3618.0288973590247","5343.252889555125","1.895","","","","0.0","0.0","0.0","-3.65401196554765","31.668103701425797","0.0","0.0","0.0","0.0",""
"3","25299.74877800685","25299.748663624516","235","6518122","5560.0","5820.0","1.895","0.0","0.0","0.0","","","","-12.563252668706867","-1.7753029182183418","0.0","0.0","0.0","0.0","1.48505317772755E-08"
"3","25299.750111656893","25299.749999247724","157","6518507","3548.8384957197988","5211.660872054447","1.895","0.0","0.0","0.0","","","","14.42435235494581","1.771572313983084","0.0","0.0","0.0","0.0","1.97881674864104E-09"
"3","25299.767863699828","25299.76774989008","3043","6519773","3622.3335417468185","5287.436823593536","1.895","0.0","0.0","0.0","","","","-5.2671053857064928","33.767898753485507","0.0","0.0","0.0","0.0","2.38765335725627E-08"
"3","25299.768403703307","25299.768294677837","3019","6520090","3626.0107854163136","5306.671062473137","1.895","0.0","0.0","0.0","","","","-4.6411058513131","29.752241705309669","0.0","0.0","0.0","0.0","5.77477763982268E-09"
"3","25299.7878745286","25299.787762834363","2749","6521571","3587.7245786606","5765.8446558940499","1.895","0.0","0.0","0.0","","","","-0.02909625534325043","29.989286564705809","0.0","0.0","0.0","0.0","5.58089659824785E-09"
"2","25299.8","","","","3617.6633997599658","5346.420535413633","1.895","","","","0.0","0.0","0.0","-3.654981095602762","31.67650282854212","0.0","0.0","0.0","0.0",""
"3","25299.805369648104","25299.80526385526","907","6522480","3492.57737444789","5200.295531670279","1.895","0.0","0.0","0.0","","","","12.856655193363716","2.521046023645004","0.0","0.0","0.0","0.0","3.89652024220984E-09"
"3","25299.823056743877","25299.822947126348","2695","6524399","5560.0","5820.0","1.895","0.0","0.0","0.0","","","","5.312161729028091","-33.74430007416557","0.0","0.0","0.0","0.0","1.55548042582838E-07"
"3","25299.83027690705","25299.830165809206","3055","6525049","3631.467459306872","5271.69054582472","1.895","0.0","0.0","0.0","","","","-4.6504797843397569","29.812334176811498","0.0","0.0","0.0","0.0","1.54338806293855E-09"
"3","25299.8555186186","25299.855399788914","2791","6526558","3605.6460621014109","5602.964099574526","1.895","0.0","0.0","0.0","","","","2.5106829635217284","-29.821658688788117","0.0","0.0","0.0","0.0","4.81578108173839E-09"
"3","25299.86697888178","25299.866860911483","1099","6527495","3806.485244974508","5260.420819220169","1.895","0.0","0.0","0.0","","","","-10.787903373883366","4.080125021458545","0.0","0.0","0.0","0.0","2.33209954239933E-08"
"2","25299.899999999998","","","","3617.29749051667","5349.591748855527","1.895","","","","0.0","0.0","0.0","-3.659097543718773","31.712178712235909","0.0","0.0","0.0","0.0",""
"3","25299.936955990295","25299.93684468791","1189","6531784","3780.1579727993018","5262.468874139112","1.895","0.0","0.0","0.0","","","","-11.672320017186144","-3.8867868909697345","0.0","0.0","0.0","0.0","3.09496479124931E-09"
"3","25299.958887179444","25299.958777511492","3067","6532424","3630.0904462164487","5259.113119893196","1.895","0.0","0.0","0.0","","","","-5.3149200691130968","34.07311739351875","0.0","0.0","0.0","0.0","8.06820686062277E-08"
"3","25299.965031164447","25299.96492494573","955","6532794","5560.0","5820.0","1.895","0.0","0.0","0.0","","","","-11.540053325542465","4.360260468796267","0.0","0.0","0.0","0.0","1.62588006045628E-08"
"3","25299.968785722263","25299.968672068742","2815","6533598","3586.519501403643","5700.125143871318","1.895","0.0","0.0","0.0","","","","-1.4341280964466899","34.31343541476654","0.0","0.0","0.0","0.0","1.06918116436204E-08"
"3","25299.969081786185","25299.968971703667","415","6533948","3563.410033878396","5210.1321477119149","1.895","0.0","0.0","0.0","","","","14.84183348526944","1.8287174951665904","0.0","0.0","0.0","0.0","1.69806804821222E-09"
"2","25300.0","","","","3616.930615751707","5352.771330151874","1.895","","","","0.0","0.0","0.0","-3.6687527738796845","31.79585737363681","0.0","0.0","0.0","0.0",""
