﻿"type","rcvTime","sendTime","sender","messageID","pos__001","pos__002","pos__003","pos_noise__001","pos_noise__002","pos_noise__003","noise__001","noise__002","noise__003","spd__001","spd__002","spd__003","spd_noise__001","spd_noise__002","spd_noise__003","RSSI"
"2","25200.0","","","","3585.702168410798","5719.680930367537","1.895","","","","0.0","0.0","0.0","-1.5888554749377029","38.01549516935774","0.0","0.0","0.0","0.0",""
"3","25200.009471184385","25200.009356701747","85","2081","5560.0","5820.0","1.895","0.0","0.0","0.0","","","","1.3655989754738778","-31.77107820491061","0.0","0.0","0.0","0.0","7.30093216745474E-08"
"3","25200.02021644357","25200.020107550547","91","2452","3597.0658386134566","5626.300132001252","1.895","0.0","0.0","0.0","","","","2.669000478256523","-31.70648608784684","0.0","0.0","0.0","0.0","1.19462702169453E-07"
"3","25200.030766444077","25200.030661048833","931","3619","3589.664304586143","5703.861398435702","1.895","0.0","0.0","0.0","","","","-1.3553410332352565","32.46147897502212","0.0","0.0","0.0","0.0","0.000001318539961803971"
"3","25200.062249835606","25200.062130806735","1285","6154","3462.9758132016706","5192.998364347597","1.895","0.0","0.0","0.0","","","","0.0","0.0","0.0","0.0","0.0","0.0","2.27506703664481E-09"
"3","25200.06996894876","25200.069859017385","313","7676","5560.0","5820.0","1.895","0.0","0.0","0.0","","","","-0.019530651153555228","-33.48774273480923","0.0","0.0","0.0","0.0","3.79247608018738E-08"
"3","25200.090350955947","25200.090232982067","601","8010","3820.4325803971785","5264.525077186061","1.895","0.0","0.0","0.0","","","","0.0","0.0","0.0","0.0","0.0","0.0","1.7878744685709E-09"
"2","25200.1","","","","3585.544198583465","5723.460570053208","1.895","","","","0.0","0.0","0.0","-1.5797004797433272","37.79644964807887","0.0","0.0","0.0","0.0",""
"2","25200.2","","","","3585.3861606875077","5727.241838371895","1.895","","","","0.0","0.0","0.0","-1.5803811669396584","37.81273600097646","0.0","0.0","0.0","0.0",""
"3","25200.24990917792","25200.249796275046","109","13575","3600.326908447151","5686.98173751425","1.895","0.0","0.0","0.0","","","","1.2890000102402338","-30.043389760309617","0.0","0.0","0.0","0.0","1.56455475443109E-07"
"3","25200.288684174506","25200.288569958415","751","15993","3603.7899373945599","6027.5731919564","1.895","0.0","0.0","0.0","","","","-3.6244542777767245","-31.469848464740108","0.0","0.0","0.0","0.0","8.61288296385403E-09"
"2","25200.3","","","","3585.2288608969176","5731.00544653112","1.895","","","","0.0","0.0","0.0","-1.5730001029546284","37.636134159690609","0.0","0.0","0.0","0.0",""
"3","25200.316652557947","25200.316541127395","1315","17657","5560.0","5820.0","1.895","0.0","0.0","0.0","","","","0.778278251030783","-0.02975259322189691","0.0","0.0","0.0","0.0","2.23314502265373E-09"
"3","25200.357453634013","25200.357346880246","811","19819","3594.782401440911","5739.2324428100569","1.895","0.0","0.0","0.0","","","","1.3893256865301534","-32.3523431458638","0.0","0.0","0.0","0.0","2.16718580050778E-07"
"3","25200.383572587434","25200.383462226015","121","22494","3598.7945662717008","5722.696828947522","1.895","0.0","0.0","0.0","","","","1.299115324480694","-30.279152619776654","0.0","0.0","0.0","0.0","0.0000015712784698965813"
"2","25200.399999999998","","","","3585.0717188534238","5734.765280379809","1.895","","","","0.0","0.0","0.0","-1.5714226297896959","37.59839100162263","0.0","0.0","0.0","0.0",""
"3","25200.437699750408","25200.437587209977","7","26096","3588.82255477119","5912.4196493720669","1.895","0.0","0.0","0.0","","","","1.2778285862106549","30.0127556771802","0.0","0.0","0.0","0.0","6.61523948938133E-09"
"3","25200.44215299663","25200.44203563034","511","26914","3590.9995362081847","5949.274444827021","1.895","0.0","0.0","0.0","","","","2.2252397678620694","29.88508537980526","0.0","0.0","0.0","0.0","4.97435446980613E-09"
"3","25200.447237657245","25200.447125378527","103","27601","3619.696834022857","5450.483355697797","1.895","0.0","0.0","0.0","","","","3.6747657175940229","-29.662049064108115","0.0","0.0","0.0","0.0","1.90407773133442E-08"
"3","25200.45626551713","25200.45615033596","31","28167","3590.771313271069","6027.30776646186","1.895","0.0","0.0","0.0","","","","3.8688760317551336","36.588911310234028","0.0","0.0","0.0","0.0","4.73461512928395E-09"
"3","25200.468765517777","25200.468651198316","67","29475","3593.7018667780837","5985.566884397889","1.895","0.0","0.0","0.0","","","","2.224026758356544","29.868794599281399","0.0","0.0","0.0","0.0","2.72472986191583E-09"
"2","25200.5","","","","3584.9150825602835","5738.513013473938","1.895","","","","0.0","0.0","0.0","-1.5663651191868822","37.47738328700672","0.0","0.0","0.0","0.0",""
"3","25200.566710323834","25200.56660144846","79","33425","3647.555391246762","5203.099365989224","1.895","0.0","0.0","0.0","","","","4.652355358930436","-29.550383344182924","0.0","0.0","0.0","0.0","2.11361581135355E-09"
"3","25200.57443656369","25200.574325255817","127","34279","3603.6176532945298","5989.912085468623","1.895","0.0","0.0","0.0","","","","-2.1153068752237038","-31.882766248469055","0.0","0.0","0.0","0.0","2.84980611475052E-08"
"3","25200.58212703542","25200.58201979124","25","35128","3597.6221646349747","6060.718167578049","1.895","0.0","0.0","0.0","","","","3.7912342496123165","35.87827182115704","0.0","0.0","0.0","0.0","1.5778778005946E-09"
"3","25200.592196689926","25200.592080666684","565","35977","3592.4108390240846","5640.43828515152","1.895","0.0","0.0","0.0","","","","-2.656804111051523","32.4325718980727","0.0","0.0","0.0","0.0","9.48680226503984E-08"
"2","25200.6","","","","3584.7585057373328","5742.259323664141","1.895","","","","0.0","0.0","0.0","-1.5657704164638822","37.463154227873889","0.0","0.0","0.0","0.0",""
"3","25200.62124569477","25200.621140327534","1207","38516","3581.7056631763878","5736.289516238321","1.895","0.0","0.0","0.0","","","","-1.398559006099595","33.42836359342893","0.0","0.0","0.0","0.0","8.05320234717624E-07"
"3","25200.6309379595","25200.630831810413","1039","39109","5560.0","5820.0","1.895","0.0","0.0","0.0","","","","-1.3937861645515748","33.31428311353671","0.0","0.0","0.0","0.0","4.96998050518857E-08"
"3","25200.634389977917","25200.634274053155","49","39475","5560.0","5820.0","1.895","0.0","0.0","0.0","","","","-1.5849407317501599","37.921829695627788","0.0","0.0","0.0","0.0","1.50899161454258E-08"
"3","25200.644108045526","25200.64399019652","115","40089","3593.767336672087","5686.009514159608","1.895","0.0","0.0","0.0","","","","1.3700958355344293","-31.875699030843504","0.0","0.0","0.0","0.0","8.40549700140278E-08"
"3","25200.69973426915","25200.69962205598","343","43916","5560.0","5820.0","1.895","0.0","0.0","0.0","","","","5.3030531810754379","-33.687226670671368","0.0","0.0","0.0","0.0","1.74020748495831E-09"
"2","25200.7","","","","3584.6021134211684","5746.001219282358","1.895","","","","0.0","0.0","0.0","-1.5639253460204082","37.41900844634745","0.0","0.0","0.0","0.0",""
"3","25200.722162527603","25200.722055605147","151","44728","3595.312259744827","5964.529421653061","1.895","0.0","0.0","0.0","","","","-1.9879277673411314","-29.94679490449674","0.0","0.0","0.0","0.0","7.13944701889334E-09"
"2","25200.8","","","","3584.4466189280158","5749.721633282597","1.895","","","","0.0","0.0","0.0","-1.5549471033674829","37.20419196653375","0.0","0.0","0.0","0.0",""
"3","25200.85889554736","25200.858777468093","703","51797","3584.367637500103","5824.541400855502","1.895","0.0","0.0","0.0","","","","-0.0322476363983411","33.27211900001629","0.0","0.0","0.0","0.0","8.44373150973916E-09"
"3","25200.860657548554","25200.86055117147","295","52120","5560.0","5820.0","1.895","0.0","0.0","0.0","","","","-0.031140702419763308","32.096482439935247","0.0","0.0","0.0","0.0","1.08165052829305E-07"
"3","25200.865046658855","25200.864933292847","145","52741","5560.0","5820.0","1.895","0.0","0.0","0.0","","","","-2.059919145624484","-31.039601969725678","0.0","0.0","0.0","0.0","2.76585472766698E-09"
"3","25200.8701240591","25200.870012145257","19","53374","3590.2552953742044","5689.706706317157","1.895","0.0","0.0","0.0","","","","-1.3542004202855645","32.434160401694047","0.0","0.0","0.0","0.0","7.38750683318226E-08"
"3","25200.891634232343","25200.891522682505","421","56179","3592.8612629479569","5925.618957115369","1.895","0.0","0.0","0.0","","","","-1.1692409025022579","-29.928691167353504","0.0","0.0","0.0","0.0","1.02089909799226E-08"
"3","25200.892826472013","25200.892707168823","1075","56521","3814.1059200610227","5232.095536408252","1.895","0.0","0.0","0.0","","","","2.6948074387649809","6.200312733307922","0.0","0.0","0.0","0.0","1.66239007174629E-09"
"2","25200.899999999998","","","","3584.4365484042216","5753.441250321419","1.895","","","","0.0","0.0","0.0","-0.352616516880666","37.1959502952966","0.0","0.0","0.0","0.0",""
"3","25200.902704235912","25200.90259847138","37","57144","3581.031583088735","5861.787989812251","1.895","0.0","0.0","0.0","","","","-0.03783250358860934","39.075155820490817","0.0","0.0","0.0","0.0","2.8390302722881E-08"
"3","25200.922455949196","25200.922347980086","523","59249","3643.4890775251794","5271.382129422159","1.895","0.0","0.0","0.0","","","","6.045339003571786","-38.402538756564727","0.0","0.0","0.0","0.0","1.3645109417329E-09"
"3","25200.94032662529","25200.94020969351","439","61685","3590.592244795379","5988.261105736814","1.895","0.0","0.0","0.0","","","","2.749797086193053","36.98215873952313","0.0","0.0","0.0","0.0","2.04342962847496E-08"
"3","25200.949680955364","25200.9495710514","61","62597","5560.0","5820.0","1.895","0.0","0.0","0.0","","","","3.13803359653435","29.716356090753828","0.0","0.0","0.0","0.0","6.97465720145038E-09"
"3","25200.998952802674","25200.998847002862","139","65212","5560.0","5820.0","1.895","0.0","0.0","0.0","","","","2.5105825467108038","-29.822511776732765","0.0","0.0","0.0","0.0","1.53925913971471E-09"
"2","25201.0","","","","3584.4329475750098","5757.156475107217","1.895","","","","0.0","0.0","0.0","-0.03600834241089477","37.152299749641688","0.0","0.0","0.0","0.0",""
"3","25201.009463827126","25201.009356701747","85","66859","5560.0","5820.0","1.895","0.0","0.0","0.0","","","","2.67295790018012","-31.7534984223266","0.0","0.0","0.0","0.0","2.01332934816701E-09"
"3","25201.02022208661","25201.020107550547","91","67221","3599.737631462839","5594.56047384131","1.895","0.0","0.0","0.0","","","","2.6716196382469414","-31.73760049209288","0.0","0.0","0.0","0.0","7.86233002009562E-09"
"3","25201.030777827447","25201.030661048833","931","68379","3588.3159765517668","5736.154910596842","1.895","0.0","0.0","0.0","","","","-1.35049537123068","32.345421575793348","0.0","0.0","0.0","0.0","9.88754840102548E-07"
"3","25201.06224086969","25201.062130806735","1285","70982","3464.4707491877704","5192.944050651398","1.895","0.0","0.0","0.0","","","","2.642289353727649","-0.0993179247555327","0.0","0.0","0.0","0.0","2.02787678920867E-09"
"3","25201.069964082497","25201.069859017385","313","72499","5560.0","5820.0","1.895","0.0","0.0","0.0","","","","-0.019327055525180795","-33.138652580500998","0.0","0.0","0.0","0.0","1.13743062114214E-07"
"2","25201.1","","","","3584.4293574185087","5760.86068811896","1.895","","","","0.0","0.0","0.0","-0.035901615159227438","37.0421818552895","0.0","0.0","0.0","0.0",""
"2","25201.2","","","","3584.4257648541567","5764.567385476654","1.895","","","","0.0","0.0","0.0","-0.03592569369680969","37.067025349488179","0.0","0.0","0.0","0.0",""
"3","25201.249911043542","25201.249796275046","109","78579","3601.6130446765139","5657.005095375657","1.895","0.0","0.0","0.0","","","","1.2858013060840768","-29.96883590854243","0.0","0.0","0.0","0.0","9.9078344646114E-09"
"3","25201.287028801704","25201.286915045464","241","80670","3652.9719125819776","5208.227442269663","1.895","0.0","0.0","0.0","","","","-12.26003903425691","-1.635068251416341","0.0","0.0","0.0","0.0","1.88064468150432E-09"
"3","25201.288685586384","25201.288569958415","751","80993","3600.7266310142706","5996.2286489747989","1.895","0.0","0.0","0.0","","","","-2.0776215332067289","-31.306347907567664","0.0","0.0","0.0","0.0","2.994378286016E-08"
"2","25201.3","","","","3584.4221791615329","5768.266992797209","1.895","","","","0.0","0.0","0.0","-0.035856976320699677","36.99612487908233","0.0","0.0","0.0","0.0",""
"3","25201.31665050951","25201.316541127395","1315","82650","5560.0","5820.0","1.895","0.0","0.0","0.0","","","","2.8918966578633866","-0.10852514670263397","0.0","0.0","0.0","0.0","2.06898373790837E-09"
"3","25201.35746297388","25201.357346880246","811","84809","3596.1656365345077","5707.02192742599","1.895","0.0","0.0","0.0","","","","1.375992740220093","-32.04186730981301","0.0","0.0","0.0","0.0","4.646882483611E-08"
"3","25201.383568540103","25201.383462226015","121","87519","3600.0892223148418","5692.521611103742","1.895","0.0","0.0","0.0","","","","1.29731443516246","-30.237178361230354","0.0","0.0","0.0","0.0","5.1150985250194E-08"
"2","25201.399999999998","","","","3584.4186022127485","5771.957578492773","1.895","","","","0.0","0.0","0.0","-0.03576953780309666","36.9059085031558","0.0","0.0","0.0","0.0",""
"3","25201.437702675088","25201.437587209977","7","91142","3590.4800990088749","5942.298376326446","1.895","0.0","0.0","0.0","","","","2.22868392727733","29.9313406192061","0.0","0.0","0.0","0.0","1.83423313534397E-09"
"3","25201.442142921343","25201.44203563034","511","91989","3593.221910340235","5979.121044569375","1.895","0.0","0.0","0.0","","","","2.233633942873614","29.997819585141735","0.0","0.0","0.0","0.0","1.85395084006019E-08"
"3","25201.447241027974","25201.447125378527","103","92687","3623.3730386723539","5420.809691833729","1.895","0.0","0.0","0.0","","","","3.6766038564259","-29.676886190734913","0.0","0.0","0.0","0.0","8.3367190245422E-09"
"3","25201.456268487218","25201.45615033596","31","93242","3594.6449205536466","6063.941422373684","1.895","0.0","0.0","0.0","","","","3.8719540016497575","36.61802042785287","0.0","0.0","0.0","0.0","8.18830833021786E-09"
"3","25201.468768487644","25201.468651198316","67","94556","3596.1533743700058","6015.388350063933","1.895","0.0","0.0","0.0","","","","3.1392552166937475","29.727924513656896","0.0","0.0","0.0","0.0","3.3853557255701E-09"
"2","25201.5","","","","3584.4150444655017","5775.628352633187","1.895","","","","0.0","0.0","0.0","-0.035577522160298139","36.707792674946478","0.0","0.0","0.0","0.0",""
"2","25201.6","","","","3584.411486061371","5779.299804525731","1.895","","","","0.0","0.0","0.0","-0.03558409100768428","36.7145702057093","0.0","0.0","0.0","0.0",""
"3","25201.62125415547","25201.621140327534","1207","102824","3581.1207167364375","5769.726644604248","1.895","0.0","0.0","0.0","","","","-0.03240893358009442","33.473442399903408","0.0","0.0","0.0","0.0","5.9815557058955E-07"
"3","25201.63094642204","25201.630831810413","1039","103412","5560.0","5820.0","1.895","0.0","0.0","0.0","","","","-1.3873949795566434","33.16152098131922","0.0","0.0","0.0","0.0","4.40974075270872E-08"
"3","25201.634385427074","25201.634274053155","49","103767","5560.0","5820.0","1.895","0.0","0.0","0.0","","","","-1.5497550145914594","37.079964288787987","0.0","0.0","0.0","0.0","4.04559708721354E-08"
"3","25201.644103950166","25201.64399019652","115","104371","3595.1365395676209","5654.15458965128","1.895","0.0","0.0","0.0","","","","1.365399060108528","-31.76642711269672","0.0","0.0","0.0","0.0","2.62194895959218E-09"
"2","25201.7","","","","3584.40793381395","5782.9649041147999","1.895","","","","0.0","0.0","0.0","-0.035522523822480559","36.6510470822383","0.0","0.0","0.0","0.0",""
"3","25201.751008745374","25201.75089203054","1345","111471","3607.086412852412","6056.195316882182","1.895","0.0","0.0","0.0","","","","-3.911022201494138","-33.958015908202657","0.0","0.0","0.0","0.0","1.74208160547001E-08"
"3","25201.789877909454","25201.789769615745","901","114059","3466.661993787911","5199.4778985156649","1.895","0.0","0.0","0.0","","","","3.7337888234163905","-0.13537494117369759","0.0","0.0","0.0","0.0","1.73969300791688E-09"
"2","25201.8","","","","3584.404383325357","5786.628188999457","1.895","","","","0.0","0.0","0.0","-0.03550493551986184","36.6329000127734","0.0","0.0","0.0","0.0",""
"3","25201.858889745236","25201.858777468093","703","116356","3584.3356176036315","5857.578544807012","1.895","0.0","0.0","0.0","","","","-0.03182304746630892","32.83404120423119","0.0","0.0","0.0","0.0","2.67959782601047E-08"
"3","25201.860664746684","25201.86055117147","295","116694","5560.0","5820.0","1.895","0.0","0.0","0.0","","","","-0.031083667045839947","32.03769651876654","0.0","0.0","0.0","0.0","5.42481074025706E-07"
"3","25201.865040436136","25201.864933292847","145","117300","5560.0","5820.0","1.895","0.0","0.0","0.0","","","","-1.2164077403043423","-31.068801013443389","0.0","0.0","0.0","0.0","1.7302530085945E-08"
"3","25201.870117866016","25201.870012145257","19","117919","3588.9039098865889","5722.073446877363","1.895","0.0","0.0","0.0","","","","-1.3509469854123726","32.35623808905535","0.0","0.0","0.0","0.0","1.71919170051992E-08"
"3","25201.891640593825","25201.891522682505","421","120706","3591.6911982759318","5895.669180178948","1.895","0.0","0.0","0.0","","","","-1.1718992095565642","-29.996735015876138","0.0","0.0","0.0","0.0","6.25885815835288E-09"
"2","25201.899999999998","","","","3584.4008501091259","5790.273652792228","1.895","","","","0.0","0.0","0.0","-0.03533221165637768","36.454688844996578","0.0","0.0","0.0","0.0",""
"3","25201.90271063263","25201.90259847138","37","121643","3581.7313926425465","5900.940287339112","1.895","0.0","0.0","0.0","","","","1.6704461571822507","39.041432548019269","0.0","0.0","0.0","0.0","4.86448184004842E-09"
"3","25201.904554290486","25201.90443975595","1093","121956","5560.0","5820.0","1.895","0.0","0.0","0.0","","","","-4.261848086611195","-0.8064955791058931","0.0","0.0","0.0","0.0","1.33552171463105E-09"
"3","25201.940327464068","25201.94020969351","439","126258","3593.8684739590978","6025.195188639074","1.895","0.0","0.0","0.0","","","","3.8962955288098506","36.872517200086367","0.0","0.0","0.0","0.0","1.94675397892726E-09"
"3","25201.949681746795","25201.9495710514","61","127221","5560.0","5820.0","1.895","0.0","0.0","0.0","","","","3.147025037509746","29.80150268130944","0.0","0.0","0.0","0.0","2.42212529286423E-09"
"3","25201.98255274703","25201.982444882393","1231","128436","3591.224063021732","5856.738279213084","1.895","0.0","0.0","0.0","","","","-0.017419724759385824","-29.929264603139769","0.0","0.0","0.0","0.0","5.67760586087599E-08"
"3","25201.998963861755","25201.998847002862","139","129855","5560.0","5820.0","1.895","0.0","0.0","0.0","","","","2.5088153998613667","-29.801520330804846","0.0","0.0","0.0","0.0","1.49436615150197E-08"
"2","25202.0","","","","3584.3973251496","5793.910597570649","1.895","","","","0.0","0.0","0.0","-0.035249644489287728","36.36949858251456","0.0","0.0","0.0","0.0",""
"3","25202.00947155716","25202.009356701747","85","131253","5560.0","5820.0","1.895","0.0","0.0","0.0","","","","2.6655699061910598","-31.665732485025463","0.0","0.0","0.0","0.0","1.9338862780544E-08"
"3","25202.02021681652","25202.020107550547","91","131633","3602.4063902396108","5562.856859054847","1.895","0.0","0.0","0.0","","","","2.665209571173566","-31.661451872354829","0.0","0.0","0.0","0.0","8.53990595017601E-09"
"3","25202.03076681665","25202.030661048833","931","132764","3587.7220570780825","5768.443631598203","1.895","0.0","0.0","0.0","","","","-0.03129444809386684","32.25494692357349","0.0","0.0","0.0","0.0","4.00336930864866E-07"
"3","25202.06997066304","25202.069859017385","313","136778","5560.0","5820.0","1.895","0.0","0.0","0.0","","","","1.4081985328303653","-32.82161136200857","0.0","0.0","0.0","0.0","5.89742975038021E-09"
"2","25202.1","","","","3584.3938031382469","5797.544500514968","1.895","","","","0.0","0.0","0.0","-0.0352201627226407","36.33908019900404","0.0","0.0","0.0","0.0",""
"2","25202.2","","","","3584.3902907986127","5801.168424477674","1.895","","","","0.0","0.0","0.0","-0.03512344540201104","36.23929024349839","0.0","0.0","0.0","0.0",""
"3","25202.249906800444","25202.249796275046","109","143246","3603.6167221363609","5627.068410903576","1.895","0.0","0.0","0.0","","","","2.5217064858452287","-29.95259506154209","0.0","0.0","0.0","0.0","1.3749021165079E-09"
"3","25202.288680892023","25202.288569958415","751","145385","3598.653741924521","5964.9936112259379","1.895","0.0","0.0","0.0","","","","-2.0672885959670777","-31.150647495841427","0.0","0.0","0.0","0.0","1.10048748799319E-08"
"2","25202.3","","","","3584.38678341565","5804.787234299219","1.895","","","","0.0","0.0","0.0","-0.03507387861389127","36.188148760446747","0.0","0.0","0.0","0.0",""
"3","25202.359558867996","25202.35944446898","73","150160","3591.692149916772","5655.292914968769","1.895","0.0","0.0","0.0","","","","-1.3670231882539266","32.74127573474342","0.0","0.0","0.0","0.0","1.42916750265276E-09"
"3","25202.383576887223","25202.383462226015","121","151997","3601.3838119634485","5662.347940751708","1.895","0.0","0.0","0.0","","","","1.2943109029871296","-30.16717348374066","0.0","0.0","0.0","0.0","1.30156015198522E-09"
"3","25202.392892735745","25202.392784793163","13","152682","3589.7357009880186","5932.3010723365009","1.895","0.0","0.0","0.0","","","","1.6093350265548899","29.95855949309632","0.0","0.0","0.0","0.0","1.02455618787719E-08"
"2","25202.399999999998","","","","3584.38327979476","5808.40216252967","1.895","","","","0.0","0.0","0.0","-0.03503625783573092","36.149332795307149","0.0","0.0","0.0","0.0",""
"3","25202.43769798007","25202.437587209977","7","155702","3592.700818198117","5972.122750101139","1.895","0.0","0.0","0.0","","","","2.224378809081377","29.8735226587713","0.0","0.0","0.0","0.0","1.53928507522539E-09"
"3","25202.442151226394","25202.44203563034","511","156500","3595.473123892586","6008.946556247498","1.895","0.0","0.0","0.0","","","","2.404205450040687","29.84021651619918","0.0","0.0","0.0","0.0","2.37742318007252E-08"
"3","25202.447242101178","25202.447125378527","103","157191","3627.0498965576946","5391.130755167221","1.895","0.0","0.0","0.0","","","","3.680646513733085","-29.709517794639074","0.0","0.0","0.0","0.0","2.73015874933224E-09"
"3","25202.46642476376","25202.466310772812","55","158434","3628.3519565553808","5291.662766641378","1.895","0.0","0.0","0.0","","","","-5.11982502623898","32.821115602536448","0.0","0.0","0.0","0.0","2.52669719897994E-09"
"3","25202.468769468996","25202.468651198316","67","158746","3599.2940164148828","6045.129407477162","1.895","0.0","0.0","0.0","","","","3.1515207759461827","29.844076146577718","0.0","0.0","0.0","0.0","2.13057117254151E-08"
"2","25202.5","","","","3584.3797862579756","5812.006686290602","1.895","","","","0.0","0.0","0.0","-0.034935416638688588","36.045287954789639","0.0","0.0","0.0","0.0",""
"3","25202.57444044816","25202.574325255817","127","163266","3599.504549055268","5926.403009900276","1.895","0.0","0.0","0.0","","","","-1.465358793425792","-31.71596776087846","0.0","0.0","0.0","0.0","1.95014124952567E-08"
"3","25202.59219452873","25202.592080666684","565","164633","3589.605426172604","5705.271582541616","1.895","0.0","0.0","0.0","","","","-1.3553406083627038","32.461468798928859","0.0","0.0","0.0","0.0","3.56731245069364E-08"
"2","25202.6","","","","3584.3763032905164","5815.600304946408","1.895","","","","0.0","0.0","0.0","-0.034829723236955458","35.93623675120664","0.0","0.0","0.0","0.0",""
"3","25202.621256531853","25202.621140327534","1207","167155","3581.0883276458237","5803.179592271483","1.895","0.0","0.0","0.0","","","","-0.03230373254942039","33.36478591998639","0.0","0.0","0.0","0.0","0.000001031760293934418"
"3","25202.630948800143","25202.630831810413","1039","167744","5560.0","5820.0","1.895","0.0","0.0","0.0","","","","-0.032190944436835729","33.248293150829457","0.0","0.0","0.0","0.0","5.19060671210391E-09"
"3","25202.634387802616","25202.634274053155","49","168094","5560.0","5820.0","1.895","0.0","0.0","0.0","","","","-0.03541698282309765","36.54215312648166","0.0","0.0","0.0","0.0","1.3194559492605E-08"
"3","25202.644106783293","25202.64399019652","115","168696","3597.399626411952","5622.334887979937","1.895","0.0","0.0","0.0","","","","2.6782515049690258","-31.816383988609059","0.0","0.0","0.0","0.0","1.28371679111977E-08"
"3","25202.682121458667","25202.682014642094","1369","172054","3611.451891651705","6065.268578546891","1.895","0.0","0.0","0.0","","","","-3.912493868641075","-33.99140989353644","0.0","0.0","0.0","0.0","1.3844085616621E-08"
"2","25202.7","","","","3584.372827739187","5819.1862718682909","1.895","","","","0.0","0.0","0.0","-0.034755561837689147","35.85971930509743","0.0","0.0","0.0","0.0",""
"3","25202.722168436925","25202.722055605147","151","173600","3592.0438443851078","5904.695751581234","1.895","0.0","0.0","0.0","","","","-1.16624026648122","-29.851884832074697","0.0","0.0","0.0","0.0","6.88952102772466E-08"
"3","25202.737386814646","25202.73727857764","787","175276","3601.4991476899988","5612.930298645387","1.895","0.0","0.0","0.0","","","","2.5335950220390419","-30.09587057042592","0.0","0.0","0.0","0.0","3.90887409105887E-09"
"3","25202.751010224987","25202.75089203054","1345","176135","3603.18236047136","6022.297817448022","1.895","0.0","0.0","0.0","","","","-3.898198371519858","-33.846671149735119","0.0","0.0","0.0","0.0","4.30828243117273E-09"
"2","25202.8","","","","3584.369338751792","5822.7861017086029","1.895","","","","0.0","0.0","0.0","-0.034889922678813477","35.99834868302368","0.0","0.0","0.0","0.0",""
"3","25202.858892265245","25202.858777468093","703","181775","3584.5760359402786","5890.24303397451","1.895","0.0","0.0","0.0","","","","1.3868221708167655","32.49226288097305","0.0","0.0","0.0","0.0","3.41337686509504E-09"
"3","25202.86066726701","25202.86055117147","295","182115","5560.0","5820.0","1.895","0.0","0.0","0.0","","","","-0.031084237627347468","32.03828461273724","0.0","0.0","0.0","0.0","0.0000014426242040234827"
"3","25202.865042537636","25202.864933292847","145","182696","5560.0","5820.0","1.895","0.0","0.0","0.0","","","","-0.018132732954242827","-31.122569525375796","0.0","0.0","0.0","0.0","1.66408711428942E-07"
"3","25202.870119991654","25202.870012145257","19","183323","3587.7357069850306","5754.374777506032","1.895","0.0","0.0","0.0","","","","-0.05185652857127479","32.34568917157011","0.0","0.0","0.0","0.0","3.85728981389611E-08"
"3","25202.891629279635","25202.891522682505","421","186471","3591.229275984191","5865.694800338204","1.895","0.0","0.0","0.0","","","","-0.017475908806275574","-30.025795818705185","0.0","0.0","0.0","0.0","1.95955253024276E-07"
"2","25202.899999999998","","","","3584.365867339373","5826.367798229957","1.895","","","","0.0","0.0","0.0","-0.034714172678292087","35.817015240182538","0.0","0.0","0.0","0.0",""
"3","25202.902712750354","25202.90259847138","37","187405","3583.7027266123925","5940.054355999027","1.895","0.0","0.0","0.0","","","","2.898709591146979","39.0399609529901","0.0","0.0","0.0","0.0","2.29462683869761E-08"
"3","25202.922459151134","25202.922347980086","523","189552","3655.1886876884057","5197.061279513697","1.895","0.0","0.0","0.0","","","","5.39282410468598","-34.257489375751159","0.0","0.0","0.0","0.0","1.62007447859343E-09"
"3","25202.940316568314","25202.94020969351","439","192106","3597.765038048945","6062.070247361297","1.895","0.0","0.0","0.0","","","","3.890732794861342","36.81987437516961","0.0","0.0","0.0","0.0","1.13155400659248E-08"
"3","25202.982552772817","25202.982444882393","1231","193987","3591.2065982888655","5826.731685056448","1.895","0.0","0.0","0.0","","","","-0.01747217094805261","-30.01937371104566","0.0","0.0","0.0","0.0","0.000005067240938372624"
"3","25202.998960313784","25202.998847002862","139","195460","5560.0","5820.0","1.895","0.0","0.0","0.0","","","","2.5150167254740065","-29.87518415293445","0.0","0.0","0.0","0.0","4.04024749337757E-09"
"2","25203.0","","","","3584.362399677997","5829.945624540476","1.895","","","","0.0","0.0","0.0","-0.03467666219506992","35.778313077763588","0.0","0.0","0.0","0.0",""
"3","25203.009472024747","25203.009356701747","85","196878","5560.0","5820.0","1.895","0.0","0.0","0.0","","","","2.663467633570867","-31.640758462674666","0.0","0.0","0.0","0.0","1.03734215176022E-08"
"3","25203.020217284102","25203.020107550547","91","197260","3605.0762307687125","5531.140393553103","1.895","0.0","0.0","0.0","","","","2.67088710662203","-31.728898356641204","0.0","0.0","0.0","0.0","2.75108065226315E-09"
"3","25203.030767284206","25203.030661048833","931","198402","3587.6907462853307","5800.7154248352539","1.895","0.0","0.0","0.0","","","","-0.03134491153534172","32.30695920452092","0.0","0.0","0.0","0.0","2.90872310880891E-07"
"3","25203.044132723255","25203.044016361702","961","199442","3617.9100487915954","5315.796245194275","1.895","0.0","0.0","0.0","","","","-4.457438878260743","28.577052046361815","0.0","0.0","0.0","0.0","3.66459350560433E-09"
"2","25203.1","","","","3584.3589381211847","5833.517152350237","1.895","","","","0.0","0.0","0.0","-0.034615616471446838","35.715327982208318","0.0","0.0","0.0","0.0",""
"2","25203.2","","","","3584.35548516333","5837.079808019654","1.895","","","","0.0","0.0","0.0","-0.03452962677436703","35.6266064548529","0.0","0.0","0.0","0.0",""
"3","25203.249914428896","25203.249796275046","109","209147","3606.134018201712","5597.16820240641","1.895","0.0","0.0","0.0","","","","2.5298600315407588","-30.049442118811734","0.0","0.0","0.0","0.0","1.37241613682739E-08"
"3","25203.288688074652","25203.288569958415","751","211304","3596.5913663730159","5933.916995249645","1.895","0.0","0.0","0.0","","","","-2.0614777418524015","-31.063087457765876","0.0","0.0","0.0","0.0","1.01574011616879E-07"
"2","25203.3","","","","3584.352046996283","5840.627202988886","1.895","","","","0.0","0.0","0.0","-0.03438171848812465","35.47399923985818","0.0","0.0","0.0","0.0",""
"3","25203.38357174876","25203.383462226015","121","217822","3603.1833972900788","5632.215403118429","1.895","0.0","0.0","0.0","","","","2.545495692277233","-30.23516104255943","0.0","0.0","0.0","0.0","8.2481895426707E-09"
"3","25203.39290055789","25203.392784793163","13","218510","3591.9562576271416","5962.1232630546669","1.895","0.0","0.0","0.0","","","","2.228800156410338","29.9329015824499","0.0","0.0","0.0","0.0","2.12668238257012E-08"
"2","25203.399999999998","","","","3584.348596289188","5844.187536393524","1.895","","","","0.0","0.0","0.0","-0.03450711914423609","35.60338377462684","0.0","0.0","0.0","0.0",""
"3","25203.442146048663","25203.44203563034","511","222012","3598.6125059486469","6038.675681896718","1.895","0.0","0.0","0.0","","","","3.149805337147385","29.82783139053694","0.0","0.0","0.0","0.0","7.8087025306889E-09"
"3","25203.447240261783","25203.447125378527","103","222697","3630.728281773388","5361.439490164334","1.895","0.0","0.0","0.0","","","","3.6880693797681025","-29.769433836489804","0.0","0.0","0.0","0.0","4.03639693529534E-09"
"3","25203.468764291418","25203.468651198316","67","224241","3602.434656010148","6074.8704416932109","1.895","0.0","0.0","0.0","","","","3.1464331673358338","29.79589782583488","0.0","0.0","0.0","0.0","9.41174063877122E-09"
"2","25203.5","","","","3584.3451592778744","5847.733738913452","1.895","","","","0.0","0.0","0.0","-0.034370161146277538","35.462074730149897","0.0","0.0","0.0","0.0",""
"3","25203.57443527356","25203.574325255817","127","228695","3598.2626401979885","5894.751487476903","1.895","0.0","0.0","0.0","","","","-1.2426139807139647","-31.66949333168083","0.0","0.0","0.0","0.0","7.09464154359079E-08"
"3","25203.5921866579","25203.592080666684","565","230081","3588.2548430515555","5737.619105794294","1.895","0.0","0.0","0.0","","","","-1.3537043982506945","32.4222802855974","0.0","0.0","0.0","0.0","3.36654652757027E-08"
"2","25203.6","","","","3584.341724902605","5851.27722164301","1.895","","","","0.0","0.0","0.0","-0.03434380065707503","35.434876788480547","0.0","0.0","0.0","0.0",""
"3","25203.621248660456","25203.621140327534","1207","232553","3581.0559590565355","5836.611365223244","1.895","0.0","0.0","0.0","","","","-0.03231820861528484","33.379737468937957","0.0","0.0","0.0","0.0","0.0000010926256966747003"
"3","25203.630940929812","25203.630831810413","1039","233134","5560.0","5820.0","1.895","0.0","0.0","0.0","","","","-0.03218688541736756","33.2441008081833","0.0","0.0","0.0","0.0","2.76489304898571E-07"
"3","25203.634379931456","25203.634274053155","49","233468","5560.0","5820.0","1.895","0.0","0.0","0.0","","","","-0.03482649662284348","35.932907630046418","0.0","0.0","0.0","0.0","1.08014598279307E-08"
"3","25203.644099365687","25203.64399019652","115","234041","3600.07389564052","5590.565811585411","1.895","0.0","0.0","0.0","","","","2.67086580725444","-31.72864532998231","0.0","0.0","0.0","0.0","6.22620548769466E-09"
"3","25203.682126576783","25203.682014642094","1369","237399","3607.5451607579054","6031.327236882628","1.895","0.0","0.0","0.0","","","","-3.9087023343926239","-33.958469370409378","0.0","0.0","0.0","0.0","1.84054818747755E-08"
"2","25203.7","","","","3584.3382978805154","5854.813117588386","1.895","","","","0.0","0.0","0.0","-0.0342702687646444","35.359008840674189","0.0","0.0","0.0","0.0",""
"3","25203.722165527168","25203.722055605147","151","238986","3591.234534162112","5874.729007278808","1.895","0.0","0.0","0.0","","","","-0.0174381619165377","-29.960941938560187","0.0","0.0","0.0","0.0","1.74532336523633E-07"
"3","25203.7510032321","25203.75089203054","1345","241596","3600.201674813167","5988.318420280431","1.895","0.0","0.0","0.0","","","","-2.260963739100092","-34.06901415462505","0.0","0.0","0.0","0.0","4.01802804999701E-09"
"3","25203.75201169399","25203.751904670848","1393","241919","5560.0","5820.0","1.895","0.0","0.0","0.0","","","","-3.425581778819316","-29.72511845532135","0.0","0.0","0.0","0.0","3.12142252513336E-08"
"2","25203.8","","","","3584.334871429953","5858.34842384899","1.895","","","","0.0","0.0","0.0","-0.034264553478924198","35.35311198472317","0.0","0.0","0.0","0.0",""
"3","25203.858884232955","25203.858777468093","703","247488","3585.9559286959718","5922.572945558647","1.895","0.0","0.0","0.0","","","","1.3771613597914716","32.26591690944301","0.0","0.0","0.0","0.0","3.31524282130093E-09"
"3","25203.860659235048","25203.86055117147","295","247814","5560.0","5820.0","1.895","0.0","0.0","0.0","","","","-0.031057742630241016","32.01097642637551","0.0","0.0","0.0","0.0","5.69603042449686E-07"
"3","25203.865047345116","25203.864933292847","145","248394","5560.0","5820.0","1.895","0.0","0.0","0.0","","","","-0.018142103132931594","-31.138652260981396","0.0","0.0","0.0","0.0","4.12806395168156E-07"
"3","25203.870124716144","25203.870012145257","19","249028","3587.7043756229688","5786.667771372946","1.895","0.0","0.0","0.0","","","","-0.03132979431649913","32.29137800334628","0.0","0.0","0.0","0.0","1.35731343875475E-08"
"3","25203.891633719704","25203.891522682505","421","252450","3591.2118213022747","5835.70547496997","1.895","0.0","0.0","0.0","","","","-0.017457192566784936","-29.993638979729345","0.0","0.0","0.0","0.0","1.42242612140876E-07"
"2","25203.899999999998","","","","3584.331452321956","5861.876154277186","1.895","","","","0.0","0.0","0.0","-0.03419112772864309","35.27735355483886","0.0","0.0","0.0","0.0",""
"3","25203.902710496775","25203.90259847138","37","253416","3586.602040728565","5979.1024587242659","1.895","0.0","0.0","0.0","","","","2.892922039806212","38.96201393161082","0.0","0.0","0.0","0.0","3.51658629094168E-09"
"3","25203.982558669304","25203.982444882393","1231","259192","3591.1891485000039","5796.750766569325","1.895","0.0","0.0","0.0","","","","-0.017435954663057999","-29.95714960117591","0.0","0.0","0.0","0.0","1.61532426177985E-08"
"3","25203.998964756483","25203.998847002862","139","260282","5560.0","5820.0","1.895","0.0","0.0","0.0","","","","2.5102060466913227","-29.818039437725277","0.0","0.0","0.0","0.0","3.67735679558723E-09"
"2","25204.0","","","","3584.328045631556","5865.391072610686","1.895","","","","0.0","0.0","0.0","-0.03406695158332857","35.14923242891099","0.0","0.0","0.0","0.0",""
"3","25204.030771042224","25204.030661048833","931","263159","3587.659485844433","5832.9353208032139","1.895","0.0","0.0","0.0","","","","-0.03128227423018846","32.24239941592538","0.0","0.0","0.0","0.0","3.72781548959415E-07"
"3","25204.04413230489","25204.044016361702","961","264154","3614.5537629256757","5344.596435510378","1.895","0.0","0.0","0.0","","","","-3.3134122783136967","28.722108346655177","0.0","0.0","0.0","0.0","2.33736136000886E-09"
"3","25204.06997417347","25204.069859017385","313","267211","5560.0","5820.0","1.895","0.0","0.0","0.0","","","","1.3777483401545443","-32.111892976003769","0.0","0.0","0.0","0.0","2.36849720584474E-08"
"2","25204.1","","","","3584.3246371319889","5868.907857587249","1.895","","","","0.0","0.0","0.0","-0.03408504328073645","35.16789888562837","0.0","0.0","0.0","0.0",""
"2","25204.2","","","","3584.321233435309","5872.419687092644","1.895","","","","0.0","0.0","0.0","-0.03403701433869297","35.118344104727608","0.0","0.0","0.0","0.0",""
"3","25204.28867547336","25204.288569958415","751","275747","3595.2799281853529","5902.948828734174","1.895","0.0","0.0","0.0","","","","-1.2115153015037972","-30.943841098664686","0.0","0.0","0.0","0.0","4.41999835169407E-07"
"2","25204.3","","","","3584.3178410041798","5875.91989314929","1.895","","","","0.0","0.0","0.0","-0.03392435867271722","35.0021094548927","0.0","0.0","0.0","0.0",""
"3","25204.383571593848","25204.383462226015","121","282205","3605.7121376501497","5602.179260353166","1.895","0.0","0.0","0.0","","","","2.5219412029673746","-29.955383009679545","0.0","0.0","0.0","0.0","5.2935710713616E-09"
"3","25204.392892572523","25204.392784793163","13","282897","3594.178837116511","5991.972620756462","1.895","0.0","0.0","0.0","","","","2.2227578446856288","29.851753022913948","0.0","0.0","0.0","0.0","2.36289161824099E-09"
"2","25204.399999999998","","","","3584.3144596661247","5879.4086537129319","1.895","","","","0.0","0.0","0.0","-0.03381342777573832","34.8876543649784","0.0","0.0","0.0","0.0",""
"3","25204.442151063497","25204.44203563034","511","286397","3601.7548206331055","6068.432578768605","1.895","0.0","0.0","0.0","","","","3.1399420139973808","29.7344283041941","0.0","0.0","0.0","0.0","2.53223011572329E-09"
"2","25204.5","","","","3584.311084099399","5882.891459597061","1.895","","","","0.0","0.0","0.0","-0.033755714403241227","34.82810748668788","0.0","0.0","0.0","0.0",""
"3","25204.5744331844","25204.574325255817","127","292974","3597.8278571007065","5863.159481298496","1.895","0.0","0.0","0.0","","","","-0.01842968061502309","-31.59999112292855","0.0","0.0","0.0","0.0","9.65726466731556E-08"
"3","25204.592198794482","25204.592080666684","565","294044","3587.7206287711599","5769.915776556289","1.895","0.0","0.0","0.0","","","","-0.03131221203411735","32.27325608014385","0.0","0.0","0.0","0.0","7.03642739014918E-09"
"2","25204.6","","","","3584.410796780993","5886.371597308219","1.895","","","","0.0","0.0","0.0","0.7641689816322106","34.814546429777","0.0","0.0","0.0","0.0",""
"3","25204.621247796687","25204.621140327534","1207","296564","3581.0235451224896","5870.089972333506","1.895","0.0","0.0","0.0","","","","-0.03237709255072927","33.44055551256483","0.0","0.0","0.0","0.0","5.65536636502468E-07"
"3","25204.630940066978","25204.630831810413","1039","297138","5560.0","5820.0","1.895","0.0","0.0","0.0","","","","-0.03224423634640067","33.303335494655659","0.0","0.0","0.0","0.0","1.95778571419573E-07"
"3","25204.634392068227","25204.634274053155","49","297478","5560.0","5820.0","1.895","0.0","0.0","0.0","","","","-0.03423799914047863","35.32571403537228","0.0","0.0","0.0","0.0","1.12024713677555E-07"
"3","25204.68212981987","25204.682014642094","1369","301428","3604.1081445417919","5997.304969199374","1.895","0.0","0.0","0.0","","","","-2.260496731924819","-34.07112686746045","0.0","0.0","0.0","0.0","2.95606491003453E-08"
"2","25204.7","","","","3584.559518066192","5889.856031863969","1.895","","","","0.0","0.0","0.0","1.4872149292260349","34.84439422564557","0.0","0.0","0.0","0.0",""
"3","25204.72216935144","25204.722055605147","151","302983","3591.2170569742695","5844.701013916168","1.895","0.0","0.0","0.0","","","","-0.01745741871229325","-29.994027525980834","0.0","0.0","0.0","0.0","1.16983789401846E-08"
"3","25204.73738830008","25204.73727857764","787","304688","3606.5508103031927","5552.923003537173","1.895","0.0","0.0","0.0","","","","2.5294981251296799","-30.047204671554167","0.0","0.0","0.0","0.0","9.01387332645301E-09"
"3","25204.750997784766","25204.75089203054","1345","305561","3597.9416036840887","5954.262856294418","1.895","0.0","0.0","0.0","","","","-2.260355766276175","-34.059853001624038","0.0","0.0","0.0","0.0","8.37532166374906E-08"
"3","25204.75201927354","25204.751904670848","1393","305882","5560.0","5820.0","1.895","0.0","0.0","0.0","","","","-3.43216666220533","-29.78225807458273","0.0","0.0","0.0","0.0","2.4332510331798E-09"
"2","25204.8","","","","3584.7076089234385","5893.3256959385439","1.895","","","","0.0","0.0","0.0","1.4809106408902495","34.69668920759154","0.0","0.0","0.0","0.0",""
"3","25204.858886273323","25204.858777468093","703","311707","3588.0888377066619","5954.592658414119","1.895","0.0","0.0","0.0","","","","2.3719703906252858","31.9007485868762","0.0","0.0","0.0","0.0","7.96410308024059E-08"
"3","25204.86066127653","25204.86055117147","295","312026","5560.0","5820.0","1.895","0.0","0.0","0.0","","","","1.3607372172033039","31.960056365484065","0.0","0.0","0.0","0.0","8.74089484009929E-07"
"3","25204.86504981468","25204.864933292847","145","312608","5560.0","5820.0","1.895","0.0","0.0","0.0","","","","-0.01811419572883692","-31.090752695118679","0.0","0.0","0.0","0.0","1.24145598458108E-08"
"3","25204.870126822818","25204.870012145257","19","313268","3587.673107973659","5818.895096995505","1.895","0.0","0.0","0.0","","","","-0.031408079348950578","32.372065784100808","0.0","0.0","0.0","0.0","4.07043420054738E-08"
"3","25204.883215564438","25204.88310359204","1381","314498","3626.7089392440286","5259.385746413074","1.895","0.0","0.0","0.0","","","","-5.135378013676872","32.923382413674648","0.0","0.0","0.0","0.0","1.86465568297027E-09"
"3","25204.88466576756","25204.884553708787","1399","314844","3634.6770589715836","5229.709066245709","1.895","0.0","0.0","0.0","","","","-5.1458451534760869","32.98920467726927","0.0","0.0","0.0","0.0","1.3010059266158E-09"
"3","25204.891633564446","25204.891522682505","421","316429","3591.1943714410888","5805.724432220348","1.895","0.0","0.0","0.0","","","","-0.017464259149925156","-30.005780252887506","0.0","0.0","0.0","0.0","1.23506828943227E-07"
"2","25204.899999999998","","","","3584.855823483536","5896.798258283447","1.895","","","","0.0","0.0","0.0","1.4821476711297439","34.72567195135221","0.0","0.0","0.0","0.0",""
"3","25204.90270437203","25204.90259847138","37","317386","3589.800917461148","6018.130494837337","1.895","0.0","0.0","0.0","","","","4.117651980634028","38.94164658912591","0.0","0.0","0.0","0.0","1.14048062054822E-08"
"3","25204.91616666208","25204.916048120427","1417","318453","5560.0","5820.0","1.895","0.0","0.0","0.0","","","","-3.423537270499058","-29.707377453668685","0.0","0.0","0.0","0.0","1.01051412428825E-08"
"3","25204.982552527257","25204.982444882393","1231","323542","3591.1716939588029","5766.76168296817","1.895","0.0","0.0","0.0","","","","-0.017428200885920204","-29.9438276480421","0.0","0.0","0.0","0.0","1.35464303435789E-09"
"2","25205.0","","","","3585.0030036340037","5900.246585142132","1.895","","","","0.0","0.0","0.0","1.4718035603865559","34.48331675066413","0.0","0.0","0.0","0.0",""
"3","25205.03076985032","25205.030661048833","931","327531","3587.6282647717478","5865.114640258032","1.895","0.0","0.0","0.0","","","","-0.03129722535351685","32.257809423731199","0.0","0.0","0.0","0.0","4.73724874181291E-08"
"3","25205.069972479632","25205.069859017385","313","331553","5560.0","5820.0","1.895","0.0","0.0","0.0","","","","2.6830492664177729","-31.8690096005456","0.0","0.0","0.0","0.0","7.96020317624629E-09"
"2","25205.1","","","","3585.150780458585","5903.708891653411","1.895","","","","0.0","0.0","0.0","1.4777703098585966","34.623113471873207","0.0","0.0","0.0","0.0",""
"2","25205.2","","","","3585.298050549141","5907.159325744771","1.895","","","","0.0","0.0","0.0","1.4727029625262982","34.50438910685037","0.0","0.0","0.0","0.0",""
"3","25205.28867679677","25205.288569958415","751","340203","3594.533019923134","5872.06957056867","1.895","0.0","0.0","0.0","","","","-0.017907728215080567","-30.736377016183299","0.0","0.0","0.0","0.0","3.09680167596873E-08"
"2","25205.3","","","","3585.4448767923088","5910.5993608056619","1.895","","","","0.0","0.0","0.0","1.4682644824427607","34.40039865690132","0.0","0.0","0.0","0.0",""
"3","25205.35745574031","25205.357346880246","811","344059","3604.2165356892135","5580.651202419418","1.895","0.0","0.0","0.0","","","","2.6181003854103506","-31.09968627755426","0.0","0.0","0.0","0.0","1.69209220959281E-09"
"3","25205.359555741205","25205.35944446898","73","344949","3587.7368254007189","5753.222035059254","1.895","0.0","0.0","0.0","","","","-0.4900052694391774","32.61456971482817","0.0","0.0","0.0","0.0","1.71415921682427E-09"
"3","25205.383574955318","25205.383462226015","121","346739","3608.2373998146269","5572.184431271614","1.895","0.0","0.0","0.0","","","","2.520323058721391","-29.9361628428236","0.0","0.0","0.0","0.0","7.12404556705885E-09"
"3","25205.39289548517","25205.392784793163","13","347401","3596.8259485257729","6021.757451125274","1.895","0.0","0.0","0.0","","","","3.145851586658035","29.79039040916347","0.0","0.0","0.0","0.0","4.73498850054989E-09"
"2","25205.399999999998","","","","3585.591668713384","5914.038591724191","1.895","","","","0.0","0.0","0.0","1.4679212610384045","34.39235722207222","0.0","0.0","0.0","0.0",""
"3","25205.466426773837","25205.466310772812","55","352428","3615.917473097848","5390.317001721309","1.895","0.0","0.0","0.0","","","","-3.8033935785385259","32.956000741705398","0.0","0.0","0.0","0.0","2.1495623948153E-09"
"2","25205.5","","","","3585.7381544713286","5917.47064945704","1.895","","","","0.0","0.0","0.0","1.464859625451857","34.32062526507212","0.0","0.0","0.0","0.0",""
"3","25205.574437796906","25205.574325255817","127","357260","3597.8094721316626","5831.636153751384","1.895","0.0","0.0","0.0","","","","-0.01838308969000887","-31.520105158130105","0.0","0.0","0.0","0.0","9.14429133587656E-08"
"3","25205.59218999598","25205.592080666684","565","358325","3587.6892783244709","5802.228440801657","1.895","0.0","0.0","0.0","","","","-0.03148457635329936","32.45091065804399","0.0","0.0","0.0","0.0","2.18908920690702E-08"
"2","25205.6","","","","3585.8843546800119","5920.896016972601","1.895","","","","0.0","0.0","0.0","1.462004128853724","34.253722998740929","0.0","0.0","0.0","0.0",""
"3","25205.62125199835","25205.621140327534","1207","360805","3581.842907476129","5903.546596339074","1.895","0.0","0.0","0.0","","","","1.430067047034955","33.42332580784755","0.0","0.0","0.0","0.0","4.53968815409514E-07"
"3","25205.630944269167","25205.630831810413","1039","361369","5560.0","5820.0","1.895","0.0","0.0","0.0","","","","-0.03231777885583317","33.37929358918542","0.0","0.0","0.0","0.0","2.00912936967127E-08"
"3","25205.634383269953","25205.634274053155","49","361676","5560.0","5820.0","1.895","0.0","0.0","0.0","","","","-0.033732182466352667","34.80382795461204","0.0","0.0","0.0","0.0","4.18828133684687E-08"
"3","25205.68212057174","25205.682014642094","1369","365577","3601.8469079629655","5963.222691058235","1.895","0.0","0.0","0.0","","","","-2.257392758982523","-34.02434252386921","0.0","0.0","0.0","0.0","6.72282828984533E-08"
"2","25205.7","","","","3586.0302414050868","5924.314039788877","1.895","","","","0.0","0.0","0.0","1.458869288394256","34.180275903322527","0.0","0.0","0.0","0.0",""
"3","25205.722160980433","25205.722055605147","151","367128","3591.1996147611055","5814.733111423578","1.895","0.0","0.0","0.0","","","","-0.017478448928286633","-30.03016006583557","0.0","0.0","0.0","0.0","4.68203417882721E-08"
"3","25205.73739293048","25205.73727857764","787","368844","3609.0723025178497","5522.970898849337","1.895","0.0","0.0","0.0","","","","2.523882045858054","-29.980492827977924","0.0","0.0","0.0","0.0","3.41376473631149E-09"
"3","25205.750997951247","25205.75089203054","1345","369719","3595.9577045144467","5920.26020978059","1.895","0.0","0.0","0.0","","","","-1.3223761356448914","-33.77538605017551","0.0","0.0","0.0","0.0","1.99641690398801E-07"
"3","25205.75201942302","25205.751904670848","1393","370054","5560.0","5820.0","1.895","0.0","0.0","0.0","","","","-1.9834971918685825","-29.880051264644455","0.0","0.0","0.0","0.0","5.87756610103642E-09"
"2","25205.8","","","","3586.176005820771","5927.729196982611","1.895","","","","0.0","0.0","0.0","1.4576461927781639","34.15161963785952","0.0","0.0","0.0","0.0",""
"3","25205.85888642545","25205.858777468093","703","375857","3590.4468038166785","5986.305062729662","1.895","0.0","0.0","0.0","","","","2.3549800241276017","31.67224429686328","0.0","0.0","0.0","0.0","6.18347019329384E-08"
"3","25205.860661430197","25205.86055117147","295","376160","5560.0","5820.0","1.895","0.0","0.0","0.0","","","","1.4751709505290714","32.00104433679275","0.0","0.0","0.0","0.0","0.0000016275160971545028"
"3","25205.870127402246","25205.870012145257","19","377390","3587.641794005627","5851.170162969519","1.895","0.0","0.0","0.0","","","","-0.03138250495053382","32.345706448379","0.0","0.0","0.0","0.0","2.94961816863693E-08"
"3","25205.891636906043","25205.891522682505","421","380479","3591.1769127919576","5775.7282906817149","1.895","0.0","0.0","0.0","","","","-0.017471917696355606","-30.01893859297373","0.0","0.0","0.0","0.0","1.31298407596425E-09"
"2","25205.899999999998","","","","3586.3450492998038","5931.140360790276","1.895","","","","0.0","0.0","0.0","1.6341841350753384","34.11732421925841","0.0","0.0","0.0","0.0",""
"3","25205.90270774516","25205.90259847138","37","381451","3593.920050359339","6057.086146827697","1.895","0.0","0.0","0.0","","","","4.115685751784428","38.923051479744497","0.0","0.0","0.0","0.0","1.23180915533868E-08"
"3","25205.916156750733","25205.916048120427","1417","382494","5560.0","5820.0","1.895","0.0","0.0","0.0","","","","-3.4289764892629868","-29.754575691078136","0.0","0.0","0.0","0.0","6.45027419437786E-08"
"3","25205.982556044568","25205.982444882393","1231","387553","3591.5848959839906","5736.784664862257","1.895","0.0","0.0","0.0","","","","1.2835015763168348","-29.861057081702645","0.0","0.0","0.0","0.0","9.53610607736035E-09"
"2","25206.0","","","","3586.598860486415","5934.553880151491","1.895","","","","0.0","0.0","0.0","2.457997729754552","34.14110389126927","0.0","0.0","0.0","0.0",""
"3","25206.03077328341","25206.030661048833","931","391571","3588.1787872105558","5897.299281336248","1.895","0.0","0.0","0.0","","","","1.366891427695385","32.10460221296898","0.0","0.0","0.0","0.0","9.8845023823308E-08"
"3","25206.044124511114","25206.044016361702","961","392545","3607.9077194270109","5402.207250407942","1.895","0.0","0.0","0.0","","","","-3.315590094867878","28.740986614059535","0.0","0.0","0.0","0.0","2.316622729598E-09"
"3","25206.06997551158","25206.069859017385","313","395695","5560.0","5820.0","1.895","0.0","0.0","0.0","","","","2.662814390025029","-31.628661621073208","0.0","0.0","0.0","0.0","8.3621858601401E-09"
"2","25206.1","","","","3586.8512213960036","5937.947894664387","1.895","","","","0.0","0.0","0.0","2.523612620686189","33.940192534172229","0.0","0.0","0.0","0.0",""
"2","25206.2","","","","3587.1036186106755","5941.342397446162","1.895","","","","0.0","0.0","0.0","2.523975672027415","33.945075229798117","0.0","0.0","0.0","0.0",""
"3","25206.2499031349","25206.249796275046","109","402192","3613.6823169209","5507.510212387216","1.895","0.0","0.0","0.0","","","","2.5115392094607018","-29.83182909840743","0.0","0.0","0.0","0.0","3.57636760940342E-09"
"3","25206.288676134936","25206.288569958415","751","404293","3594.5150994229318","5841.311272034516","1.895","0.0","0.0","0.0","","","","-0.01788207468165037","-30.69234592796811","0.0","0.0","0.0","0.0","8.81599119598511E-08"
"2","25206.3","","","","3587.3551096431008","5944.724712937524","1.895","","","","0.0","0.0","0.0","2.514913836905985","33.82320215542867","0.0","0.0","0.0","0.0",""
"3","25206.357459401766","25206.357346880246","811","408338","3606.830523026366","5549.600373898138","1.895","0.0","0.0","0.0","","","","2.607489130892626","-30.9736381365244","0.0","0.0","0.0","0.0","5.62923614494081E-09"
"3","25206.359559402743","25206.35944446898","73","409238","3587.7052071834625","5785.810688368759","1.895","0.0","0.0","0.0","","","","-0.03147761782787499","32.44373856246797","0.0","0.0","0.0","0.0","3.51088392517658E-09"
"3","25206.39289474655","25206.392784793163","13","411689","3599.964544375131","6051.479131602982","1.895","0.0","0.0","0.0","","","","3.1353551378976385","29.69099178914968","0.0","0.0","0.0","0.0","2.42800965978537E-08"
"2","25206.399999999998","","","","3587.606413348039","5948.104509052124","1.895","","","","0.0","0.0","0.0","2.513040559415903","33.79800835263211","0.0","0.0","0.0","0.0",""
"2","25206.5","","","","3587.8578380204814","5951.485932064747","1.895","","","","0.0","0.0","0.0","2.514250236147999","33.81427735559036","0.0","0.0","0.0","0.0",""
"3","25206.574433871236","25206.574325255817","127","421580","3597.79112179141","5800.172201596592","1.895","0.0","0.0","0.0","","","","-0.01833653685759962","-31.440284507864449","0.0","0.0","0.0","0.0","3.68666268681369E-09"
"3","25206.592198875027","25206.592080666684","565","422654","3587.657928186864","5834.540786477791","1.895","0.0","0.0","0.0","","","","-0.03141965542958182","32.383997161360557","0.0","0.0","0.0","0.0","1.22588548617408E-08"
"2","25206.6","","","","3588.1084585004889","5954.856539453032","1.895","","","","0.0","0.0","0.0","2.506208300564271","33.70612096113354","0.0","0.0","0.0","0.0",""
"3","25206.621247877447","25206.621140327534","1207","424968","3583.473631899124","5936.968897321884","1.895","0.0","0.0","0.0","","","","2.4731320172541384","33.308261607154559","0.0","0.0","0.0","0.0","8.58082749849943E-07"
"3","25206.630940149123","25206.630831810413","1039","425518","5560.0","5820.0","1.895","0.0","0.0","0.0","","","","1.4228929928849584","33.25565482364337","0.0","0.0","0.0","0.0","1.24975198602557E-08"
"3","25206.63439214993","25206.634274053155","49","425828","5560.0","5820.0","1.895","0.0","0.0","0.0","","","","1.4656054584558858","34.338099605006679","0.0","0.0","0.0","0.0","4.15856593533329E-08"
"3","25206.644099922185","25206.64399019652","115","426382","3608.095133053854","5495.27723650828","1.895","0.0","0.0","0.0","","","","2.668855328977845","-31.70476178180537","0.0","0.0","0.0","0.0","4.85227705065674E-09"
"3","25206.682126108266","25206.682014642094","1369","429743","3599.6241419085329","5929.450975823537","1.895","0.0","0.0","0.0","","","","-2.0902751562462549","-33.51735578738234","0.0","0.0","0.0","0.0","1.40746700679716E-07"
"2","25206.7","","","","3588.358651204326","5958.221393658186","1.895","","","","0.0","0.0","0.0","2.501930532892726","33.648589049461147","0.0","0.0","0.0","0.0",""
"3","25206.737386009027","25206.73727857764","787","432985","3611.5954211263144","5492.999474681833","1.895","0.0","0.0","0.0","","","","2.5269155040029416","-30.016526433528325","0.0","0.0","0.0","0.0","4.92085507464874E-09"
"3","25206.75100805943","25206.75089203054","1345","433865","3594.6380777587266","5886.5550468430569","1.895","0.0","0.0","0.0","","","","-1.3151006066098299","-33.58955858757714","0.0","0.0","0.0","0.0","2.51711150857345E-08"
"3","25206.75201613157","25206.751904670848","1393","434168","5560.0","5820.0","1.895","0.0","0.0","0.0","","","","-1.979335309385795","-29.817355303963269","0.0","0.0","0.0","0.0","2.61853555911339E-07"
"2","25206.8","","","","3588.609287740206","5961.5922169827049","1.895","","","","0.0","0.0","0.0","2.506368859514062","33.7082803264911","0.0","0.0","0.0","0.0",""
"3","25206.85888343494","25206.858777468093","703","439913","3593.08325321406","6017.764267341353","1.895","0.0","0.0","0.0","","","","3.308222228912865","31.30729692736569","0.0","0.0","0.0","0.0","2.43900973896094E-07"
"3","25206.86065844271","25206.86055117147","295","440212","5560.0","5820.0","1.895","0.0","0.0","0.0","","","","2.3784752078311199","31.943045278235695","0.0","0.0","0.0","0.0","0.000003714927739508075"
"3","25206.86504784395","25206.864933292847","145","440809","5560.0","5820.0","1.895","0.0","0.0","0.0","","","","-0.01812730820126088","-31.113258614976098","0.0","0.0","0.0","0.0","1.97086770729715E-08"
"3","25206.87012484429","25206.870012145257","19","441459","3587.6105336818325","5883.389938240941","1.895","0.0","0.0","0.0","","","","-0.031305286725145538","32.26611821745826","0.0","0.0","0.0","0.0","1.81911519345604E-08"
"3","25206.891631555132","25206.891522682505","421","444566","3591.199557833173","5745.749674901683","1.895","0.0","0.0","0.0","","","","0.24913417201590386","-29.945698690344284","0.0","0.0","0.0","0.0","2.62496933943983E-08"
"2","25206.899999999998","","","","3588.85936586877","5964.955530259262","1.895","","","","0.0","0.0","0.0","2.500784778554631","33.633179741981439","0.0","0.0","0.0","0.0",""
"3","25206.916156816107","25206.916048120427","1417","446305","5560.0","5820.0","1.895","0.0","0.0","0.0","","","","-1.98308734782572","-29.873877239780105","0.0","0.0","0.0","0.0","2.01619645935981E-07"
"3","25206.982556534815","25206.982444882393","1231","451409","3592.872859426503","5706.819801097682","1.895","0.0","0.0","0.0","","","","1.286156787099581","-29.92283137337708","0.0","0.0","0.0","0.0","2.20103925546517E-09"
"2","25207.0","","","","3589.1087965901708","5968.310136524456","1.895","","","","0.0","0.0","0.0","2.4943106978804869","33.54610950673175","0.0","0.0","0.0","0.0",""
"3","25207.009465420648","25207.009356701747","85","453890","5560.0","5820.0","1.895","0.0","0.0","0.0","","","","3.9022822447261276","-31.513797021691553","0.0","0.0","0.0","0.0","2.84398163655442E-09"
"3","25207.030767535296","25207.030661048833","931","455349","3589.547316942495","5929.442362908245","1.895","0.0","0.0","0.0","","","","1.368331431763903","32.138424034353267","0.0","0.0","0.0","0.0","2.03454333426799E-08"
"3","25207.069971302157","25207.069859017385","313","459425","5560.0","5820.0","1.895","0.0","0.0","0.0","","","","2.6513065510657385","-31.491972580411315","0.0","0.0","0.0","0.0","2.08865298859706E-09"
"2","25207.1","","","","3589.3592347872488","5971.678292380493","1.895","","","","0.0","0.0","0.0","2.5043854687243547","33.6816056044195","0.0","0.0","0.0","0.0",""
"2","25207.2","","","","3589.6082021593958","5975.026667038368","1.895","","","","0.0","0.0","0.0","2.48967719887292","33.483793346503897","0.0","0.0","0.0","0.0",""
"2","25207.3","","","","3589.858024339791","5978.386538055189","1.895","","","","0.0","0.0","0.0","2.4982252932956117","33.59875709653759","0.0","0.0","0.0","0.0",""
"3","25207.33297078004","25207.33285815981","1459","471641","3605.7748893641717","6073.63383782425","1.895","0.0","0.0","0.0","","","","-3.6213325845630957","-31.423725075785588","0.0","0.0","0.0","0.0","3.59244722438531E-08"
"3","25207.383571117953","25207.383462226015","121","475378","3613.2861537475148","5512.215801708302","1.895","0.0","0.0","0.0","","","","2.5319503229238164","-30.074270405413974","0.0","0.0","0.0","0.0","2.89880702761505E-09"
"2","25207.399999999998","","","","3590.106996429833","5981.734976164265","1.895","","","","0.0","0.0","0.0","2.489724377888746","33.48442785940522","0.0","0.0","0.0","0.0",""
"3","25207.46642293324","25207.466310772812","55","480795","3608.317531596225","5456.169686328458","1.895","0.0","0.0","0.0","","","","-3.799560618865599","32.92278855390115","0.0","0.0","0.0","0.0","3.65395242838182E-09"
"2","25207.5","","","","3590.3552731571119","5985.074062304713","1.895","","","","0.0","0.0","0.0","2.4827707405425176","33.39090804249898","0.0","0.0","0.0","0.0",""
"3","25207.574433954822","25207.574325255817","127","486249","3597.77278692274","5768.734777402919","1.895","0.0","0.0","0.0","","","","-0.018353116580586375","-31.468712515389169","0.0","0.0","0.0","0.0","9.33710233994978E-09"
"3","25207.59219895625","25207.592080666684","565","487359","3587.6266171147387","5866.812867662844","1.895","0.0","0.0","0.0","","","","-0.03143349588940713","32.39826241683732","0.0","0.0","0.0","0.0","2.35143021319407E-08"
"2","25207.6","","","","3590.6035375380627","5988.41298239878","1.895","","","","0.0","0.0","0.0","2.4826472770917387","33.38924757636561","0.0","0.0","0.0","0.0",""
"3","25207.621247958177","25207.621140327534","1207","489711","3585.950358618669","5970.3255725533349","1.895","0.0","0.0","0.0","","","","2.4748215873269698","33.33101681860177","0.0","0.0","0.0","0.0","7.29382452673809E-07"
"3","25207.630940230672","25207.630831810413","1039","490277","5560.0","5820.0","1.895","0.0","0.0","0.0","","","","1.426762389252415","33.34608981110584","0.0","0.0","0.0","0.0","4.80638099207459E-08"
"3","25207.634379231524","25207.634274053155","49","490594","5560.0","5820.0","1.895","0.0","0.0","0.0","","","","2.5150630419413679","33.82520882141586","0.0","0.0","0.0","0.0","1.34242973296378E-07"
"3","25207.64409934014","25207.64399019652","115","491148","3611.4249030360695","5463.613633079914","1.895","0.0","0.0","0.0","","","","3.920530861322178","-31.661168012116197","0.0","0.0","0.0","0.0","1.77062312097574E-09"
"3","25207.682125958723","25207.682014642094","1369","494979","3598.312036812002","5896.010418860581","1.895","0.0","0.0","0.0","","","","-1.3069005403679808","-33.307912666923687","0.0","0.0","0.0","0.0","4.13236519399623E-08"
"2","25207.7","","","","3590.851002656213","5991.741153167414","1.895","","","","0.0","0.0","0.0","2.4746546379263849","33.28175417190859","0.0","0.0","0.0","0.0",""
"3","25207.752011850822","25207.751904670848","1393","499878","5560.0","5820.0","1.895","0.0","0.0","0.0","","","","-1.9834321650537748","-29.87907167941086","0.0","0.0","0.0","0.0","1.09461715276333E-07"
"2","25207.8","","","","3591.097954779423","5995.062424641397","1.895","","","","0.0","0.0","0.0","2.4695246813540634","33.212761129026599","0.0","0.0","0.0","0.0",""
"3","25207.85889221222","25207.858777468093","703","506137","3596.3861896440805","6049.021542213367","1.895","0.0","0.0","0.0","","","","3.290094162899271","31.13574232608561","0.0","0.0","0.0","0.0","2.7877980331729E-07"
"3","25207.860667224246","25207.86055117147","295","506419","5560.0","5820.0","1.895","0.0","0.0","0.0","","","","2.377481310367755","31.929697183798916","0.0","0.0","0.0","0.0","0.000014888921847467506"
"3","25207.865044051436","25207.864933292847","145","507022","5560.0","5820.0","1.895","0.0","0.0","0.0","","","","1.3332288232321997","-31.04605118822792","0.0","0.0","0.0","0.0","6.12950531645606E-09"
"3","25207.870121051783","25207.870012145257","19","507699","3588.956728350093","5915.571025765889","1.895","0.0","0.0","0.0","","","","1.3700971829265308","32.17989677868902","0.0","0.0","0.0","0.0","1.62981378259221E-08"
"3","25207.891640744496","25207.891522682505","421","510949","3592.4880880350308","5715.771625307446","1.895","0.0","0.0","0.0","","","","1.2852313186760345","-29.90130006719658","0.0","0.0","0.0","0.0","7.2112520318457E-09"
"2","25207.899999999998","","","","3591.3445297163104","5998.378623317633","1.895","","","","0.0","0.0","0.0","2.465752812858108","33.16203308070535","0.0","0.0","0.0","0.0",""
"3","25207.91616576673","25207.916048120427","1417","512782","5560.0","5820.0","1.895","0.0","0.0","0.0","","","","-1.9837927320510072","-29.884503378723534","0.0","0.0","0.0","0.0","1.24601695035913E-07"
"3","25207.982559361866","25207.982444882393","1231","518046","3594.1610785693649","5676.84898838621","1.895","0.0","0.0","0.0","","","","1.2836377790680458","-29.864225880398427","0.0","0.0","0.0","0.0","1.02094176566444E-08"
"2","25208.0","","","","3591.5910348796699","6001.693883606197","1.895","","","","0.0","0.0","0.0","2.465055076603766","33.15264919087363","0.0","0.0","0.0","0.0",""
"3","25208.020226427798","25208.020107550547","91","521024","3622.6387726437958","5373.053394613535","1.895","0.0","0.0","0.0","","","","3.9081642447397946","-31.561298494639215","0.0","0.0","0.0","0.0","1.58826368896269E-09"
"3","25208.03077642792","25208.030661048833","931","522214","3591.910761767972","5961.512251308726","1.895","0.0","0.0","0.0","","","","2.392719438157104","32.134346029572238","0.0","0.0","0.0","0.0","1.68349091587277E-07"
"3","25208.069971541147","25208.069859017385","313","526774","5560.0","5820.0","1.895","0.0","0.0","0.0","","","","2.6246039548372965","-31.17480162637212","0.0","0.0","0.0","0.0","4.02085243418825E-09"
"2","25208.1","","","","3591.837714758999","6005.011493658596","1.895","","","","0.0","0.0","0.0","2.466802238747125","33.176146862048657","0.0","0.0","0.0","0.0",""
"2","25208.2","","","","3592.0865228447958","6008.331728815267","1.895","","","","0.0","0.0","0.0","2.483106380646135","33.20306523967319","0.0","0.0","0.0","0.0",""
"3","25208.288676411066","25208.288569958415","751","536312","3594.479418031834","5780.0686243892619","1.895","0.0","0.0","0.0","","","","-0.01776611224373466","-30.493310903356375","0.0","0.0","0.0","0.0","1.14518690313849E-08"
"2","25208.3","","","","3592.435456172818","6011.633852600293","1.895","","","","0.0","0.0","0.0","3.2345664665488824","33.04721252520293","0.0","0.0","0.0","0.0",""
"3","25208.332974641966","25208.33285815981","1459","539457","3602.1536967800009","6042.211327586851","1.895","0.0","0.0","0.0","","","","-3.6241671846232914","-31.44832201377233","0.0","0.0","0.0","0.0","1.00442313741498E-07"
"3","25208.35955471195","25208.35944446898","73","541497","3587.642149194637","5850.804072389187","1.895","0.0","0.0","0.0","","","","-0.031640617944423129","32.611741525694068","0.0","0.0","0.0","0.0","5.76771758755417E-09"
"2","25208.399999999998","","","","3592.784245029043","6014.9346091792699","1.895","","","","0.0","0.0","0.0","3.487893433892367","33.00761189242701","0.0","0.0","0.0","0.0",""
"2","25208.5","","","","3593.132151463477","6018.227014976726","1.895","","","","0.0","0.0","0.0","3.479069203649295","32.92410396059559","0.0","0.0","0.0","0.0",""
"3","25208.574431389367","25208.574325255817","127","554379","3598.16608262841","5737.345222200709","1.895","0.0","0.0","0.0","","","","1.3477019551267003","-31.41158634363132","0.0","0.0","0.0","0.0","2.88922425769485E-09"
"3","25208.592193177767","25208.592080666684","565","555770","3588.253920891449","5899.063969364132","1.895","0.0","0.0","0.0","","","","1.3721447532889549","32.22798869780901","0.0","0.0","0.0","0.0","8.21708789981471E-09"
"2","25208.6","","","","3593.477715841166","6021.49725676559","1.895","","","","0.0","0.0","0.0","3.4556486034943036","32.70246356508013","0.0","0.0","0.0","0.0",""
"3","25208.621255179558","25208.621140327534","1207","558110","3588.4264299802805","6003.673421392449","1.895","0.0","0.0","0.0","","","","2.4732885735829366","33.31037011539612","0.0","0.0","0.0","0.0","6.11622926185934E-07"
"3","25208.63094745219","25208.630831810413","1039","558665","5560.0","5820.0","1.895","0.0","0.0","0.0","","","","2.4674385967381577","33.23158234434364","0.0","0.0","0.0","0.0","5.77082305329029E-08"
"3","25208.63438645296","25208.634274053155","49","558964","5560.0","5820.0","1.895","0.0","0.0","0.0","","","","2.495082170846261","33.55648508524308","0.0","0.0","0.0","0.0","1.48263193025282E-07"
"2","25208.7","","","","3593.8255694822057","6024.789162953784","1.895","","","","0.0","0.0","0.0","3.4785412689701085","32.91910786099409","0.0","0.0","0.0","0.0",""
"3","25208.722165433388","25208.722055605147","151","565132","3592.100602953084","5724.786584356817","1.895","0.0","0.0","0.0","","","","1.2901732301156182","-30.01627514966868","0.0","0.0","0.0","0.0","1.07635950903434E-08"
"3","25208.751006433475","25208.75089203054","1345","568123","3594.5028545788256","5820.294527731484","1.895","0.0","0.0","0.0","","","","-0.019079051973344156","-32.74680783413633","0.0","0.0","0.0","0.0","7.334786800466E-09"
"3","25208.752014433616","25208.751904670848","1393","568451","5560.0","5820.0","1.895","0.0","0.0","0.0","","","","-1.1706217924142617","-29.964037371575409","0.0","0.0","0.0","0.0","3.88341466989753E-08"
"2","25208.8","","","","3594.171009607314","6028.058228880757","1.895","","","","0.0","0.0","0.0","3.454406075949855","32.69070492975192","0.0","0.0","0.0","0.0",""
"3","25208.86066244053","25208.86055117147","295","575055","5560.0","5820.0","1.895","0.0","0.0","0.0","","","","3.3692752829602208","31.906154283008957","0.0","0.0","0.0","0.0","0.000004898593615357744"
"3","25208.86503969051","25208.864933292847","145","575650","5560.0","5820.0","1.895","0.0","0.0","0.0","","","","1.333649154588431","-31.055839177042669","0.0","0.0","0.0","0.0","4.06184546807767E-09"
"3","25208.870129690935","25208.870012145257","19","576330","3590.883727649812","5947.719129887635","1.895","0.0","0.0","0.0","","","","2.3933201313894116","32.142413370790617","0.0","0.0","0.0","0.0","2.70325422393686E-08"
"3","25208.891634800384","25208.891522682505","421","579615","3593.776694287114","5685.791806381431","1.895","0.0","0.0","0.0","","","","1.2849331879918995","-29.89436396549543","0.0","0.0","0.0","0.0","7.02629478769988E-09"
"2","25208.899999999998","","","","3594.518032050209","6031.34226904143","1.895","","","","0.0","0.0","0.0","3.4702292759197665","32.840447475905417","0.0","0.0","0.0","0.0",""
"3","25208.916159821314","25208.916048120427","1417","581490","5560.0","5820.0","1.895","0.0","0.0","0.0","","","","-1.9812456569152988","-29.846133404749368","0.0","0.0","0.0","0.0","7.12456370356587E-08"
"3","25208.982552218993","25208.982444882393","1231","586755","3595.4498364529188","5646.865641707617","1.895","0.0","0.0","0.0","","","","1.2863698409317197","-29.927788135932035","0.0","0.0","0.0","0.0","4.10551560081233E-09"
"2","25209.0","","","","3594.863727515143","6034.613751371891","1.895","","","","0.0","0.0","0.0","3.456959477771253","32.714868998386339","0.0","0.0","0.0","0.0",""
"3","25209.030774821553","25209.030661048833","931","590938","3594.2959115624887","5993.544936631974","1.895","0.0","0.0","0.0","","","","2.3871190062223155","32.059131938510159","0.0","0.0","0.0","0.0","4.04827852268376E-08"
"3","25209.069967159354","25209.069859017385","313","595855","5560.0","5820.0","1.895","0.0","0.0","0.0","","","","2.550249091671421","-30.29162147841239","0.0","0.0","0.0","0.0","1.84685965671406E-09"
"2","25209.1","","","","3595.2084754961226","6037.8762672063189","1.895","","","","0.0","0.0","0.0","3.4474846249932598","32.6252039128092","0.0","0.0","0.0","0.0",""
"2","25209.2","","","","3595.55415451101","6041.147593862083","1.895","","","","0.0","0.0","0.0","3.4567949770765016","32.713312249250709","0.0","0.0","0.0","0.0",""
"3","25209.28868318843","25209.288569958415","751","605666","3594.461643290382","5749.560502529695","1.895","0.0","0.0","0.0","","","","-0.017730927291583634","-30.432920331106137","0.0","0.0","0.0","0.0","3.47466195482743E-09"
"2","25209.3","","","","3595.9000364606524","6044.420840986966","1.895","","","","0.0","0.0","0.0","3.4588243274593668","32.73251696725627","0.0","0.0","0.0","0.0",""
"3","25209.33296821031","25209.33285815981","1459","608879","3598.5290635505768","6010.758961519317","1.895","0.0","0.0","0.0","","","","-3.625691854525643","-31.461552173307138","0.0","0.0","0.0","0.0","1.1696333818134E-07"
"2","25209.399999999998","","","","3596.2440303290097","6047.676220291213","1.895","","","","0.0","0.0","0.0","3.439943488237872","32.553838511329868","0.0","0.0","0.0","0.0",""
"2","25209.5","","","","3596.589774368285","6050.948162304014","1.895","","","","0.0","0.0","0.0","3.4574452218654816","32.71946582820503","0.0","0.0","0.0","0.0",""
"3","25209.574440201686","25209.574325255817","127","624040","3599.50994315589","5706.0231699975679","1.895","0.0","0.0","0.0","","","","1.3444945630442944","-31.33682999793559","0.0","0.0","0.0","0.0","1.20716685702814E-08"
"3","25209.584977280294","25209.584869698618","1525","625268","5560.0","5820.0","1.895","0.0","0.0","0.0","","","","-3.8791905933856647","-33.66126028927949","0.0","0.0","0.0","0.0","0.0000021423714095374485"
"3","25209.592187073787","25209.592080666684","565","625783","3589.6563995471576","5931.236049876851","1.895","0.0","0.0","0.0","","","","1.5434643473844832","32.12753008494961","0.0","0.0","0.0","0.0","9.06756119644917E-09"
"2","25209.6","","","","3596.9331725913395","6054.197904730487","1.895","","","","0.0","0.0","0.0","3.4339870268927989","32.49746965486119","0.0","0.0","0.0","0.0",""
"3","25209.621249075422","25209.621140327534","1207","628181","3591.7895414361098","6036.937400422328","1.895","0.0","0.0","0.0","","","","3.511010295563271","33.204487106662408","0.0","0.0","0.0","0.0","2.59391845175455E-07"
"3","25209.630941348532","25209.630831810413","1039","628756","5560.0","5820.0","1.895","0.0","0.0","0.0","","","","2.4699122851838819","33.26489809995637","0.0","0.0","0.0","0.0","5.93003679717808E-08"
"3","25209.634380349187","25209.634274053155","49","629072","5560.0","5820.0","1.895","0.0","0.0","0.0","","","","3.1850841651909325","33.230201042544958","0.0","0.0","0.0","0.0","5.5018987090174E-08"
"3","25209.682131844183","25209.682014642094","1369","633617","3597.808579247576","5830.105192374751","1.895","0.0","0.0","0.0","","","","-0.019003520454764976","-32.583911254721709","0.0","0.0","0.0","0.0","2.12812608877631E-08"
"2","25209.7","","","","3597.277403918993","6057.455531226178","1.895","","","","0.0","0.0","0.0","3.442318084515564","32.5763104571614","0.0","0.0","0.0","0.0",""
"3","25209.72216674772","25209.722055605147","151","635270","3593.3875729168346","5694.844834179776","1.895","0.0","0.0","0.0","","","","1.2893722557595529","-29.997640236008079","0.0","0.0","0.0","0.0","4.83308040159018E-09"
"3","25209.737386397315","25209.73727857764","787","637415","3621.937915063874","5405.559953950898","1.895","0.0","0.0","0.0","","","","3.3541634036734484","-27.080772924186176","0.0","0.0","0.0","0.0","1.65921123852822E-09"
"3","25209.75100439831","25209.75089203054","1345","638316","3597.783707224578","5787.458999941794","1.895","0.0","0.0","0.0","","","","-0.018962394344321965","-32.5133954032589","0.0","0.0","0.0","0.0","8.11828045966901E-09"
"3","25209.752012399433","25209.751904670848","1393","638649","5560.0","5820.0","1.895","0.0","0.0","0.0","","","","-0.017427968136377475","-29.943427756650487","0.0","0.0","0.0","0.0","1.12722970402141E-08"
"2","25209.8","","","","3597.6193314515337","6060.691355801483","1.895","","","","0.0","0.0","0.0","3.41928010120882","32.35829094877806","0.0","0.0","0.0","0.0",""
"3","25209.86066040496","25209.86055117147","295","645195","5560.0","5820.0","1.895","0.0","0.0","0.0","","","","3.361636773609252","31.833819600503458","0.0","0.0","0.0","0.0","0.000010474674167986726"
"3","25209.870125515972","25209.870012145257","19","646462","3593.270469996586","5979.773203270215","1.895","0.0","0.0","0.0","","","","2.3870465103475575","32.05815831513388","0.0","0.0","0.0","0.0","1.76473433236234E-08"
"3","25209.891630173297","25209.891522682505","421","649690","3595.063762855845","5655.847762129318","1.895","0.0","0.0","0.0","","","","1.2873527693195773","-29.950656265842338","0.0","0.0","0.0","0.0","3.96737045804102E-09"
"2","25209.899999999998","","","","3597.963142440648","6063.945004431562","1.895","","","","0.0","0.0","0.0","3.43811469325788","32.53653174548476","0.0","0.0","0.0","0.0",""
"3","25209.91615519453","25209.916048120427","1417","651313","5560.0","5820.0","1.895","0.0","0.0","0.0","","","","-1.1710194382301425","-29.97421578626695","0.0","0.0","0.0","0.0","2.71335677339705E-09"
"3","25209.98256055923","25209.982444882393","1231","656613","3597.849545964293","5616.990052659306","1.895","0.0","0.0","0.0","","","","2.507865242593884","-29.79227432603341","0.0","0.0","0.0","0.0","4.06753976904806E-09"
"2","25210.0","","","","3598.3042219638","6067.172803886459","1.895","","","","0.0","0.0","0.0","3.410799995480909","32.27803963261792","0.0","0.0","0.0","0.0",""
"3","25210.030767289736","25210.030661048833","931","661035","3597.2217033638237","6025.505145766","1.895","0.0","0.0","0.0","","","","3.3668171665499488","31.8828765645178","0.0","0.0","0.0","0.0","2.74155949443426E-07"
"2","25210.1","","","","3598.6466549977419","6070.413412264474","1.895","","","","0.0","0.0","0.0","3.4243351222816664","32.40612904269362","0.0","0.0","0.0","0.0",""
"2","25210.2","","","","3598.988340975759","6073.646950893231","1.895","","","","0.0","0.0","0.0","3.4168645526043237","32.33543145138279","0.0","0.0","0.0","0.0",""
"3","25210.288680959635","25210.288569958415","751","676099","3595.6439111695019","5719.171013993836","1.895","0.0","0.0","0.0","","","","1.3045413672397444","-30.378024656191916","0.0","0.0","0.0","0.0","2.86015821562656E-09"
"2","25210.3","","","","3599.3308225270368","6076.8880184141139","1.895","","","","0.0","0.0","0.0","3.424820296318192","32.41072047778229","0.0","0.0","0.0","0.0",""
"3","25210.33296598108","25210.33285815981","1459","679365","3596.2860923631844","5979.199555131942","1.895","0.0","0.0","0.0","","","","-2.091731570215202","-31.51052938522751","0.0","0.0","0.0","0.0","1.59443195077535E-08"
