﻿"type","rcvTime","sendTime","sender","messageID","pos__001","pos__002","pos__003","pos_noise__001","pos_noise__002","pos_noise__003","noise__001","noise__002","noise__003","spd__001","spd__002","spd__003","spd_noise__001","spd_noise__002","spd_noise__003","RSSI"
"2","25207.7","","","","6324.892384821536","5892.103645774952","1.895","","","","0.0","0.0","0.0","-2.862975008546603","9.063710204993301","0.0","0.0","0.0","0.0",""
"3","25207.71168951962","25207.71158382157","217","496066","6299.3282413491019","6074.400991568116","1.895","0.0","0.0","0.0","","","","-2.5070890049224228","14.055980822642388","0.0","0.0","0.0","0.0","2.68406489168163E-09"
"2","25207.8","","","","6324.60019713375","5893.028664163047","1.895","","","","0.0","0.0","0.0","-2.9219877861425869","9.250534998407494","0.0","0.0","0.0","0.0",""
"3","25207.882976454872","25207.882859998383","289","508678","5560.0","5820.0","1.895","0.0","0.0","0.0","","","","1.2979751395599069","-10.706166361688315","0.0","0.0","0.0","0.0","9.03577399081391E-08"
"2","25207.899999999998","","","","6324.303975729122","5893.96645263834","1.895","","","","0.0","0.0","0.0","-2.96232648567754","9.378240717646979","0.0","0.0","0.0","0.0",""
"3","25207.910654622825","25207.91054471885","337","512251","6322.663010959055","5972.0486432244319","1.895","0.0","0.0","0.0","","","","1.7871539659687715","-14.734236529644053","0.0","0.0","0.0","0.0","2.9441984465959E-08"
"2","25208.0","","","","6320.825240721544","5894.015211524319","1.895","","","","0.0","0.0","0.0","-3.000956910005168","9.493083861619765","0.0","0.0","0.0","0.0",""
"3","25208.024684639455","25208.02457702509","1063","521679","5560.0","5820.0","1.895","0.0","0.0","0.0","","","","1.637775775101944","-13.531005676477055","0.0","0.0","0.0","0.0","5.48316341508184E-08"
"2","25208.1","","","","6320.521856905281","5894.974921409004","1.895","","","","0.0","0.0","0.0","-3.0274012070138145","9.576736488665114","0.0","0.0","0.0","0.0",""
"2","25208.2","","","","6320.22518482913","5895.942561177937","1.895","","","","0.0","0.0","0.0","-3.037571761390797","9.633404394884565","0.0","0.0","0.0","0.0",""
"2","25208.3","","","","6319.957353292609","5896.9322921349889","1.895","","","","0.0","0.0","0.0","-3.0419695243896616","9.768873592045696","0.0","0.0","0.0","0.0",""
"3","25208.359221161016","25208.359110657126","805","541109","6107.680963926107","5819.8445952192919","1.895","0.0","0.0","0.0","","","","-8.125714540031336","-0.8186169301203312","0.0","0.0","0.0","0.0","1.30050517824701E-08"
"2","25208.399999999998","","","","6319.686812710492","5897.932033960533","1.895","","","","0.0","0.0","0.0","-3.0371128489852254","9.878706252916132","0.0","0.0","0.0","0.0",""
"3","25208.452217319256","25208.45210903813","181","547966","6314.154106841394","6017.206446239524","1.895","0.0","0.0","0.0","","","","1.2804585179340789","-12.313582289018428","0.0","0.0","0.0","0.0","4.65231725724317E-09"
"3","25208.47344031953","25208.473326199222","1183","549547","5560.0","5820.0","1.895","0.0","0.0","0.0","","","","1.2551330555350074","-10.366720588416673","0.0","0.0","0.0","0.0","1.72661810609381E-08"
"2","25208.5","","","","6319.41379032408","5898.94094691869","1.895","","","","0.0","0.0","0.0","-3.0286479044280738","9.980424266057549","0.0","0.0","0.0","0.0",""
"3","25208.537644785043","25208.5375361084","1435","552735","6316.936132473616","5908.096756975407","1.895","0.0","0.0","0.0","","","","-3.637370235129984","13.441351868894959","0.0","0.0","0.0","0.0","0.0000035394010086949909"
"3","25208.558166269482","25208.558051239932","979","553250","6321.602995715822","5980.787965977952","1.895","0.0","0.0","0.0","","","","1.6735882623258756","-13.760072952033737","0.0","0.0","0.0","0.0","1.44154414291081E-08"
"3","25208.579974270193","25208.579867018943","1495","554958","5560.0","5820.0","1.895","0.0","0.0","0.0","","","","-4.042114459509257","15.364331796447589","0.0","0.0","0.0","0.0","1.88680387817104E-07"
"2","25208.6","","","","6319.136824985429","5899.964430460825","1.895","","","","0.0","0.0","0.0","-3.0349603122254775","10.135842263125403","0.0","0.0","0.0","0.0",""
"3","25208.600326362222","25208.60021286551","799","556423","5560.0","5820.0","1.895","0.0","0.0","0.0","","","","-5.1213851096993319","-7.969069273535941","0.0","0.0","0.0","0.0","3.69225332873053E-09"
"3","25208.6634288575","25208.663317918774","769","561377","5560.0","5820.0","1.895","0.0","0.0","0.0","","","","1.3476460043380257","-12.395381380558609","0.0","0.0","0.0","0.0","1.3822429599883E-08"
"2","25208.7","","","","6318.855582995993","5901.003717719459","1.895","","","","0.0","0.0","0.0","-3.0431871093449804","10.303840755917526","0.0","0.0","0.0","0.0",""
"3","25208.780535535636","25208.780426649144","265","569831","5560.0","5820.0","1.895","0.0","0.0","0.0","","","","-7.425834398892417","-0.7481082099631377","0.0","0.0","0.0","0.0","5.04145041415459E-09"
"2","25208.8","","","","6318.573181448933","5902.047289948015","1.895","","","","0.0","0.0","0.0","-3.0167346937323429","10.357761840224559","0.0","0.0","0.0","0.0",""
"3","25208.804866734023","25208.804758092992","1363","572922","5973.945390054891","5708.375383136539","1.895","0.0","0.0","0.0","","","","-12.137838020490037","-1.0503053174856292","0.0","0.0","0.0","0.0","1.42516257611575E-09"
"3","25208.82735785544","25208.827243641295","1513","573846","6324.523930370282","5882.314953217871","1.895","0.0","0.0","0.0","","","","-2.8443973378298699","8.997830783158415","0.0","0.0","0.0","0.0","8.52931153355457E-07"
"3","25208.882966438145","25208.882859998383","289","577318","5560.0","5820.0","1.895","0.0","0.0","0.0","","","","1.3094100075175886","-10.789538461944792","0.0","0.0","0.0","0.0","2.83203230569787E-08"
"2","25208.899999999998","","","","6318.290117342967","5903.093310562848","1.895","","","","0.0","0.0","0.0","-2.984587249880298","10.393406970951954","0.0","0.0","0.0","0.0",""
"3","25208.91066121608","25208.91054471885","337","580926","6324.493804115643","5957.329546117119","1.895","0.0","0.0","0.0","","","","1.924359680468427","-14.746241015595018","0.0","0.0","0.0","0.0","3.54933915420008E-08"
"3","25208.920386560945","25208.920271761017","925","582548","5560.0","5820.0","1.895","0.0","0.0","0.0","","","","2.38244189520085E-15","-4.75430898304059E-14","0.0","0.0","0.0","0.0","2.01080832247213E-09"
"2","25209.0","","","","6318.000999660339","5904.161701255166","1.895","","","","0.0","0.0","0.0","-3.0074513298676326","10.627357003341558","0.0","0.0","0.0","0.0",""
"3","25209.00017012981","25209.000055350363","205","588581","6101.23989767381","5739.689822660743","1.895","0.0","0.0","0.0","","","","2.27052908422674E-15","-4.5309801020285E-14","0.0","0.0","0.0","0.0","3.90283301652882E-09"
"3","25209.024682420746","25209.02457702509","1063","590388","5560.0","5820.0","1.895","0.0","0.0","0.0","","","","1.7167798133842974","-13.488514238339003","0.0","0.0","0.0","0.0","2.66960475929633E-07"
"3","25209.065719067665","25209.065604869276","655","594835","6099.998740070528","5764.45788418004","1.895","0.0","0.0","0.0","","","","0.37613489957670639","-7.506002708802187","0.0","0.0","0.0","0.0","2.39117677993152E-09"
"2","25209.1","","","","6317.710093713907","5905.236700206053","1.895","","","","0.0","0.0","0.0","-2.9845384932319609","10.704751162127759","0.0","0.0","0.0","0.0",""
"3","25209.105740097242","25209.105623354062","1357","596900","6137.925938832551","5822.89159476469","1.895","0.0","0.0","0.0","","","","-6.086451326193965","-0.6131734108339638","0.0","0.0","0.0","0.0","4.20949339847701E-09"
"2","25209.2","","","","6317.415941436519","5906.323695482262","1.895","","","","0.0","0.0","0.0","-2.975355943573888","10.835965722423895","0.0","0.0","0.0","0.0",""
"3","25209.235942093448","25209.23583422345","943","601235","6173.841897119589","5836.459739880584","1.895","0.0","0.0","0.0","","","","15.021221866733768","1.5131133246222284","0.0","0.0","0.0","0.0","1.37759151987728E-09"
"3","25209.266806260144","25209.26669687568","577","603582","6098.559685695581","5793.175097202811","1.895","0.0","0.0","0.0","","","","0.4128682341832526","-8.239038939600516","0.0","0.0","0.0","0.0","2.14604184916103E-09"
"2","25209.3","","","","6317.124103451788","5907.40213863979","1.895","","","","0.0","0.0","0.0","-2.9121878619205","10.76155002928539","0.0","0.0","0.0","0.0",""
"3","25209.345615173497","25209.345505659236","883","609420","6095.51483200101","5725.113408841387","1.895","0.0","0.0","0.0","","","","5.818059751383439","-2.4714956189912149","0.0","0.0","0.0","0.0","1.6345956984423E-09"
"3","25209.36803367115","25209.367917491123","847","611856","6099.324012586981","5777.922485111511","1.895","0.0","0.0","0.0","","","","0.3865457123873875","-7.713756866247373","0.0","0.0","0.0","0.0","6.51128795597502E-09"
"2","25209.399999999998","","","","6316.828828641757","5908.493282065693","1.895","","","","0.0","0.0","0.0","-2.9464831951037637","10.888283248883605","0.0","0.0","0.0","0.0",""
"3","25209.40213967388","25209.402025997777","1453","613756","6172.245727283958","5826.3491072980309","1.895","0.0","0.0","0.0","","","","-4.207274675311524","-0.4238576511536803","0.0","0.0","0.0","0.0","2.43174458352594E-09"
"3","25209.409167240825","25209.409054094227","391","614449","6091.719013785514","5797.84740897472","1.895","0.0","0.0","0.0","","","","-0.43563071588237869","8.693278228448909","0.0","0.0","0.0","0.0","3.28251663433725E-09"
"3","25209.452224826935","25209.45210903813","181","617495","6315.541029588768","6004.234434507932","1.895","0.0","0.0","0.0","","","","1.4013216043159234","-12.91383666297437","0.0","0.0","0.0","0.0","3.18160649654954E-08"
"3","25209.473434827603","25209.473326199222","1183","619093","5560.0","5820.0","1.895","0.0","0.0","0.0","","","","1.2789633493646336","-10.549770896287468","0.0","0.0","0.0","0.0","2.86131559206376E-08"
"3","25209.475399339677","25209.47528944444","325","619335","5560.0","5820.0","1.895","0.0","0.0","0.0","","","","11.092133208383306","0.5877852689399057","0.0","0.0","0.0","0.0","8.02898526933597E-09"
"2","25209.5","","","","6316.5316099670449","5909.591608749693","1.895","","","","0.0","0.0","0.0","-2.9658805985657854","10.959963421215072","0.0","0.0","0.0","0.0",""
"3","25209.53064358009","25209.530537214596","487","621691","5560.0","5820.0","1.895","0.0","0.0","0.0","","","","13.790625583280308","1.0689668528327637","0.0","0.0","0.0","0.0","7.09024925012566E-09"
"3","25209.53765040258","25209.5375361084","1435","622381","6313.599581641391","5921.82482452765","1.895","0.0","0.0","0.0","","","","-3.1453113377671344","13.470698147399526","0.0","0.0","0.0","0.0","4.62293711690324E-07"
"3","25209.55815870688","25209.558051239932","979","622933","6323.287700708805","5966.898372623401","1.895","0.0","0.0","0.0","","","","1.7021227488338569","-14.033194487642787","0.0","0.0","0.0","0.0","5.63463413036286E-08"
"3","25209.57997970688","25209.579867018943","1495","624641","5560.0","5820.0","1.895","0.0","0.0","0.0","","","","-2.5284134736604946","15.686985539889074","0.0","0.0","0.0","0.0","9.77063643083162E-08"
"2","25209.6","","","","6316.232970491379","5910.695185788836","1.895","","","","0.0","0.0","0.0","-2.980058462662588","11.012355574818417","0.0","0.0","0.0","0.0",""
"3","25209.611864462546","25209.611748417607","445","627393","6154.119470332796","5735.112565170468","1.895","0.0","0.0","0.0","","","","12.838351422420479","0.6580745998265238","0.0","0.0","0.0","0.0","1.42241211763064E-08"
"3","25209.663434101287","25209.663317918774","769","631536","5560.0","5820.0","1.895","0.0","0.0","0.0","","","","1.7051203358606638","-14.007655232226615","0.0","0.0","0.0","0.0","4.06566105505249E-08"
"2","25209.7","","","","6315.937592788905","5911.811621047521","1.895","","","","0.0","0.0","0.0","-2.9954823477689058","11.093148824245742","0.0","0.0","0.0","0.0",""
"3","25209.726340743244","25209.726227186387","757","635614","6162.217042148803","5732.227851916525","1.895","0.0","0.0","0.0","","","","13.157298127927352","0.6742375200080215","0.0","0.0","0.0","0.0","1.71522841904482E-08"
"3","25209.784838371615","25209.784730568528","889","641028","6144.9231407277979","5731.341636745901","1.895","0.0","0.0","0.0","","","","12.5438214083927","0.6428002889031501","0.0","0.0","0.0","0.0","3.07345118312864E-09"
"2","25209.8","","","","6315.6679309003479","5912.966525447287","1.895","","","","0.0","0.0","0.0","-2.9895254231280568","11.224045314204064","0.0","0.0","0.0","0.0",""
"3","25209.827358244478","25209.827243641295","1513","644051","6321.492624694517","5891.904040916635","1.895","0.0","0.0","0.0","","","","-3.153917725572767","9.976952805185834","0.0","0.0","0.0","0.0","3.94797872490942E-07"
"3","25209.84054561706","25209.84042853536","229","644534","5560.0","5820.0","1.895","0.0","0.0","0.0","","","","12.18127029208443","0.6234464350544161","0.0","0.0","0.0","0.0","1.95077664117776E-09"
"3","25209.882966534267","25209.882859998383","289","647423","5560.0","5820.0","1.895","0.0","0.0","0.0","","","","1.4118204242502335","-10.653674170419095","0.0","0.0","0.0","0.0","8.4751905478054E-08"
"3","25209.88837804836","25209.888265040936","1111","648916","6175.7145477532089","5736.219496384925","1.895","0.0","0.0","0.0","","","","12.823372878241367","0.6573068221612443","0.0","0.0","0.0","0.0","1.29774563929712E-08"
"3","25209.889399215783","25209.88928731694","637","649304","6144.755372877771","5737.940070081129","1.895","0.0","0.0","0.0","","","","12.996793487957739","0.6651855162000434","0.0","0.0","0.0","0.0","2.40705136014067E-09"
"2","25209.899999999998","","","","6315.4001385874839","5914.113422852786","1.895","","","","0.0","0.0","0.0","-2.9309171428870757","11.156249540139142","0.0","0.0","0.0","0.0",""
"3","25209.920386942224","25209.920271761017","925","652382","5560.0","5820.0","1.895","0.0","0.0","0.0","","","","2.31522772351173E-15","-4.62017897932762E-14","0.0","0.0","0.0","0.0","1.31440428376593E-08"
"2","25210.0","","","","6315.127303556879","5915.281917143694","1.895","","","","0.0","0.0","0.0","-2.9468916804733285","11.376560138386303","0.0","0.0","0.0","0.0",""
"3","25210.000169751296","25210.000055350363","205","658406","6101.23989767381","5739.689822660743","1.895","0.0","0.0","0.0","","","","2.34810922748368E-15","-4.68579603803729E-14","0.0","0.0","0.0","0.0","1.92033673833557E-09"
"3","25210.014242791076","25210.01412652507","1531","659540","6322.070894000971","5914.545146200975","1.895","0.0","0.0","0.0","","","","-3.6292996229580565","13.782778406185607","0.0","0.0","0.0","0.0","0.000001237517757491729"
"3","25210.024688964928","25210.02457702509","1063","660464","5560.0","5820.0","1.895","0.0","0.0","0.0","","","","2.1525122860087966","-13.35401739790632","0.0","0.0","0.0","0.0","2.12569336070009E-07"
"3","25210.032471960338","25210.032356234035","937","661340","5560.0","5820.0","1.895","0.0","0.0","0.0","","","","3.16897276453176E-15","4.62809319128044E-14","0.0","0.0","0.0","0.0","1.2465231482979E-08"
"2","25210.1","","","","6314.853674466982","5916.453812221331","1.895","","","","0.0","0.0","0.0","-2.916130996394441","11.419787810240662","0.0","0.0","0.0","0.0",""
"2","25210.2","","","","6314.580830712777","5917.62234387356","1.895","","","","0.0","0.0","0.0","-2.8687579946322434","11.396900926037603","0.0","0.0","0.0","0.0",""
"3","25210.240802345623","25210.24069597921","1201","672048","5560.0","5820.0","1.895","0.0","0.0","0.0","","","","3.11858568886331E-15","4.55518007995981E-14","0.0","0.0","0.0","0.0","4.40947734445928E-09"
"3","25210.266809428278","25210.26669687568","577","674037","6098.9336466844829","5785.712476215413","1.895","0.0","0.0","0.0","","","","0.34795837763034817","-6.943722924860823","0.0","0.0","0.0","0.0","1.03789137620865E-08"
"2","25210.3","","","","6314.305881676303","5918.799892001079","1.895","","","","0.0","0.0","0.0","-2.851397099374504","11.494709889949258","0.0","0.0","0.0","0.0",""
"2","25210.399999999998","","","","6314.029499861319","5919.983576413614","1.895","","","","0.0","0.0","0.0","-2.8264609228984347","11.56440855322197","0.0","0.0","0.0","0.0",""
"3","25210.402132594383","25210.402025997777","1453","684238","6167.033336047109","5825.823990190866","1.895","0.0","0.0","0.0","","","","-5.969666697228404","-0.6014080609723654","0.0","0.0","0.0","0.0","2.53141163671307E-09"
"3","25210.446503427916","25210.44639441464","535","687355","6192.202047215477","5733.76441476226","1.895","0.0","0.0","0.0","","","","14.260415491919872","0.7307660799406576","0.0","0.0","0.0","0.0","3.36542071178623E-09"
"3","25210.452215086967","25210.45210903813","181","687743","6316.964144114062","5991.620852938996","1.895","0.0","0.0","0.0","","","","1.4693493258079576","-12.299334237117375","0.0","0.0","0.0","0.0","2.9759854963459E-09"
"3","25210.473438088608","25210.473326199222","1183","689610","5560.0","5820.0","1.895","0.0","0.0","0.0","","","","1.2659542651548004","-10.43146314488158","0.0","0.0","0.0","0.0","3.24877604484839E-08"
"3","25210.475400850497","25210.47528944444","325","689881","5560.0","5820.0","1.895","0.0","0.0","0.0","","","","11.626442638779855","0.5957897871641121","0.0","0.0","0.0","0.0","1.94286898648326E-09"
"2","25210.5","","","","6313.751562128497","5921.173924490658","1.895","","","","0.0","0.0","0.0","-2.802245463559509","11.639245717798806","0.0","0.0","0.0","0.0",""
"3","25210.505879919532","25210.50576611054","1549","691964","6323.993648511876","5883.992421539847","1.895","0.0","0.0","0.0","","","","-3.1043857485820127","9.820265713200345","0.0","0.0","0.0","0.0","4.86277955409528E-08"
"3","25210.53764171644","25210.5375361084","1435","693249","6311.292935782148","5935.552402309225","1.895","0.0","0.0","0.0","","","","-2.2057518953765786","13.685881451239384","0.0","0.0","0.0","0.0","0.0000011592392739536583"
"3","25210.579976785983","25210.579867018943","1495","695255","5560.0","5820.0","1.895","0.0","0.0","0.0","","","","-2.5460177262540029","15.796207254909885","0.0","0.0","0.0","0.0","3.24475507377265E-07"
"2","25210.6","","","","6313.4836864512349","5922.361567743827","1.895","","","","0.0","0.0","0.0","-2.754043782813502","11.653204915510236","0.0","0.0","0.0","0.0",""
"3","25210.61186150731","25210.611748417607","445","698058","6167.0034705138809","5735.77297965706","1.895","0.0","0.0","0.0","","","","13.004849732232604","0.6666090529658935","0.0","0.0","0.0","0.0","1.41483708707925E-08"
"3","25210.663426825507","25210.663317918774","769","702133","5560.0","5820.0","1.895","0.0","0.0","0.0","","","","1.7671009007756816","-14.599466351134684","0.0","0.0","0.0","0.0","4.93816973752556E-08"
"2","25210.7","","","","6313.244724641559","5923.5563767922089","1.895","","","","0.0","0.0","0.0","-2.7142812846505479","11.835023385834717","0.0","0.0","0.0","0.0",""
"3","25210.72633779576","25210.726227186387","757","706212","6175.362933557654","5732.901504906344","1.895","0.0","0.0","0.0","","","","13.211170877448249","0.6769981953897061","0.0","0.0","0.0","0.0","6.0927916899461E-09"
"3","25210.773803948345","25210.773694703123","1573","710416","5560.0","5820.0","1.895","0.0","0.0","0.0","","","","-3.432509341889109","12.660895113527684","0.0","0.0","0.0","0.0","1.00175279374759E-07"
"3","25210.78483956665","25210.784730568528","889","712146","6157.568439548193","5731.989637181367","1.895","0.0","0.0","0.0","","","","12.712362949151045","0.6514370948305018","0.0","0.0","0.0","0.0","1.59752823476415E-08"
"2","25210.8","","","","6313.031926946913","5924.762599985759","1.895","","","","0.0","0.0","0.0","-2.6634445984437007","11.913825034118104","0.0","0.0","0.0","0.0",""
"3","25210.827357985414","25210.827243641295","1513","715201","6318.485730826684","5902.370450503255","1.895","0.0","0.0","0.0","","","","-2.9449491735681736","10.882614504187714","0.0","0.0","0.0","0.0","4.802707814672E-08"
"3","25210.8405469898","25210.84042853536","229","715732","5560.0","5820.0","1.895","0.0","0.0","0.0","","","","10.156483941484963","0.5198163700645301","0.0","0.0","0.0","0.0","3.33001411017593E-09"
"3","25210.882973142947","25210.882859998383","289","718326","5560.0","5820.0","1.895","0.0","0.0","0.0","","","","1.8363390286362845","-11.392503307067593","0.0","0.0","0.0","0.0","1.91029768187508E-07"
"3","25210.8883713996","25210.888265040936","1111","719842","6188.430535288017","5740.175397239313","1.895","0.0","0.0","0.0","","","","12.87588729437345","0.6589974476687042","0.0","0.0","0.0","0.0","5.51298191349917E-09"
"3","25210.889405572107","25210.88928731694","637","720241","6156.9873095542729","5738.566109659261","1.895","0.0","0.0","0.0","","","","11.462025558522102","0.5866349569128626","0.0","0.0","0.0","0.0","7.25791816312346E-09"
"2","25210.899999999998","","","","6312.838405570534","5925.963329143452","1.895","","","","0.0","0.0","0.0","-2.5618331217468874","11.84604902828047","0.0","0.0","0.0","0.0",""
"3","25210.920380362408","25210.920271761017","925","723225","5560.0","5820.0","1.895","0.0","0.0","0.0","","","","2.37866361589008E-15","-4.7467691948494E-14","0.0","0.0","0.0","0.0","8.79285627632072E-09"
"3","25210.935409610564","25210.935301890364","733","724965","5560.0","5820.0","1.895","0.0","0.0","0.0","","","","7.738722081090235","-2.0326725521006958","0.0","0.0","0.0","0.0","3.95165404156782E-08"
"2","25211.0","","","","6312.644823483272","5927.164434989893","1.895","","","","0.0","0.0","0.0","-2.4797424462110246","11.867389065618675","0.0","0.0","0.0","0.0",""
"3","25211.000172008058","25211.000055350363","205","729388","6101.23989767381","5739.689822660743","1.895","0.0","0.0","0.0","","","","2.30277036135356E-15","-4.59531954878585E-14","0.0","0.0","0.0","0.0","9.36979398323398E-09"
"3","25211.01423204886","25211.01412652507","1531","730513","6319.154590063346","5928.27366203889","1.895","0.0","0.0","0.0","","","","-2.5675388788107984","13.946774077309199","0.0","0.0","0.0","0.0","0.000004522809403211489"
"2","25211.1","","","","6312.4489385699","5928.379829027694","1.895","","","","0.0","0.0","0.0","-2.42392461111773","12.026073323758496","0.0","0.0","0.0","0.0",""
"2","25211.2","","","","6312.253811811662","5929.590518990966","1.895","","","","0.0","0.0","0.0","-2.329458784041199","11.996362713817895","0.0","0.0","0.0","0.0",""
"3","25211.235947746198","25211.23583422345","943","742900","6206.509522173665","5839.348666324022","1.895","0.0","0.0","0.0","","","","17.965234083716067","1.198196477189704","0.0","0.0","0.0","0.0","1.6493558737617E-09"
"3","25211.240804867062","25211.24069597921","1201","743242","5560.0","5820.0","1.895","0.0","0.0","0.0","","","","3.23034139483284E-15","4.71841669310536E-14","0.0","0.0","0.0","0.0","5.65055223047405E-09"
"2","25211.3","","","","6312.057291727893","5930.809854028095","1.895","","","","0.0","0.0","0.0","-2.259365376754266","12.098542307206332","0.0","0.0","0.0","0.0",""
"3","25211.34561391871","25211.345505659236","883","751132","6097.378608657913","5709.582971067074","1.895","0.0","0.0","0.0","","","","-0.3442382886377795","-9.624128451237743","0.0","0.0","0.0","0.0","3.06852662370164E-09"
"3","25211.36802845255","25211.367917491123","847","753634","6099.910194607144","5766.2248632313189","1.895","0.0","0.0","0.0","","","","0.21753156601850033","-4.340975872278969","0.0","0.0","0.0","0.0","1.49266756531709E-08"
"2","25211.399999999998","","","","6311.859091593326","5932.03961316419","1.895","","","","0.0","0.0","0.0","-2.1900409885599947","12.21819323698685","0.0","0.0","0.0","0.0",""
"3","25211.446510926256","25211.44639441464","535","758641","6206.468319636193","5734.495480976858","1.895","0.0","0.0","0.0","","","","14.279937602451814","0.7317664782975601","0.0","0.0","0.0","0.0","3.93672510129243E-09"
"3","25211.452225237987","25211.45210903813","181","759004","6318.427609640684","5979.536096560766","1.895","0.0","0.0","0.0","","","","1.439818954213515","-11.885714168019975","0.0","0.0","0.0","0.0","2.32372089643748E-08"
"3","25211.473435242886","25211.473326199222","1183","760875","5560.0","5820.0","1.895","0.0","0.0","0.0","","","","1.3659468874473775","-10.418841233321447","0.0","0.0","0.0","0.0","6.39110635692325E-07"
"3","25211.475406956","25211.47528944444","325","761151","5560.0","5820.0","1.895","0.0","0.0","0.0","","","","11.997367458040849","0.6147975977223085","0.0","0.0","0.0","0.0","7.04105625469713E-09"
"2","25211.5","","","","6311.660970947567","5933.268879101392","1.895","","","","0.0","0.0","0.0","-2.1001805613428656","12.228908492208605","0.0","0.0","0.0","0.0",""
"3","25211.50587750046","25211.50576611054","1549","763551","6320.761275982028","5894.2175545284439","1.895","0.0","0.0","0.0","","","","-3.29689578361852","10.429242770055965","0.0","0.0","0.0","0.0","2.86555470240666E-07"
"3","25211.530651507204","25211.530537214596","487","764084","5560.0","5820.0","1.895","0.0","0.0","0.0","","","","13.70634003542048","0.7882484777489368","0.0","0.0","0.0","0.0","6.03847093215106E-09"
"3","25211.53765259435","25211.5375361084","1435","764789","6309.078951975376","5949.289359751238","1.895","0.0","0.0","0.0","","","","-2.199644014705694","13.647984292001583","0.0","0.0","0.0","0.0","1.41377469518593E-07"
"3","25211.57053103132","25211.57042341563","1213","765853","5560.0","5820.0","1.895","0.0","0.0","0.0","","","","12.113231935088033","0.041278834747438829","0.0","0.0","0.0","0.0","2.77690213808432E-09"
"3","25211.579974676064","25211.579867018943","1495","766852","5560.0","5820.0","1.895","0.0","0.0","0.0","","","","-1.9842348608027539","15.803900869289159","0.0","0.0","0.0","0.0","8.49109664293269E-08"
"2","25211.6","","","","6311.463382680275","5934.494841825479","1.895","","","","0.0","0.0","0.0","-2.023982896495847","12.207954682811265","0.0","0.0","0.0","0.0",""
"3","25211.611859370743","25211.611748417607","445","769659","6180.016942859266","5736.440030692218","1.895","0.0","0.0","0.0","","","","13.02603717746661","0.6676950895671989","0.0","0.0","0.0","0.0","9.21452334933336E-09"
"3","25211.663424537288","25211.663317918774","769","773790","5560.0","5820.0","1.895","0.0","0.0","0.0","","","","1.7605484118955659","-14.545330879368788","0.0","0.0","0.0","0.0","4.04837319183484E-07"
"2","25211.7","","","","6311.264752162178","5935.727271333517","1.895","","","","0.0","0.0","0.0","-1.9868155772793972","12.280186280490133","0.0","0.0","0.0","0.0",""
"3","25211.773810145696","25211.773694703123","1573","782257","5560.0","5820.0","1.895","0.0","0.0","0.0","","","","-3.055368536991946","13.083244760961794","0.0","0.0","0.0","0.0","4.44552053036972E-07"
"3","25211.784841884215","25211.784730568528","889","784058","6170.343711716777","5732.6442980198339","1.895","0.0","0.0","0.0","","","","12.765200746919084","0.6541447347565277","0.0","0.0","0.0","0.0","2.27170628680455E-09"
"2","25211.8","","","","6311.064785321605","5936.967992232362","1.895","","","","0.0","0.0","0.0","-1.992706139380709","12.364010679481213","0.0","0.0","0.0","0.0",""
"3","25211.827354384775","25211.827243641295","1513","787381","6315.535300508661","5913.534553149385","1.895","0.0","0.0","0.0","","","","-2.901258164379516","11.326452342467205","0.0","0.0","0.0","0.0","2.44741082880504E-07"
"3","25211.840544792267","25211.84042853536","229","787963","5560.0","5820.0","1.895","0.0","0.0","0.0","","","","10.945414924251015","0.5601944420466456","0.0","0.0","0.0","0.0","1.73142576999639E-08"
"3","25211.88297085661","25211.882859998383","289","790589","5560.0","5820.0","1.895","0.0","0.0","0.0","","","","1.9109463705239863","-11.85536140458261","0.0","0.0","0.0","0.0","7.57805993888503E-07"
"3","25211.888381457622","25211.888265040936","1111","792121","6201.328944918408","5740.835547396818","1.895","0.0","0.0","0.0","","","","12.90447200271652","0.6604604342115371","0.0","0.0","0.0","0.0","3.60707788363802E-09"
"3","25211.88940263076","25211.88928731694","637","792498","6168.5345123300689","5739.157104049238","1.895","0.0","0.0","0.0","","","","11.693536321395463","0.5984838492170009","0.0","0.0","0.0","0.0","2.27714671124235E-09"
"2","25211.899999999998","","","","6310.862645170916","5938.222197723316","1.895","","","","0.0","0.0","0.0","-2.01436357217422","12.49838710611306","0.0","0.0","0.0","0.0",""
"3","25211.920390498173","25211.920271761017","925","795879","5560.0","5820.0","1.895","0.0","0.0","0.0","","","","2.32849591181831E-15","-4.64665646319899E-14","0.0","0.0","0.0","0.0","1.74878260926739E-09"
"3","25211.935407322537","25211.935301890364","733","797601","5560.0","5820.0","1.895","0.0","0.0","0.0","","","","5.171744976355307","-1.3584237745905834","0.0","0.0","0.0","0.0","4.25515940534543E-09"
"2","25212.0","","","","6310.662383704162","5939.464746669551","1.895","","","","0.0","0.0","0.0","-1.9956421431663119","12.382227506058298","0.0","0.0","0.0","0.0",""
"3","25212.000165471","25212.000055350363","205","802907","6101.23989767381","5739.689822660743","1.895","0.0","0.0","0.0","","","","2.34495580084695E-15","-4.67950318169666E-14","0.0","0.0","0.0","0.0","2.25767589867104E-09"
"3","25212.014238515363","25212.01412652507","1531","804067","6316.897745171445","5942.275760016076","1.895","0.0","0.0","0.0","","","","-2.2621601395208654","14.035075262522044","0.0","0.0","0.0","0.0","0.0000016359744037503602"
"3","25212.03247361342","25212.032356234035","937","805333","5560.0","5820.0","1.895","0.0","0.0","0.0","","","","3.1297826410454E-15","4.57085838456242E-14","0.0","0.0","0.0","0.0","4.26106462402368E-09"
"3","25212.06571308676","25212.065604869276","655","808937","6100.572057901829","5753.016975081789","1.895","0.0","0.0","0.0","","","","0.06580385156825516","-1.3131562337741079","0.0","0.0","0.0","0.0","7.09354307597312E-09"
"2","25212.1","","","","6310.460806877348","5940.71545694248","1.895","","","","0.0","0.0","0.0","-2.0087499467237759","12.463556619244868","0.0","0.0","0.0","0.0",""
"2","25212.2","","","","6310.258665320217","5941.969671159891","1.895","","","","0.0","0.0","0.0","-2.014377587625841","12.498474066849566","0.0","0.0","0.0","0.0",""
"3","25212.24080699456","25212.24069597921","1201","816707","5560.0","5820.0","1.895","0.0","0.0","0.0","","","","3.24543552507729E-15","4.74046402105257E-14","0.0","0.0","0.0","0.0","7.06511353622276E-09"
"2","25212.3","","","","6310.0549652086469","5943.23355563593","1.895","","","","0.0","0.0","0.0","-2.0299088676727488","12.59483996274501","0.0","0.0","0.0","0.0",""
"3","25212.345616314356","25212.345505659236","883","824904","6096.6632396008039","5699.153847489464","1.895","0.0","0.0","0.0","","","","-0.776788745666991","-11.324540447690867","0.0","0.0","0.0","0.0","5.96499946287075E-09"
"2","25212.399999999998","","","","6309.85008089591","5944.504787645843","1.895","","","","0.0","0.0","0.0","-2.0417096488725319","12.668059481611817","0.0","0.0","0.0","0.0",""
"3","25212.446507692202","25212.44639441464","535","832337","6220.760989534581","5735.2278999137029","1.895","0.0","0.0","0.0","","","","14.28876263842465","0.7322187117506989","0.0","0.0","0.0","0.0","7.21135248906696E-09"
"3","25212.45222186164","25212.45210903813","181","832676","6319.845433639977","5967.853226806587","1.895","0.0","0.0","0.0","","","","1.391770533886695","-11.46818919922622","0.0","0.0","0.0","0.0","4.16126440750977E-08"
"3","25212.47343189399","25212.473326199222","1183","834240","5560.0","5820.0","1.895","0.0","0.0","0.0","","","","1.6721835981295237","-10.374095891143139","0.0","0.0","0.0","0.0","0.0000026869026592476439"
"2","25212.5","","","","6309.645087569263","5945.77669604709","1.895","","","","0.0","0.0","0.0","-2.0427959924369207","12.67479984496906","0.0","0.0","0.0","0.0",""
"3","25212.505874129947","25212.50576611054","1549","837164","6317.746035449328","5905.103882955858","1.895","0.0","0.0","0.0","","","","-2.9935670333633546","11.062274455853665","0.0","0.0","0.0","0.0","2.30399966985763E-07"
"3","25212.53064521539","25212.530537214596","487","837722","5560.0","5820.0","1.895","0.0","0.0","0.0","","","","13.826240914194355","0.7087123305289959","0.0","0.0","0.0","0.0","8.26767108523965E-09"
"3","25212.537653246607","25212.5375361084","1435","838435","6307.130250411439","5963.090382400694","1.895","0.0","0.0","0.0","","","","-1.6720866542237412","13.779678146854203","0.0","0.0","0.0","0.0","1.88737540535375E-07"
"3","25212.57997534121","25212.579867018943","1495","840434","5560.0","5820.0","1.895","0.0","0.0","0.0","","","","-1.9224325158913119","15.80975188159581","0.0","0.0","0.0","0.0","6.77678387018594E-07"
"2","25212.6","","","","6309.440764660147","5947.0444447534559","1.895","","","","0.0","0.0","0.0","-2.0361151591137585","12.633347724691557","0.0","0.0","0.0","0.0",""
"3","25212.611866092913","25212.611748417607","445","843249","6193.056100483321","5737.108398316159","1.895","0.0","0.0","0.0","","","","13.023179162503248","0.6675485920152248","0.0","0.0","0.0","0.0","1.06841269398187E-08"
"3","25212.663431139397","25212.663317918774","769","846804","5560.0","5820.0","1.895","0.0","0.0","0.0","","","","2.338657609524385","-14.511553174725498","0.0","0.0","0.0","0.0","0.0000023745109674840354"
"2","25212.7","","","","6309.235171114574","5948.320077292977","1.895","","","","0.0","0.0","0.0","-2.048777283806976","12.711911564009354","0.0","0.0","0.0","0.0",""
"3","25212.726334648207","25212.726227186387","757","850996","6201.661894797968","5734.249178739763","1.895","0.0","0.0","0.0","","","","13.15616094744846","0.6741792459077196","0.0","0.0","0.0","0.0","2.14706134702835E-09"
"3","25212.773804677465","25212.773694703123","1573","855257","5560.0","5820.0","1.895","0.0","0.0","0.0","","","","-2.1536908899126385","13.362101649673143","0.0","0.0","0.0","0.0","1.15646454689151E-07"
"3","25212.784836436207","25212.784730568528","889","857061","6183.188402512349","5733.302516172458","1.895","0.0","0.0","0.0","","","","12.923931511104577","0.6622787935695769","0.0","0.0","0.0","0.0","1.36854135825528E-08"
"2","25212.8","","","","6309.029381433269","5949.59692678277","1.895","","","","0.0","0.0","0.0","-2.0507318122437159","12.724038696042279","0.0","0.0","0.0","0.0",""
"3","25212.82735345676","25212.827243641295","1513","860339","6312.918066018087","5925.469065285462","1.895","0.0","0.0","0.0","","","","-2.3956010301884129","12.023431131081792","0.0","0.0","0.0","0.0","5.25326821571037E-07"
"3","25212.840543881655","25212.84042853536","229","860914","5560.0","5820.0","1.895","0.0","0.0","0.0","","","","11.305140842701699","0.5786054809694556","0.0","0.0","0.0","0.0","6.7888495362269E-09"
"3","25212.88837627265","25212.888265040936","1111","864704","6214.196829463625","5741.494135257856","1.895","0.0","0.0","0.0","","","","12.928092849099059","0.6616693666232402","0.0","0.0","0.0","0.0","1.53884521819486E-08"
"3","25212.88939744454","25212.88928731694","637","865051","6180.233493003571","5739.755866544427","1.895","0.0","0.0","0.0","","","","11.777328603526977","0.6027724002710659","0.0","0.0","0.0","0.0","1.60863201569714E-08"
"2","25212.899999999998","","","","6308.8235265088919","5950.874181081899","1.895","","","","0.0","0.0","0.0","-2.051381971395511","12.728072695103802","0.0","0.0","0.0","0.0",""
"3","25212.92037906403","25212.920271761017","925","868420","5560.0","5820.0","1.895","0.0","0.0","0.0","","","","2.29236076879645E-15","-4.57454656812943E-14","0.0","0.0","0.0","0.0","4.43332881820506E-09"
"3","25212.935416844233","25212.935301890364","733","870160","5560.0","5820.0","1.895","0.0","0.0","0.0","","","","3.007955617785451","-0.7900773226046912","0.0","0.0","0.0","0.0","7.38530458291344E-08"
"2","25213.0","","","","6308.617441764387","5952.152861330621","1.895","","","","0.0","0.0","0.0","-2.05367217099694","12.742282543596062","0.0","0.0","0.0","0.0",""
"3","25213.01423754327","25213.01412652507","1531","876562","6314.640086354496","5956.282907812282","1.895","0.0","0.0","0.0","","","","-2.2685797374560279","14.074904246582742","0.0","0.0","0.0","0.0","2.30175273609959E-07"
"3","25213.032463672713","25213.032356234035","937","877807","5560.0","5820.0","1.895","0.0","0.0","0.0","","","","3.19224321849004E-15","4.66207828283052E-14","0.0","0.0","0.0","0.0","6.84314639439394E-09"
"2","25213.1","","","","6308.4097156364509","5953.441725761487","1.895","","","","0.0","0.0","0.0","-2.0700288570992506","12.84376978131028","0.0","0.0","0.0","0.0",""
"2","25213.2","","","","6308.201926954469","5954.730978317254","1.895","","","","0.0","0.0","0.0","-2.0706522195945316","12.847637516940943","0.0","0.0","0.0","0.0",""
"3","25213.240814811794","25213.24069597921","1201","889891","5560.0","5820.0","1.895","0.0","0.0","0.0","","","","3.18039587653429E-15","4.64546348522998E-14","0.0","0.0","0.0","0.0","5.76169170912232E-09"
"2","25213.3","","","","6307.99595625977","5956.008950928765","1.895","","","","0.0","0.0","0.0","-2.0525356438261297","12.735230809374088","0.0","0.0","0.0","0.0",""
"3","25213.345618226955","25213.345505659236","883","898143","6095.821279946847","5686.879202407736","1.895","0.0","0.0","0.0","","","","-0.9021625384617802","-13.152322577008264","0.0","0.0","0.0","0.0","2.34522792900214E-09"
"2","25213.399999999998","","","","6307.833087729142","5957.2982950091259","1.895","","","","0.0","0.0","0.0","-2.013712162275574","12.794234124027329","0.0","0.0","0.0","0.0",""
"3","25213.44650222449","25213.44639441464","535","906045","6235.04856241382","5736.042525791706","1.895","0.0","0.0","0.0","","","","14.312587415064645","0.9964159555664038","0.0","0.0","0.0","0.0","1.49373237699075E-08"
"3","25213.45221628193","25213.45210903813","181","906361","6321.297802433097","5956.410613924869","1.895","0.0","0.0","0.0","","","","1.5642326419355282","-11.65457994814646","0.0","0.0","0.0","0.0","0.000001739899855182445"
"3","25213.47343939874","25213.473326199222","1183","907989","5560.0","5820.0","1.895","0.0","0.0","0.0","","","","1.7719321027194384","-10.99292779019651","0.0","0.0","0.0","0.0","1.63026824990627E-07"
"3","25213.475398018116","25213.47528944444","325","908555","5560.0","5820.0","1.895","0.0","0.0","0.0","","","","12.422531313583077","0.6365848537966007","0.0","0.0","0.0","0.0","1.36656038225958E-08"
"2","25213.5","","","","6307.675501458549","5958.596964598799","1.895","","","","0.0","0.0","0.0","-1.9722427018966283","12.886358820886576","0.0","0.0","0.0","0.0",""
"3","25213.505877057858","25213.50576611054","1549","910968","6314.809129926834","5916.644586993682","1.895","0.0","0.0","0.0","","","","-2.703414007044984","11.578146054758206","0.0","0.0","0.0","0.0","2.11821538816919E-08"
"3","25213.53065068284","25213.530537214596","487","911549","5560.0","5820.0","1.895","0.0","0.0","0.0","","","","13.784271013291697","0.7065610164801552","0.0","0.0","0.0","0.0","1.14958989156333E-08"
"3","25213.53764318089","25213.5375361084","1435","912264","6305.453041110978","5976.912276312054","1.895","0.0","0.0","0.0","","","","-1.6670154037753664","13.737885935425341","0.0","0.0","0.0","0.0","3.9148315213581E-07"
"3","25213.57997453983","25213.579867018943","1495","914255","5560.0","5820.0","1.895","0.0","0.0","0.0","","","","-1.9280521208705018","15.839051831668197","0.0","0.0","0.0","0.0","3.04577517899011E-08"
"2","25213.6","","","","6307.51775161816","5959.896982168328","1.895","","","","0.0","0.0","0.0","-1.9195009688111775","12.908000845520386","0.0","0.0","0.0","0.0",""
"3","25213.611864723305","25213.611748417607","445","917065","6206.059365805195","5737.7749261546309","1.895","0.0","0.0","0.0","","","","13.000459516697183","0.6663840171153731","0.0","0.0","0.0","0.0","5.66475943472013E-09"
"3","25213.663429768556","25213.663317918774","769","920598","5560.0","5820.0","1.895","0.0","0.0","0.0","","","","2.1516953802299048","-13.351437935529006","0.0","0.0","0.0","0.0","2.24522657779194E-08"
"2","25213.7","","","","6307.360043422879","5961.196656540235","1.895","","","","0.0","0.0","0.0","-1.8641962910286792","12.912623156470844","0.0","0.0","0.0","0.0",""
"3","25213.72633328487","25213.726227186387","757","924831","6214.808159652404","5734.922850866567","1.895","0.0","0.0","0.0","","","","13.08774147111107","0.6706731326009127","0.0","0.0","0.0","0.0","4.52912997443817E-09"
"3","25213.77380330929","25213.773694703123","1573","928761","5560.0","5820.0","1.895","0.0","0.0","0.0","","","","-2.200574532538657","13.652980903226397","0.0","0.0","0.0","0.0","4.2550752246585E-07"
"3","25213.78484033763","25213.784730568528","889","930562","6196.117106657689","5733.965039536688","1.895","0.0","0.0","0.0","","","","13.00488942143383","0.6664274310904718","0.0","0.0","0.0","0.0","1.87631344036535E-09"
"2","25213.8","","","","6307.202145612342","5962.497893532826","1.895","","","","0.0","0.0","0.0","-1.8114727141988807","12.93596430833992","0.0","0.0","0.0","0.0",""
"3","25213.82735735413","25213.827243641295","1513","934015","6310.937893663598","5937.755308427025","1.895","0.0","0.0","0.0","","","","-2.0044799141726039","12.437062633488895","0.0","0.0","0.0","0.0","1.2388944726573E-07"
"3","25213.840534807106","25213.84042853536","229","934559","5560.0","5820.0","1.895","0.0","0.0","0.0","","","","11.748925515080665","0.6013187091688614","0.0","0.0","0.0","0.0","7.86950666331962E-09"
"3","25213.888376421663","25213.888265040936","1111","938051","6227.067299182665","5742.152855430006","1.895","0.0","0.0","0.0","","","","12.814543672849029","0.6558578356851158","0.0","0.0","0.0","0.0","5.09510487813703E-09"
"3","25213.889397590727","25213.88928731694","637","938385","6192.132750691127","5740.364879365521","1.895","0.0","0.0","0.0","","","","11.963372728274975","0.6122942763606594","0.0","0.0","0.0","0.0","1.87254184198703E-09"
"2","25213.899999999998","","","","6307.043888986732","5963.802087523017","1.895","","","","0.0","0.0","0.0","-1.7603418025394846","12.97297721498533","0.0","0.0","0.0","0.0",""
"3","25213.93540764784","25213.935301890364","733","943443","5560.0","5820.0","1.895","0.0","0.0","0.0","","","","1.4913153443441266","-0.39171270594948728","0.0","0.0","0.0","0.0","5.19908227235447E-08"
"3","25213.99510060817","25213.994983889024","1567","947739","6283.540922215623","5736.564774577015","1.895","0.0","0.0","0.0","","","","-11.566301095222033","-1.0250095633226753","0.0","0.0","0.0","0.0","6.69163120322322E-09"
"2","25214.0","","","","6306.885383730861","5965.108330476975","1.895","","","","0.0","0.0","0.0","-1.7076567637763132","13.00076233954516","0.0","0.0","0.0","0.0",""
"3","25214.014233665243","25214.01412652507","1531","949933","6312.89397252105","5970.3799299532379","1.895","0.0","0.0","0.0","","","","-1.7266813303165523","14.199928052193553","0.0","0.0","0.0","0.0","0.0000015709932050562734"
"2","25214.1","","","","6306.72662121565","5966.416693507","1.895","","","","0.0","0.0","0.0","-1.6547709593148364","13.029052709841509","0.0","0.0","0.0","0.0",""
"2","25214.2","","","","6306.569280054287","5967.713343149741","1.895","","","","0.0","0.0","0.0","-1.5852679426443815","12.91923559749333","0.0","0.0","0.0","0.0",""
"3","25214.235945632394","25214.23583422345","943","962930","6260.558890316372","5842.901363566545","1.895","0.0","0.0","0.0","","","","17.95019626604541","1.1798771191698297","0.0","0.0","0.0","0.0","3.63084438585289E-09"
"2","25214.3","","","","6306.411327706315","5969.015029585733","1.895","","","","0.0","0.0","0.0","-1.574024036349097","12.97154340747284","0.0","0.0","0.0","0.0",""
"2","25214.399999999998","","","","6306.252959864648","5970.320140108244","1.895","","","","0.0","0.0","0.0","-1.5781645070021909","13.005665055903407","0.0","0.0","0.0","0.0",""
"3","25214.45221470549","25214.45210903813","181","979095","6323.049719979298","5945.541854873531","1.895","0.0","0.0","0.0","","","","1.6336753427661728","-10.135193695122487","0.0","0.0","0.0","0.0","1.27210851121542E-07"
"3","25214.49617020821","25214.496058858418","1579","982437","6274.188361106494","5732.4221126788029","1.895","0.0","0.0","0.0","","","","-13.966857916071737","-1.2389954602984897","0.0","0.0","0.0","0.0","1.89913391689125E-08"
"2","25214.5","","","","6306.095393797536","5971.61864320088","1.895","","","","0.0","0.0","0.0","-1.570174676919597","12.939820808711977","0.0","0.0","0.0","0.0",""
"3","25214.505881032754","25214.50576611054","1549","983334","6312.405503649562","5928.649326776658","1.895","0.0","0.0","0.0","","","","-1.9464978372391174","12.077305113668109","0.0","0.0","0.0","0.0","5.65855846672627E-08"
"3","25214.53764716126","25214.5375361084","1435","984603","6303.770388666279","5990.742183429703","1.895","0.0","0.0","0.0","","","","-1.6807828566022015","13.807721531641635","0.0","0.0","0.0","0.0","0.0000014499581453077667"
"3","25214.579976576493","25214.579867018943","1495","986593","5560.0","5820.0","1.895","0.0","0.0","0.0","","","","-1.721278706218986","15.888726518948719","0.0","0.0","0.0","0.0","6.8000853402952E-08"
"2","25214.6","","","","6305.937281872876","5972.9216447095009","1.895","","","","0.0","0.0","0.0","-1.5756142472267536","12.984648346746841","0.0","0.0","0.0","0.0",""
"3","25214.663433484417","25214.663317918774","769","992474","5560.0","5820.0","1.895","0.0","0.0","0.0","","","","2.8944335800426268","-12.440986440530768","0.0","0.0","0.0","0.0","1.6148893318446E-07"
"2","25214.7","","","","6305.779798799707","5974.219463848461","1.895","","","","0.0","0.0","0.0","-1.5693476271039518","12.93300508524035","0.0","0.0","0.0","0.0",""
"3","25214.708916239295","25214.708808277406","1669","995411","5560.0","5820.0","1.895","0.0","0.0","0.0","","","","-4.181227976065827","13.226697020879206","0.0","0.0","0.0","0.0","3.78073412814946E-08"
"3","25214.77380137174","25214.773694703123","1573","1000938","5560.0","5820.0","1.895","0.0","0.0","0.0","","","","-1.8926647305730958","13.741588453447085","0.0","0.0","0.0","0.0","4.43342789555948E-07"
"2","25214.8","","","","6305.621592822095","5975.523240448134","1.895","","","","0.0","0.0","0.0","-1.5765515020928969","12.992372270849673","0.0","0.0","0.0","0.0",""
"3","25214.82735602446","25214.827243641295","1513","1006098","6308.921976619104","5950.263334259077","1.895","0.0","0.0","0.0","","","","-2.0087530488048537","12.463575866516005","0.0","0.0","0.0","0.0","5.68134977226793E-07"
"3","25214.888378917036","25214.888265040936","1111","1010179","6239.908054744985","5743.0261950983299","1.895","0.0","0.0","0.0","","","","12.810031633298945","0.9776490399899704","0.0","0.0","0.0","0.0","7.82531005188454E-09"
"2","25214.899999999998","","","","6305.463292330615","5976.8277959372749","1.895","","","","0.0","0.0","0.0","-1.5774933500747475","13.000134046843991","0.0","0.0","0.0","0.0",""
"3","25214.935419227902","25214.935301890364","733","1015468","5560.0","5820.0","1.895","0.0","0.0","0.0","","","","0.6109805796993832","-0.16048172310725299","0.0","0.0","0.0","0.0","4.57246491985207E-07"
"3","25214.9950902081","25214.994983889024","1567","1019635","6271.937800858737","5735.547983313501","1.895","0.0","0.0","0.0","","","","-11.619712691175457","-1.002963420565224","0.0","0.0","0.0","0.0","2.77658916574287E-09"
"2","25215.0","","","","6305.305028041934","5978.132053078885","1.895","","","","0.0","0.0","0.0","-1.5771325825583563","12.997160959138819","0.0","0.0","0.0","0.0",""
"3","25215.01423326041","25215.01412652507","1531","1021751","6311.179575919301","5984.473913953272","1.895","0.0","0.0","0.0","","","","-1.7199414103750924","14.132793186271519","0.0","0.0","0.0","0.0","0.000003450567887155928"
"2","25215.1","","","","6305.146138327307","5979.4403259993309","1.895","","","","0.0","0.0","0.0","-1.58215700751118","13.037325780032785","0.0","0.0","0.0","0.0",""
"2","25215.2","","","","6304.9873263867179","5980.744974629552","1.895","","","","0.0","0.0","0.0","-1.578362543904468","13.00157612013252","0.0","0.0","0.0","0.0",""
"2","25215.3","","","","6304.827966111273","5982.054127860087","1.895","","","","0.0","0.0","0.0","-1.5843519840998828","13.046401521132144","0.0","0.0","0.0","0.0",""
"2","25215.399999999998","","","","6304.669417888712","5983.35661003252","1.895","","","","0.0","0.0","0.0","-1.5768128841468379","12.979856018087599","0.0","0.0","0.0","0.0",""
"3","25215.446512029062","25215.44639441464","535","1050013","6263.576485871704","5738.21335627749","1.895","0.0","0.0","0.0","","","","14.213094092126293","1.0815444733656526","0.0","0.0","0.0","0.0","4.9411354109547E-09"
"3","25215.452223331373","25215.45210903813","181","1050360","6324.63329606109","5935.717473064145","1.895","0.0","0.0","0.0","","","","1.5829483599072652","-9.820487472050893","0.0","0.0","0.0","0.0","1.56251550659827E-07"
"2","25215.5","","","","6304.510525357147","5984.661920721933","1.895","","","","0.0","0.0","0.0","-1.580773757628945","13.007978339293631","0.0","0.0","0.0","0.0",""
"3","25215.50587396768","25215.50576611054","1549","1054523","6310.4301406086929","5940.905729891241","1.895","0.0","0.0","0.0","","","","-1.9799387707650216","12.284793840216653","0.0","0.0","0.0","0.0","2.27473489746181E-08"
"3","25215.537653096166","25215.5375361084","1435","1056125","6295.754574038055","6002.224114444471","1.895","0.0","0.0","0.0","","","","-13.946605381960645","6.323704836842909","0.0","0.0","0.0","0.0","2.92983621856678E-07"
"3","25215.56650728184","25215.56639547879","1405","1056628","6268.339693502889","6012.877801244536","1.895","0.0","0.0","0.0","","","","10.724260227862209","-2.8168616443813296","0.0","0.0","0.0","0.0","2.72985761454661E-08"
"3","25215.579982395222","25215.579867018943","1495","1058069","5560.0","5820.0","1.895","0.0","0.0","0.0","","","","-1.6410111214882362","15.900403215002925","0.0","0.0","0.0","0.0","9.63001163304534E-08"
"2","25215.6","","","","6304.3522895894179","5985.961836061132","1.895","","","","0.0","0.0","0.0","-1.5747719933694238","12.954146687315192","0.0","0.0","0.0","0.0",""
"2","25215.7","","","","6304.194330691339","5987.259476901257","1.895","","","","0.0","0.0","0.0","-1.5725468869482307","12.931415966992122","0.0","0.0","0.0","0.0",""
"3","25215.708922712318","25215.708808277406","1669","1065796","5560.0","5820.0","1.895","0.0","0.0","0.0","","","","-4.16676728708533","13.30318918778957","0.0","0.0","0.0","0.0","1.08166847477004E-08"
"3","25215.7738071589","25215.773694703123","1573","1071066","5560.0","5820.0","1.895","0.0","0.0","0.0","","","","-1.6720346905104869","13.750523555895566","0.0","0.0","0.0","0.0","0.0000010221257093504876"
"2","25215.8","","","","6304.035488517354","5988.564373900448","1.895","","","","0.0","0.0","0.0","-1.5818765299525009","13.003660744317747","0.0","0.0","0.0","0.0",""
"3","25215.827356849535","25215.827243641295","1513","1075807","6307.151114013608","5962.918445305129","1.895","0.0","0.0","0.0","","","","-1.528928746541543","12.599912799746962","0.0","0.0","0.0","0.0","9.62762361226228E-07"
"2","25215.899999999998","","","","6303.877126717903","5989.865324597014","1.895","","","","0.0","0.0","0.0","-1.577625599444593","12.964269891119157","0.0","0.0","0.0","0.0",""
"3","25215.935406964963","25215.935301890364","733","1084883","5560.0","5820.0","1.895","0.0","0.0","0.0","","","","0.4181504871601478","-0.1098324773768786","0.0","0.0","0.0","0.0","1.82310092838862E-07"
"2","25216.0","","","","6303.718648858107","5991.16722873555","1.895","","","","0.0","0.0","0.0","-1.5792608577805234","12.973712853158603","0.0","0.0","0.0","0.0",""
"3","25216.014242618927","25216.01412652507","1531","1090689","6309.5103626881659","5998.562036724626","1.895","0.0","0.0","0.0","","","","-1.6165041647006116","14.175343922321437","0.0","0.0","0.0","0.0","2.55316241186504E-07"
"2","25216.1","","","","6303.56048571025","5992.466547498594","1.895","","","","0.0","0.0","0.0","-1.5761246957552538","12.947949113510165","0.0","0.0","0.0","0.0",""
"2","25216.2","","","","6303.4018170158819","5993.770019353404","1.895","","","","0.0","0.0","0.0","-1.5811625591972274","12.989335432539818","0.0","0.0","0.0","0.0",""
"3","25216.235947042904","25216.23583422345","943","1103021","6294.72922840965","5845.147400293553","1.895","0.0","0.0","0.0","","","","14.596940694382202","0.9594656281145397","0.0","0.0","0.0","0.0","1.99490096890655E-09"
"2","25216.3","","","","6303.252022435787","5995.0805467818859","1.895","","","","0.0","0.0","0.0","-1.5779375216359535","13.050124500549727","0.0","0.0","0.0","0.0",""
"3","25216.34371952768","25216.343605499478","277","1110456","5560.0","5820.0","1.895","0.0","0.0","0.0","","","","-12.976259258398509","15.688305446878449","0.0","0.0","0.0","0.0","3.46120535884397E-09"
"2","25216.399999999998","","","","6303.111465540885","5996.379353936415","1.895","","","","0.0","0.0","0.0","-1.5440726912466667","12.926903968561762","0.0","0.0","0.0","0.0",""
"2","25216.5","","","","6302.970339296093","5997.683422132827","1.895","","","","0.0","0.0","0.0","-1.5314777071364998","12.98150424498966","0.0","0.0","0.0","0.0",""
"3","25216.5058736528","25216.50576611054","1549","1122011","6308.43036606366","5953.3135974351339","1.895","0.0","0.0","0.0","","","","-1.9927513584381032","12.364291247145906","0.0","0.0","0.0","0.0","9.18020775561967E-08"
"3","25216.537652785784","25216.5375361084","1435","1123304","6280.067627714854","6006.30079702097","1.895","0.0","0.0","0.0","","","","-16.10435978163068","4.185158894206276","0.0","0.0","0.0","0.0","1.27384696912843E-07"
"3","25216.566506815525","25216.56639547879","1405","1123796","6277.506684018745","6010.46997604915","1.895","0.0","0.0","0.0","","","","7.799098550872581","-2.0485311902094915","0.0","0.0","0.0","0.0","3.44901779846054E-08"
"3","25216.579980936094","25216.579867018943","1495","1125206","5560.0","5820.0","1.895","0.0","0.0","0.0","","","","-2.2406618287990409","15.748421557442871","0.0","0.0","0.0","0.0","1.59492561369605E-07"
"2","25216.6","","","","6302.829452299912","5998.98527956748","1.895","","","","0.0","0.0","0.0","-1.5100922674648727","12.961699770895617","0.0","0.0","0.0","0.0",""
"2","25216.7","","","","6302.688393235122","6000.288726991307","1.895","","","","0.0","0.0","0.0","-1.4930981166658608","12.979711103649774","0.0","0.0","0.0","0.0",""
"3","25216.70892613046","25216.708808277406","1669","1132613","5560.0","5820.0","1.895","0.0","0.0","0.0","","","","-3.638487074772415","13.445478980966385","0.0","0.0","0.0","0.0","7.04222113964548E-08"
"3","25216.77381194999","25216.773694703123","1573","1137842","5560.0","5820.0","1.895","0.0","0.0","0.0","","","","-1.6861575621569638","13.851875026747266","0.0","0.0","0.0","0.0","3.36913766016326E-07"
"2","25216.8","","","","6302.547285102589","6001.592627822526","1.895","","","","0.0","0.0","0.0","-1.4747626543408475","12.986381192548349","0.0","0.0","0.0","0.0",""
"3","25216.827361691925","25216.827243641295","1513","1142445","6305.6018449297239","5975.685982971242","1.895","0.0","0.0","0.0","","","","-1.5509151278000227","12.781102725873648","0.0","0.0","0.0","0.0","8.05898713148823E-07"
"2","25216.899999999998","","","","6302.406211780214","6002.896206992663","1.895","","","","0.0","0.0","0.0","-1.455550155215357","12.985304207550822","0.0","0.0","0.0","0.0",""
"3","25216.935411726285","25216.935301890364","733","1151344","5560.0","5820.0","1.895","0.0","0.0","0.0","","","","3.24684553793183E-12","-8.52824760561712E-13","0.0","0.0","0.0","0.0","7.49366843337906E-07"
"2","25217.0","","","","6302.265021290615","6004.200868839183","1.895","","","","0.0","0.0","0.0","-1.437876003705726","12.998191791474748","0.0","0.0","0.0","0.0",""
"3","25217.01423778287","25217.01412652507","1531","1156739","6307.985702541613","6012.669897343008","1.895","0.0","0.0","0.0","","","","-1.5185479997387208","14.098112244249974","0.0","0.0","0.0","0.0","5.16171298477758E-07"
"2","25217.1","","","","6302.124140412224","6005.502669742784","1.895","","","","0.0","0.0","0.0","-1.415919717766417","12.971754796085504","0.0","0.0","0.0","0.0",""
"2","25217.2","","","","6301.983562532127","6006.80167080969","1.895","","","","0.0","0.0","0.0","-1.4009244900830583","12.945154714371029","0.0","0.0","0.0","0.0",""
"2","25217.3","","","","6301.841685649251","6008.112675230139","1.895","","","","0.0","0.0","0.0","-1.4138696618533704","13.064773760620169","0.0","0.0","0.0","0.0",""
"2","25217.399999999998","","","","6301.700895029959","6009.41364210022","1.895","","","","0.0","0.0","0.0","-1.4030445359255595","12.964744864759913","0.0","0.0","0.0","0.0",""
"2","25217.5","","","","6301.558979118478","6010.7250071620369","1.895","","","","0.0","0.0","0.0","-1.4142586001975153","13.068367720946864","0.0","0.0","0.0","0.0",""
"3","25217.505874931572","25217.50576611054","1549","1188737","6306.791852890617","5965.879118804314","1.895","0.0","0.0","0.0","","","","-1.528043061234304","12.592613860767372","0.0","0.0","0.0","0.0","5.92257506540446E-08"
"3","25217.537645019136","25217.5375361084","1435","1189991","6263.9890008469969","6010.479268512855","1.895","0.0","0.0","0.0","","","","-16.147427575053564","4.1963512397007449","0.0","0.0","0.0","0.0","1.62419842027391E-08"
"3","25217.566512019715","25217.56639547879","1405","1190494","6283.859258299681","6008.801392626625","1.895","0.0","0.0","0.0","","","","5.225450711779079","-1.3725302605368653","0.0","0.0","0.0","0.0","9.77263117870933E-07"
"3","25217.57998223332","25217.579867018943","1495","1191880","5560.0","5820.0","1.895","0.0","0.0","0.0","","","","-2.248105580829903","15.815296137926163","0.0","0.0","0.0","0.0","1.07660609825493E-07"
"2","25217.6","","","","6301.421248696807","6012.027315163787","1.895","","","","0.0","0.0","0.0","-1.4035813760741123","13.001879282265462","0.0","0.0","0.0","0.0",""
"2","25217.7","","","","6301.285437992002","6013.333344422781","1.895","","","","0.0","0.0","0.0","-1.4034511754332456","13.0565599699454","0.0","0.0","0.0","0.0",""
"3","25217.70891440685","25217.708808277406","1669","1199415","5560.0","5820.0","1.895","0.0","0.0","0.0","","","","-3.0696391790494386","13.603158875692524","0.0","0.0","0.0","0.0","3.73796879194899E-09"
"3","25217.773805449135","25217.773694703123","1573","1204736","5560.0","5820.0","1.895","0.0","0.0","0.0","","","","-1.5089835587651824","13.92907900398767","0.0","0.0","0.0","0.0","2.12904585564056E-07"
"2","25217.8","","","","6301.150464679796","6014.631320861212","1.895","","","","0.0","0.0","0.0","-1.3889023882850269","12.97668710839168","0.0","0.0","0.0","0.0",""
"3","25217.827359538118","25217.827243641295","1513","1209778","6304.008698218741","5988.784457643893","1.895","0.0","0.0","0.0","","","","-1.6235408340990057","13.337475239270307","0.0","0.0","0.0","0.0","5.15813040772092E-07"
"2","25217.899999999998","","","","6301.015067268277","6015.933375668231","1.895","","","","0.0","0.0","0.0","-1.387329208244848","13.018095222740543","0.0","0.0","0.0","0.0",""
"3","25217.93540954753","25217.935301890364","733","1218748","5560.0","5820.0","1.895","0.0","0.0","0.0","","","","1.5434781271547183","-0.41084125754178416","0.0","0.0","0.0","0.0","3.63821664352728E-07"
"2","25218.0","","","","6300.87946036614","6017.237445050427","1.895","","","","0.0","0.0","0.0","-1.3835151930420267","13.038871010929482","0.0","0.0","0.0","0.0",""
"3","25218.01423562099","25218.01412652507","1531","1224200","6306.504512006497","6026.85939194153","1.895","0.0","0.0","0.0","","","","-1.4956114923946414","14.108765843267232","0.0","0.0","0.0","0.0","1.75716774726465E-07"
"2","25218.1","","","","6300.743900625937","6018.541060897941","1.895","","","","0.0","0.0","0.0","-1.3770727468014042","13.034967453148355","0.0","0.0","0.0","0.0",""
"2","25218.2","","","","6300.608440147756","6019.843722188128","1.895","","","","0.0","0.0","0.0","-1.3701069569533165","13.026050745775633","0.0","0.0","0.0","0.0",""
"2","25218.3","","","","6300.472729292405","6021.148791240701","1.895","","","","0.0","0.0","0.0","-1.3666549811635088","13.050755394983737","0.0","0.0","0.0","0.0",""
"2","25218.399999999998","","","","6300.337740359051","6022.446917900557","1.895","","","","0.0","0.0","0.0","-1.3534592223395224","12.981950291512004","0.0","0.0","0.0","0.0",""
"2","25218.5","","","","6300.202948374498","6023.743150594109","1.895","","","","0.0","0.0","0.0","-1.3480282597218783","12.963369505142449","0.0","0.0","0.0","0.0",""
"3","25218.50588392435","25218.50576611054","1549","1255743","6305.260034148036","5978.502848082198","1.895","0.0","0.0","0.0","","","","-1.5253016515448846","12.570021883773477","0.0","0.0","0.0","0.0","8.70190110676216E-08"
"3","25218.56650998543","25218.56639547879","1405","1257439","6288.2776134489799","6007.640856152605","1.895","0.0","0.0","0.0","","","","4.100180416974016","-1.0769638843349736","0.0","0.0","0.0","0.0","6.82223721541716E-08"
"3","25218.579978199694","25218.579867018943","1495","1258827","5560.0","5820.0","1.895","0.0","0.0","0.0","","","","-2.840805988805896","15.716071841301249","0.0","0.0","0.0","0.0","1.39276722238733E-08"
"2","25218.6","","","","6300.061480456397","6025.039899245216","1.895","","","","0.0","0.0","0.0","-1.3646352776110938","13.05336884912551","0.0","0.0","0.0","0.0",""
"2","25218.7","","","","6299.919206457138","6026.324591198911","1.895","","","","0.0","0.0","0.0","-1.3641602696004136","12.95843841204807","0.0","0.0","0.0","0.0",""
"3","25218.708919808578","25218.708808277406","1669","1266106","5560.0","5820.0","1.895","0.0","0.0","0.0","","","","-2.2209296325723426","13.780053743404688","0.0","0.0","0.0","0.0","2.3769308860012E-09"
"3","25218.77380027965","25218.773694703123","1573","1271064","5560.0","5820.0","1.895","0.0","0.0","0.0","","","","-1.4636465083392588","13.973902405472206","0.0","0.0","0.0","0.0","0.0000013388990871644837"
"2","25218.8","","","","6299.776535568003","6027.612866950311","1.895","","","","0.0","0.0","0.0","-1.3773803408310948","12.993592943371125","0.0","0.0","0.0","0.0",""
"3","25218.827354398753","25218.827243641295","1513","1276066","6297.268765354549","5998.35075226677","1.895","0.0","0.0","0.0","","","","-13.553565095245683","5.63535531350008","0.0","0.0","0.0","0.0","1.70215308465046E-07"
"2","25218.899999999998","","","","6299.633233680034","6028.906840433747","1.895","","","","0.0","0.0","0.0","-1.3929860219883537","13.05004844227427","0.0","0.0","0.0","0.0",""
"3","25218.935409201415","25218.935301890364","733","1285037","5560.0","5820.0","1.895","0.0","0.0","0.0","","","","3.624702830203755","-1.039777651338708","0.0","0.0","0.0","0.0","1.77914281945015E-07"
"2","25219.0","","","","6299.490948686443","6030.191631663015","1.895","","","","0.0","0.0","0.0","-1.3924960662098965","12.956436821966309","0.0","0.0","0.0","0.0",""
"3","25219.014235278177","25219.01412652507","1531","1290485","6304.730338338998","6041.049511323107","1.895","0.0","0.0","0.0","","","","-2.000712396574645","14.117802995253438","0.0","0.0","0.0","0.0","7.68859507628814E-08"
"2","25219.1","","","","6299.3479364908839","6031.4829893100409","1.895","","","","0.0","0.0","0.0","-1.409119896570831","13.021630383955975","0.0","0.0","0.0","0.0",""
"2","25219.2","","","","6299.204653583572","6032.7767914037899","1.895","","","","0.0","0.0","0.0","-1.4213461295363002","13.04524144473941","0.0","0.0","0.0","0.0",""
"3","25219.235945900862","25219.23583422345","943","1302507","6323.221654404328","5847.020224467868","1.895","0.0","0.0","0.0","","","","5.267824803758861","0.3462572699278727","0.0","0.0","0.0","0.0","2.54592195217359E-09"
"2","25219.3","","","","6299.0481112231659","6034.0725081501","1.895","","","","0.0","0.0","0.0","-1.4412865584242787","13.008326065299166","0.0","0.0","0.0","0.0",""
"2","25219.399999999998","","","","6298.885873648575","6035.366635779972","1.895","","","","0.0","0.0","0.0","-1.4667633743161992","12.96483280917475","0.0","0.0","0.0","0.0",""
"2","25219.5","","","","6298.72098474601","6036.669288552717","1.895","","","","0.0","0.0","0.0","-1.5030678643984723","13.049387154516682","0.0","0.0","0.0","0.0",""
"3","25219.505879206128","25219.50576611054","1549","1321913","6303.724127804021","5991.122218900305","1.895","0.0","0.0","0.0","","","","-1.524841035861701","12.526651090311845","0.0","0.0","0.0","0.0","2.70560311894612E-09"
"2","25219.6","","","","6298.524496446737","6037.96148807381","1.895","","","","0.0","0.0","0.0","-1.5538509309878453","12.982849374937194","0.0","0.0","0.0","0.0",""
"2","25219.7","","","","6298.328118684816","6039.252960649268","1.895","","","","0.0","0.0","0.0","-1.610457982927679","12.968536841016299","0.0","0.0","0.0","0.0",""
"3","25219.708922016427","25219.708808277406","1669","1331704","5560.0","5820.0","1.895","0.0","0.0","0.0","","","","-2.2046373869573547","13.678966335299478","0.0","0.0","0.0","0.0","7.60442203016596E-08"
"3","25219.773812023785","25219.773694703123","1573","1336619","5560.0","5820.0","1.895","0.0","0.0","0.0","","","","-1.5431699730465248","13.944108917363878","0.0","0.0","0.0","0.0","0.0000017410429122532029"
"2","25219.8","","","","6298.131340654124","6040.54706558053","1.895","","","","0.0","0.0","0.0","-1.671331640657945","12.987688646266239","0.0","0.0","0.0","0.0",""
"2","25219.899999999998","","","","6297.934333377153","6041.842678143197","1.895","","","","0.0","0.0","0.0","-1.7308759994429","12.995277589984397","0.0","0.0","0.0","0.0",""
"3","25219.93541884362","25219.935301890364","733","1350317","5560.0","5820.0","1.895","0.0","0.0","0.0","","","","5.617359939356359","-1.6884997898998114","0.0","0.0","0.0","0.0","5.93540355340605E-08"
"2","25220.0","","","","6297.733615664244","6043.1403160456579","1.895","","","","0.0","0.0","0.0","-1.7956099774588506","13.012405360754708","0.0","0.0","0.0","0.0",""
"3","25220.014231924022","25220.01412652507","1531","1356004","6302.593255911368","6055.116976044251","1.895","0.0","0.0","0.0","","","","-2.079253310902551","14.046931431240925","0.0","0.0","0.0","0.0","2.12405258333809E-07"
"3","25220.06530393128","25220.065192755123","1723","1359926","6321.109705284466","5893.1153499026909","1.895","0.0","0.0","0.0","","","","-4.327878851098538","13.690605399712642","0.0","0.0","0.0","0.0","2.93104426459558E-09"
"2","25220.1","","","","6297.532973372614","6044.429164099533","1.895","","","","0.0","0.0","0.0","-1.8454728780886743","12.91752551500164","0.0","0.0","0.0","0.0",""
"2","25220.2","","","","6297.3316214438959","6045.722570586089","1.895","","","","0.0","0.0","0.0","-1.9036546121202327","12.955727814766599","0.0","0.0","0.0","0.0",""
"2","25220.3","","","","6297.1297926058309","6047.019040552828","1.895","","","","0.0","0.0","0.0","-1.9503727230095114","12.98014178637306","0.0","0.0","0.0","0.0",""
"2","25220.399999999998","","","","6296.928304132238","6048.313324150561","1.895","","","","0.0","0.0","0.0","-1.9891274646391968","12.95186483995144","0.0","0.0","0.0","0.0",""
"2","25220.5","","","","6296.727527766541","6049.603033444095","1.895","","","","0.0","0.0","0.0","-1.9914055114303476","12.904656929018522","0.0","0.0","0.0","0.0",""
"2","25220.6","","","","6296.527112693704","6050.890421932805","1.895","","","","0.0","0.0","0.0","-1.9927674358177377","12.880671136603104","0.0","0.0","0.0","0.0",""
"2","25220.7","","","","6296.33692034054","6052.18986148099","1.895","","","","0.0","0.0","0.0","-2.0008057205819176","12.985014285170712","0.0","0.0","0.0","0.0",""
"3","25220.708918089564","25220.708808277406","1669","1395852","5560.0","5820.0","1.895","0.0","0.0","0.0","","","","-1.672455046595466","13.782714071055655","0.0","0.0","0.0","0.0","1.05125313261896E-07"
"3","25220.773808098056","25220.773694703123","1573","1400727","5560.0","5820.0","1.895","0.0","0.0","0.0","","","","-2.154711898515754","14.075900153940957","0.0","0.0","0.0","0.0","3.09596232253188E-07"
"2","25220.8","","","","6296.157378850507","6053.478533110388","1.895","","","","0.0","0.0","0.0","-1.9648076286325814","12.866989895508313","0.0","0.0","0.0","0.0",""
"2","25220.899999999998","","","","6295.977506878158","6054.769576799766","1.895","","","","0.0","0.0","0.0","-1.9482286813887265","12.893741892370127","0.0","0.0","0.0","0.0",""
"3","25220.935407631612","25220.935301890364","733","1414468","5560.0","5820.0","1.895","0.0","0.0","0.0","","","","7.353158198464493","-3.4259468929577676","0.0","0.0","0.0","0.0","4.30769571086337E-08"
"2","25221.0","","","","6295.797997017054","6056.058021410309","1.895","","","","0.0","0.0","0.0","-1.9219695136409945","12.871139992955295","0.0","0.0","0.0","0.0",""
"3","25221.010438319165","25221.010320951602","1741","1420113","6323.023704596393","5898.242026406774","1.895","0.0","0.0","0.0","","","","-4.325202624133664","14.4381012786793","0.0","0.0","0.0","0.0","6.58579096542486E-09"
"3","25221.014233716644","25221.01412652507","1531","1420326","6300.260206980933","6069.186435573226","1.895","0.0","0.0","0.0","","","","-2.522641567906786","13.95590415792698","0.0","0.0","0.0","0.0","4.05331597309099E-07"
"2","25221.1","","","","6295.6232814885129","6057.312054362827","1.895","","","","0.0","0.0","0.0","-1.8494723381408267","12.530521017494954","0.0","0.0","0.0","0.0",""
"2","25221.2","","","","6295.4521448206319","6058.540399792104","1.895","","","","0.0","0.0","0.0","-1.7912756821077567","12.276827559458946","0.0","0.0","0.0","0.0",""
"2","25221.3","","","","6295.261930711725","6059.728334839963","1.895","","","","0.0","0.0","0.0","-1.7431613951934449","11.910811193208897","0.0","0.0","0.0","0.0",""
"2","25221.399999999998","","","","6295.05353307867","6060.8821461254169","1.895","","","","0.0","0.0","0.0","-1.7260034141290346","11.601577963327167","0.0","0.0","0.0","0.0",""
"2","25221.5","","","","6294.851323247129","6062.001698119559","1.895","","","","0.0","0.0","0.0","-1.7006433014732623","11.253218618628031","0.0","0.0","0.0","0.0",""
"3","25221.566508484368","25221.56639547879","1405","1452411","6303.369882706872","6003.481768942621","1.895","0.0","0.0","0.0","","","","7.30798664313359","-2.157339230447","0.0","0.0","0.0","0.0","6.11048393868553E-08"
"2","25221.6","","","","6294.654521596414","6063.0913072588759","1.895","","","","0.0","0.0","0.0","-1.6796749436475463","10.948513838148183","0.0","0.0","0.0","0.0",""
"2","25221.7","","","","6294.463357477304","6064.149703723217","1.895","","","","0.0","0.0","0.0","-1.6668791743342173","10.629406733131943","0.0","0.0","0.0","0.0",""
"3","25221.708917668486","25221.708808277406","1669","1460694","5560.0","5820.0","1.895","0.0","0.0","0.0","","","","-1.6660774163211838","13.730155974083019","0.0","0.0","0.0","0.0","1.50032829927603E-07"
"3","25221.77380767847","25221.773694703123","1573","1465498","5560.0","5820.0","1.895","0.0","0.0","0.0","","","","-1.9579573789976839","14.068286352800396","0.0","0.0","0.0","0.0","0.0000013843625810170626"
"2","25221.8","","","","6294.27771881427","6065.17750802831","1.895","","","","0.0","0.0","0.0","-1.6548761147166376","10.316433511589248","0.0","0.0","0.0","0.0",""
"2","25221.899999999998","","","","6294.0989851724839","6066.1670820938129","1.895","","","","0.0","0.0","0.0","-1.6268383115962693","9.927268585984331","0.0","0.0","0.0","0.0",""
"3","25221.935410934493","25221.935301890364","733","1478551","5560.0","5820.0","1.895","0.0","0.0","0.0","","","","1.5832602996040295","-10.197867668808417","0.0","0.0","0.0","0.0","7.38539227073634E-09"
"2","25222.0","","","","6293.924465458761","6067.133325386859","1.895","","","","0.0","0.0","0.0","-1.6204199645386668","9.687929797267442","0.0","0.0","0.0","0.0",""
"2","25222.1","","","","6293.757296109798","6068.058872757951","1.895","","","","0.0","0.0","0.0","-1.581457862867128","9.274950714771104","0.0","0.0","0.0","0.0",""
"2","25222.2","","","","6293.595532518703","6068.954490689132","1.895","","","","0.0","0.0","0.0","-1.5577247565829214","8.970310358867874","0.0","0.0","0.0","0.0",""
"2","25222.3","","","","6293.439764248678","6069.816915013416","1.895","","","","0.0","0.0","0.0","-1.5253894066735403","8.633401730800845","0.0","0.0","0.0","0.0",""
"2","25222.399999999998","","","","6293.287366739942","6070.660676830079","1.895","","","","0.0","0.0","0.0","-1.5166759457929567","8.44224980561686","0.0","0.0","0.0","0.0",""
"2","25222.5","","","","6293.14081088462","6071.472095833934","1.895","","","","0.0","0.0","0.0","-1.4661165078072456","8.117279201760653","0.0","0.0","0.0","0.0",""
"3","25222.56650992101","25222.56639547879","1405","1516847","6311.909187923369","6000.178260378092","1.895","0.0","0.0","0.0","","","","8.794381584413032","-3.72291735152679","0.0","0.0","0.0","0.0","2.60175717473641E-09"
"2","25222.6","","","","6292.99941064354","6072.254970339427","1.895","","","","0.0","0.0","0.0","-1.4145407373912856","7.831725546045804","0.0","0.0","0.0","0.0",""
"2","25222.7","","","","6292.868639650832","6073.009395770094","1.895","","","","0.0","0.0","0.0","-1.3581051533227165","7.538678438106243","0.0","0.0","0.0","0.0",""
"3","25222.70891899138","25222.708808277406","1669","1525550","5560.0","5820.0","1.895","0.0","0.0","0.0","","","","-1.6798228844177293","13.799835308555489","0.0","0.0","0.0","0.0","5.77798334012408E-08"
"3","25222.77380900815","25222.773694703123","1573","1530056","5560.0","5820.0","1.895","0.0","0.0","0.0","","","","-2.529285520235099","13.992660216787897","0.0","0.0","0.0","0.0","0.0000017975378971458753"
"2","25222.8","","","","6292.753068244643","6073.734213971868","1.895","","","","0.0","0.0","0.0","-1.2927168256860489","7.227843923537171","0.0","0.0","0.0","0.0",""
"3","25222.82735054388","25222.827243641295","1513","1534711","6235.201860366193","6014.70542269299","1.895","0.0","0.0","0.0","","","","-15.51962483178097","4.538199647404115","0.0","0.0","0.0","0.0","4.61903613042815E-08"
"2","25222.899999999998","","","","6292.642061614453","6074.43040370195","1.895","","","","0.0","0.0","0.0","-1.2332633693130804","6.943858637810646","0.0","0.0","0.0","0.0",""
"3","25222.935410874215","25222.935301890364","733","1542845","5560.0","5820.0","1.895","0.0","0.0","0.0","","","","1.4899022409115888","-12.304184496579149","0.0","0.0","0.0","0.0","4.26370126628535E-08"
"2","25223.0","","","","6292.535137301557","6075.100990750729","1.895","","","","0.0","0.0","0.0","-1.1801194207593946","6.689874094519269","0.0","0.0","0.0","0.0",""
"2","25223.1","","","","6292.432497203338","6075.744708897585","1.895","","","","0.0","0.0","0.0","-1.1256547762165877","6.423088444900069","0.0","0.0","0.0","0.0",""
"2","25223.2","","","","6292.334330900772","6076.360369165531","1.895","","","","0.0","0.0","0.0","-1.0700216211064456","6.144271538411228","0.0","0.0","0.0","0.0",""
"2","25223.3","","","","6292.24169325264","6076.941355897026","1.895","","","","0.0","0.0","0.0","-1.0039077617130193","5.799246566243445","0.0","0.0","0.0","0.0",""
"2","25223.399999999998","","","","6292.151470390143","6077.5071980470079","1.895","","","","0.0","0.0","0.0","-0.9721879452083134","5.649035718661517","0.0","0.0","0.0","0.0",""
"2","25223.5","","","","6292.065566109626","6078.040561260679","1.895","","","","0.0","0.0","0.0","-0.9120595953261256","5.326919468216657","0.0","0.0","0.0","0.0",""
"3","25223.50588402616","25223.50576611054","1549","1579820","6251.587271476321","6010.291714562132","1.895","0.0","0.0","0.0","","","","-14.718764459104","3.8234778895645458","0.0","0.0","0.0","0.0","5.19260001086558E-09"
"3","25223.56651030319","25223.56639547879","1405","1581496","6320.27386882889","5991.714755702296","1.895","0.0","0.0","0.0","","","","7.627887528254321","-8.594562376095624","0.0","0.0","0.0","0.0","2.20405297962869E-08"
"2","25223.6","","","","6291.981312234075","6078.555768867499","1.895","","","","0.0","0.0","0.0","-0.877638773043573","5.148229319423593","0.0","0.0","0.0","0.0",""
"2","25223.7","","","","6291.901965555097","6079.040969249291","1.895","","","","0.0","0.0","0.0","-0.8232252115783261","4.848942059468334","0.0","0.0","0.0","0.0",""
"2","25223.8","","","","6291.8267016259819","6079.501203850325","1.895","","","","0.0","0.0","0.0","-0.7778995038254085","4.5999445292950329","0.0","0.0","0.0","0.0",""
"2","25223.899999999998","","","","6291.755060636517","6079.939284383605","1.895","","","","0.0","0.0","0.0","-0.7377656583607853","4.378973257534463","0.0","0.0","0.0","0.0",""
"3","25223.935415274387","25223.935301890364","733","1606230","5560.0","5820.0","1.895","0.0","0.0","0.0","","","","1.764304814456145","-14.537871671114104","0.0","0.0","0.0","0.0","3.24499378675218E-08"
