﻿"type","rcvTime","sendTime","sender","messageID","pos__001","pos__002","pos__003","pos_noise__001","pos_noise__002","pos_noise__003","noise__001","noise__002","noise__003","spd__001","spd__002","spd__003","spd_noise__001","spd_noise__002","spd_noise__003","RSSI"
"2","25299.6","","","","3606.1288489664768","6076.705284307288","1.895","","","","0.0","0.0","0.0","-3.9875261842874538","-34.60133075920871","0.0","0.0","0.0","0.0",""
"2","25299.7","","","","3605.7293649057944","6073.238804219665","1.895","","","","0.0","0.0","0.0","-3.990453857172697","-34.62673532663987","0.0","0.0","0.0","0.0",""
"3","25299.72352283238","25299.723416276232","3085","6515814","5560.0","5820.0","1.895","0.0","0.0","0.0","","","","-3.968844700721196","-34.43922418934739","0.0","0.0","0.0","0.0","6.11406857127285E-08"
"3","25299.745552298544","25299.745444998098","2737","6517447","3588.6802917631928","5962.547153644181","1.895","0.0","0.0","0.0","","","","2.503346751785025","33.66763584826458","0.0","0.0","0.0","0.0","4.7924606017692E-08"
"3","25299.78787414248","25299.787762834363","2749","6521571","3587.7245786606","5765.8446558940499","1.895","0.0","0.0","0.0","","","","-0.02909625534325043","29.989286564705809","0.0","0.0","0.0","0.0","2.82070096354277E-09"
"2","25299.8","","","","3605.331394966361","6069.78546275678","1.895","","","","0.0","0.0","0.0","-3.9753292712978749","-34.49549335499135","0.0","0.0","0.0","0.0",""
"3","25299.829215152302","25299.8290970332","3007","6524764","5560.0","5820.0","1.895","0.0","0.0","0.0","","","","-1.2964724336200724","-33.18539660198676","0.0","0.0","0.0","0.0","5.39591997350506E-09"
"3","25299.855519319073","25299.855399788914","2791","6526558","3605.6460621014109","5602.964099574526","1.895","0.0","0.0","0.0","","","","2.5106829635217284","-29.821658688788117","0.0","0.0","0.0","0.0","2.43757983838322E-09"
"3","25299.859985325456","25299.859875148206","2767","6526940","5560.0","5820.0","1.895","0.0","0.0","0.0","","","","-0.03378514542582997","34.85847350767192","0.0","0.0","0.0","0.0","1.4555668610604E-08"
"2","25299.899999999998","","","","3604.9326830018","6066.325682450434","1.895","","","","0.0","0.0","0.0","-3.982741374376126","-34.559811084425337","0.0","0.0","0.0","0.0",""
"3","25299.96878577157","25299.968672068742","2815","6533598","3586.519501403643","5700.125143871318","1.895","0.0","0.0","0.0","","","","-1.4341280964466899","34.31343541476654","0.0","0.0","0.0","0.0","1.11799722517529E-08"
"2","25300.0","","","","3604.534716556949","6062.872371311415","1.895","","","","0.0","0.0","0.0","-3.975294363850758","-34.49519044932952","0.0","0.0","0.0","0.0",""
