﻿"type","rcvTime","sendTime","sender","messageID","pos__001","pos__002","pos__003","pos_noise__001","pos_noise__002","pos_noise__003","noise__001","noise__002","noise__003","spd__001","spd__002","spd__003","spd_noise__001","spd_noise__002","spd_noise__003","RSSI"
"2","25200.0","","","","6284.496917949721","6001.742810474835","1.895","","","","0.0","0.0","0.0","-15.294083636308879","3.972927944260035","0.0","0.0","0.0","0.0",""
"3","25200.024694138643","25200.02457702509","1063","3158","5560.0","5820.0","1.895","0.0","0.0","0.0","","","","6.3142409787663E-15","-4.54653705938742E-14","0.0","0.0","0.0","0.0","8.42253916840106E-08"
"2","25200.1","","","","6282.969111025165","6002.139687265125","1.895","","","","0.0","0.0","0.0","-15.20580751758048","3.9499965501832916","0.0","0.0","0.0","0.0",""
"2","25200.2","","","","6281.439620708962","6002.537001348284","1.895","","","","0.0","0.0","0.0","-15.222561813534022","3.9543487959388416","0.0","0.0","0.0","0.0",""
"2","25200.3","","","","6279.906886916584","6002.935157985822","1.895","","","","0.0","0.0","0.0","-15.254843166364957","3.9627344888498667","0.0","0.0","0.0","0.0",""
"3","25200.32701615336","25200.326902726432","1057","18264","6306.825536532255","6023.911202842776","1.895","0.0","0.0","0.0","","","","-0.08480639175224845","0.8217225382665239","0.0","0.0","0.0","0.0","6.25626844778059E-08"
"2","25200.399999999998","","","","6278.373427324085","6003.33350316369","1.895","","","","0.0","0.0","0.0","-15.262066838910937","3.964610974633557","0.0","0.0","0.0","0.0",""
"2","25200.5","","","","6276.845308986894","6003.7304608493109","1.895","","","","0.0","0.0","0.0","-15.208906914839135","3.9508016773339005","0.0","0.0","0.0","0.0",""
"2","25200.6","","","","6275.310012811054","6004.129283114493","1.895","","","","0.0","0.0","0.0","-15.280345806191443","3.9693592826478096","0.0","0.0","0.0","0.0",""
"3","25200.61776797183","25200.617656976447","1003","38300","5560.0","5820.0","1.895","0.0","0.0","0.0","","","","-1.4385716262247866","13.293030710091408","0.0","0.0","0.0","0.0","5.05836929252835E-08"
"2","25200.7","","","","6273.7764232833619","6004.527662045489","1.895","","","","0.0","0.0","0.0","-15.26336004521687","3.9649469094697769","0.0","0.0","0.0","0.0",""
"3","25200.711694266494","25200.71158382157","217","44251","6307.380649973428","6018.532490030194","1.895","0.0","0.0","0.0","","","","-0.059792857907211439","0.5793565550254733","0.0","0.0","0.0","0.0","1.35486045329174E-07"
"2","25200.8","","","","6272.240891965133","6004.926545393359","1.895","","","","0.0","0.0","0.0","-15.28268610837269","3.96996722047233","0.0","0.0","0.0","0.0",""
"2","25200.899999999998","","","","6270.702704388712","6005.326118754615","1.895","","","","0.0","0.0","0.0","-15.309123055457932","3.9768347182795558","0.0","0.0","0.0","0.0",""
"3","25200.935419528545","25200.935301890364","733","60799","5560.0","5820.0","1.895","0.0","0.0","0.0","","","","16.990963415964044","-5.766367228793015","0.0","0.0","0.0","0.0","6.64811870577134E-09"
"2","25201.0","","","","6269.167298991634","6005.724969392082","1.895","","","","0.0","0.0","0.0","-15.28143285264896","3.969641663557348","0.0","0.0","0.0","0.0",""
"2","25201.1","","","","6267.629651090471","6006.1244025624669","1.895","","","","0.0","0.0","0.0","-15.30375182826191","3.9754394402704538","0.0","0.0","0.0","0.0",""
"2","25201.2","","","","6266.091726338727","6006.523907650033","1.895","","","","0.0","0.0","0.0","-15.306507239676212","3.976155210578188","0.0","0.0","0.0","0.0",""
"2","25201.3","","","","6264.563480607607","6006.92089842864","1.895","","","","0.0","0.0","0.0","-15.210174828687473","3.951131041974422","0.0","0.0","0.0","0.0",""
"2","25201.399999999998","","","","6263.033115560067","6007.318439739834","1.895","","","","0.0","0.0","0.0","-15.231267754131365","3.956610328927141","0.0","0.0","0.0","0.0",""
"2","25201.5","","","","6261.497335965104","6007.71738758229","1.895","","","","0.0","0.0","0.0","-15.28515713281603","3.970609115880734","0.0","0.0","0.0","0.0",""
"2","25201.6","","","","6259.969461842537","6008.114281828536","1.895","","","","0.0","0.0","0.0","-15.206476319376686","3.950170284119139","0.0","0.0","0.0","0.0",""
"3","25201.617771607715","25201.617656976447","1003","102617","5560.0","5820.0","1.895","0.0","0.0","0.0","","","","-1.3902611286621237","13.286758368416207","0.0","0.0","0.0","0.0","1.25571299323957E-07"
"2","25201.7","","","","6258.437751367352","6008.512172640048","1.895","","","","0.0","0.0","0.0","-15.244658394979155","3.960088801549681","0.0","0.0","0.0","0.0",""
"3","25201.711695326696","25201.71158382157","217","108464","6307.20547423753","6020.229836743928","1.895","0.0","0.0","0.0","","","","-0.27180052684036007","2.6335823774872146","0.0","0.0","0.0","0.0","2.93264703843782E-08"
"2","25201.8","","","","6256.898748550307","6008.911957775499","1.895","","","","0.0","0.0","0.0","-15.317236902692154","3.9789424438013234","0.0","0.0","0.0","0.0",""
"2","25201.899999999998","","","","6255.358845539145","6009.311976753424","1.895","","","","0.0","0.0","0.0","-15.3261962667725","3.9812698083407138","0.0","0.0","0.0","0.0",""
"3","25201.935418952686","25201.935301890364","733","125346","5560.0","5820.0","1.895","0.0","0.0","0.0","","","","16.91891670544631","-5.73515510029901","0.0","0.0","0.0","0.0","2.56802319275379E-08"
"2","25202.0","","","","6253.829522030697","6009.709247505109","1.895","","","","0.0","0.0","0.0","-15.220901625589504","3.9539175306701748","0.0","0.0","0.0","0.0",""
"2","25202.1","","","","6252.298554896764","6010.106945219649","1.895","","","","0.0","0.0","0.0","-15.237260140782828","3.9581669648751687","0.0","0.0","0.0","0.0",""
"2","25202.2","","","","6250.76354553931","6010.505692978321","1.895","","","","0.0","0.0","0.0","-15.277491188167714","3.9686177415411056","0.0","0.0","0.0","0.0",""
"2","25202.3","","","","6249.228911011713","6010.904343367838","1.895","","","","0.0","0.0","0.0","-15.273760618188243","3.967648655319082","0.0","0.0","0.0","0.0",""
"2","25202.399999999998","","","","6247.68866410787","6011.304451678401","1.895","","","","0.0","0.0","0.0","-15.329618928248364","3.9821589094954188","0.0","0.0","0.0","0.0",""
"2","25202.5","","","","6246.151626112177","6011.7037264142859","1.895","","","","0.0","0.0","0.0","-15.297681620674477","3.9738625888565348","0.0","0.0","0.0","0.0",""
"2","25202.6","","","","6244.616793432457","6012.102428277571","1.895","","","","0.0","0.0","0.0","-15.275732767284407","3.968160958405734","0.0","0.0","0.0","0.0",""
"2","25202.7","","","","6243.07799079575","6012.502161412386","1.895","","","","0.0","0.0","0.0","-15.315244567375882","3.9784248969616056","0.0","0.0","0.0","0.0",""
"2","25202.8","","","","6241.5408414685739","6012.901465068732","1.895","","","","0.0","0.0","0.0","-15.298789669793337","3.974150425605934","0.0","0.0","0.0","0.0",""
"2","25202.899999999998","","","","6240.00238666712","6013.301107846752","1.895","","","","0.0","0.0","0.0","-15.311782666646137","3.9775256026673859","0.0","0.0","0.0","0.0",""
"3","25202.918207753617","25202.918091948377","673","188481","5560.0","5820.0","1.895","0.0","0.0","0.0","","","","-1.702913469511497","-0.17155830294150047","0.0","0.0","0.0","0.0","4.08074223986925E-09"
"3","25202.935409800484","25202.935301890364","733","191171","5560.0","5820.0","1.895","0.0","0.0","0.0","","","","17.00234267847273","-5.763434741546167","0.0","0.0","0.0","0.0","1.20964788121672E-07"
"2","25203.0","","","","6238.464197218176","6013.7006816944299","1.895","","","","0.0","0.0","0.0","-15.309141692111977","3.9768395595042018","0.0","0.0","0.0","0.0",""
"2","25203.1","","","","6236.928145577975","6014.09970020579","1.895","","","","0.0","0.0","0.0","-15.287864718088273","3.971312462446395","0.0","0.0","0.0","0.0",""
"2","25203.2","","","","6235.431794978038","6014.623749431261","1.895","","","","0.0","0.0","0.0","-15.166797484982418","4.365395034373556","0.0","0.0","0.0","0.0",""
"2","25203.3","","","","6233.934498249883","6015.155592404283","1.895","","","","0.0","0.0","0.0","-15.07094135260695","4.791609134202954","0.0","0.0","0.0","0.0",""
"2","25203.399999999998","","","","6232.438683194389","6015.686909084035","1.895","","","","0.0","0.0","0.0","-14.918519773700437","5.199599772103848","0.0","0.0","0.0","0.0",""
"2","25203.5","","","","6230.940701293182","6016.218995431978","1.895","","","","0.0","0.0","0.0","-14.908967938598247","5.295697027890791","0.0","0.0","0.0","0.0",""
"2","25203.6","","","","6229.44649316711","6016.749741326991","1.895","","","","0.0","0.0","0.0","-14.871408678072874","5.282355898903649","0.0","0.0","0.0","0.0",""
"2","25203.7","","","","6227.954748140895","6017.279612323712","1.895","","","","0.0","0.0","0.0","-14.846894178411594","5.273648296640105","0.0","0.0","0.0","0.0",""
"3","25203.794419181737","25203.79430566984","1297","244829","6100.457951343793","5706.290614288002","1.895","0.0","0.0","0.0","","","","-0.5589839271408085","-8.150508448427667","0.0","0.0","0.0","0.0","6.86124328217362E-09"
"2","25203.8","","","","6226.458844239188","6017.8109605618269","1.895","","","","0.0","0.0","0.0","-14.88828622817164","5.288350840489427","0.0","0.0","0.0","0.0",""
"3","25203.88297536586","25203.882859998383","289","250033","5560.0","5820.0","1.895","0.0","0.0","0.0","","","","0.8101075840705281","-7.790433082913586","0.0","0.0","0.0","0.0","2.01171005623393E-08"
"2","25203.899999999998","","","","6224.9651051667819","6018.341539847983","1.895","","","","0.0","0.0","0.0","-14.866740326561628","5.28069769054607","0.0","0.0","0.0","0.0",""
"3","25203.910657233733","25203.91054471885","337","254012","6317.216908832837","6019.68563335455","1.895","0.0","0.0","0.0","","","","0.8330741005842445","-8.071983141272464","0.0","0.0","0.0","0.0","3.67576968896525E-09"
"3","25203.919635981885","25203.919524366454","1333","254824","6160.952263650777","5828.532301468195","1.895","0.0","0.0","0.0","","","","-6.1726167021471369","-0.6225309771551849","0.0","0.0","0.0","0.0","1.88833502314091E-08"
"3","25203.93541388854","25203.935301890364","733","256783","5560.0","5820.0","1.895","0.0","0.0","0.0","","","","16.97566629171541","-5.754392010369437","0.0","0.0","0.0","0.0","1.40465757978835E-07"
"3","25203.949416681047","25203.949297479587","361","257934","5802.52662207761","5700.088359554235","1.895","0.0","0.0","0.0","","","","13.917918838959937","1.0355660512481835","0.0","0.0","0.0","0.0","1.62671815260865E-09"
"2","25204.0","","","","6223.466047874034","6018.874008177282","1.895","","","","0.0","0.0","0.0","-14.919670990472885","5.299498774615492","0.0","0.0","0.0","0.0",""
"3","25204.024687239384","25204.02457702509","1063","262692","5560.0","5820.0","1.895","0.0","0.0","0.0","","","","0.8503037415081216","-8.238927919618325","0.0","0.0","0.0","0.0","1.97613574176019E-08"
"2","25204.1","","","","6221.9718912844059","6019.404735766441","1.895","","","","0.0","0.0","0.0","-14.870895751192903","5.2821737061910218","0.0","0.0","0.0","0.0",""
"3","25204.105735715406","25204.105623354062","1357","268178","6153.643361599287","5824.475030696551","1.895","0.0","0.0","0.0","","","","-1.4091445651829509","-0.1419628504499783","0.0","0.0","0.0","0.0","3.88702429995233E-09"
"2","25204.2","","","","6220.478974472412","6019.920064524766","1.895","","","","0.0","0.0","0.0","-14.826991669679737","5.219774521014414","0.0","0.0","0.0","0.0",""
"2","25204.3","","","","6218.984407260777","6020.4334859949499","1.895","","","","0.0","0.0","0.0","-14.852731344922998","5.1742509454930609","0.0","0.0","0.0","0.0",""
"3","25204.32700933433","25204.326902726432","1057","278034","6303.855603327983","6046.712412155638","1.895","0.0","0.0","0.0","","","","-1.5402857044418173","9.944028089611372","0.0","0.0","0.0","0.0","1.85707998368038E-08"
"2","25204.399999999998","","","","6217.488657908737","6020.947313560129","1.895","","","","0.0","0.0","0.0","-14.881364544992043","5.129617364626195","0.0","0.0","0.0","0.0",""
"3","25204.452219385985","25204.45210903813","181","287380","6309.966767936507","6050.362305197865","1.895","0.0","0.0","0.0","","","","0.6246333875220032","-4.196139016748893","0.0","0.0","0.0","0.0","7.16321375875007E-08"
"2","25204.5","","","","6215.986745207037","6021.463258391109","1.895","","","","0.0","0.0","0.0","-14.948090025781518","5.135045314612392","0.0","0.0","0.0","0.0",""
"3","25204.56650842135","25204.56639547879","1405","292211","6100.423347797032","6072.4668490378039","1.895","0.0","0.0","0.0","","","","10.66560009622718","-12.810864509387545","0.0","0.0","0.0","0.0","7.49242163742679E-09"
"2","25204.6","","","","6214.491029490929","6021.977074401499","1.895","","","","0.0","0.0","0.0","-14.886413272914817","5.113857796990915","0.0","0.0","0.0","0.0",""
"2","25204.7","","","","6212.995572400444","6022.490801567475","1.895","","","","0.0","0.0","0.0","-14.883839249073356","5.112973554986848","0.0","0.0","0.0","0.0",""
"2","25204.8","","","","6211.50120031524","6023.004156006817","1.895","","","","0.0","0.0","0.0","-14.87304051450234","5.109263917753958","0.0","0.0","0.0","0.0",""
"3","25204.882969108985","25204.882859998383","289","314285","5560.0","5820.0","1.895","0.0","0.0","0.0","","","","1.0466526580792153","-9.942889258492555","0.0","0.0","0.0","0.0","3.31789478141933E-08"
"2","25204.899999999998","","","","6210.007445530949","6023.533786213125","1.895","","","","0.0","0.0","0.0","-14.9030353970517","5.1713418065546039","0.0","0.0","0.0","0.0",""
"3","25204.91065313671","25204.91054471885","337","317988","6318.182660488509","6010.452434822769","1.895","0.0","0.0","0.0","","","","1.0775517320081032","-10.185588004795383","0.0","0.0","0.0","0.0","2.80823780104749E-08"
"3","25204.93541824199","25204.935301890364","733","321108","5560.0","5820.0","1.895","0.0","0.0","0.0","","","","16.91939274746658","-5.735316468480439","0.0","0.0","0.0","0.0","2.77023255125272E-07"
"2","25205.0","","","","6208.517145012555","6024.08458734039","1.895","","","","0.0","0.0","0.0","-14.900978053819474","5.293043338097962","0.0","0.0","0.0","0.0",""
"3","25205.024683924665","25205.02457702509","1063","327061","5560.0","5820.0","1.895","0.0","0.0","0.0","","","","1.1042883796144468","-10.260359209142277","0.0","0.0","0.0","0.0","4.62333767710544E-08"
"2","25205.1","","","","6207.029089349408","6024.6345587901619","1.895","","","","0.0","0.0","0.0","-14.839540628287473","5.39358264606849","0.0","0.0","0.0","0.0",""
"2","25205.2","","","","6205.543126099503","6025.183756903577","1.895","","","","0.0","0.0","0.0","-14.789349879953463","5.466005335750772","0.0","0.0","0.0","0.0",""
"2","25205.3","","","","6204.054971926451","6025.733764761687","1.895","","","","0.0","0.0","0.0","-14.811155485821804","5.474064483647789","0.0","0.0","0.0","0.0",""
"3","25205.34371826646","25205.343605499478","277","343314","5560.0","5820.0","1.895","0.0","0.0","0.0","","","","-6.570918415323247","16.067425176285736","0.0","0.0","0.0","0.0","1.28498678728932E-08"
"2","25205.399999999998","","","","6202.5644736771159","6026.284638968459","1.895","","","","0.0","0.0","0.0","-14.834485379280766","5.482686993978819","0.0","0.0","0.0","0.0",""
"2","25205.5","","","","6201.069375240056","6026.804875552304","1.895","","","","0.0","0.0","0.0","-14.812314029525585","5.373060293609142","0.0","0.0","0.0","0.0",""
"3","25205.530644308583","25205.530537214596","487","355610","5560.0","5820.0","1.895","0.0","0.0","0.0","","","","13.706720303388617","1.1861347023073299","0.0","0.0","0.0","0.0","7.01179479212267E-09"
"3","25205.566506484083","25205.56639547879","1405","356436","6114.193277926428","6063.3374172934159","1.895","0.0","0.0","0.0","","","","15.43472765299099","-6.2868753208571539","0.0","0.0","0.0","0.0","1.4926119895824E-07"
"2","25205.6","","","","6199.570072691204","6027.311499352646","1.895","","","","0.0","0.0","0.0","-14.853994604725177","5.239543428416151","0.0","0.0","0.0","0.0",""
"2","25205.7","","","","6198.069693843426","6027.818486841192","1.895","","","","0.0","0.0","0.0","-14.910618212834914","5.111140779719146","0.0","0.0","0.0","0.0",""
"2","25205.8","","","","6196.563217562556","6028.327534690889","1.895","","","","0.0","0.0","0.0","-14.993509970741318","5.066401713013766","0.0","0.0","0.0","0.0",""
"3","25205.882967295795","25205.882859998383","289","378387","5560.0","5820.0","1.895","0.0","0.0","0.0","","","","1.282433298879719","-11.818225096855374","0.0","0.0","0.0","0.0","2.81506170766319E-09"
"2","25205.899999999998","","","","6195.05753822843","6028.836313247248","1.895","","","","0.0","0.0","0.0","-14.985578197055255","5.06372151659183","0.0","0.0","0.0","0.0",""
"3","25205.93541580376","25205.935301890364","733","385116","5560.0","5820.0","1.895","0.0","0.0","0.0","","","","16.809845983024294","-6.242582624566952","0.0","0.0","0.0","0.0","1.77440169848606E-07"
"2","25206.0","","","","6193.5581171164","6029.342977110836","1.895","","","","0.0","0.0","0.0","-14.923291975482716","5.042674608946747","0.0","0.0","0.0","0.0",""
"3","25206.024694513602","25206.02457702509","1063","391083","5560.0","5820.0","1.895","0.0","0.0","0.0","","","","1.3143385378173236","-12.089025891792972","0.0","0.0","0.0","0.0","1.47275877280231E-08"
"2","25206.1","","","","6192.054029923467","6029.85121767263","1.895","","","","0.0","0.0","0.0","-14.969732089708469","5.058367016840735","0.0","0.0","0.0","0.0",""
"2","25206.2","","","","6190.551803756259","6030.3588293820789","1.895","","","","0.0","0.0","0.0","-14.951209854661413","5.052108236638207","0.0","0.0","0.0","0.0",""
"2","25206.3","","","","6189.050630799436","6030.866085205086","1.895","","","","0.0","0.0","0.0","-14.940727565223345","5.048566204834515","0.0","0.0","0.0","0.0",""
"3","25206.34372150995","25206.343605499478","277","407586","5560.0","5820.0","1.895","0.0","0.0","0.0","","","","-19.111378052741018","4.966614936732909","0.0","0.0","0.0","0.0","3.57739481813334E-09"
"2","25206.399999999998","","","","6187.548208653418","6031.373763137011","1.895","","","","0.0","0.0","0.0","-14.953160373407482","5.052767329241316","0.0","0.0","0.0","0.0",""
"3","25206.473436859615","25206.473326199222","1183","417066","5560.0","5820.0","1.895","0.0","0.0","0.0","","","","1.2311456925838063","-11.484698944066642","0.0","0.0","0.0","0.0","2.39619254074816E-09"
"2","25206.5","","","","6186.043103091106","6031.882347812251","1.895","","","","0.0","0.0","0.0","-14.979867616995751","5.061791875523645","0.0","0.0","0.0","0.0",""
"3","25206.566510528784","25206.56639547879","1405","420702","6130.034749187925","6057.945538104427","1.895","0.0","0.0","0.0","","","","15.7488575267475","-5.338529773562559","0.0","0.0","0.0","0.0","2.64652861628979E-08"
"2","25206.6","","","","6184.54327215626","6032.389150157557","1.895","","","","0.0","0.0","0.0","-14.927370819973432","5.0440528762607539","0.0","0.0","0.0","0.0",""
"2","25206.7","","","","6183.037708296801","6032.897889694296","1.895","","","","0.0","0.0","0.0","-14.984428912061464","5.063333165932971","0.0","0.0","0.0","0.0",""
"2","25206.8","","","","6181.536809354351","6033.405052926117","1.895","","","","0.0","0.0","0.0","-14.938000381736128","5.047644672310223","0.0","0.0","0.0","0.0",""
"2","25206.899999999998","","","","6180.033454770551","6033.913045934659","1.895","","","","0.0","0.0","0.0","-14.962440649098989","5.055903193008536","0.0","0.0","0.0","0.0",""
"3","25206.91066253359","25206.91054471885","337","445829","6320.906763742153","5986.512087302409","1.895","0.0","0.0","0.0","","","","1.6617272558551344","-13.660112764521435","0.0","0.0","0.0","0.0","2.39423424151512E-09"
"3","25206.93540853556","25206.935301890364","733","448940","5560.0","5820.0","1.895","0.0","0.0","0.0","","","","16.93477615618898","-5.832964205694388","0.0","0.0","0.0","0.0","8.81508858931807E-08"
"2","25207.0","","","","6178.535434682686","6034.419236383333","1.895","","","","0.0","0.0","0.0","-14.909347999031749","5.037962851235725","0.0","0.0","0.0","0.0",""
"3","25207.008624829596","25207.008511588207","493","453546","5811.60165631068","5697.458612112527","1.895","0.0","0.0","0.0","","","","-13.795554568537373","-1.0281717177644794","0.0","0.0","0.0","0.0","2.45411504683199E-09"
"3","25207.02468716676","25207.02457702509","1063","454881","5560.0","5820.0","1.895","0.0","0.0","0.0","","","","1.6470726112212542","-13.530790053482204","0.0","0.0","0.0","0.0","1.89593416884339E-09"
"3","25207.051284849233","25207.051170434566","853","456921","6000.387170955488","5818.997430034452","1.895","0.0","0.0","0.0","","","","14.210695223696455","1.4305499224492029","0.0","0.0","0.0","0.0","2.15937455885951E-09"
"2","25207.1","","","","6177.039973610543","6034.924562124433","1.895","","","","0.0","0.0","0.0","-14.883878877338818","5.029356674161387","0.0","0.0","0.0","0.0",""
"2","25207.2","","","","6175.542478697731","6035.43057511314","1.895","","","","0.0","0.0","0.0","-14.90412108806872","5.0361966450099289","0.0","0.0","0.0","0.0",""
"2","25207.3","","","","6174.044226351487","6035.936844043387","1.895","","","","0.0","0.0","0.0","-14.911659597544219","5.038743954975191","0.0","0.0","0.0","0.0",""
"3","25207.34371416544","25207.343605499478","277","471923","5560.0","5820.0","1.895","0.0","0.0","0.0","","","","-19.713702135572225","5.1231453438133969","0.0","0.0","0.0","0.0","2.17749058897351E-08"
"3","25207.345624217818","25207.345505659236","883","472123","6086.9019323552379","5727.942226804478","1.895","0.0","0.0","0.0","","","","4.6445539449336119","0.36025065854964036","0.0","0.0","0.0","0.0","8.17660445877403E-09"
"3","25207.359229217967","25207.359110657126","805","473228","6115.699654235682","5820.65243010107","1.895","0.0","0.0","0.0","","","","-7.337854192449713","-0.7392447326461838","0.0","0.0","0.0","0.0","1.47268863208035E-08"
"3","25207.368033047424","25207.367917491123","847","474532","6098.3491782410069","5797.375902621383","1.895","0.0","0.0","0.0","","","","0.586116208290642","-11.6963085638622","0.0","0.0","0.0","0.0","1.45316682249697E-08"
"2","25207.399999999998","","","","6172.541473710056","6036.4446336518","1.895","","","","0.0","0.0","0.0","-14.956449695879872","5.0538788120789779","0.0","0.0","0.0","0.0",""
"3","25207.40916673932","25207.409054094227","391","477027","6092.895541269902","5774.369081133519","1.895","0.0","0.0","0.0","","","","-0.7444269012602544","14.85549557792427","0.0","0.0","0.0","0.0","3.61450730927754E-09"
"2","25207.5","","","","6171.041160906964","6036.95159882343","1.895","","","","0.0","0.0","0.0","-14.932166711191835","5.045673438189831","0.0","0.0","0.0","0.0",""
"3","25207.530656034607","25207.530537214596","487","484037","5560.0","5820.0","1.895","0.0","0.0","0.0","","","","13.70915284315799","1.1863452063325997","0.0","0.0","0.0","0.0","9.33312150843896E-09"
"3","25207.566511340978","25207.56639547879","1405","485362","6145.878674241383","6052.574782449021","1.895","0.0","0.0","0.0","","","","15.715171957689032","-5.327111077758587","0.0","0.0","0.0","0.0","4.73451845517854E-08"
"2","25207.6","","","","6169.541455701515","6037.458358683978","1.895","","","","0.0","0.0","0.0","-14.926119472727566","5.0436300381204559","0.0","0.0","0.0","0.0",""
"3","25207.600325577376","25207.60021286551","799","487993","5560.0","5820.0","1.895","0.0","0.0","0.0","","","","-9.239986119433836","-0.9308730985066007","0.0","0.0","0.0","0.0","6.22283545308962E-09"
"2","25207.7","","","","6168.034874716216","6037.967441913963","1.895","","","","0.0","0.0","0.0","-14.994552062753089","5.066753842486041","0.0","0.0","0.0","0.0",""
"3","25207.78053405048","25207.780426649144","265","501253","5560.0","5820.0","1.895","0.0","0.0","0.0","","","","-6.758588919567035","-0.6808872359513067","0.0","0.0","0.0","0.0","1.53883027693149E-08"
"2","25207.8","","","","6166.538406102563","6038.4731081097029","1.895","","","","0.0","0.0","0.0","-14.89390663805393","5.032745117841774","0.0","0.0","0.0","0.0",""
"3","25207.804865160393","25207.804758092992","1363","504321","5985.256627662649","5709.354161481309","1.895","0.0","0.0","0.0","","","","-10.357247445497882","-0.896228146079671","0.0","0.0","0.0","0.0","1.77616142992909E-09"
"3","25207.874394451686","25207.874287969895","259","507997","6034.652199450164","5815.8109420530549","1.895","0.0","0.0","0.0","","","","-12.392327316016429","-1.2473515880932074","0.0","0.0","0.0","0.0","1.74091488013931E-08"
"3","25207.886075602957","25207.885962265544","433","509627","6123.066568691479","5828.031812895021","1.895","0.0","0.0","0.0","","","","14.831978618514985","1.4940505291339657","0.0","0.0","0.0","0.0","1.77621401164409E-08"
"2","25207.899999999998","","","","6165.037496582029","6038.9802749159239","1.895","","","","0.0","0.0","0.0","-14.938105662258068","5.047680247263502","0.0","0.0","0.0","0.0",""
"3","25207.919631388144","25207.919524366454","1333","513487","6120.14507892136","5824.416747593656","1.895","0.0","0.0","0.0","","","","-13.311484326023186","-1.3425118948310182","0.0","0.0","0.0","0.0","1.78302326129611E-08"
"3","25207.920379928688","25207.920271761017","925","513862","5560.0","5820.0","1.895","0.0","0.0","0.0","","","","2.29566740277652E-15","-4.58114515912413E-14","0.0","0.0","0.0","0.0","2.19907096718878E-09"
"3","25207.92732912115","25207.927211811068","667","514246","6032.642995112103","5812.293496831903","1.895","0.0","0.0","0.0","","","","-15.237412351493744","-1.5343122843539763","0.0","0.0","0.0","0.0","8.76392554817049E-09"
"3","25207.93541394011","25207.935301890364","733","515571","5560.0","5820.0","1.895","0.0","0.0","0.0","","","","17.302362136443916","-4.544682730908109","0.0","0.0","0.0","0.0","2.68632159215693E-08"
"2","25208.0","","","","6163.530521559367","6039.489491293622","1.895","","","","0.0","0.0","0.0","-14.99847379934372","5.068079022049333","0.0","0.0","0.0","0.0",""
"3","25208.00017077593","25208.000055350363","205","519895","6101.23989767381","5739.689822660743","1.895","0.0","0.0","0.0","","","","2.33115078884654E-15","-4.65195443320598E-14","0.0","0.0","0.0","0.0","1.44690685730871E-09"
"3","25208.00862944939","25208.008511588207","493","520291","5797.834667174775","5696.432569353754","1.895","0.0","0.0","0.0","","","","-13.736432495924842","-1.0237653966810319","0.0","0.0","0.0","0.0","2.51464618720942E-09"
"3","25208.032465868935","25208.032356234035","937","522520","5560.0","5820.0","1.895","0.0","0.0","0.0","","","","3.18558718513724E-15","4.65235754840649E-14","0.0","0.0","0.0","0.0","3.74070718549525E-09"
"3","25208.051284077177","25208.051170434566","853","523930","6014.646778897866","5820.432903859977","1.895","0.0","0.0","0.0","","","","14.148932882827002","1.4243324847693245","0.0","0.0","0.0","0.0","5.34429402421316E-09"
"3","25208.059494198984","25208.059383184416","835","524545","6092.985472551438","5828.316794186389","1.895","0.0","0.0","0.0","","","","12.441077477648589","1.2495405326870455","0.0","0.0","0.0","0.0","1.83827658610529E-08"
"3","25208.065715554294","25208.065604869276","655","525762","6099.555314686707","5773.306709789809","1.895","0.0","0.0","0.0","","","","0.5263874549457006","-10.504384642711047","0.0","0.0","0.0","0.0","1.71169649580371E-08"
"2","25208.1","","","","6162.032940216539","6039.995533487578","1.895","","","","0.0","0.0","0.0","-14.904981300293184","5.036487316153382","0.0","0.0","0.0","0.0",""
"3","25208.168690027967","25208.16857640515","469","529085","6048.251108314673","5813.865136377375","1.895","0.0","0.0","0.0","","","","-14.57867241350052","-1.4679812856409547","0.0","0.0","0.0","0.0","2.33529971002723E-09"
"2","25208.2","","","","6160.535255662673","6040.501610557195","1.895","","","","0.0","0.0","0.0","-14.90600852902821","5.036834423233406","0.0","0.0","0.0","0.0",""
"3","25208.235946239816","25208.23583422345","943","532014","6158.859033325117","5834.9504904300679","1.895","0.0","0.0","0.0","","","","15.031101924206869","1.5141085596829372","0.0","0.0","0.0","0.0","2.93220331199815E-09"
"3","25208.240808663064","25208.24069597921","1201","532368","5560.0","5820.0","1.895","0.0","0.0","0.0","","","","3.20079139871455E-15","4.67525432172605E-14","0.0","0.0","0.0","0.0","3.62143771278896E-09"
"2","25208.3","","","","6159.028138917944","6041.010874823674","1.895","","","","0.0","0.0","0.0","-14.999884316892965","5.068555644837572","0.0","0.0","0.0","0.0",""
"3","25208.343711986112","25208.343605499478","277","539759","5560.0","5820.0","1.895","0.0","0.0","0.0","","","","-19.654225285676867","5.107688655641277","0.0","0.0","0.0","0.0","7.77777509425656E-08"
"3","25208.345616164803","25208.345505659236","883","539963","6090.788694710759","5727.605701558202","1.895","0.0","0.0","0.0","","","","4.277006952963205","-0.05991465701460897","0.0","0.0","0.0","0.0","1.49203536572697E-09"
"3","25208.359221165047","25208.359110657126","805","541109","6107.680963926107","5819.8445952192919","1.895","0.0","0.0","0.0","","","","-8.125714540031336","-0.8186169301203312","0.0","0.0","0.0","0.0","9.06522133956588E-09"
"3","25208.36521007478","25208.36509987572","643","542150","6052.239890201722","5538.967315297515","1.895","0.0","0.0","0.0","","","","-5.943823138391541","-14.11585082915595","0.0","0.0","0.0","0.0","1.50930654335895E-09"
"3","25208.368025075233","25208.367917491123","847","542460","6098.890592990924","5786.571639087126","1.895","0.0","0.0","0.0","","","","0.4897421929781907","-9.773105955423418","0.0","0.0","0.0","0.0","1.68032740581679E-08"
"2","25208.399999999998","","","","6157.520798355857","6041.520214719453","1.895","","","","0.0","0.0","0.0","-15.002111904417879","5.069308360730923","0.0","0.0","0.0","0.0",""
"3","25208.40214421209","25208.402025997777","1453","544341","6175.703297084063","5826.697436686357","1.895","0.0","0.0","0.0","","","","-2.4333785353593027","-0.2451482705460347","0.0","0.0","0.0","0.0","5.45017373223526E-09"
"3","25208.409171674288","25208.409054094227","391","545005","6092.225016848808","5787.749807374836","1.895","0.0","0.0","0.0","","","","-0.5922865152679296","11.819440825595372","0.0","0.0","0.0","0.0","2.39959041108065E-09"
"3","25208.446502133473","25208.44639441464","535","547252","6163.643685137392","5732.300959344905","1.895","0.0","0.0","0.0","","","","14.35278913038949","0.735499709315658","0.0","0.0","0.0","0.0","1.33688262688866E-08"
"3","25208.475399647625","25208.47528944444","325","549761","5560.0","5820.0","1.895","0.0","0.0","0.0","","","","10.554297297377593","0.6073143137599812","0.0","0.0","0.0","0.0","6.04415699719088E-09"
"2","25208.5","","","","6156.014538518934","6042.029189431373","1.895","","","","0.0","0.0","0.0","-14.991355768570808","5.065673794496108","0.0","0.0","0.0","0.0",""
"3","25208.56650659957","25208.56639547879","1405","553492","6161.717991647916","6047.205588688517","1.895","0.0","0.0","0.0","","","","15.712419252459434","-5.326177968877444","0.0","0.0","0.0","0.0","0.000001800367621088171"
"2","25208.6","","","","6154.518010940164","6042.534875551799","1.895","","","","0.0","0.0","0.0","-14.894493500322242","5.032943422308659","0.0","0.0","0.0","0.0",""
"3","25208.60032635223","25208.60021286551","799","556423","5560.0","5820.0","1.895","0.0","0.0","0.0","","","","-5.1213851096993319","-7.969069273535941","0.0","0.0","0.0","0.0","2.74119456563914E-09"
"3","25208.663429060598","25208.663317918774","769","561377","5560.0","5820.0","1.895","0.0","0.0","0.0","","","","1.3476460043380257","-12.395381380558609","0.0","0.0","0.0","0.0","8.05495861393356E-09"
"2","25208.7","","","","6153.014739889751","6043.042840333881","1.895","","","","0.0","0.0","0.0","-14.961609266152215","5.05562226346009","0.0","0.0","0.0","0.0",""
"3","25208.78053556246","25208.780426649144","265","569831","5560.0","5820.0","1.895","0.0","0.0","0.0","","","","-7.425834398892417","-0.7481082099631377","0.0","0.0","0.0","0.0","9.06503033490055E-09"
"2","25208.8","","","","6151.518738374426","6043.548348694145","1.895","","","","0.0","0.0","0.0","-14.889257747435592","5.03117422833724","0.0","0.0","0.0","0.0",""
"3","25208.822228690748","25208.822117734933","271","573450","6056.238352369704","5814.6694019829169","1.895","0.0","0.0","0.0","","","","-12.842301882907194","-1.2931396147702619","0.0","0.0","0.0","0.0","2.70464011964911E-09"
"2","25208.899999999998","","","","6150.021493621732","6044.054277152169","1.895","","","","0.0","0.0","0.0","-14.901631318898572","5.035355336282802","0.0","0.0","0.0","0.0",""
"3","25208.918201081684","25208.918091948377","673","581790","5560.0","5820.0","1.895","0.0","0.0","0.0","","","","-6.721714722672807","-0.6771723821112476","0.0","0.0","0.0","0.0","1.54680286331568E-09"
"3","25208.927322914155","25208.927211811068","667","582942","6017.397946920725","5810.758415666151","1.895","0.0","0.0","0.0","","","","-15.328171405478733","-1.543451154404925","0.0","0.0","0.0","0.0","1.64497491797598E-08"
"3","25208.935415861015","25208.935301890364","733","584255","5560.0","5820.0","1.895","0.0","0.0","0.0","","","","14.191961018534256","-3.727696810995123","0.0","0.0","0.0","0.0","2.81791513393193E-08"
"2","25209.0","","","","6148.521344982884","6044.561186851663","1.895","","","","0.0","0.0","0.0","-14.930532833331359","5.04512134054176","0.0","0.0","0.0","0.0",""
"3","25209.000170251296","25209.000055350363","205","588581","6101.23989767381","5739.689822660743","1.895","0.0","0.0","0.0","","","","2.27052908422674E-15","-4.5309801020285E-14","0.0","0.0","0.0","0.0","2.77458625520854E-09"
"3","25209.051287572718","25209.051170434566","853","592926","6028.910183305682","5821.868759864787","1.895","0.0","0.0","0.0","","","","14.279497629042034","1.437476063224308","0.0","0.0","0.0","0.0","7.11306193437994E-09"
"3","25209.05949771745","25209.059383184416","835","593555","6105.425637162837","5829.568053206892","1.895","0.0","0.0","0.0","","","","12.450047105479023","1.2541145011134132","0.0","0.0","0.0","0.0","3.97501928676381E-09"
"3","25209.065719152222","25209.065604869276","655","594835","6099.998740070528","5764.45788418004","1.895","0.0","0.0","0.0","","","","0.37613489957670639","-7.506002708802187","0.0","0.0","0.0","0.0","1.2686021390257E-08"
"2","25209.1","","","","6147.021745596739","6045.0679109552","1.895","","","","0.0","0.0","0.0","-14.925066284694929","5.043274159232651","0.0","0.0","0.0","0.0",""
"3","25209.16869365021","25209.16857640515","469","598100","6033.719796213957","5812.401923979523","1.895","0.0","0.0","0.0","","","","-14.584933318536838","-1.4686117196859685","0.0","0.0","0.0","0.0","4.40031918651952E-09"
"2","25209.2","","","","6145.521522676371","6045.574845754889","1.895","","","","0.0","0.0","0.0","-14.931272135185245","5.045371155307366","0.0","0.0","0.0","0.0",""
"3","25209.235942264742","25209.23583422345","943","601235","6173.841897119589","5836.459739880584","1.895","0.0","0.0","0.0","","","","15.021221866733768","1.5131133246222284","0.0","0.0","0.0","0.0","3.59579008929307E-09"
"3","25209.240812292952","25209.24069597921","1201","601605","5560.0","5820.0","1.895","0.0","0.0","0.0","","","","3.15706944644443E-15","4.61139160127908E-14","0.0","0.0","0.0","0.0","5.98804706944221E-09"
"3","25209.266806294687","25209.26669687568","577","603582","6098.559685695581","5793.175097202811","1.895","0.0","0.0","0.0","","","","0.4128682341832526","-8.239038939600516","0.0","0.0","0.0","0.0","1.73917970462359E-08"
"2","25209.3","","","","6144.023377470781","6046.081078481633","1.895","","","","0.0","0.0","0.0","-14.910593258515716","5.038383632279992","0.0","0.0","0.0","0.0",""
"3","25209.343719484412","25209.343605499478","277","609184","5560.0","5820.0","1.895","0.0","0.0","0.0","","","","-19.24059288184236","6.824819519211433","0.0","0.0","0.0","0.0","6.27536600990984E-08"
"3","25209.345615299128","25209.345505659236","883","609420","6095.51483200101","5725.113408841387","1.895","0.0","0.0","0.0","","","","5.818059751383439","-2.4714956189912149","0.0","0.0","0.0","0.0","3.12173684679801E-09"
"3","25209.35922030193","25209.359110657126","805","610557","6098.973326130601","5818.73414182575","1.895","0.0","0.0","0.0","","","","-9.523673749382699","-1.4098167462006826","0.0","0.0","0.0","0.0","6.62762215976208E-09"
"3","25209.368033732782","25209.367917491123","847","611856","6099.324012586981","5777.922485111511","1.895","0.0","0.0","0.0","","","","0.3865457123873875","-7.713756866247373","0.0","0.0","0.0","0.0","1.33659076221669E-08"
"2","25209.399999999998","","","","6142.517086819586","6046.5900636058909","1.895","","","","0.0","0.0","0.0","-14.991662453846493","5.065777425386717","0.0","0.0","0.0","0.0",""
"3","25209.402139860507","25209.402025997777","1453","613756","6172.245727283958","5826.3491072980309","1.895","0.0","0.0","0.0","","","","-4.207274675311524","-0.4238576511536803","0.0","0.0","0.0","0.0","4.00917070512572E-09"
"3","25209.452225101737","25209.45210903813","181","617495","6315.541029588768","6004.234434507932","1.895","0.0","0.0","0.0","","","","1.4013216043159234","-12.91383666297437","0.0","0.0","0.0","0.0","2.41794750715314E-09"
"2","25209.5","","","","6141.017887524497","6047.096652516133","1.895","","","","0.0","0.0","0.0","-14.921084297515903","5.041928620615984","0.0","0.0","0.0","0.0",""
"3","25209.530643679343","25209.530537214596","487","621691","5560.0","5820.0","1.895","0.0","0.0","0.0","","","","13.790625583280308","1.0689668528327637","0.0","0.0","0.0","0.0","9.95951984820042E-09"
"3","25209.56651339004","25209.56639547879","1405","623175","6177.571464190687","6041.831596636066","1.895","0.0","0.0","0.0","","","","15.823914934227999","-5.363972647998405","0.0","0.0","0.0","0.0","1.62316496505947E-07"
"2","25209.6","","","","6139.516115537205","6047.604110755319","1.895","","","","0.0","0.0","0.0","-14.946689537157808","5.050580792804954","0.0","0.0","0.0","0.0",""
"3","25209.65224357145","25209.652124596527","967","630695","6088.916165407812","5595.777605429349","1.895","0.0","0.0","0.0","","","","-2.587245660387305","2.0668949443915238","0.0","0.0","0.0","0.0","2.38715194505016E-09"
"3","25209.66343445579","25209.663317918774","769","631536","5560.0","5820.0","1.895","0.0","0.0","0.0","","","","1.7051203358606638","-14.007655232226615","0.0","0.0","0.0","0.0","1.3333671859498E-08"
"2","25209.7","","","","6138.0146861662","6048.111453222299","1.895","","","","0.0","0.0","0.0","-14.943279579251304","5.049428546495053","0.0","0.0","0.0","0.0",""
"3","25209.780540990327","25209.780426649144","265","640018","5560.0","5820.0","1.895","0.0","0.0","0.0","","","","-9.090351392682186","-0.9157982986150866","0.0","0.0","0.0","0.0","2.15980739881655E-08"
"3","25209.794414326596","25209.79430566984","1297","642031","6094.1060165359999","5629.394679259818","1.895","0.0","0.0","0.0","","","","-4.276759297083987","-13.392322295647724","0.0","0.0","0.0","0.0","2.96935450794437E-09"
"2","25209.8","","","","6136.515643417186","6048.617989234634","1.895","","","","0.0","0.0","0.0","-14.919526241021359","5.041402143486323","0.0","0.0","0.0","0.0",""
"3","25209.80486643793","25209.804758092992","1363","643145","5960.808261254373","5707.190570223011","1.895","0.0","0.0","0.0","","","","-13.714474949511312","-1.3070740978350997","0.0","0.0","0.0","0.0","1.53787768931281E-09"
"3","25209.822228401885","25209.822117734933","271","643681","6043.473372160144","5813.384048177871","1.895","0.0","0.0","0.0","","","","-12.864366675914626","-1.2953614016580655","0.0","0.0","0.0","0.0","2.15168249186369E-09"
"3","25209.874401382534","25209.874287969895","259","646766","6009.908922100543","5813.320403713516","1.895","0.0","0.0","0.0","","","","-12.366444791173926","-1.24474637862449","0.0","0.0","0.0","0.0","3.53365218222938E-09"
"2","25209.899999999998","","","","6135.019105850369","6049.123678730083","1.895","","","","0.0","0.0","0.0","-14.8945929083753","5.032977012914785","0.0","0.0","0.0","0.0",""
"3","25209.918201450688","25209.918091948377","673","651622","5560.0","5820.0","1.895","0.0","0.0","0.0","","","","-8.300145830416307","-0.8361898348474671","0.0","0.0","0.0","0.0","3.11890448773727E-09"
"3","25209.920387051145","25209.920271761017","925","652382","5560.0","5820.0","1.895","0.0","0.0","0.0","","","","2.31522772351173E-15","-4.62017897932762E-14","0.0","0.0","0.0","0.0","2.92237994456632E-09"
"3","25209.927323339187","25209.927211811068","667","652797","6002.146611203677","5809.222701385822","1.895","0.0","0.0","0.0","","","","-15.341618509319993","-1.5448051938040819","0.0","0.0","0.0","0.0","8.28297173465444E-09"
"3","25209.935416112407","25209.935301890364","733","654098","5560.0","5820.0","1.895","0.0","0.0","0.0","","","","10.897647263483924","-2.8624039270109487","0.0","0.0","0.0","0.0","1.85322753643837E-09"
"3","25209.949405358384","25209.949297479587","361","655263","5884.142404683234","5707.401337298866","1.895","0.0","0.0","0.0","","","","13.395429281266589","1.548107396870948","0.0","0.0","0.0","0.0","2.19297107706857E-09"
"2","25210.0","","","","6133.518502368415","6049.630742123935","1.895","","","","0.0","0.0","0.0","-14.935059751366734","5.046651014736385","0.0","0.0","0.0","0.0",""
"3","25210.000169867664","25210.000055350363","205","658406","6101.23989767381","5739.689822660743","1.895","0.0","0.0","0.0","","","","2.34810922748368E-15","-4.68579603803729E-14","0.0","0.0","0.0","0.0","2.43696883408748E-09"
"3","25210.0324720841","25210.032356234035","937","661340","5560.0","5820.0","1.895","0.0","0.0","0.0","","","","3.16897276453176E-15","4.62809319128044E-14","0.0","0.0","0.0","0.0","1.61814608213134E-09"
"3","25210.051277166564","25210.051170434566","853","663017","6043.175814426007","5823.304840026357","1.895","0.0","0.0","0.0","","","","14.185199761411975","1.4279833673989578","0.0","0.0","0.0","0.0","1.33057832534649E-08"
"3","25210.06571461941","25210.065604869276","655","664871","6100.298582727639","5758.474339980818","1.895","0.0","0.0","0.0","","","","0.24414897950023516","-4.872142690142291","0.0","0.0","0.0","0.0","1.78531551696659E-09"
"2","25210.1","","","","6132.018195958004","6050.1377051354379","1.895","","","","0.0","0.0","0.0","-14.93210308674308","5.045651939086766","0.0","0.0","0.0","0.0",""
"3","25210.105735639696","25210.105623354062","1357","666940","6131.1176585871949","5822.205701426153","1.895","0.0","0.0","0.0","","","","-7.5706291068102689","-0.7626954070287254","0.0","0.0","0.0","0.0","1.68263118432462E-08"
"3","25210.16868913688","25210.16857640515","469","668440","6019.17845469754","5810.937701682132","1.895","0.0","0.0","0.0","","","","-14.63815575071226","-1.4739708862955046","0.0","0.0","0.0","0.0","1.8735672894926E-08"
"2","25210.2","","","","6130.522363052947","6050.643156521228","1.895","","","","0.0","0.0","0.0","-14.88757961963285","5.030607178357997","0.0","0.0","0.0","0.0",""
"3","25210.235945559267","25210.23583422345","943","671702","6189.173497336608","5837.983486137615","1.895","0.0","0.0","0.0","","","","16.220594223016016","1.3456951777435729","0.0","0.0","0.0","0.0","3.38663587583453E-09"
"3","25210.240802474742","25210.24069597921","1201","672048","5560.0","5820.0","1.895","0.0","0.0","0.0","","","","3.11858568886331E-15","4.55518007995981E-14","0.0","0.0","0.0","0.0","5.11159689917467E-09"
"2","25210.3","","","","6129.021390802539","6051.15034452427","1.895","","","","0.0","0.0","0.0","-14.938729994027846","5.047891212911577","0.0","0.0","0.0","0.0",""
"3","25210.343722727546","25210.343605499478","277","679683","5560.0","5820.0","1.895","0.0","0.0","0.0","","","","-19.176375111623359","7.079129129991173","0.0","0.0","0.0","0.0","3.48208301394323E-08"
"2","25210.399999999998","","","","6127.514537172821","6051.659519882525","1.895","","","","0.0","0.0","0.0","-14.99726561149382","5.067670767743384","0.0","0.0","0.0","0.0",""
"3","25210.402132776842","25210.402025997777","1453","684238","6167.033336047109","5825.823990190866","1.895","0.0","0.0","0.0","","","","-5.969666697228404","-0.6014080609723654","0.0","0.0","0.0","0.0","6.98641188059219E-09"
"3","25210.44650376775","25210.44639441464","535","687355","6192.202047215477","5733.76441476226","1.895","0.0","0.0","0.0","","","","14.260415491919872","0.7307660799406576","0.0","0.0","0.0","0.0","5.76135015155974E-09"
"3","25210.45221551072","25210.45210903813","181","687743","6316.964144114062","5991.620852938996","1.895","0.0","0.0","0.0","","","","1.4693493258079576","-12.299334237117375","0.0","0.0","0.0","0.0","1.71736572879799E-08"
"2","25210.5","","","","6126.016666787042","6052.16565974592","1.895","","","","0.0","0.0","0.0","-14.907858058747577","5.0374593910027889","0.0","0.0","0.0","0.0",""
"3","25210.530653762013","25210.530537214596","487","692544","5560.0","5820.0","1.895","0.0","0.0","0.0","","","","13.773688581104472","0.9389387708823161","0.0","0.0","0.0","0.0","1.12406545390031E-08"
"3","25210.56650552265","25210.56639547879","1405","693808","6193.388952575147","6036.469802452584","1.895","0.0","0.0","0.0","","","","15.76181382735368","-5.342921685571186","0.0","0.0","0.0","0.0","2.77637728717238E-08"
"2","25210.6","","","","6124.510942643879","6052.674453443536","1.895","","","","0.0","0.0","0.0","-14.986024168051117","5.06387221301078","0.0","0.0","0.0","0.0",""
"2","25210.7","","","","6123.009711369016","6053.181728972577","1.895","","","","0.0","0.0","0.0","-14.941307987311319","5.04876233312379","0.0","0.0","0.0","0.0",""
"2","25210.8","","","","6121.507922423349","6053.689192942105","1.895","","","","0.0","0.0","0.0","-14.946858318825362","5.050637825196388","0.0","0.0","0.0","0.0",""
"3","25210.8222356123","25210.822117734933","271","714824","6030.707465302302","5812.098601065129","1.895","0.0","0.0","0.0","","","","-12.845999309918389","-1.2935119225845096","0.0","0.0","0.0","0.0","6.14072388742409E-09"
"3","25210.886076094408","25210.885962265544","433","719286","6167.387323820412","5832.49631822874","1.895","0.0","0.0","0.0","","","","14.854858991260583","1.4963553081446819","0.0","0.0","0.0","0.0","6.12602326520933E-09"
"3","25210.888371726058","25210.888265040936","1111","719842","6188.430535288017","5740.175397239313","1.895","0.0","0.0","0.0","","","","12.87588729437345","0.6589974476687042","0.0","0.0","0.0","0.0","4.09516308813007E-09"
"2","25210.899999999998","","","","6120.012604798238","6054.202375174541","1.895","","","","0.0","0.0","0.0","-14.899000629796515","5.059225038335984","0.0","0.0","0.0","0.0",""
"3","25210.91820785412","25210.918091948377","673","722460","5560.0","5820.0","1.895","0.0","0.0","0.0","","","","-10.08444941550051","-1.0159477030359674","0.0","0.0","0.0","0.0","2.57870109717043E-09"
"3","25210.919631966895","25210.919524366454","1333","722847","6080.155618948494","5820.391095653541","1.895","0.0","0.0","0.0","","","","-13.344201606958278","-1.3420821731194373","0.0","0.0","0.0","0.0","3.89529966311354E-09"
"3","25210.935409882455","25210.935301890364","733","724965","5560.0","5820.0","1.895","0.0","0.0","0.0","","","","7.738722081090235","-2.0326725521006958","0.0","0.0","0.0","0.0","3.15242934384334E-09"
"2","25211.0","","","","6118.513031458494","6054.719244768833","1.895","","","","0.0","0.0","0.0","-14.938434731944346","5.104540453076458","0.0","0.0","0.0","0.0",""
"3","25211.051285250385","25211.051170434566","853","733636","6057.442240579991","5824.741000221685","1.895","0.0","0.0","0.0","","","","14.199626246374879","1.4294356402554247","0.0","0.0","0.0","0.0","4.07101983783081E-09"
"3","25211.05949544468","25211.059383184416","835","734276","6130.31400111503","5832.075100600125","1.895","0.0","0.0","0.0","","","","12.436411181158587","1.2527409311757687","0.0","0.0","0.0","0.0","1.00983532162291E-08"
"2","25211.1","","","","6117.017534659224","6055.234709270247","1.895","","","","0.0","0.0","0.0","-14.888076323046345","5.119104911944243","0.0","0.0","0.0","0.0",""
"3","25211.105737992424","25211.105623354062","1357","737668","6122.698934339042","5821.357565527997","1.895","0.0","0.0","0.0","","","","-9.2380350170003","-0.9306765366564457","0.0","0.0","0.0","0.0","1.15610641189114E-08"
"2","25211.2","","","","6115.52392746306","6055.749522467476","1.895","","","","0.0","0.0","0.0","-14.865427801577745","5.123782500759084","0.0","0.0","0.0","0.0",""
"3","25211.235948065536","25211.23583422345","943","742900","6206.509522173665","5839.348666324022","1.895","0.0","0.0","0.0","","","","17.965234083716067","1.198196477189704","0.0","0.0","0.0","0.0","1.52686372915491E-08"
"2","25211.3","","","","6114.029201949236","6056.264721123943","1.895","","","","0.0","0.0","0.0","-14.876558084353173","5.12761886180358","0.0","0.0","0.0","0.0",""
"3","25211.343720876557","25211.343605499478","277","750929","5560.0","5820.0","1.895","0.0","0.0","0.0","","","","-19.27733690964675","6.515477922765172","0.0","0.0","0.0","0.0","1.84414028397875E-08"
"2","25211.399999999998","","","","6112.531216649536","6056.781043356134","1.895","","","","0.0","0.0","0.0","-14.909001762790809","5.138801476529367","0.0","0.0","0.0","0.0",""
"2","25211.5","","","","6111.036629601452","6057.296194286539","1.895","","","","0.0","0.0","0.0","-14.875179976056849","5.127143858508579","0.0","0.0","0.0","0.0",""
"3","25211.56650902721","25211.56639547879","1405","765350","6209.192503089059","6030.941978718605","1.895","0.0","0.0","0.0","","","","15.60826759528898","-5.796358883262472","0.0","0.0","0.0","0.0","1.33598637152547E-08"
"2","25211.6","","","","6109.537831447235","6057.812796691613","1.895","","","","0.0","0.0","0.0","-14.917091861826393","5.141589953820885","0.0","0.0","0.0","0.0",""
"2","25211.7","","","","6108.035677598194","6058.330555730095","1.895","","","","0.0","0.0","0.0","-14.950490093473386","5.153101581817962","0.0","0.0","0.0","0.0",""
"2","25211.8","","","","6106.670254280741","6059.085874675741","1.895","","","","0.0","0.0","0.0","-14.563572373458328","5.916818279923686","0.0","0.0","0.0","0.0",""
"3","25211.886073182624","25211.885962265544","433","791562","6182.1581604493289","5833.995231569616","1.895","0.0","0.0","0.0","","","","14.81819669120894","1.529189296234879","0.0","0.0","0.0","0.0","1.37959211633018E-08"
"3","25211.88838181549","25211.888265040936","1111","792121","6201.328944918408","5740.835547396818","1.895","0.0","0.0","0.0","","","","12.90447200271652","0.6604604342115371","0.0","0.0","0.0","0.0","8.18540345204385E-09"
"2","25211.899999999998","","","","6105.4038870092949","6060.037578215914","1.895","","","","0.0","0.0","0.0","-13.948655281351672","7.349108696241893","0.0","0.0","0.0","0.0",""
"3","25211.935407721223","25211.935301890364","733","797601","5560.0","5820.0","1.895","0.0","0.0","0.0","","","","5.171744976355307","-1.3584237745905834","0.0","0.0","0.0","0.0","1.06497601156047E-08"
"2","25212.0","","","","6104.138914153011","6060.988233821672","1.895","","","","0.0","0.0","0.0","-13.13982471415906","8.681720625445678","0.0","0.0","0.0","0.0",""
"2","25212.1","","","","6102.872077242615","6061.940290306099","1.895","","","","0.0","0.0","0.0","-12.608450653048859","9.475534778237364","0.0","0.0","0.0","0.0",""
"2","25212.2","","","","6101.6043019977009","6062.89305197006","1.895","","","","0.0","0.0","0.0","-12.617789617175948","9.482553220216234","0.0","0.0","0.0","0.0",""
"2","25212.3","","","","6100.337710775201","6063.844923814496","1.895","","","","0.0","0.0","0.0","-12.606005394552597","9.473697111375055","0.0","0.0","0.0","0.0",""
"3","25212.34372230294","25212.343605499478","277","824620","5560.0","5820.0","1.895","0.0","0.0","0.0","","","","-19.34588916688015","6.538647654178457","0.0","0.0","0.0","0.0","7.42808416625495E-09"
"2","25212.399999999998","","","","6099.073612587695","6064.80441972939","1.895","","","","0.0","0.0","0.0","-12.614246526900843","9.50975747258277","0.0","0.0","0.0","0.0",""
"3","25212.496176928573","25212.496058858418","1579","836264","6302.1178766614589","5734.639602402581","1.895","0.0","0.0","0.0","","","","-14.019897061132577","-0.8423553832306395","0.0","0.0","0.0","0.0","4.42630893538168E-09"
"2","25212.5","","","","6097.868859018863","6065.842272724197","1.895","","","","0.0","0.0","0.0","-12.433652818024788","9.791579248333092","0.0","0.0","0.0","0.0",""
"3","25212.566506754603","25212.56639547879","1405","838969","6224.992858783324","6025.4039120646389","1.895","0.0","0.0","0.0","","","","15.779030845475189","-5.431653945276178","0.0","0.0","0.0","0.0","3.32338838434951E-09"
"2","25212.6","","","","6096.664978126087","6066.879373939152","1.895","","","","0.0","0.0","0.0","-12.215601362890185","10.044257018002979","0.0","0.0","0.0","0.0",""
"2","25212.7","","","","6095.459815283316","6067.917579509119","1.895","","","","0.0","0.0","0.0","-12.013769243279699","10.310688717980688","0.0","0.0","0.0","0.0",""
"2","25212.8","","","","6094.2582464315769","6068.952688981716","1.895","","","","0.0","0.0","0.0","-11.958857094449917","10.302136446017162","0.0","0.0","0.0","0.0",""
"2","25212.899999999998","","","","6093.052841064734","6069.991103477674","1.895","","","","0.0","0.0","0.0","-11.997040787199947","10.335030359676033","0.0","0.0","0.0","0.0",""
"3","25212.93541735474","25212.935301890364","733","870160","5560.0","5820.0","1.895","0.0","0.0","0.0","","","","3.007955617785451","-0.7900773226046912","0.0","0.0","0.0","0.0","1.64296620543793E-08"
"2","25213.0","","","","6092.262356804443","6071.351591639367","1.895","","","","0.0","0.0","0.0","-10.836903378445833","11.50560017878688","0.0","0.0","0.0","0.0",""
"2","25213.1","","","","6091.545414955574","6072.757971174104","1.895","","","","0.0","0.0","0.0","-9.283806665179828","12.674785164179936","0.0","0.0","0.0","0.0",""
"2","25213.2","","","","6090.825077206542","6074.171012231668","1.895","","","","0.0","0.0","0.0","-7.696740741184555","13.781993531286333","0.0","0.0","0.0","0.0",""
"3","25213.235945010092","25213.23583422345","943","889559","6242.526775351577","5841.716101882391","1.895","0.0","0.0","0.0","","","","17.95939551719785","1.1804817914414712","0.0","0.0","0.0","0.0","4.73899257178649E-09"
"2","25213.3","","","","6090.102558302552","6075.588331923128","1.895","","","","0.0","0.0","0.0","-7.191015569644167","14.106160976772529","0.0","0.0","0.0","0.0",""
"3","25213.34371108142","25213.343605499478","277","897824","5560.0","5820.0","1.895","0.0","0.0","0.0","","","","-19.26739303313852","6.512117027633218","0.0","0.0","0.0","0.0","5.71891459375393E-08"
"2","25213.399999999998","","","","6089.383889501592","6076.998099110688","1.895","","","","0.0","0.0","0.0","-7.152696640286885","14.030993153711043","0.0","0.0","0.0","0.0",""
"2","25213.5","","","","6088.6715871913079","6078.417157629092","1.895","","","","0.0","0.0","0.0","-7.14963412935707","14.093500247877567","0.0","0.0","0.0","0.0",""
"3","25213.57997521815","25213.579867018943","1495","914255","5560.0","5820.0","1.895","0.0","0.0","0.0","","","","-1.9280521208705018","15.839051831668197","0.0","0.0","0.0","0.0","2.21003034419788E-09"
"2","25213.6","","","","6087.971699933609","6079.841164493534","1.895","","","","0.0","0.0","0.0","-7.0794171438239499","14.116291607681477","0.0","0.0","0.0","0.0",""
