﻿"type","rcvTime","sendTime","sender","messageID","pos__001","pos__002","pos__003","pos_noise__001","pos_noise__002","pos_noise__003","noise__001","noise__002","noise__003","spd__001","spd__002","spd__003","spd_noise__001","spd_noise__002","spd_noise__003","RSSI"
"2","25200.0","","","","3645.22306039033","5217.913640819015","1.895","","","","0.0","0.0","0.0","4.663054400690875","-29.61834048870818","0.0","0.0","0.0","0.0",""
"3","25200.00947250127","25200.009356701747","85","2081","5560.0","5820.0","1.895","0.0","0.0","0.0","","","","1.3655989754738778","-31.77107820491061","0.0","0.0","0.0","0.0","3.33120031673903E-09"
"3","25200.020217501457","25200.020107550547","91","2452","3597.0658386134566","5626.300132001252","1.895","0.0","0.0","0.0","","","","2.669000478256523","-31.70648608784684","0.0","0.0","0.0","0.0","1.50756372975142E-09"
"3","25200.044131518203","25200.044016361702","961","4645","3631.304770512387","5229.921447980915","1.895","0.0","0.0","0.0","","","","-4.46632323564981","28.6340104815567","0.0","0.0","0.0","0.0","2.59457238364832E-07"
"3","25200.06224864529","25200.062130806735","1285","6154","3462.9758132016706","5192.998364347597","1.895","0.0","0.0","0.0","","","","0.0","0.0","0.0","0.0","0.0","0.0","1.28269567218317E-08"
"3","25200.090349852468","25200.090232982067","601","8010","3820.4325803971785","5264.525077186061","1.895","0.0","0.0","0.0","","","","0.0","0.0","0.0","0.0","0.0","0.0","1.09317897480637E-08"
"2","25200.1","","","","3645.690014950663","5214.947683750479","1.895","","","","0.0","0.0","0.0","4.664417957557642","-29.627001398063258","0.0","0.0","0.0","0.0",""
"3","25200.194169114548","25200.194058087887","1165","9940","5560.0","5820.0","1.895","0.0","0.0","0.0","","","","-12.59837298920509","-2.0527670113417719","0.0","0.0","0.0","0.0","4.30469700251718E-09"
"2","25200.2","","","","3646.1565015769667","5211.984698860312","1.895","","","","0.0","0.0","0.0","4.659743755661572","-29.597312251980566","0.0","0.0","0.0","0.0",""
"3","25200.249910626455","25200.249796275046","109","13575","3600.326908447151","5686.98173751425","1.895","0.0","0.0","0.0","","","","1.2890000102402338","-30.043389760309617","0.0","0.0","0.0","0.0","4.07392300828494E-09"
"3","25200.278442115326","25200.27832530136","991","15110","3949.6601294986796","5253.518454862341","1.895","0.0","0.0","0.0","","","","0.5289466258171445","0.07482800735027172","0.0","0.0","0.0","0.0","1.99877910547072E-09"
"3","25200.287029116516","25200.286915045464","241","15666","3664.857927296655","5210.987235437102","1.895","0.0","0.0","0.0","","","","-11.742397974875586","-3.438024834943841","0.0","0.0","0.0","0.0","3.46019269648262E-07"
"2","25200.3","","","","3646.6235432930609","5209.018188204194","1.895","","","","0.0","0.0","0.0","4.665288558108143","-29.63253119491284","0.0","0.0","0.0","0.0",""
"3","25200.316651341614","25200.316541127395","1315","17657","5560.0","5820.0","1.895","0.0","0.0","0.0","","","","0.778278251030783","-0.02975259322189691","0.0","0.0","0.0","0.0","4.57263237109098E-09"
"3","25200.359555371528","25200.35944446898","73","20696","3596.5660076066917","5589.714634415086","1.895","0.0","0.0","0.0","","","","-2.7066723960245619","33.04133214922501","0.0","0.0","0.0","0.0","7.90932563832258E-09"
"3","25200.37916903757","25200.379056895847","427","21995","3948.8575649946935","5260.065169453358","1.895","0.0","0.0","0.0","","","","0.7909203322174279","0.11178963671647371","0.0","0.0","0.0","0.0","3.24478909729767E-09"
"3","25200.383574255233","25200.383462226015","121","22494","3598.7945662717008","5722.696828947522","1.895","0.0","0.0","0.0","","","","1.299115324480694","-30.279152619776654","0.0","0.0","0.0","0.0","2.77912712016743E-09"
"2","25200.399999999998","","","","3647.0896442723467","5206.057652829665","1.895","","","","0.0","0.0","0.0","4.655891520289","-29.572843993821797","0.0","0.0","0.0","0.0",""
"3","25200.433397255463","25200.433288063854","97","25530","3641.3358425370149","5242.6040973395679","1.895","0.0","0.0","0.0","","","","4.671244270699748","-29.67036011739618","0.0","0.0","0.0","0.0","4.352072465549E-08"
"3","25200.447237522392","25200.447125378527","103","27601","3619.696834022857","5450.483355697797","1.895","0.0","0.0","0.0","","","","3.6747657175940229","-29.662049064108115","0.0","0.0","0.0","0.0","4.44449137948002E-09"
"3","25200.466419525706","25200.466310772812","55","29134","3638.5695697879298","5226.161804524753","1.895","0.0","0.0","0.0","","","","-5.117646979364369","32.80715303000345","0.0","0.0","0.0","0.0","1.76317693794503E-07"
"2","25200.5","","","","3647.555391246762","5203.099365989224","1.895","","","","0.0","0.0","0.0","4.652355358930436","-29.550383344182924","0.0","0.0","0.0","0.0",""
"3","25200.580029643486","25200.57991240034","457","34836","3961.7448245773309","5248.460324742438","1.895","0.0","0.0","0.0","","","","-1.1540843785271878","-0.14602700299736014","0.0","0.0","0.0","0.0","8.02533551236127E-09"
"2","25200.6","","","","3648.02174756857","5200.137208754619","1.895","","","","0.0","0.0","0.0","4.658442141583214","-29.58904478487667","0.0","0.0","0.0","0.0",""
"3","25200.63439148044","25200.634274053155","49","39475","5560.0","5820.0","1.895","0.0","0.0","0.0","","","","-1.5849407317501599","37.921829695627788","0.0","0.0","0.0","0.0","2.78135351998402E-09"
"3","25200.649190811655","25200.64907833445","553","40767","3961.960955711067","5245.156317713098","1.895","0.0","0.0","0.0","","","","-1.5641164554259593","-0.19976487338348754","0.0","0.0","0.0","0.0","1.02573589626253E-08"
"3","25200.6997324539","25200.69962205598","343","43916","5560.0","5820.0","1.895","0.0","0.0","0.0","","","","5.3030531810754379","-33.687226670671368","0.0","0.0","0.0","0.0","0.000001445008590506186"
"2","25200.7","","","","3648.487705111841","5197.177584443174","1.895","","","","0.0","0.0","0.0","4.654458735217439","-29.56374336739755","0.0","0.0","0.0","0.0",""
"3","25200.728666427847","25200.72855873359","1051","45419","3949.8141112817008","5256.86534702144","1.895","0.0","0.0","0.0","","","","1.6258769074390716","0.22982855190504718","0.0","0.0","0.0","0.0","6.85595061805274E-09"
"3","25200.73739436648","25200.73727857764","787","46414","3597.622150361864","5673.105016800781","1.895","0.0","0.0","0.0","","","","1.293853336121748","-30.12913927703657","0.0","0.0","0.0","0.0","1.37197196155194E-09"
"3","25200.789883026766","25200.789769615745","901","49492","3463.9543649352874","5199.5708353754239","1.895","0.0","0.0","0.0","","","","1.7648099217281253","-0.06694688577799828","0.0","0.0","0.0","0.0","2.29591340784599E-09"
"2","25200.8","","","","3648.953212540185","5194.2208191284339","1.895","","","","0.0","0.0","0.0","4.649962528677765","-29.535184795106436","0.0","0.0","0.0","0.0",""
"3","25200.870125522295","25200.870012145257","19","53374","3590.2552953742044","5689.706706317157","1.895","0.0","0.0","0.0","","","","-1.3542004202855645","32.434160401694047","0.0","0.0","0.0","0.0","2.74560981853631E-09"
"2","25200.899999999998","","","","3649.419713490119","5191.257743258807","1.895","","","","0.0","0.0","0.0","4.659886834678586","-29.598221047525607","0.0","0.0","0.0","0.0",""
"3","25200.90454628201","25200.90443975595","1093","57454","5560.0","5820.0","1.895","0.0","0.0","0.0","","","","-2.2014524758129956","-0.4299140353010189","0.0","0.0","0.0","0.0","4.01287083081236E-09"
"3","25200.9224545972","25200.922347980086","523","59249","3643.4890775251794","5271.382129422159","1.895","0.0","0.0","0.0","","","","6.045339003571786","-38.402538756564727","0.0","0.0","0.0","0.0","3.79370420534538E-08"
"3","25200.932781292515","25200.93266553362","829","60493","3813.7495548476606","5264.734124086928","1.895","0.0","0.0","0.0","","","","0.8424417995703613","-0.31823614674231257","0.0","0.0","0.0","0.0","3.23530592565846E-09"
"3","25200.984159605046","25200.984042235417","133","64134","3638.053875648112","5263.450178992346","1.895","0.0","0.0","0.0","","","","4.671113051298453","-29.669526650622616","0.0","0.0","0.0","0.0","8.11451155677552E-09"
"3","25200.998953839728","25200.998847002862","139","65212","5560.0","5820.0","1.895","0.0","0.0","0.0","","","","2.5105825467108038","-29.822511776732765","0.0","0.0","0.0","0.0","1.28543561573171E-09"
"3","25200.999972356407","25200.99985383381","1309","65582","3823.292236492205","5266.507181852166","1.895","0.0","0.0","0.0","","","","1.6454346758045222","-1.2445431448573985","0.0","0.0","0.0","0.0","1.10704154262742E-08"
"2","25201.0","","","","3649.885665603916","5188.298153433772","1.895","","","","0.0","0.0","0.0","4.6544045000999809","-29.56339888199436","0.0","0.0","0.0","0.0",""
"3","25201.02022290728","25201.020107550547","91","67221","3599.737631462839","5594.56047384131","1.895","0.0","0.0","0.0","","","","2.6716196382469414","-31.73760049209288","0.0","0.0","0.0","0.0","2.49057187119841E-09"
"3","25201.044124601118","25201.044016361702","961","69399","3626.8419491159904","5258.533007847826","1.895","0.0","0.0","0.0","","","","-4.457358101648133","28.576534180043116","0.0","0.0","0.0","0.0","2.14279942181734E-08"
"3","25201.062239564282","25201.062130806735","1285","70982","3464.4707491877704","5192.944050651398","1.895","0.0","0.0","0.0","","","","2.642289353727649","-0.0993179247555327","0.0","0.0","0.0","0.0","1.3728611145354E-08"
"2","25201.1","","","","3650.3523901384307","5185.33365742111","1.895","","","","0.0","0.0","0.0","4.66212022529217","-29.61240688323612","0.0","0.0","0.0","0.0",""
"3","25201.19416695055","25201.194058087887","1165","74832","5560.0","5820.0","1.895","0.0","0.0","0.0","","","","-12.650797585413523","-1.7358682757536999","0.0","0.0","0.0","0.0","6.6288389500302E-09"
"2","25201.2","","","","3650.818053841674","5182.375899494493","1.895","","","","0.0","0.0","0.0","4.651523561611633","-29.545100013968669","0.0","0.0","0.0","0.0",""
"3","25201.24991227188","25201.249796275046","109","78579","3601.6130446765139","5657.005095375657","1.895","0.0","0.0","0.0","","","","1.2858013060840768","-29.96883590854243","0.0","0.0","0.0","0.0","1.52751888108877E-09"
"3","25201.278439955393","25201.27832530136","991","80122","3951.388486621929","5253.458507733203","1.895","0.0","0.0","0.0","","","","2.182182763219801","0.16164604116868534","0.0","0.0","0.0","0.0","7.8684576785008E-09"
"3","25201.28702701845","25201.286915045464","241","80670","3652.9719125819776","5208.227442269663","1.895","0.0","0.0","0.0","","","","-12.26003903425691","-1.635068251416341","0.0","0.0","0.0","0.0","3.95177623916781E-07"
