﻿"type","rcvTime","sendTime","sender","messageID","pos__001","pos__002","pos__003","pos_noise__001","pos_noise__002","pos_noise__003","noise__001","noise__002","noise__003","spd__001","spd__002","spd__003","spd_noise__001","spd_noise__002","spd_noise__003","RSSI"
"2","25200.0","","","","3592.8134357030965","5973.635209028112","1.895","","","","0.0","0.0","0.0","2.2267321116203009","29.905127633787399","0.0","0.0","0.0","0.0",""
"3","25200.00947202906","25200.009356701747","85","2081","5560.0","5820.0","1.895","0.0","0.0","0.0","","","","1.3655989754738778","-31.77107820491061","0.0","0.0","0.0","0.0","2.732427371848E-09"
"3","25200.02021728846","25200.020107550547","91","2452","3597.0658386134566","5626.300132001252","1.895","0.0","0.0","0.0","","","","2.669000478256523","-31.70648608784684","0.0","0.0","0.0","0.0","1.03235262727977E-08"
"3","25200.03076728961","25200.030661048833","931","3619","3589.664304586143","5703.861398435702","1.895","0.0","0.0","0.0","","","","-1.3553410332352565","32.46147897502212","0.0","0.0","0.0","0.0","1.85624731939198E-08"
"3","25200.069969290984","25200.069859017385","313","7676","5560.0","5820.0","1.895","0.0","0.0","0.0","","","","-0.019530651153555228","-33.48774273480923","0.0","0.0","0.0","0.0","1.6216742898028E-08"
"2","25200.1","","","","3593.035301547185","5976.614878809864","1.895","","","","0.0","0.0","0.0","2.221324134761166","29.83249822436315","0.0","0.0","0.0","0.0",""
"2","25200.2","","","","3593.2574113163529","5979.597824518066","1.895","","","","0.0","0.0","0.0","2.223766316284006","29.865296848752803","0.0","0.0","0.0","0.0",""
"3","25200.24991001103","25200.249796275046","109","13575","3600.326908447151","5686.98173751425","1.895","0.0","0.0","0.0","","","","1.2890000102402338","-30.043389760309617","0.0","0.0","0.0","0.0","3.72700949354572E-09"
"3","25200.28868333467","25200.288569958415","751","15993","3603.7899373945599","6027.5731919564","1.895","0.0","0.0","0.0","","","","-3.6244542777767245","-31.469848464740108","0.0","0.0","0.0","0.0","3.66180413748636E-08"
"2","25200.3","","","","3593.4797309959628","5982.583589334381","1.895","","","","0.0","0.0","0.0","2.22586794275637","29.89352180116312","0.0","0.0","0.0","0.0",""
"3","25200.3574544037","25200.357346880246","811","19819","3594.782401440911","5739.2324428100569","1.895","0.0","0.0","0.0","","","","1.3893256865301534","-32.3523431458638","0.0","0.0","0.0","0.0","4.41893311473547E-09"
"3","25200.383573401443","25200.383462226015","121","22494","3598.7945662717008","5722.696828947522","1.895","0.0","0.0","0.0","","","","1.299115324480694","-30.279152619776654","0.0","0.0","0.0","0.0","6.66515690109888E-09"
"3","25200.39289440219","25200.392784793163","13","23181","3587.621125049737","5872.473496813367","1.895","0.0","0.0","0.0","","","","-0.029101612366944298","29.99480800781916","0.0","0.0","0.0","0.0","1.03678047035129E-08"
"2","25200.399999999998","","","","3593.7018667780837","5985.566884397889","1.895","","","","0.0","0.0","0.0","2.224026758356544","29.868794599281399","0.0","0.0","0.0","0.0",""
"3","25200.437699402217","25200.437587209977","7","26096","3588.82255477119","5912.4196493720669","1.895","0.0","0.0","0.0","","","","1.2778285862106549","30.0127556771802","0.0","0.0","0.0","0.0","6.11321632131821E-09"
"3","25200.442152402222","25200.44203563034","511","26914","3590.9995362081847","5949.274444827021","1.895","0.0","0.0","0.0","","","","2.2252397678620694","29.88508537980526","0.0","0.0","0.0","0.0","4.33442156138551E-08"
"3","25200.4562646807","25200.45615033596","31","28167","3590.771313271069","6027.30776646186","1.895","0.0","0.0","0.0","","","","3.8688760317551336","36.588911310234028","0.0","0.0","0.0","0.0","2.61436970692118E-07"
"2","25200.5","","","","3593.9239950042485","5988.5500779845219","1.895","","","","0.0","0.0","0.0","2.2239511080161886","29.867778611290715","0.0","0.0","0.0","0.0",""
"3","25200.574435755447","25200.574325255817","127","34279","3603.6176532945298","5989.912085468623","1.895","0.0","0.0","0.0","","","","-2.1153068752237038","-31.882766248469055","0.0","0.0","0.0","0.0","0.0000029760651292038647"
"3","25200.582126200865","25200.58201979124","25","35128","3597.6221646349747","6060.718167578049","1.895","0.0","0.0","0.0","","","","3.7912342496123165","35.87827182115704","0.0","0.0","0.0","0.0","2.35825967636441E-09"
"3","25200.59219752302","25200.592080666684","565","35977","3592.4108390240846","5640.43828515152","1.895","0.0","0.0","0.0","","","","-2.656804111051523","32.4325718980727","0.0","0.0","0.0","0.0","2.01342150248333E-09"
"2","25200.6","","","","3594.1466369341098","5991.540170638406","1.895","","","","0.0","0.0","0.0","2.2290943170684227","29.936852175349747","0.0","0.0","0.0","0.0",""
"3","25200.621246524835","25200.621140327534","1207","38516","3581.7056631763878","5736.289516238321","1.895","0.0","0.0","0.0","","","","-1.398559006099595","33.42836359342893","0.0","0.0","0.0","0.0","3.57453679482652E-09"
"3","25200.630938791597","25200.630831810413","1039","39109","5560.0","5820.0","1.895","0.0","0.0","0.0","","","","-1.3937861645515748","33.31428311353671","0.0","0.0","0.0","0.0","4.29002671026346E-09"
"3","25200.63439080959","25200.634274053155","49","39475","5560.0","5820.0","1.895","0.0","0.0","0.0","","","","-1.5849407317501599","37.921829695627788","0.0","0.0","0.0","0.0","2.23657083665068E-09"
"3","25200.644108874647","25200.64399019652","115","40089","3593.767336672087","5686.009514159608","1.895","0.0","0.0","0.0","","","","1.3700958355344293","-31.875699030843504","0.0","0.0","0.0","0.0","1.42645094425766E-08"
"3","25200.670752877628","25200.6706378737","43","41936","3584.7585057373328","5742.259323664141","1.895","0.0","0.0","0.0","","","","-1.5657704164638822","37.463154227873889","0.0","0.0","0.0","0.0","1.22249333818936E-08"
"2","25200.7","","","","3594.368825434922","5994.524173716681","1.895","","","","0.0","0.0","0.0","2.2245545786868115","29.87588325366509","0.0","0.0","0.0","0.0",""
"3","25200.722161897895","25200.722055605147","151","44728","3595.312259744827","5964.529421653061","1.895","0.0","0.0","0.0","","","","-1.9879277673411314","-29.94679490449674","0.0","0.0","0.0","0.0","4.72492188246292E-07"
"3","25200.737393842108","25200.73727857764","787","46414","3597.622150361864","5673.105016800781","1.895","0.0","0.0","0.0","","","","1.293853336121748","-30.12913927703657","0.0","0.0","0.0","0.0","6.82030943747134E-09"
"2","25200.8","","","","3594.5912650037105","5997.511548650868","1.895","","","","0.0","0.0","0.0","2.2270682749905417","29.909642325267524","0.0","0.0","0.0","0.0",""
"3","25200.85889587576","25200.858777468093","703","51797","3584.367637500103","5824.541400855502","1.895","0.0","0.0","0.0","","","","-0.0322476363983411","33.27211900001629","0.0","0.0","0.0","0.0","1.68599341196851E-08"
"3","25200.860658234644","25200.86055117147","295","52120","5560.0","5820.0","1.895","0.0","0.0","0.0","","","","-0.031140702419763308","32.096482439935247","0.0","0.0","0.0","0.0","3.26722902351041E-09"
"3","25200.865046235256","25200.864933292847","145","52741","5560.0","5820.0","1.895","0.0","0.0","0.0","","","","-2.059919145624484","-31.039601969725678","0.0","0.0","0.0","0.0","9.17747263983067E-08"
"3","25200.870124884805","25200.870012145257","19","53374","3590.2552953742044","5689.706706317157","1.895","0.0","0.0","0.0","","","","-1.3542004202855645","32.434160401694047","0.0","0.0","0.0","0.0","1.60963207103894E-09"
"3","25200.89163388482","25200.891522682505","421","56179","3592.8612629479569","5925.618957115369","1.895","0.0","0.0","0.0","","","","-1.1692409025022579","-29.928691167353504","0.0","0.0","0.0","0.0","6.16064167818234E-09"
"2","25200.899999999998","","","","3594.812759604572","6000.486232616845","1.895","","","","0.0","0.0","0.0","2.217607242043408","29.782580162578538","0.0","0.0","0.0","0.0",""
"3","25200.94032588488","25200.94020969351","439","61685","3590.592244795379","5988.261105736814","1.895","0.0","0.0","0.0","","","","2.749797086193053","36.98215873952313","0.0","0.0","0.0","0.0","1.91648728231439E-07"
"3","25200.949680130758","25200.9495710514","61","62597","5560.0","5820.0","1.895","0.0","0.0","0.0","","","","3.13803359653435","29.716356090753828","0.0","0.0","0.0","0.0","6.88777968028453E-08"
"3","25200.98255188988","25200.982444882393","1231","63811","3591.341468594417","5886.717259657097","1.895","0.0","0.0","0.0","","","","-1.166619903150921","-29.861602272354945","0.0","0.0","0.0","0.0","8.17250968374897E-09"
"3","25200.99895362355","25200.998847002862","139","65212","5560.0","5820.0","1.895","0.0","0.0","0.0","","","","2.5105825467108038","-29.822511776732765","0.0","0.0","0.0","0.0","6.43786170994406E-09"
"2","25201.0","","","","3595.034444688385","6003.463474778728","1.895","","","","0.0","0.0","0.0","2.2195143601880944","29.808192858076088","0.0","0.0","0.0","0.0",""
"3","25201.009464646784","25201.009356701747","85","66859","5560.0","5820.0","1.895","0.0","0.0","0.0","","","","2.67295790018012","-31.7534984223266","0.0","0.0","0.0","0.0","8.87957069777617E-09"
"3","25201.020222905892","25201.020107550547","91","67221","3599.737631462839","5594.56047384131","1.895","0.0","0.0","0.0","","","","2.6716196382469414","-31.73760049209288","0.0","0.0","0.0","0.0","6.21243563851722E-09"
"3","25201.03077864813","25201.030661048833","931","68379","3588.3159765517668","5736.154910596842","1.895","0.0","0.0","0.0","","","","-1.35049537123068","32.345421575793348","0.0","0.0","0.0","0.0","2.43890017763069E-09"
"3","25201.069964842223","25201.069859017385","313","72499","5560.0","5820.0","1.895","0.0","0.0","0.0","","","","-0.019327055525180795","-33.138652580500998","0.0","0.0","0.0","0.0","1.32546660877082E-09"
"2","25201.1","","","","3595.257062871515","6006.453248512784","1.895","","","","0.0","0.0","0.0","2.2288565644439606","29.93365914528443","0.0","0.0","0.0","0.0",""
"2","25201.2","","","","3595.5248730659116","6009.436607362197","1.895","","","","0.0","0.0","0.0","2.5301157943370957","29.8862094269579","0.0","0.0","0.0","0.0",""
"3","25201.249911855964","25201.249796275046","109","78579","3601.6130446765139","5657.005095375657","1.895","0.0","0.0","0.0","","","","1.2858013060840768","-29.96883590854243","0.0","0.0","0.0","0.0","2.70822016168587E-09"
"3","25201.288684859086","25201.288569958415","751","80993","3600.7266310142706","5996.2286489747989","1.895","0.0","0.0","0.0","","","","-2.0776215332067289","-31.306347907567664","0.0","0.0","0.0","0.0","6.66657922762211E-07"
"2","25201.3","","","","3595.839825573789","6012.419125103912","1.895","","","","0.0","0.0","0.0","3.149054545233759","29.861461024893417","0.0","0.0","0.0","0.0",""
"3","25201.359551348254","25201.35944446898","73","85722","3593.876701967626","5622.543964259961","1.895","0.0","0.0","0.0","","","","-2.6862378935205077","32.791880761739758","0.0","0.0","0.0","0.0","3.44754016484375E-09"
"3","25201.38356934925","25201.383462226015","121","87519","3600.0892223148418","5692.521611103742","1.895","0.0","0.0","0.0","","","","1.29731443516246","-30.237178361230354","0.0","0.0","0.0","0.0","7.34858090374232E-09"
"3","25201.392897351085","25201.392784793163","13","88199","3588.3958101976875","5902.3965674350179","1.895","0.0","0.0","0.0","","","","1.2697178899187947","29.8222572419016","0.0","0.0","0.0","0.0","2.53302772829963E-08"
"2","25201.399999999998","","","","3596.1533743700058","6015.388350063933","1.895","","","","0.0","0.0","0.0","3.1392552166937475","29.727924513656896","0.0","0.0","0.0","0.0",""
"3","25201.437702351068","25201.437587209977","7","91142","3590.4800990088749","5942.298376326446","1.895","0.0","0.0","0.0","","","","2.22868392727733","29.9313406192061","0.0","0.0","0.0","0.0","4.37588340871541E-09"
"3","25201.44214235107","25201.44203563034","511","91989","3593.221910340235","5979.121044569375","1.895","0.0","0.0","0.0","","","","2.233633942873614","29.997819585141735","0.0","0.0","0.0","0.0","5.35565471449474E-08"
"3","25201.456267674705","25201.45615033596","31","93242","3594.6449205536466","6063.941422373684","1.895","0.0","0.0","0.0","","","","3.8719540016497575","36.61802042785287","0.0","0.0","0.0","0.0","3.58154201121422E-08"
"2","25201.5","","","","3596.466778195849","6018.356202192491","1.895","","","","0.0","0.0","0.0","3.1378037711544435","29.714179704605024","0.0","0.0","0.0","0.0",""
"3","25201.574439057753","25201.574325255817","127","98982","3601.507953955567","5958.11383828919","1.895","0.0","0.0","0.0","","","","-2.1103587122271447","-31.808185521659884","0.0","0.0","0.0","0.0","1.71465269047833E-07"
"3","25201.592192960652","25201.592080666684","565","100327","3590.957399326057","5672.890766924467","1.895","0.0","0.0","0.0","","","","-1.3589127921504097","32.547025397720599","0.0","0.0","0.0","0.0","1.55938969712471E-09"
"2","25201.6","","","","3596.780802323145","6021.32992841331","1.895","","","","0.0","0.0","0.0","3.144014238536546","29.772991203790668","0.0","0.0","0.0","0.0",""
"3","25201.62125496259","25201.621140327534","1207","102824","3581.1207167364375","5769.726644604248","1.895","0.0","0.0","0.0","","","","-0.03240893358009442","33.473442399903408","0.0","0.0","0.0","0.0","6.88283210605517E-09"
"3","25201.63094723042","25201.630831810413","1039","103412","5560.0","5820.0","1.895","0.0","0.0","0.0","","","","-1.3873949795566434","33.16152098131922","0.0","0.0","0.0","0.0","2.47250655277884E-09"
"3","25201.634386235153","25201.634274053155","49","103767","5560.0","5820.0","1.895","0.0","0.0","0.0","","","","-1.5497550145914594","37.079964288787987","0.0","0.0","0.0","0.0","6.12130853948239E-09"
"3","25201.644104755975","25201.64399019652","115","104371","3595.1365395676209","5654.15458965128","1.895","0.0","0.0","0.0","","","","1.365399060108528","-31.76642711269672","0.0","0.0","0.0","0.0","1.61129319340992E-09"
"3","25201.670748758548","25201.6706378737","43","106221","3584.411486061371","5779.299804525731","1.895","0.0","0.0","0.0","","","","-0.03558409100768428","36.7145702057093","0.0","0.0","0.0","0.0","2.56432979410365E-08"
"2","25201.7","","","","3597.0955362188749","6024.310375955255","1.895","","","","0.0","0.0","0.0","3.1511204506598928","29.84028517098948","0.0","0.0","0.0","0.0",""
"3","25201.722170778554","25201.722055605147","151","108934","3593.3280958044308","5934.639326270249","1.895","0.0","0.0","0.0","","","","-1.9840987681915093","-29.88911360740498","0.0","0.0","0.0","0.0","7.58900410815033E-08"
"3","25201.737389724236","25201.73727857764","787","110630","3598.969523243027","5642.979003858973","1.895","0.0","0.0","0.0","","","","1.6520718599213145","-30.099714048107374","0.0","0.0","0.0","0.0","3.37239535191671E-09"
"3","25201.7510079423","25201.75089203054","1345","111471","3607.086412852412","6056.195316882182","1.895","0.0","0.0","0.0","","","","-3.911022201494138","-33.958015908202657","0.0","0.0","0.0","0.0","2.87244984175613E-07"
"2","25201.8","","","","3597.410348766362","6027.291568308741","1.895","","","","0.0","0.0","0.0","3.1519079132295557","29.847742235233186","0.0","0.0","0.0","0.0",""
"3","25201.85889007635","25201.858777468093","703","116356","3584.3356176036315","5857.578544807012","1.895","0.0","0.0","0.0","","","","-0.03182304746630892","32.83404120423119","0.0","0.0","0.0","0.0","2.00484747059675E-09"
"3","25201.860665441687","25201.86055117147","295","116694","5560.0","5820.0","1.895","0.0","0.0","0.0","","","","-0.031083667045839947","32.03769651876654","0.0","0.0","0.0","0.0","4.03582329526291E-09"
"3","25201.865040442","25201.864933292847","145","117300","5560.0","5820.0","1.895","0.0","0.0","0.0","","","","-1.2164077403043423","-31.068801013443389","0.0","0.0","0.0","0.0","1.14668903382434E-08"
"3","25201.870118668656","25201.870012145257","19","117919","3588.9039098865889","5722.073446877363","1.895","0.0","0.0","0.0","","","","-1.3509469854123726","32.35623808905535","0.0","0.0","0.0","0.0","1.9199044715426E-08"
"3","25201.891640668753","25201.891522682505","421","120706","3591.6911982759318","5895.669180178948","1.895","0.0","0.0","0.0","","","","-1.1718992095565642","-29.996735015876138","0.0","0.0","0.0","0.0","6.17289453352049E-09"
"2","25201.899999999998","","","","3597.7242440383126","6030.26407430319","1.895","","","","0.0","0.0","0.0","3.1427241368974188","29.760774279206279","0.0","0.0","0.0","0.0",""
"3","25201.90271069804","25201.90259847138","37","121643","3581.7313926425465","5900.940287339112","1.895","0.0","0.0","0.0","","","","1.6704461571822507","39.041432548019269","0.0","0.0","0.0","0.0","7.11127375882146E-09"
"3","25201.940326701064","25201.94020969351","439","126258","3593.8684739590978","6025.195188639074","1.895","0.0","0.0","0.0","","","","3.8962955288098506","36.872517200086367","0.0","0.0","0.0","0.0","9.88136158858728E-07"
"3","25201.94968094517","25201.9495710514","61","127221","5560.0","5820.0","1.895","0.0","0.0","0.0","","","","3.147025037509746","29.80150268130944","0.0","0.0","0.0","0.0","4.34068650938214E-08"
"3","25201.982553103393","25201.982444882393","1231","128436","3591.224063021732","5856.738279213084","1.895","0.0","0.0","0.0","","","","-0.017419724759385824","-29.929264603139769","0.0","0.0","0.0","0.0","2.72704738923453E-09"
"2","25202.0","","","","3598.03824105712","6033.237543813725","1.895","","","","0.0","0.0","0.0","3.143742827946823","29.770421016607235","0.0","0.0","0.0","0.0",""
"3","25202.030767614906","25202.030661048833","931","132764","3587.7220570780825","5768.443631598203","1.895","0.0","0.0","0.0","","","","-0.03129444809386684","32.25494692357349","0.0","0.0","0.0","0.0","4.54577849763909E-09"
"3","25202.06997145629","25202.069859017385","313","136778","5560.0","5820.0","1.895","0.0","0.0","0.0","","","","1.4081985328303653","-32.82161136200857","0.0","0.0","0.0","0.0","4.34987144280948E-09"
"2","25202.1","","","","3598.351868197663","6036.207510673988","1.895","","","","0.0","0.0","0.0","3.1400396012495088","29.7353524299153","0.0","0.0","0.0","0.0",""
"2","25202.2","","","","3598.6657421481529","6039.17981475979","1.895","","","","0.0","0.0","0.0","3.1425106661130246","29.75875276682971","0.0","0.0","0.0","0.0",""
"3","25202.249907590933","25202.249796275046","109","143246","3603.6167221363609","5627.068410903576","1.895","0.0","0.0","0.0","","","","2.5217064858452287","-29.95259506154209","0.0","0.0","0.0","0.0","1.55665792588926E-09"
"3","25202.288680590955","25202.288569958415","751","145385","3598.653741924521","5964.9936112259379","1.895","0.0","0.0","0.0","","","","-2.0672885959670777","-31.150647495841427","0.0","0.0","0.0","0.0","4.7384312810022E-09"
"2","25202.3","","","","3598.9792425346656","6042.148581292593","1.895","","","","0.0","0.0","0.0","3.1387705380134287","29.723334733525208","0.0","0.0","0.0","0.0",""
"3","25202.357459524483","25202.357346880246","811","149248","3597.5383032671536","5675.057510738058","1.895","0.0","0.0","0.0","","","","1.3695851149638887","-31.89265701805124","0.0","0.0","0.0","0.0","2.91967958332231E-09"
"3","25202.38357767563","25202.383462226015","121","151997","3601.3838119634485","5662.347940751708","1.895","0.0","0.0","0.0","","","","1.2943109029871296","-30.16717348374066","0.0","0.0","0.0","0.0","2.51201011774714E-09"
"3","25202.39289267774","25202.392784793163","13","152682","3589.7357009880186","5932.3010723365009","1.895","0.0","0.0","0.0","","","","1.6093350265548899","29.95855949309632","0.0","0.0","0.0","0.0","8.94549887483762E-09"
"2","25202.399999999998","","","","3599.2940164148828","6045.129407477162","1.895","","","","0.0","0.0","0.0","3.1515207759461827","29.844076146577718","0.0","0.0","0.0","0.0",""
"3","25202.437697677764","25202.437587209977","7","155702","3592.700818198117","5972.122750101139","1.895","0.0","0.0","0.0","","","","2.224378809081377","29.8735226587713","0.0","0.0","0.0","0.0","1.70890814432832E-08"
"3","25202.44215067779","25202.44203563034","511","156500","3595.473123892586","6008.946556247498","1.895","0.0","0.0","0.0","","","","2.404205450040687","29.84021651619918","0.0","0.0","0.0","0.0","4.27011625504689E-09"
"2","25202.5","","","","3599.6082473973758","6048.105092562502","1.895","","","","0.0","0.0","0.0","3.146085275848459","29.792603384551368","0.0","0.0","0.0","0.0",""
"3","25202.57444046921","25202.574325255817","127","163266","3599.504549055268","5926.403009900276","1.895","0.0","0.0","0.0","","","","-1.465358793425792","-31.71596776087846","0.0","0.0","0.0","0.0","9.62781087480838E-09"
"2","25202.6","","","","3599.9222721100006","6051.07882432623","1.895","","","","0.0","0.0","0.0","3.1440200988558439","29.773046699472994","0.0","0.0","0.0","0.0",""
"3","25202.62125731828","25202.621140327534","1207","167155","3581.0883276458237","5803.179592271483","1.895","0.0","0.0","0.0","","","","-0.03230373254942039","33.36478591998639","0.0","0.0","0.0","0.0","2.31421396315891E-09"
"3","25202.630949587325","25202.630831810413","1039","167744","5560.0","5820.0","1.895","0.0","0.0","0.0","","","","-0.032190944436835729","33.248293150829457","0.0","0.0","0.0","0.0","3.19379938578566E-09"
"3","25202.634388589504","25202.634274053155","49","168094","5560.0","5820.0","1.895","0.0","0.0","0.0","","","","-0.03541698282309765","36.54215312648166","0.0","0.0","0.0","0.0","4.69629048091987E-09"
"3","25202.64410756733","25202.64399019652","115","168696","3597.399626411952","5622.334887979937","1.895","0.0","0.0","0.0","","","","2.6782515049690258","-31.816383988609059","0.0","0.0","0.0","0.0","5.13608920220205E-09"
"3","25202.670751570477","25202.6706378737","43","170537","3584.3763032905164","5815.600304946408","1.895","0.0","0.0","0.0","","","","-0.034829723236955458","35.93623675120664","0.0","0.0","0.0","0.0","5.53123750956693E-09"
"3","25202.682120681966","25202.682014642094","1369","172054","3611.451891651705","6065.268578546891","1.895","0.0","0.0","0.0","","","","-3.912493868641075","-33.99140989353644","0.0","0.0","0.0","0.0","0.00000106070673008453"
"2","25202.7","","","","3600.235554198121","6054.045523630445","1.895","","","","0.0","0.0","0.0","3.136584931261566","29.702637610118104","0.0","0.0","0.0","0.0",""
"3","25202.722168649474","25202.722055605147","151","173600","3592.0438443851078","5904.695751581234","1.895","0.0","0.0","0.0","","","","-1.16624026648122","-29.851884832074697","0.0","0.0","0.0","0.0","1.89318462175619E-09"
"3","25202.751009650936","25202.75089203054","1345","176135","3603.18236047136","6022.297817448022","1.895","0.0","0.0","0.0","","","","-3.898198371519858","-33.846671149735119","0.0","0.0","0.0","0.0","4.85985448072295E-07"
"2","25202.8","","","","3600.549409957603","6057.017655452173","1.895","","","","0.0","0.0","0.0","3.1423285374755656","29.757028056345079","0.0","0.0","0.0","0.0",""
"3","25202.85889259908","25202.858777468093","703","181775","3584.5760359402786","5890.24303397451","1.895","0.0","0.0","0.0","","","","1.3868221708167655","32.49226288097305","0.0","0.0","0.0","0.0","1.6206950194346E-09"
"3","25202.860667968383","25202.86055117147","295","182115","5560.0","5820.0","1.895","0.0","0.0","0.0","","","","-0.031084237627347468","32.03828461273724","0.0","0.0","0.0","0.0","8.23518377643569E-09"
"3","25202.865042969428","25202.864933292847","145","182696","5560.0","5820.0","1.895","0.0","0.0","0.0","","","","-0.018132732954242827","-31.122569525375796","0.0","0.0","0.0","0.0","1.29593538756226E-08"
"3","25202.870120773594","25202.870012145257","19","183323","3587.7357069850306","5754.374777506032","1.895","0.0","0.0","0.0","","","","-0.05185652857127479","32.34568917157011","0.0","0.0","0.0","0.0","2.5711679077481E-09"
"2","25202.899999999998","","","","3600.8638611234634","6059.995425616323","1.895","","","","0.0","0.0","0.0","3.1482897549989299","29.81347922463547","0.0","0.0","0.0","0.0",""
"3","25202.94031579327","25202.94020969351","439","192106","3597.765038048945","6062.070247361297","1.895","0.0","0.0","0.0","","","","3.890732794861342","36.81987437516961","0.0","0.0","0.0","0.0","0.0000012465515785855897"
"3","25202.99896109032","25202.998847002862","139","195460","5560.0","5820.0","1.895","0.0","0.0","0.0","","","","2.5150167254740065","-29.87518415293445","0.0","0.0","0.0","0.0","2.8985549652078E-09"
"2","25203.0","","","","3601.177907256178","6062.969360222689","1.895","","","","0.0","0.0","0.0","3.1442345571131105","29.77507756299403","0.0","0.0","0.0","0.0",""
"3","25203.020218059042","25203.020107550547","91","197260","3605.0762307687125","5531.140393553103","1.895","0.0","0.0","0.0","","","","2.67088710662203","-31.728898356641204","0.0","0.0","0.0","0.0","1.91453363353197E-09"
"3","25203.03076806202","25203.030661048833","931","198402","3587.6907462853307","5800.7154248352539","1.895","0.0","0.0","0.0","","","","-0.03134491153534172","32.30695920452092","0.0","0.0","0.0","0.0","2.10891016650614E-08"
"2","25203.1","","","","3601.4918371329438","6065.942193915674","1.895","","","","0.0","0.0","0.0","3.1430706008207967","29.764055201826616","0.0","0.0","0.0","0.0",""
"2","25203.2","","","","3601.8053688261118","6068.911256914298","1.895","","","","0.0","0.0","0.0","3.1390839807118025","29.726302953737624","0.0","0.0","0.0","0.0",""
"3","25203.288688199696","25203.288569958415","751","211304","3596.5913663730159","5933.916995249645","1.895","0.0","0.0","0.0","","","","-2.0614777418524015","-31.063087457765876","0.0","0.0","0.0","0.0","1.47525194610234E-09"
"2","25203.3","","","","3602.120390280255","6071.89442755909","1.895","","","","0.0","0.0","0.0","3.1539994897841394","29.86754891724733","0.0","0.0","0.0","0.0",""
"3","25203.357454137436","25203.357346880246","811","215101","3598.9401698121216","5643.327685100311","1.895","0.0","0.0","0.0","","","","1.6345713852497473","-31.626261112865416","0.0","0.0","0.0","0.0","1.70898246423252E-09"
"3","25203.359554140745","25203.35944446898","73","216003","3590.325430116416","5688.026924325845","1.895","0.0","0.0","0.0","","","","-1.3667127176784569","32.73383972144058","0.0","0.0","0.0","0.0","2.96743693856662E-09"
"3","25203.383572517356","25203.383462226015","121","217822","3603.1833972900788","5632.215403118429","1.895","0.0","0.0","0.0","","","","2.545495692277233","-30.23516104255943","0.0","0.0","0.0","0.0","2.25139337148013E-09"
"3","25203.392900519557","25203.392784793163","13","218510","3591.9562576271416","5962.1232630546669","1.895","0.0","0.0","0.0","","","","2.228800156410338","29.9329015824499","0.0","0.0","0.0","0.0","3.04772488671679E-08"
"2","25203.399999999998","","","","3602.434656010148","6074.8704416932109","1.895","","","","0.0","0.0","0.0","3.1464331673358338","29.79589782583488","0.0","0.0","0.0","0.0",""
"3","25203.437692519583","25203.437587209977","7","221221","3594.9205432559667","6001.933772639722","1.895","0.0","0.0","0.0","","","","2.2263741529779086","29.900320230687428","0.0","0.0","0.0","0.0","7.34986211436368E-09"
"3","25203.442145519584","25203.44203563034","511","222012","3598.6125059486469","6038.675681896718","1.895","0.0","0.0","0.0","","","","3.149805337147385","29.82783139053694","0.0","0.0","0.0","0.0","3.63160537997156E-08"
"2","25203.5","","","","3602.7489185878328","6077.846425976739","1.895","","","","0.0","0.0","0.0","3.146401607376594","29.795598961259736","0.0","0.0","0.0","0.0",""
"3","25203.57443572092","25203.574325255817","127","228695","3598.2626401979885","5894.751487476903","1.895","0.0","0.0","0.0","","","","-1.2426139807139647","-31.66949333168083","0.0","0.0","0.0","0.0","1.2520334842159E-08"
