﻿"type","rcvTime","sendTime","sender","messageID","pos__001","pos__002","pos__003","pos_noise__001","pos_noise__002","pos_noise__003","noise__001","noise__002","noise__003","spd__001","spd__002","spd__003","spd_noise__001","spd_noise__002","spd_noise__003","RSSI"
"2","25200.0","","","","3587.94226352633","5745.105630172515","1.895","","","","0.0","0.0","0.0","-1.33614300807163","32.00167124033511","0.0","0.0","0.0","0.0",""
"3","25200.00947126769","25200.009356701747","85","2081","5560.0","5820.0","1.895","0.0","0.0","0.0","","","","1.3655989754738778","-31.77107820491061","0.0","0.0","0.0","0.0","2.22974494227377E-08"
"3","25200.020216527246","25200.020107550547","91","2452","3597.0658386134566","5626.300132001252","1.895","0.0","0.0","0.0","","","","2.669000478256523","-31.70648608784684","0.0","0.0","0.0","0.0","1.12739765525555E-08"
"3","25200.030766527376","25200.030661048833","931","3619","3589.664304586143","5703.861398435702","1.895","0.0","0.0","0.0","","","","-1.3553410332352565","32.46147897502212","0.0","0.0","0.0","0.0","4.78916819951955E-07"
"3","25200.062249919934","25200.062130806735","1285","6154","3462.9758132016706","5192.998364347597","1.895","0.0","0.0","0.0","","","","0.0","0.0","0.0","0.0","0.0","0.0","1.64702594390799E-09"
"3","25200.06996886395","25200.069859017385","313","7676","5560.0","5820.0","1.895","0.0","0.0","0.0","","","","-0.019530651153555228","-33.48774273480923","0.0","0.0","0.0","0.0","9.31014879687751E-08"
"3","25200.09035102848","25200.090232982067","601","8010","3820.4325803971785","5264.525077186061","1.895","0.0","0.0","0.0","","","","0.0","0.0","0.0","0.0","0.0","0.0","1.89851512276393E-09"
"2","25200.1","","","","3587.808846830522","5748.301064502091","1.895","","","","0.0","0.0","0.0","-1.3357699451032508","31.99273609006371","0.0","0.0","0.0","0.0",""
"2","25200.2","","","","3587.738499405943","5751.496650751949","1.895","","","","0.0","0.0","0.0","-0.8866392897989635","31.99636566571328","0.0","0.0","0.0","0.0",""
"3","25200.249909253936","25200.249796275046","109","13575","3600.326908447151","5686.98173751425","1.895","0.0","0.0","0.0","","","","1.2890000102402338","-30.043389760309617","0.0","0.0","0.0","0.0","1.22018337292979E-08"
"3","25200.288684093277","25200.288569958415","751","15993","3603.7899373945599","6027.5731919564","1.895","0.0","0.0","0.0","","","","-3.6244542777767245","-31.469848464740108","0.0","0.0","0.0","0.0","2.11051452516603E-08"
"2","25200.3","","","","3587.735394896814","5754.696444430145","1.895","","","","0.0","0.0","0.0","-0.03108239162599923","32.03638195334764","0.0","0.0","0.0","0.0",""
"3","25200.357453648645","25200.357346880246","811","19819","3594.782401440911","5739.2324428100569","1.895","0.0","0.0","0.0","","","","1.3893256865301534","-32.3523431458638","0.0","0.0","0.0","0.0","1.95234173823969E-07"
"3","25200.383572647308","25200.383462226015","121","22494","3598.7945662717008","5722.696828947522","1.895","0.0","0.0","0.0","","","","1.299115324480694","-30.279152619776654","0.0","0.0","0.0","0.0","2.38003482012281E-07"
"3","25200.39289442725","25200.392784793163","13","23181","3587.621125049737","5872.473496813367","1.895","0.0","0.0","0.0","","","","-0.029101612366944298","29.99480800781916","0.0","0.0","0.0","0.0","9.97646883303385E-09"
"2","25200.399999999998","","","","3587.7322915431507","5757.895047179162","1.895","","","","0.0","0.0","0.0","-0.0310708230904045","32.024458352698989","0.0","0.0","0.0","0.0",""
"3","25200.442152919295","25200.44203563034","511","26914","3590.9995362081847","5949.274444827021","1.895","0.0","0.0","0.0","","","","2.2252397678620694","29.88508537980526","0.0","0.0","0.0","0.0","6.1656111983821E-09"
"3","25200.447237732915","25200.447125378527","103","27601","3619.696834022857","5450.483355697797","1.895","0.0","0.0","0.0","","","","3.6747657175940229","-29.662049064108115","0.0","0.0","0.0","0.0","9.55695447194858E-09"
"3","25200.456265439843","25200.45615033596","31","28167","3590.771313271069","6027.30776646186","1.895","0.0","0.0","0.0","","","","3.8688760317551336","36.588911310234028","0.0","0.0","0.0","0.0","2.24171625813822E-09"
"3","25200.46876544039","25200.468651198316","67","29475","3593.7018667780837","5985.566884397889","1.895","0.0","0.0","0.0","","","","2.224026758356544","29.868794599281399","0.0","0.0","0.0","0.0","1.92578377429841E-08"
"2","25200.5","","","","3587.7291875713779","5761.094287008873","1.895","","","","0.0","0.0","0.0","-0.031077011611777767","32.03083681407435","0.0","0.0","0.0","0.0",""
"3","25200.57443648789","25200.574325255817","127","34279","3603.6176532945298","5989.912085468623","1.895","0.0","0.0","0.0","","","","-2.1153068752237038","-31.882766248469055","0.0","0.0","0.0","0.0","1.43974339337526E-08"
"3","25200.582126959802","25200.58201979124","25","35128","3597.6221646349747","6060.718167578049","1.895","0.0","0.0","0.0","","","","3.7912342496123165","35.87827182115704","0.0","0.0","0.0","0.0","2.93839971809081E-09"
"3","25200.5921967646","25200.592080666684","565","35977","3592.4108390240846","5640.43828515152","1.895","0.0","0.0","0.0","","","","-2.656804111051523","32.4325718980727","0.0","0.0","0.0","0.0","4.5154545400933E-09"
"2","25200.6","","","","3587.726085900816","5764.291154997332","1.895","","","","0.0","0.0","0.0","-0.031053971845448309","32.00708990414773","0.0","0.0","0.0","0.0",""
"3","25200.62124576794","25200.621140327534","1207","38516","3581.7056631763878","5736.289516238321","1.895","0.0","0.0","0.0","","","","-1.398559006099595","33.42836359342893","0.0","0.0","0.0","0.0","2.9642043840702E-07"
"3","25200.630938033384","25200.630831810413","1039","39109","5560.0","5820.0","1.895","0.0","0.0","0.0","","","","-1.3937861645515748","33.31428311353671","0.0","0.0","0.0","0.0","9.44334605072174E-09"
"3","25200.634390051287","25200.634274053155","49","39475","5560.0","5820.0","1.895","0.0","0.0","0.0","","","","-1.5849407317501599","37.921829695627788","0.0","0.0","0.0","0.0","2.19495010560906E-08"
"3","25200.644108117405","25200.64399019652","115","40089","3593.767336672087","5686.009514159608","1.895","0.0","0.0","0.0","","","","1.3700958355344293","-31.875699030843504","0.0","0.0","0.0","0.0","7.68001929539666E-08"
"3","25200.67075211968","25200.6706378737","43","41936","3584.7585057373328","5742.259323664141","1.895","0.0","0.0","0.0","","","","-1.5657704164638822","37.463154227873889","0.0","0.0","0.0","0.0","5.99817933893616E-07"
"2","25200.7","","","","3587.722978703166","5767.493719713718","1.895","","","","0.0","0.0","0.0","-0.031109309140971716","32.06412562897176","0.0","0.0","0.0","0.0",""
"3","25200.722162455524","25200.722055605147","151","44728","3595.312259744827","5964.529421653061","1.895","0.0","0.0","0.0","","","","-1.9879277673411314","-29.94679490449674","0.0","0.0","0.0","0.0","2.1582867721439E-08"
"3","25200.73739308649","25200.73727857764","787","46414","3597.622150361864","5673.105016800781","1.895","0.0","0.0","0.0","","","","1.293853336121748","-30.12913927703657","0.0","0.0","0.0","0.0","3.53856031939541E-08"
"3","25200.789884350026","25200.789769615745","901","49492","3463.9543649352874","5199.5708353754239","1.895","0.0","0.0","0.0","","","","1.7648099217281253","-0.06694688577799828","0.0","0.0","0.0","0.0","1.33575274303618E-09"
"2","25200.8","","","","3587.7198683699559","5770.699516228229","1.895","","","","0.0","0.0","0.0","-0.031140702419763308","32.096482439935247","0.0","0.0","0.0","0.0",""
"3","25200.858895477737","25200.858777468093","703","51797","3584.367637500103","5824.541400855502","1.895","0.0","0.0","0.0","","","","-0.0322476363983411","33.27211900001629","0.0","0.0","0.0","0.0","2.38589770842656E-08"
"3","25200.86504658835","25200.864933292847","145","52741","5560.0","5820.0","1.895","0.0","0.0","0.0","","","","-2.059919145624484","-31.039601969725678","0.0","0.0","0.0","0.0","1.24124084470245E-08"
"3","25200.870124128272","25200.870012145257","19","53374","3590.2552953742044","5689.706706317157","1.895","0.0","0.0","0.0","","","","-1.3542004202855645","32.434160401694047","0.0","0.0","0.0","0.0","8.20837861702639E-08"
"3","25200.891634161984","25200.891522682505","421","56179","3592.8612629479569","5925.618957115369","1.895","0.0","0.0","0.0","","","","-1.1692409025022579","-29.928691167353504","0.0","0.0","0.0","0.0","4.80510346582295E-09"
"2","25200.899999999998","","","","3587.7167650529429","5773.898081201825","1.895","","","","0.0","0.0","0.0","-0.03107045614472471","32.024080144609488","0.0","0.0","0.0","0.0",""
"3","25200.902704168344","25200.90259847138","37","57144","3581.031583088735","5861.787989812251","1.895","0.0","0.0","0.0","","","","-0.03783250358860934","39.075155820490817","0.0","0.0","0.0","0.0","3.67605381610299E-08"
"3","25200.90454770152","25200.90443975595","1093","57454","5560.0","5820.0","1.895","0.0","0.0","0.0","","","","-2.2014524758129956","-0.4299140353010189","0.0","0.0","0.0","0.0","1.58903101307809E-09"
"3","25200.93278255029","25200.93266553362","829","60493","3813.7495548476606","5264.734124086928","1.895","0.0","0.0","0.0","","","","0.8424417995703613","-0.31823614674231257","0.0","0.0","0.0","0.0","2.12460055479592E-09"
"3","25200.949680886704","25200.9495710514","61","62597","5560.0","5820.0","1.895","0.0","0.0","0.0","","","","3.13803359653435","29.716356090753828","0.0","0.0","0.0","0.0","3.51706336459028E-09"
"3","25200.98255188673","25200.982444882393","1231","63811","3591.341468594417","5886.717259657097","1.895","0.0","0.0","0.0","","","","-1.166619903150921","-29.861602272354945","0.0","0.0","0.0","0.0","3.22564740820475E-08"
"3","25200.984161072203","25200.984042235417","133","64134","3638.053875648112","5263.450178992346","1.895","0.0","0.0","0.0","","","","4.671113051298453","-29.669526650622616","0.0","0.0","0.0","0.0","1.97208998100214E-09"
"2","25201.0","","","","3587.7136632560898","5777.095079358235","1.895","","","","0.0","0.0","0.0","-0.03105523628048067","32.008393147609158","0.0","0.0","0.0","0.0",""
"3","25201.020222152034","25201.020107550547","91","67221","3599.737631462839","5594.56047384131","1.895","0.0","0.0","0.0","","","","2.6716196382469414","-31.73760049209288","0.0","0.0","0.0","0.0","1.54083765379692E-08"
"3","25201.030777892778","25201.030661048833","931","68379","3588.3159765517668","5736.154910596842","1.895","0.0","0.0","0.0","","","","-1.35049537123068","32.345421575793348","0.0","0.0","0.0","0.0","9.57991686071581E-09"
"3","25201.044126089208","25201.044016361702","961","69399","3626.8419491159904","5258.533007847826","1.895","0.0","0.0","0.0","","","","-4.457358101648133","28.576534180043116","0.0","0.0","0.0","0.0","2.27884886037335E-09"
"3","25201.069964097045","25201.069859017385","313","72499","5560.0","5820.0","1.895","0.0","0.0","0.0","","","","-0.019327055525180795","-33.138652580500998","0.0","0.0","0.0","0.0","3.83469254808859E-07"
"3","25201.09034204097","25201.090232982067","601","72857","3821.4457051211559","5263.771613051357","1.895","0.0","0.0","0.0","","","","1.7690737881704753","-1.3355843538510739","0.0","0.0","0.0","0.0","1.47487625770559E-09"
"2","25201.1","","","","3587.7105557503948","5780.297961574092","1.895","","","","0.0","0.0","0.0","-0.031112393290744699","32.06730443841852","0.0","0.0","0.0","0.0",""
"2","25201.2","","","","3587.7074437201756","5783.505507182627","1.895","","","","0.0","0.0","0.0","-0.03115769289818306","32.11399439534635","0.0","0.0","0.0","0.0",""
"3","25201.249911104704","25201.249796275046","109","78579","3601.6130446765139","5657.005095375657","1.895","0.0","0.0","0.0","","","","1.2858013060840768","-29.96883590854243","0.0","0.0","0.0","0.0","1.17928422773381E-08"
"3","25201.28868552263","25201.288569958415","751","80993","3600.7266310142706","5996.2286489747989","1.895","0.0","0.0","0.0","","","","-2.0776215332067289","-31.306347907567664","0.0","0.0","0.0","0.0","1.91066959041537E-08"
"2","25201.3","","","","3587.704336160996","5786.708444524596","1.895","","","","0.0","0.0","0.0","-0.031112928778828879","32.06785636186774","0.0","0.0","0.0","0.0",""
"3","25201.357463033168","25201.357346880246","811","84809","3596.1656365345077","5707.02192742599","1.895","0.0","0.0","0.0","","","","1.375992740220093","-32.04186730981301","0.0","0.0","0.0","0.0","4.14960451726162E-08"
"3","25201.35955059574","25201.35944446898","73","85722","3593.876701967626","5622.543964259961","1.895","0.0","0.0","0.0","","","","-2.6862378935205077","32.791880761739758","0.0","0.0","0.0","0.0","2.0354149072799E-09"
"3","25201.383568598976","25201.383462226015","121","87519","3600.0892223148418","5692.521611103742","1.895","0.0","0.0","0.0","","","","1.29731443516246","-30.237178361230354","0.0","0.0","0.0","0.0","8.7219419388014E-09"
"3","25201.39289736915","25201.392784793163","13","88199","3588.3958101976875","5902.3965674350179","1.895","0.0","0.0","0.0","","","","1.2697178899187947","29.8222572419016","0.0","0.0","0.0","0.0","2.91299670676828E-09"
"2","25201.399999999998","","","","3587.7012245418679","5789.915566424394","1.895","","","","0.0","0.0","0.0","-0.03115357704502128","32.10975221715295","0.0","0.0","0.0","0.0",""
"3","25201.442142861088","25201.44203563034","511","91989","3593.221910340235","5979.121044569375","1.895","0.0","0.0","0.0","","","","2.233633942873614","29.997819585141735","0.0","0.0","0.0","0.0","8.92166664874289E-09"
"3","25201.44724108643","25201.447125378527","103","92687","3623.3730386723539","5420.809691833729","1.895","0.0","0.0","0.0","","","","3.6766038564259","-29.676886190734913","0.0","0.0","0.0","0.0","2.57327452895712E-09"
"3","25201.456268427017","25201.45615033596","31","93242","3594.6449205536466","6063.941422373684","1.895","0.0","0.0","0.0","","","","3.8719540016497575","36.61802042785287","0.0","0.0","0.0","0.0","2.30894293044176E-09"
"3","25201.468768427327","25201.468651198316","67","94556","3596.1533743700058","6015.388350063933","1.895","0.0","0.0","0.0","","","","3.1392552166937475","29.727924513656896","0.0","0.0","0.0","0.0","1.21967377269354E-08"
"2","25201.5","","","","3587.6981193569365","5793.116056647044","1.895","","","","0.0","0.0","0.0","-0.031089157770860116","32.04335576680843","0.0","0.0","0.0","0.0",""
"3","25201.5744394084","25201.574325255817","127","98982","3601.507953955567","5958.11383828919","1.895","0.0","0.0","0.0","","","","-2.1103587122271447","-31.808185521659884","0.0","0.0","0.0","0.0","1.49615469339831E-09"
"3","25201.592192209333","25201.592080666684","565","100327","3590.957399326057","5672.890766924467","1.895","0.0","0.0","0.0","","","","-1.3589127921504097","32.547025397720599","0.0","0.0","0.0","0.0","2.80817354409095E-08"
"2","25201.6","","","","3587.6950117418707","5796.319051590869","1.895","","","","0.0","0.0","0.0","-0.03111348831597701","32.06843307250218","0.0","0.0","0.0","0.0",""
"3","25201.621254213078","25201.621140327534","1207","102824","3581.1207167364375","5769.726644604248","1.895","0.0","0.0","0.0","","","","-0.03240893358009442","33.473442399903408","0.0","0.0","0.0","0.0","2.36992124224622E-08"
"3","25201.630946479425","25201.630831810413","1039","103412","5560.0","5820.0","1.895","0.0","0.0","0.0","","","","-1.3873949795566434","33.16152098131922","0.0","0.0","0.0","0.0","2.52733026703064E-08"
"3","25201.634385483987","25201.634274053155","49","103767","5560.0","5820.0","1.895","0.0","0.0","0.0","","","","-1.5497550145914594","37.079964288787987","0.0","0.0","0.0","0.0","1.12040219624505E-08"
"3","25201.670748007982","25201.6706378737","43","106221","3584.411486061371","5779.299804525731","1.895","0.0","0.0","0.0","","","","-0.03558409100768428","36.7145702057093","0.0","0.0","0.0","0.0","8.3174237831495E-07"
"2","25201.7","","","","3587.691905241907","5799.520897206985","1.895","","","","0.0","0.0","0.0","-0.031102323891785249","32.05692598636801","0.0","0.0","0.0","0.0",""
"2","25201.8","","","","3587.688800605389","5802.720822183967","1.895","","","","0.0","0.0","0.0","-0.031083667045839947","32.03769651876654","0.0","0.0","0.0","0.0",""
"3","25201.858889691895","25201.858777468093","703","116356","3584.3356176036315","5857.578544807012","1.895","0.0","0.0","0.0","","","","-0.03182304746630892","32.83404120423119","0.0","0.0","0.0","0.0","5.6497961523253E-08"
"3","25201.870117919203","25201.870012145257","19","117919","3588.9039098865889","5722.073446877363","1.895","0.0","0.0","0.0","","","","-1.3509469854123726","32.35623808905535","0.0","0.0","0.0","0.0","3.71631777879609E-09"
"3","25201.891640539623","25201.891522682505","421","120706","3591.6911982759318","5895.669180178948","1.895","0.0","0.0","0.0","","","","-1.1718992095565642","-29.996735015876138","0.0","0.0","0.0","0.0","2.32959705411086E-08"
"2","25201.899999999998","","","","3587.6856949138725","5805.921834540475","1.895","","","","0.0","0.0","0.0","-0.031094229713197888","32.048583378760998","0.0","0.0","0.0","0.0",""
"3","25201.902710580944","25201.90259847138","37","121643","3581.7313926425465","5900.940287339112","1.895","0.0","0.0","0.0","","","","1.6704461571822507","39.041432548019269","0.0","0.0","0.0","0.0","2.98347668372367E-08"
"3","25201.9045543438","25201.90443975595","1093","121956","5560.0","5820.0","1.895","0.0","0.0","0.0","","","","-4.261848086611195","-0.8064955791058931","0.0","0.0","0.0","0.0","1.41836256562756E-09"
"3","25201.94032741153","25201.94020969351","439","126258","3593.8684739590978","6025.195188639074","1.895","0.0","0.0","0.0","","","","3.8962955288098506","36.872517200086367","0.0","0.0","0.0","0.0","1.12704703570072E-08"
"3","25201.949681694055","25201.9495710514","61","127221","5560.0","5820.0","1.895","0.0","0.0","0.0","","","","3.147025037509746","29.80150268130944","0.0","0.0","0.0","0.0","3.16960226810451E-09"
"3","25201.98255269408","25201.982444882393","1231","128436","3591.224063021732","5856.738279213084","1.895","0.0","0.0","0.0","","","","-0.017419724759385824","-29.929264603139769","0.0","0.0","0.0","0.0","1.98173192086371E-07"
"3","25201.998963912854","25201.998847002862","139","129855","5560.0","5820.0","1.895","0.0","0.0","0.0","","","","2.5088153998613667","-29.801520330804846","0.0","0.0","0.0","0.0","1.20582761929298E-08"
"2","25202.0","","","","3587.6825861361896","5809.126027784654","1.895","","","","0.0","0.0","0.0","-0.03112512845426544","32.08043047349645","0.0","0.0","0.0","0.0",""
"3","25202.00947160709","25202.009356701747","85","131253","5560.0","5820.0","1.895","0.0","0.0","0.0","","","","2.6655699061910598","-31.665732485025463","0.0","0.0","0.0","0.0","1.86981097609291E-08"
"3","25202.020216866404","25202.020107550547","91","131633","3602.4063902396108","5562.856859054847","1.895","0.0","0.0","0.0","","","","2.665209571173566","-31.661451872354829","0.0","0.0","0.0","0.0","2.41038426798017E-08"
"3","25202.030766866683","25202.030661048833","931","132764","3587.7220570780825","5768.443631598203","1.895","0.0","0.0","0.0","","","","-0.03129444809386684","32.25494692357349","0.0","0.0","0.0","0.0","1.57985168296569E-07"
"3","25202.069970711167","25202.069859017385","313","136778","5560.0","5820.0","1.895","0.0","0.0","0.0","","","","1.4081985328303653","-32.82161136200857","0.0","0.0","0.0","0.0","1.52736555163586E-08"
"3","25202.090350763745","25202.090232982067","601","137134","3824.0779091174579","5261.960878484056","1.895","0.0","0.0","0.0","","","","3.3043971549262136","-2.343799587407648","0.0","0.0","0.0","0.0","1.4001721917301E-09"
"2","25202.1","","","","3587.6794835051484","5812.323885732285","1.895","","","","0.0","0.0","0.0","-0.03106358818380006","32.01700139011497","0.0","0.0","0.0","0.0",""
"2","25202.2","","","","3587.676378767628","5815.523914811606","1.895","","","","0.0","0.0","0.0","-0.031084678282808966","32.038738792931749","0.0","0.0","0.0","0.0",""
"3","25202.24990684704","25202.249796275046","109","143246","3603.6167221363609","5627.068410903576","1.895","0.0","0.0","0.0","","","","2.5217064858452287","-29.95259506154209","0.0","0.0","0.0","0.0","6.97499746632576E-09"
"2","25202.3","","","","3587.6732716263338","5818.726421443151","1.895","","","","0.0","0.0","0.0","-0.031108744908910449","32.06354408267996","0.0","0.0","0.0","0.0",""
"3","25202.35955891406","25202.35944446898","73","150160","3591.692149916772","5655.292914968769","1.895","0.0","0.0","0.0","","","","-1.3670231882539266","32.74127573474342","0.0","0.0","0.0","0.0","1.09584454590221E-08"
"3","25202.383576932352","25202.383462226015","121","151997","3601.3838119634485","5662.347940751708","1.895","0.0","0.0","0.0","","","","1.2943109029871296","-30.16717348374066","0.0","0.0","0.0","0.0","3.53268702409375E-09"
"3","25202.39289268894","25202.392784793163","13","152682","3589.7357009880186","5932.3010723365009","1.895","0.0","0.0","0.0","","","","1.6093350265548899","29.95855949309632","0.0","0.0","0.0","0.0","1.50754086938995E-08"
"2","25202.399999999998","","","","3587.6701604989727","5821.933036482461","1.895","","","","0.0","0.0","0.0","-0.031148653463013634","32.10467752240921","0.0","0.0","0.0","0.0",""
"3","25202.44724214505","25202.447125378527","103","157191","3627.0498965576946","5391.130755167221","1.895","0.0","0.0","0.0","","","","3.680646513733085","-29.709517794639074","0.0","0.0","0.0","0.0","5.36642253606535E-09"
"3","25202.468769423303","25202.468651198316","67","158746","3599.2940164148828","6045.129407477162","1.895","0.0","0.0","0.0","","","","3.1515207759461827","29.844076146577718","0.0","0.0","0.0","0.0","9.50979852337203E-09"
"2","25202.5","","","","3587.6670506253178","5825.138359336357","1.895","","","","0.0","0.0","0.0","-0.031136101340374736","32.0917401428024","0.0","0.0","0.0","0.0",""
"3","25202.574440403336","25202.574325255817","127","163266","3599.504549055268","5926.403009900276","1.895","0.0","0.0","0.0","","","","-1.465358793425792","-31.71596776087846","0.0","0.0","0.0","0.0","4.57891725755894E-08"
"3","25202.59219457216","25202.592080666684","565","164633","3589.605426172604","5705.271582541616","1.895","0.0","0.0","0.0","","","","-1.3553406083627038","32.461468798928859","0.0","0.0","0.0","0.0","2.60434386157593E-09"
"2","25202.6","","","","3587.663948710244","5828.335479342058","1.895","","","","0.0","0.0","0.0","-0.031056419909102165","32.00961310452448","0.0","0.0","0.0","0.0",""
"3","25202.621256575723","25202.621140327534","1207","167155","3581.0883276458237","5803.179592271483","1.895","0.0","0.0","0.0","","","","-0.03230373254942039","33.36478591998639","0.0","0.0","0.0","0.0","7.36489757801668E-07"
"3","25202.630948843376","25202.630831810413","1039","167744","5560.0","5820.0","1.895","0.0","0.0","0.0","","","","-0.032190944436835729","33.248293150829457","0.0","0.0","0.0","0.0","5.50980582952886E-09"
"3","25202.634387845388","25202.634274053155","49","168094","5560.0","5820.0","1.895","0.0","0.0","0.0","","","","-0.03541698282309765","36.54215312648166","0.0","0.0","0.0","0.0","2.52066505798872E-07"
"3","25202.64410682508","25202.64399019652","115","168696","3597.399626411952","5622.334887979937","1.895","0.0","0.0","0.0","","","","2.6782515049690258","-31.816383988609059","0.0","0.0","0.0","0.0","3.17298522315383E-09"
"3","25202.67075082717","25202.6706378737","43","170537","3584.3763032905164","5815.600304946408","1.895","0.0","0.0","0.0","","","","-0.034829723236955458","35.93623675120664","0.0","0.0","0.0","0.0","3.92585767980063E-07"
"2","25202.7","","","","3587.6608462465098","5831.533164847502","1.895","","","","0.0","0.0","0.0","-0.031061913102185067","32.01527489637966","0.0","0.0","0.0","0.0",""
"3","25202.72216839503","25202.722055605147","151","173600","3592.0438443851078","5904.695751581234","1.895","0.0","0.0","0.0","","","","-1.16624026648122","-29.851884832074697","0.0","0.0","0.0","0.0","3.45070942420348E-08"
"3","25202.737386854922","25202.73727857764","787","175276","3601.4991476899988","5612.930298645387","1.895","0.0","0.0","0.0","","","","2.5335950220390419","-30.09587057042592","0.0","0.0","0.0","0.0","1.63974517246196E-08"
"3","25202.75101018301","25202.75089203054","1345","176135","3603.18236047136","6022.297817448022","1.895","0.0","0.0","0.0","","","","-3.898198371519858","-33.846671149735119","0.0","0.0","0.0","0.0","2.13317536938012E-08"
"2","25202.8","","","","3587.6577415530025","5834.733148563308","1.895","","","","0.0","0.0","0.0","-0.031084237627347468","32.03828461273724","0.0","0.0","0.0","0.0",""
"3","25202.85889222568","25202.858777468093","703","181775","3584.5760359402786","5890.24303397451","1.895","0.0","0.0","0.0","","","","1.3868221708167655","32.49226288097305","0.0","0.0","0.0","0.0","1.5807355392091E-07"
"3","25202.865042496454","25202.864933292847","145","182696","5560.0","5820.0","1.895","0.0","0.0","0.0","","","","-0.018132732954242827","-31.122569525375796","0.0","0.0","0.0","0.0","4.11656357991916E-07"
"3","25202.87012003123","25202.870012145257","19","183323","3587.7357069850306","5754.374777506032","1.895","0.0","0.0","0.0","","","","-0.05185652857127479","32.34568917157011","0.0","0.0","0.0","0.0","8.30325630305238E-09"
"3","25202.891629238653","25202.891522682505","421","186471","3591.229275984191","5865.694800338204","1.895","0.0","0.0","0.0","","","","-0.017475908806275574","-30.025795818705185","0.0","0.0","0.0","0.0","9.64856774194357E-08"
"2","25202.899999999998","","","","3587.6546358447187","5837.934178201604","1.895","","","","0.0","0.0","0.0","-0.031094397586309456","32.048756404285757","0.0","0.0","0.0","0.0",""
"3","25202.902712712024","25202.90259847138","37","187405","3583.7027266123925","5940.054355999027","1.895","0.0","0.0","0.0","","","","2.898709591146979","39.0399609529901","0.0","0.0","0.0","0.0","8.05280180709965E-08"
"3","25202.940316529224","25202.94020969351","439","192106","3597.765038048945","6062.070247361297","1.895","0.0","0.0","0.0","","","","3.890732794861342","36.81987437516961","0.0","0.0","0.0","0.0","2.9050544360473E-09"
"3","25202.982552789163","25202.982444882393","1231","193987","3591.2065982888655","5826.731685056448","1.895","0.0","0.0","0.0","","","","-0.01747217094805261","-30.01937371104566","0.0","0.0","0.0","0.0","3.40580333606231E-07"
"3","25202.98415935081","25202.984042235417","133","194320","3647.375662383564","5204.240950497667","1.895","0.0","0.0","0.0","","","","4.648445481339701","-29.525548959736054","0.0","0.0","0.0","0.0","1.63214976626275E-09"
"3","25202.998960351462","25202.998847002862","139","195460","5560.0","5820.0","1.895","0.0","0.0","0.0","","","","2.5150167254740065","-29.87518415293445","0.0","0.0","0.0","0.0","1.5439639233164E-08"
"2","25203.0","","","","3587.65152654169","5841.1389129150179","1.895","","","","0.0","0.0","0.0","-0.031130388218012164","32.085851671530438","0.0","0.0","0.0","0.0",""
"3","25203.009472061367","25203.009356701747","85","196878","5560.0","5820.0","1.895","0.0","0.0","0.0","","","","2.663467633570867","-31.640758462674666","0.0","0.0","0.0","0.0","1.98568273580059E-09"
"3","25203.020217320678","25203.020107550547","91","197260","3605.0762307687125","5531.140393553103","1.895","0.0","0.0","0.0","","","","2.67088710662203","-31.728898356641204","0.0","0.0","0.0","0.0","8.22230523972872E-09"
"3","25203.030767320917","25203.030661048833","931","198402","3587.6907462853307","5800.7154248352539","1.895","0.0","0.0","0.0","","","","-0.03134491153534172","32.30695920452092","0.0","0.0","0.0","0.0","5.58550099517512E-08"
"3","25203.069965844017","25203.069859017385","313","202599","5560.0","5820.0","1.895","0.0","0.0","0.0","","","","1.392374222112676","-32.45278596961572","0.0","0.0","0.0","0.0","2.50540928852055E-09"
"2","25203.1","","","","3587.6484252772595","5844.335362308084","1.895","","","","0.0","0.0","0.0","-0.031049905662681726","32.00289892084858","0.0","0.0","0.0","0.0",""
"2","25203.2","","","","3587.6453160823059","5847.539985629862","1.895","","","","0.0","0.0","0.0","-0.031129306173733583","32.08473641681593","0.0","0.0","0.0","0.0",""
"3","25203.287026083315","25203.286915045464","241","210966","3628.7888167044759","5205.002247620627","1.895","0.0","0.0","0.0","","","","-12.144618797230203","-1.6196751548196667","0.0","0.0","0.0","0.0","1.64224557462194E-09"
"3","25203.28868803873","25203.288569958415","751","211304","3596.5913663730159","5933.916995249645","1.895","0.0","0.0","0.0","","","","-2.0614777418524015","-31.063087457765876","0.0","0.0","0.0","0.0","3.20509088249978E-08"
"2","25203.3","","","","3587.642211398852","5850.739958983265","1.895","","","","0.0","0.0","0.0","-0.031084136968275078","32.038180864205639","0.0","0.0","0.0","0.0",""
"3","25203.35745340073","25203.357346880246","811","215101","3598.9401698121216","5643.327685100311","1.895","0.0","0.0","0.0","","","","1.6345713852497473","-31.626261112865416","0.0","0.0","0.0","0.0","3.32227363178641E-09"
"3","25203.359553402523","25203.35944446898","73","216003","3590.325430116416","5688.026924325845","1.895","0.0","0.0","0.0","","","","-1.3667127176784569","32.73383972144058","0.0","0.0","0.0","0.0","1.12023036242348E-08"
"3","25203.3835717815","25203.383462226015","121","217822","3603.1833972900788","5632.215403118429","1.895","0.0","0.0","0.0","","","","2.545495692277233","-30.23516104255943","0.0","0.0","0.0","0.0","5.07961949405224E-09"
"3","25203.392900523642","25203.392784793163","13","218510","3591.9562576271416","5962.1232630546669","1.895","0.0","0.0","0.0","","","","2.228800156410338","29.9329015824499","0.0","0.0","0.0","0.0","3.82417437222972E-08"
"2","25203.399999999998","","","","3587.6391010161735","5853.945806484329","1.895","","","","0.0","0.0","0.0","-0.031141197696704399","32.0969929180686","0.0","0.0","0.0","0.0",""
"3","25203.442146015455","25203.44203563034","511","222012","3598.6125059486469","6038.675681896718","1.895","0.0","0.0","0.0","","","","3.149805337147385","29.82783139053694","0.0","0.0","0.0","0.0","1.42369113699829E-08"
"3","25203.466422540027","25203.466310772812","55","223905","3623.518501105488","5324.454902655108","1.895","0.0","0.0","0.0","","","","-3.801729119355178","32.941578379951817","0.0","0.0","0.0","0.0","2.05238673766488E-09"
"3","25203.46876425816","25203.468651198316","67","224241","3602.434656010148","6074.8704416932109","1.895","0.0","0.0","0.0","","","","3.1464331673358338","29.79589782583488","0.0","0.0","0.0","0.0","5.7491047026772E-09"
"2","25203.5","","","","3587.6359963773377","5857.145733850399","1.895","","","","0.0","0.0","0.0","-0.031083690253124995","32.03772043833671","0.0","0.0","0.0","0.0",""
"3","25203.57443524035","25203.574325255817","127","228695","3598.2626401979885","5894.751487476903","1.895","0.0","0.0","0.0","","","","-1.2426139807139647","-31.66949333168083","0.0","0.0","0.0","0.0","1.42372099349973E-07"
"3","25203.592186689068","25203.592080666684","565","230081","3588.2548430515555","5737.619105794294","1.895","0.0","0.0","0.0","","","","-1.3537043982506945","32.4222802855974","0.0","0.0","0.0","0.0","1.72683166360071E-08"
"2","25203.6","","","","3587.6328865496136","5860.351009363876","1.895","","","","0.0","0.0","0.0","-0.031135641481525524","32.091266169823899","0.0","0.0","0.0","0.0",""
"3","25203.621248692492","25203.621140327534","1207","232553","3581.0559590565355","5836.611365223244","1.895","0.0","0.0","0.0","","","","-0.03231820861528484","33.379737468937957","0.0","0.0","0.0","0.0","4.60334254181924E-07"
"3","25203.630940960866","25203.630831810413","1039","233134","5560.0","5820.0","1.895","0.0","0.0","0.0","","","","-0.03218688541736756","33.2441008081833","0.0","0.0","0.0","0.0","1.71148968438945E-08"
"3","25203.63437996204","25203.634274053155","49","233468","5560.0","5820.0","1.895","0.0","0.0","0.0","","","","-0.03482649662284348","35.932907630046418","0.0","0.0","0.0","0.0","3.01103183986198E-07"
"3","25203.64409939533","25203.64399019652","115","234041","3600.07389564052","5590.565811585411","1.895","0.0","0.0","0.0","","","","2.67086580725444","-31.72864532998231","0.0","0.0","0.0","0.0","2.10119668284645E-08"
"3","25203.670743397885","25203.6706378737","43","235871","3584.341724902605","5851.27722164301","1.895","0.0","0.0","0.0","","","","-0.03434380065707503","35.434876788480547","0.0","0.0","0.0","0.0","0.000001523737678446366"
"3","25203.68212654541","25203.682014642094","1369","237399","3607.5451607579054","6031.327236882628","1.895","0.0","0.0","0.0","","","","-3.9087023343926239","-33.958469370409378","0.0","0.0","0.0","0.0","1.46166106266594E-08"
"2","25203.7","","","","3587.629784572802","5863.548193002496","1.895","","","","0.0","0.0","0.0","-0.031057038031241308","32.01025019825851","0.0","0.0","0.0","0.0",""
"3","25203.722165496052","25203.722055605147","151","238986","3591.234534162112","5874.729007278808","1.895","0.0","0.0","0.0","","","","-0.0174381619165377","-29.960941938560187","0.0","0.0","0.0","0.0","2.99813015703265E-07"
"3","25203.751003201938","25203.75089203054","1345","241596","3600.201674813167","5988.318420280431","1.895","0.0","0.0","0.0","","","","-2.260963739100092","-34.06901415462505","0.0","0.0","0.0","0.0","1.55589285142385E-08"
"3","25203.75201166398","25203.751904670848","1393","241919","5560.0","5820.0","1.895","0.0","0.0","0.0","","","","-3.425581778819316","-29.72511845532135","0.0","0.0","0.0","0.0","5.78362431850252E-09"
"2","25203.8","","","","3587.6266825256145","5866.745449176777","1.895","","","","0.0","0.0","0.0","-0.031057742630241016","32.01097642637551","0.0","0.0","0.0","0.0",""
"3","25203.85888420496","25203.858777468093","703","247488","3585.9559286959718","5922.572945558647","1.895","0.0","0.0","0.0","","","","1.3771613597914716","32.26591690944301","0.0","0.0","0.0","0.0","2.66031002553946E-08"
"3","25203.865047365874","25203.864933292847","145","248394","5560.0","5820.0","1.895","0.0","0.0","0.0","","","","-0.018142103132931594","-31.138652260981396","0.0","0.0","0.0","0.0","5.99818783093676E-08"
"3","25203.870124743888","25203.870012145257","19","249028","3587.7043756229688","5786.667771372946","1.895","0.0","0.0","0.0","","","","-0.03132979431649913","32.29137800334628","0.0","0.0","0.0","0.0","6.17013757804599E-08"
"3","25203.891633744995","25203.891522682505","421","252450","3591.2118213022747","5835.70547496997","1.895","0.0","0.0","0.0","","","","-0.017457192566784936","-29.993638979729345","0.0","0.0","0.0","0.0","1.64434271617825E-07"
"2","25203.899999999998","","","","3587.6235771266467","5869.946160005224","1.895","","","","0.0","0.0","0.0","-0.03109130070445031","32.04556447532734","0.0","0.0","0.0","0.0",""
"3","25203.9027104698","25203.90259847138","37","253416","3586.602040728565","5979.1024587242659","1.895","0.0","0.0","0.0","","","","2.892922039806212","38.96201393161082","0.0","0.0","0.0","0.0","3.02626841099063E-08"
"3","25203.982558695312","25203.982444882393","1231","259192","3591.1891485000039","5796.750766569325","1.895","0.0","0.0","0.0","","","","-0.017435954663057999","-29.95714960117591","0.0","0.0","0.0","0.0","5.43717838925048E-09"
"3","25203.99896478261","25203.998847002862","139","260282","5560.0","5820.0","1.895","0.0","0.0","0.0","","","","2.5102060466913227","-29.818039437725277","0.0","0.0","0.0","0.0","6.6761124100842E-09"
"2","25204.0","","","","3587.6204739269485","5873.144604063297","1.895","","","","0.0","0.0","0.0","-0.031069281586613298","32.022869536599127","0.0","0.0","0.0","0.0",""
"3","25204.020221067305","25204.020107550547","91","262035","3607.745770865799","5499.427497044173","1.895","0.0","0.0","0.0","","","","2.6608281270821414","-31.609402351471947","0.0","0.0","0.0","0.0","2.95409226553702E-09"
"3","25204.030771067515","25204.030661048833","931","263159","3587.659485844433","5832.9353208032139","1.895","0.0","0.0","0.0","","","","-0.03128227423018846","32.24239941592538","0.0","0.0","0.0","0.0","3.92706940074861E-08"
"3","25204.069974198443","25204.069859017385","313","267211","5560.0","5820.0","1.895","0.0","0.0","0.0","","","","1.3777483401545443","-32.111892976003769","0.0","0.0","0.0","0.0","6.03496006131111E-09"
"2","25204.1","","","","3587.6173689017784","5876.344929621058","1.895","","","","0.0","0.0","0.0","-0.031087558236917634","32.04170713947804","0.0","0.0","0.0","0.0",""
"2","25204.2","","","","3587.6142650369718","5879.544059201729","1.895","","","","0.0","0.0","0.0","-0.031075940663289057","32.02973299905507","0.0","0.0","0.0","0.0",""
"3","25204.249914097476","25204.249796275046","109","273670","3608.6505240239728","5567.277380343165","1.895","0.0","0.0","0.0","","","","2.5148781387723289","-29.87148859017284","0.0","0.0","0.0","0.0","1.44224042689331E-09"
"3","25204.288675447315","25204.288569958415","751","275747","3595.2799281853529","5902.948828734174","1.895","0.0","0.0","0.0","","","","-1.2115153015037972","-30.943841098664686","0.0","0.0","0.0","0.0","3.41898046846713E-07"
"2","25204.3","","","","3587.611165013583","5882.739229461684","1.895","","","","0.0","0.0","0.0","-0.03103748032519086","31.99009222107636","0.0","0.0","0.0","0.0",""
"3","25204.357452818254","25204.357346880246","811","279541","3601.5854970407406","5611.904578725207","1.895","0.0","0.0","0.0","","","","2.633932282551238","-31.287748980193116","0.0","0.0","0.0","0.0","8.53103588012027E-09"
"3","25204.359552819507","25204.35944446898","73","280429","3588.9630762836989","5720.656365339422","1.895","0.0","0.0","0.0","","","","-1.361006355350406","32.59716787554398","0.0","0.0","0.0","0.0","4.71483813676019E-09"
"3","25204.38357161576","25204.383462226015","121","282205","3605.7121376501497","5602.179260353166","1.895","0.0","0.0","0.0","","","","2.5219412029673746","-29.955383009679545","0.0","0.0","0.0","0.0","7.08871997746275E-09"
"3","25204.39289254904","25204.392784793163","13","282897","3594.178837116511","5991.972620756462","1.895","0.0","0.0","0.0","","","","2.2227578446856288","29.851753022913948","0.0","0.0","0.0","0.0","6.19455512083009E-09"
"2","25204.399999999998","","","","3587.6951516179135","5885.939982416669","1.895","","","","0.0","0.0","0.0","0.5903493396174689","32.05869754770264","0.0","0.0","0.0","0.0",""
"3","25204.442151040836","25204.44203563034","511","286397","3601.7548206331055","6068.432578768605","1.895","0.0","0.0","0.0","","","","3.1399420139973808","29.7344283041941","0.0","0.0","0.0","0.0","1.48337313243083E-08"
"3","25204.447241430054","25204.447125378527","103","287064","3634.4029270204275","5331.7784135169099","1.895","0.0","0.0","0.0","","","","3.6802521207696929","-29.70633432545622","0.0","0.0","0.0","0.0","1.65981421387119E-09"
"2","25204.5","","","","3587.8311093460517","5889.133263676044","1.895","","","","0.0","0.0","0.0","1.3612107986326985","31.97117951915154","0.0","0.0","0.0","0.0",""
"3","25204.574433197453","25204.574325255817","127","292974","3597.8278571007065","5863.159481298496","1.895","0.0","0.0","0.0","","","","-0.01842968061502309","-31.59999112292855","0.0","0.0","0.0","0.0","8.66151704508068E-08"
"3","25204.59219881513","25204.592080666684","565","294044","3587.7206287711599","5769.915776556289","1.895","0.0","0.0","0.0","","","","-0.03131221203411735","32.27325608014385","0.0","0.0","0.0","0.0","1.14630166532251E-08"
"2","25204.6","","","","3587.9674162296857","5892.33474565865","1.895","","","","0.0","0.0","0.0","1.3647065486498496","32.05328528224472","0.0","0.0","0.0","0.0",""
"3","25204.621247818945","25204.621140327534","1207","296564","3581.0235451224896","5870.089972333506","1.895","0.0","0.0","0.0","","","","-0.03237709255072927","33.44055551256483","0.0","0.0","0.0","0.0","6.05861866046705E-07"
"3","25204.6309400878","25204.630831810413","1039","297138","5560.0","5820.0","1.895","0.0","0.0","0.0","","","","-0.03224423634640067","33.303335494655659","0.0","0.0","0.0","0.0","6.87920720585153E-09"
"3","25204.63439208854","25204.634274053155","49","297478","5560.0","5820.0","1.895","0.0","0.0","0.0","","","","-0.03423799914047863","35.32571403537228","0.0","0.0","0.0","0.0","8.22771375329918E-08"
"3","25204.644098971676","25204.64399019652","115","298056","3602.7480548826977","5558.798041778116","1.895","0.0","0.0","0.0","","","","2.6809239919232445","-31.848131892443779","0.0","0.0","0.0","0.0","4.94048826488961E-09"
"3","25204.670747091386","25204.6706378737","43","299911","3584.410796780993","5886.371597308219","1.895","0.0","0.0","0.0","","","","0.7641689816322106","34.814546429777","0.0","0.0","0.0","0.0","0.0000017269879011113516"
"3","25204.682129798308","25204.682014642094","1369","301428","3604.1081445417919","5997.304969199374","1.895","0.0","0.0","0.0","","","","-2.260496731924819","-34.07112686746045","0.0","0.0","0.0","0.0","3.37448337097665E-08"
"2","25204.7","","","","3588.103441821689","5895.5296208576469","1.895","","","","0.0","0.0","0.0","1.3618902526603732","31.987138066371246","0.0","0.0","0.0","0.0",""
"3","25204.722169369055","25204.722055605147","151","302983","3591.2170569742695","5844.701013916168","1.895","0.0","0.0","0.0","","","","-0.01745741871229325","-29.994027525980834","0.0","0.0","0.0","0.0","1.12422891452135E-07"
"3","25204.73738831827","25204.73727857764","787","304688","3606.5508103031927","5552.923003537173","1.895","0.0","0.0","0.0","","","","2.5294981251296799","-30.047204671554167","0.0","0.0","0.0","0.0","1.18863919921146E-08"
"3","25204.750997763982","25204.75089203054","1345","305561","3597.9416036840887","5954.262856294418","1.895","0.0","0.0","0.0","","","","-2.260355766276175","-34.059853001624038","0.0","0.0","0.0","0.0","1.7939233216445E-07"
"3","25204.752019253487","25204.751904670848","1393","305882","5560.0","5820.0","1.895","0.0","0.0","0.0","","","","-3.43216666220533","-29.78225807458273","0.0","0.0","0.0","0.0","6.02509819287284E-09"
"2","25204.8","","","","3588.2393522485169","5898.721791136486","1.895","","","","0.0","0.0","0.0","1.3607372172033039","31.960056365484065","0.0","0.0","0.0","0.0",""
"3","25204.858886255017","25204.858777468093","703","311707","3588.0888377066619","5954.592658414119","1.895","0.0","0.0","0.0","","","","2.3719703906252858","31.9007485868762","0.0","0.0","0.0","0.0","1.27511629814573E-07"
"3","25204.86504983147","25204.864933292847","145","312608","5560.0","5820.0","1.895","0.0","0.0","0.0","","","","-0.01811419572883692","-31.090752695118679","0.0","0.0","0.0","0.0","8.8244011135549E-08"
"3","25204.870126840626","25204.870012145257","19","313268","3587.673107973659","5818.895096995505","1.895","0.0","0.0","0.0","","","","-0.031408079348950578","32.372065784100808","0.0","0.0","0.0","0.0","1.44928277698151E-08"
"3","25204.891633581807","25204.891522682505","421","316429","3591.1943714410888","5805.724432220348","1.895","0.0","0.0","0.0","","","","-0.017464259149925156","-30.005780252887506","0.0","0.0","0.0","0.0","9.63491009902434E-08"
"2","25204.899999999998","","","","3588.3755437171737","5901.9205623317889","1.895","","","","0.0","0.0","0.0","1.3635510121815525","32.02614483940812","0.0","0.0","0.0","0.0",""
"3","25204.90270435464","25204.90259847138","37","317386","3589.800917461148","6018.130494837337","1.895","0.0","0.0","0.0","","","","4.117651980634028","38.94164658912591","0.0","0.0","0.0","0.0","2.81047017171598E-08"
"3","25204.91616664382","25204.916048120427","1417","318453","5560.0","5820.0","1.895","0.0","0.0","0.0","","","","-3.423537270499058","-29.707377453668685","0.0","0.0","0.0","0.0","6.54632287049822E-09"
"2","25205.0","","","","3588.511741148367","5905.119473571037","1.895","","","","0.0","0.0","0.0","1.3636107091877692","32.027546961477998","0.0","0.0","0.0","0.0",""
"3","25205.0094746066","25205.009356701747","85","326025","5560.0","5820.0","1.895","0.0","0.0","0.0","","","","2.6639725340752435","-31.646756446170053","0.0","0.0","0.0","0.0","2.66823023842404E-09"
"3","25205.020219865888","25205.020107550547","91","326390","3610.9106811051058","5467.766353088415","1.895","0.0","0.0","0.0","","","","3.908226713852171","-31.56180297863194","0.0","0.0","0.0","0.0","4.86636037700008E-09"
"3","25205.03076986628","25205.030661048833","931","327531","3587.6282647717478","5865.114640258032","1.895","0.0","0.0","0.0","","","","-0.03129722535351685","32.257809423731199","0.0","0.0","0.0","0.0","1.27914023515561E-07"
"3","25205.069972495145","25205.069859017385","313","331553","5560.0","5820.0","1.895","0.0","0.0","0.0","","","","2.6830492664177729","-31.8690096005456","0.0","0.0","0.0","0.0","5.53747090894739E-09"
"2","25205.1","","","","3588.6478088120959","5908.315336921661","1.895","","","","0.0","0.0","0.0","1.3623114753985426","31.9970314551763","0.0","0.0","0.0","0.0",""
"2","25205.2","","","","3588.7839906513247","5911.513881947603","1.895","","","","0.0","0.0","0.0","1.3634546022033565","32.02388042840409","0.0","0.0","0.0","0.0",""
"3","25205.24990380816","25205.249796275046","109","338069","3611.16633786615","5537.394777554975","1.895","0.0","0.0","0.0","","","","2.5129940755033179","-29.84910986192524","0.0","0.0","0.0","0.0","1.60763723933208E-09"
"3","25205.288676808694","25205.288569958415","751","340203","3594.533019923134","5872.06957056867","1.895","0.0","0.0","0.0","","","","-0.017907728215080567","-30.736377016183299","0.0","0.0","0.0","0.0","2.34891805371149E-08"
"2","25205.3","","","","3588.9204181033376","5914.718195757067","1.895","","","","0.0","0.0","0.0","1.3659136810587785","32.081637574922059","0.0","0.0","0.0","0.0",""
"3","25205.357455753434","25205.357346880246","811","344059","3604.2165356892135","5580.651202419418","1.895","0.0","0.0","0.0","","","","2.6181003854103506","-31.09968627755426","0.0","0.0","0.0","0.0","6.88183369735188E-09"
"3","25205.359555754905","25205.35944446898","73","344949","3587.7368254007189","5753.222035059254","1.895","0.0","0.0","0.0","","","","-0.4900052694391774","32.61456971482817","0.0","0.0","0.0","0.0","1.90425571784576E-09"
"3","25205.383574968317","25205.383462226015","121","346739","3608.2373998146269","5572.184431271614","1.895","0.0","0.0","0.0","","","","2.520323058721391","-29.9361628428236","0.0","0.0","0.0","0.0","1.13959251188879E-08"
"3","25205.392895470464","25205.392784793163","13","347401","3596.8259485257729","6021.757451125274","1.895","0.0","0.0","0.0","","","","3.145851586658035","29.79039040916347","0.0","0.0","0.0","0.0","4.40415508802482E-08"
"2","25205.399999999998","","","","3589.056298042505","5917.909649962802","1.895","","","","0.0","0.0","0.0","1.3604319743006038","31.952887030904827","0.0","0.0","0.0","0.0",""
"3","25205.437700716022","25205.437587209977","7","350123","3601.016708161361","6061.44284702398","1.895","0.0","0.0","0.0","","","","3.1425745701207585","29.75935792100764","0.0","0.0","0.0","0.0","1.43596777685481E-09"
"3","25205.466426786104","25205.466310772812","55","352428","3615.917473097848","5390.317001721309","1.895","0.0","0.0","0.0","","","","-3.8033935785385259","32.956000741705398","0.0","0.0","0.0","0.0","3.46296977844469E-09"
"2","25205.5","","","","3589.1926925672307","5921.11319039886","1.895","","","","0.0","0.0","0.0","1.365584012561863","32.07389454885491","0.0","0.0","0.0","0.0",""
"3","25205.57443780762","25205.574325255817","127","357260","3597.8094721316626","5831.636153751384","1.895","0.0","0.0","0.0","","","","-0.01838308969000887","-31.520105158130105","0.0","0.0","0.0","0.0","8.55432679178595E-08"
"3","25205.592190008105","25205.592080666684","565","358325","3587.6892783244709","5802.228440801657","1.895","0.0","0.0","0.0","","","","-0.03148457635329936","32.45091065804399","0.0","0.0","0.0","0.0","1.49373928955649E-08"
"2","25205.6","","","","3589.328710050207","5924.307875138623","1.895","","","","0.0","0.0","0.0","1.3618090649623116","31.985231185691828","0.0","0.0","0.0","0.0",""
"3","25205.621252012545","25205.621140327534","1207","360805","3581.842907476129","5903.546596339074","1.895","0.0","0.0","0.0","","","","1.430067047034955","33.42332580784755","0.0","0.0","0.0","0.0","7.22065900239468E-07"
"3","25205.630944281736","25205.630831810413","1039","361369","5560.0","5820.0","1.895","0.0","0.0","0.0","","","","-0.03231777885583317","33.37929358918542","0.0","0.0","0.0","0.0","1.46660805315264E-07"
"3","25205.634383282104","25205.634274053155","49","361676","5560.0","5820.0","1.895","0.0","0.0","0.0","","","","-0.033732182466352667","34.80382795461204","0.0","0.0","0.0","0.0","2.56820290387122E-09"
"3","25205.670751286125","25205.6706378737","43","364077","3585.8843546800119","5920.896016972601","1.895","0.0","0.0","0.0","","","","1.462004128853724","34.253722998740929","0.0","0.0","0.0","0.0","0.00001230822563891526"
"3","25205.682120557205","25205.682014642094","1369","365577","3601.8469079629655","5963.222691058235","1.895","0.0","0.0","0.0","","","","-2.257392758982523","-34.02434252386921","0.0","0.0","0.0","0.0","2.43908886073471E-07"
"2","25205.7","","","","3589.46504501402","5927.510016649091","1.895","","","","0.0","0.0","0.0","1.3649876878215977","32.059888485031517","0.0","0.0","0.0","0.0",""
"3","25205.722160990732","25205.722055605147","151","367128","3591.1996147611055","5814.733111423578","1.895","0.0","0.0","0.0","","","","-0.017478448928286633","-30.03016006583557","0.0","0.0","0.0","0.0","1.13969340723982E-08"
"3","25205.75099794794","25205.75089203054","1345","369719","3595.9577045144467","5920.26020978059","1.895","0.0","0.0","0.0","","","","-1.3223761356448914","-33.77538605017551","0.0","0.0","0.0","0.0","0.0000018989365036417816"
"3","25205.752019410917","25205.751904670848","1393","370054","5560.0","5820.0","1.895","0.0","0.0","0.0","","","","-1.9834971918685825","-29.880051264644455","0.0","0.0","0.0","0.0","1.07057124387605E-08"
"2","25205.8","","","","3589.616921396601","5930.7058562693759","1.895","","","","0.0","0.0","0.0","1.4751709505290714","32.00104433679275","0.0","0.0","0.0","0.0",""
"3","25205.85888641502","25205.858777468093","703","375857","3590.4468038166785","5986.305062729662","1.895","0.0","0.0","0.0","","","","2.3549800241276017","31.67224429686328","0.0","0.0","0.0","0.0","2.53745705559746E-07"
"3","25205.870127412207","25205.870012145257","19","377390","3587.641794005627","5851.170162969519","1.895","0.0","0.0","0.0","","","","-0.03138250495053382","32.345706448379","0.0","0.0","0.0","0.0","9.59002951008215E-09"
"3","25205.891636915723","25205.891522682505","421","380479","3591.1769127919576","5775.7282906817149","1.895","0.0","0.0","0.0","","","","-0.017471917696355606","-30.01893859297373","0.0","0.0","0.0","0.0","1.90240876856619E-09"
"2","25205.899999999998","","","","3589.8544839910898","5933.896334222306","1.895","","","","0.0","0.0","0.0","2.198253141703732","31.956021419957844","0.0","0.0","0.0","0.0",""
"3","25205.902707735433","25205.90259847138","37","381451","3593.920050359339","6057.086146827697","1.895","0.0","0.0","0.0","","","","4.115685751784428","38.923051479744497","0.0","0.0","0.0","0.0","3.22522417195826E-09"
"3","25205.91615674011","25205.916048120427","1417","382494","5560.0","5820.0","1.895","0.0","0.0","0.0","","","","-3.4289764892629868","-29.754575691078136","0.0","0.0","0.0","0.0","1.0360844084921E-07"
"3","25205.982556053546","25205.982444882393","1231","387553","3591.5848959839906","5736.784664862257","1.895","0.0","0.0","0.0","","","","1.2835015763168348","-29.861057081702645","0.0","0.0","0.0","0.0","6.07532018293887E-09"
"2","25206.0","","","","3590.09199262706","5937.086087509531","1.895","","","","0.0","0.0","0.0","2.377940000008597","31.935857409448237","0.0","0.0","0.0","0.0",""
"3","25206.0307732919","25206.030661048833","931","391571","3588.1787872105558","5897.299281336248","1.895","0.0","0.0","0.0","","","","1.366891427695385","32.10460221296898","0.0","0.0","0.0","0.0","1.53459923053719E-08"
"3","25206.04412451913","25206.044016361702","961","392545","3607.9077194270109","5402.207250407942","1.895","0.0","0.0","0.0","","","","-3.315590094867878","28.740986614059535","0.0","0.0","0.0","0.0","2.28447476628348E-09"
"3","25206.069975519407","25206.069859017385","313","395695","5560.0","5820.0","1.895","0.0","0.0","0.0","","","","2.662814390025029","-31.628661621073208","0.0","0.0","0.0","0.0","7.62407529413298E-09"
"2","25206.1","","","","3590.3301322988766","5940.284315640868","1.895","","","","0.0","0.0","0.0","2.38425794029845","32.0207076748954","0.0","0.0","0.0","0.0",""
"2","25206.2","","","","3590.568278396128","5943.4826300661329","1.895","","","","0.0","0.0","0.0","2.384322271850831","32.021571650977119","0.0","0.0","0.0","0.0",""
"3","25206.249903141368","25206.249796275046","109","402192","3613.6823169209","5507.510212387216","1.895","0.0","0.0","0.0","","","","2.5115392094607018","-29.83182909840743","0.0","0.0","0.0","0.0","1.45951155948912E-09"
"3","25206.288676141416","25206.288569958415","751","404293","3594.5150994229318","5841.311272034516","1.895","0.0","0.0","0.0","","","","-0.01788207468165037","-30.69234592796811","0.0","0.0","0.0","0.0","4.65321529929471E-08"
"2","25206.3","","","","3590.8064274094278","5946.680983654075","1.895","","","","0.0","0.0","0.0","2.3843514673701038","32.02196374830714","0.0","0.0","0.0","0.0",""
"3","25206.359559409368","25206.35944446898","73","409238","3587.7052071834625","5785.810688368759","1.895","0.0","0.0","0.0","","","","-0.03147761782787499","32.44373856246797","0.0","0.0","0.0","0.0","7.82160127487026E-09"
"3","25206.38357903967","25206.383462226015","121","411014","3610.7609589328947","5542.209830814515","1.895","0.0","0.0","0.0","","","","2.5176416978759179","-29.904313888129989","0.0","0.0","0.0","0.0","5.20799749895222E-09"
"3","25206.39289473888","25206.392784793163","13","411689","3599.964544375131","6051.479131602982","1.895","0.0","0.0","0.0","","","","3.1353551378976385","29.69099178914968","0.0","0.0","0.0","0.0","8.93193781254356E-08"
"2","25206.399999999998","","","","3591.0445522576148","5949.879012703303","1.895","","","","0.0","0.0","0.0","2.38410952590058","32.018714461842147","0.0","0.0","0.0","0.0",""
"3","25206.46642285482","25206.466310772812","55","416353","3612.117807919065","5423.240696275762","1.895","0.0","0.0","0.0","","","","-3.8095693796683225","33.00951340147316","0.0","0.0","0.0","0.0","3.05116404847369E-09"
"2","25206.5","","","","3591.2819336812419","5953.067057522168","1.895","","","","0.0","0.0","0.0","2.3766663481386245","31.918752198798914","0.0","0.0","0.0","0.0",""
"3","25206.592198880488","25206.592080666684","565","422654","3587.657928186864","5834.540786477791","1.895","0.0","0.0","0.0","","","","-0.03141965542958182","32.383997161360557","0.0","0.0","0.0","0.0","1.46000599919076E-08"
"2","25206.6","","","","3591.519501335582","5956.257603429167","1.895","","","","0.0","0.0","0.0","2.3785308928134216","31.943793130426724","0.0","0.0","0.0","0.0",""
"3","25206.621247885523","25206.621140327534","1207","424968","3583.473631899124","5936.968897321884","1.895","0.0","0.0","0.0","","","","2.4731320172541384","33.308261607154559","0.0","0.0","0.0","0.0","1.08858672421885E-07"
"3","25206.630940155323","25206.630831810413","1039","425518","5560.0","5820.0","1.895","0.0","0.0","0.0","","","","1.4228929928849584","33.25565482364337","0.0","0.0","0.0","0.0","8.79518452546239E-09"
"3","25206.634392155673","25206.634274053155","49","425828","5560.0","5820.0","1.895","0.0","0.0","0.0","","","","1.4656054584558858","34.338099605006679","0.0","0.0","0.0","0.0","8.50982921778159E-08"
"3","25206.644099926398","25206.64399019652","115","426382","3608.095133053854","5495.27723650828","1.895","0.0","0.0","0.0","","","","2.668855328977845","-31.70476178180537","0.0","0.0","0.0","0.0","2.66289427490922E-09"
"3","25206.67074393448","25206.6706378737","43","428244","3588.1084585004889","5954.856539453032","1.895","0.0","0.0","0.0","","","","2.506208300564271","33.70612096113354","0.0","0.0","0.0","0.0","0.000001965266063164152"
"3","25206.68212610864","25206.682014642094","1369","429743","3599.6241419085329","5929.450975823537","1.895","0.0","0.0","0.0","","","","-2.0902751562462549","-33.51735578738234","0.0","0.0","0.0","0.0","1.9764957571434E-07"
"2","25206.7","","","","3591.7570410311689","5959.4477738486489","1.895","","","","0.0","0.0","0.0","2.3782509693497029","31.94003374381169","0.0","0.0","0.0","0.0",""
"3","25206.722167062413","25206.722055605147","151","431282","3591.1821677654586","5784.756992028331","1.895","0.0","0.0","0.0","","","","-0.017369207630209554","-29.842469860571116","0.0","0.0","0.0","0.0","7.49621765580466E-09"
"3","25206.73738601259","25206.73727857764","787","432985","3611.5954211263144","5492.999474681833","1.895","0.0","0.0","0.0","","","","2.5269155040029416","-30.016526433528325","0.0","0.0","0.0","0.0","4.91834810914344E-09"
"3","25206.75100806279","25206.75089203054","1345","433865","3594.6380777587266","5886.5550468430569","1.895","0.0","0.0","0.0","","","","-1.3151006066098299","-33.58955858757714","0.0","0.0","0.0","0.0","1.42907950250841E-08"
"3","25206.752016122293","25206.751904670848","1393","434168","5560.0","5820.0","1.895","0.0","0.0","0.0","","","","-1.979335309385795","-29.817355303963269","0.0","0.0","0.0","0.0","0.0000028983568950300305"
"2","25206.8","","","","3591.994603123693","5962.638245060174","1.895","","","","0.0","0.0","0.0","2.3784752078311199","31.943045278235695","0.0","0.0","0.0","0.0",""
"3","25206.85888343089","25206.858777468093","703","439913","3593.08325321406","6017.764267341353","1.895","0.0","0.0","0.0","","","","3.308222228912865","31.30729692736569","0.0","0.0","0.0","0.0","2.91476366123953E-07"
"3","25206.865047847215","25206.864933292847","145","440809","5560.0","5820.0","1.895","0.0","0.0","0.0","","","","-0.01812730820126088","-31.113258614976098","0.0","0.0","0.0","0.0","4.84252125558148E-09"
"3","25206.87012484816","25206.870012145257","19","441459","3587.6105336818325","5883.389938240941","1.895","0.0","0.0","0.0","","","","-0.031305286725145538","32.26611821745826","0.0","0.0","0.0","0.0","3.0678942185106E-08"
"3","25206.891631558574","25206.891522682505","421","444566","3591.199557833173","5745.749674901683","1.895","0.0","0.0","0.0","","","","0.24913417201590386","-29.945698690344284","0.0","0.0","0.0","0.0","1.21250997052232E-08"
"2","25206.899999999998","","","","3592.232177446141","5965.828880520196","1.895","","","","0.0","0.0","0.0","2.3785976539999718","31.944689736627735","0.0","0.0","0.0","0.0",""
"3","25206.916156811003","25206.916048120427","1417","446305","5560.0","5820.0","1.895","0.0","0.0","0.0","","","","-1.98308734782572","-29.873877239780105","0.0","0.0","0.0","0.0","1.56312878514651E-07"
"3","25206.98255653763","25206.982444882393","1231","451409","3592.872859426503","5706.819801097682","1.895","0.0","0.0","0.0","","","","1.286156787099581","-29.92283137337708","0.0","0.0","0.0","0.0","4.95935500264435E-09"
"3","25206.998958269807","25206.998847002862","139","452480","5560.0","5820.0","1.895","0.0","0.0","0.0","","","","3.6827118261913496","-29.73340016798526","0.0","0.0","0.0","0.0","3.63688527322161E-09"
"2","25207.0","","","","3592.470023772315","5969.023169004355","1.895","","","","0.0","0.0","0.0","2.381320959358016","31.981263868683663","0.0","0.0","0.0","0.0",""
"3","25207.00946542253","25207.009356701747","85","453890","5560.0","5820.0","1.895","0.0","0.0","0.0","","","","3.9022822447261276","-31.513797021691553","0.0","0.0","0.0","0.0","1.79891180919109E-09"
"3","25207.030767538025","25207.030661048833","931","455349","3589.547316942495","5929.442362908245","1.895","0.0","0.0","0.0","","","","1.368331431763903","32.138424034353267","0.0","0.0","0.0","0.0","3.09309710538639E-07"
"2","25207.1","","","","3592.7073764282079","5972.210827471063","1.895","","","","0.0","0.0","0.0","2.3763783251546877","31.914884035237927","0.0","0.0","0.0","0.0",""
"2","25207.2","","","","3592.945044463601","5975.402721500798","1.895","","","","0.0","0.0","0.0","2.3795359094061259","31.957290555340145","0.0","0.0","0.0","0.0",""
"3","25207.249909035625","25207.249796275046","109","466116","3616.334346189472","5477.624753750418","1.895","0.0","0.0","0.0","","","","3.3500883358412207","-30.02186870691697","0.0","0.0","0.0","0.0","3.89351423531128E-09"
"3","25207.288685118943","25207.288569958415","751","468561","3594.4972362994678","5810.6514534988259","1.895","0.0","0.0","0.0","","","","-0.017857758851266799","-30.650610849364587","0.0","0.0","0.0","0.0","8.27259891427229E-09"
"2","25207.3","","","","3593.182797279219","5978.595754133344","1.895","","","","0.0","0.0","0.0","2.380384730278037","31.96869026363027","0.0","0.0","0.0","0.0",""
"3","25207.33297077771","25207.33285815981","1459","471641","3605.7748893641717","6073.63383782425","1.895","0.0","0.0","0.0","","","","-3.6213325845630957","-31.423725075785588","0.0","0.0","0.0","0.0","1.51987491667788E-07"
"3","25207.357464069493","25207.357346880246","811","472690","3609.4360010249399","5518.650625443038","1.895","0.0","0.0","0.0","","","","2.5984538906351148","-30.866311030575198","0.0","0.0","0.0","0.0","1.38287853130868E-09"
"3","25207.359551071484","25207.35944446898","73","473603","3587.673688954759","5818.296284244913","1.895","0.0","0.0","0.0","","","","-0.031586066542697518","32.55551581556209","0.0","0.0","0.0","0.0","3.40945176498136E-09"
"2","25207.399999999998","","","","3593.4200853841005","5981.782545676623","1.895","","","","0.0","0.0","0.0","2.375732039466182","31.906204384961499","0.0","0.0","0.0","0.0",""
"2","25207.5","","","","3593.657330005671","5984.968753236789","1.895","","","","0.0","0.0","0.0","2.3752966839134954","31.90035753733163","0.0","0.0","0.0","0.0",""
"3","25207.574433954174","25207.574325255817","127","486249","3597.77278692274","5768.734777402919","1.895","0.0","0.0","0.0","","","","-0.018353116580586375","-31.468712515389169","0.0","0.0","0.0","0.0","4.84524390331994E-09"
"3","25207.592198956303","25207.592080666684","565","487359","3587.6266171147387","5866.812867662844","1.895","0.0","0.0","0.0","","","","-0.03143349588940713","32.39826241683732","0.0","0.0","0.0","0.0","4.15058616750485E-09"
"2","25207.6","","","","3593.8952278047229","5988.1637330043599","1.895","","","","0.0","0.0","0.0","2.3818363065742149","31.988185008499145","0.0","0.0","0.0","0.0",""
"3","25207.621247961015","25207.621140327534","1207","489711","3585.950358618669","5970.3255725533349","1.895","0.0","0.0","0.0","","","","2.4748215873269698","33.33101681860177","0.0","0.0","0.0","0.0","1.21488859063742E-07"
"3","25207.630940231564","25207.630831810413","1039","490277","5560.0","5820.0","1.895","0.0","0.0","0.0","","","","1.426762389252415","33.34608981110584","0.0","0.0","0.0","0.0","2.12333406923879E-07"
"3","25207.63437923192","25207.634274053155","49","490594","5560.0","5820.0","1.895","0.0","0.0","0.0","","","","2.5150630419413679","33.82520882141586","0.0","0.0","0.0","0.0","2.26799545667082E-08"
"3","25207.67074335115","25207.6706378737","43","493452","3590.6035375380627","5988.41298239878","1.895","0.0","0.0","0.0","","","","2.4826472770917387","33.38924757636561","0.0","0.0","0.0","0.0","0.000005303754033170704"
"3","25207.682125957177","25207.682014642094","1369","494979","3598.312036812002","5896.010418860581","1.895","0.0","0.0","0.0","","","","-1.3069005403679808","-33.307912666923687","0.0","0.0","0.0","0.0","1.40687358360497E-08"
"2","25207.7","","","","3594.133161547308","5991.359195495458","1.895","","","","0.0","0.0","0.0","2.3821961737738368","31.993018043642555","0.0","0.0","0.0","0.0",""
"3","25207.72216689883","25207.722055605147","151","496559","3591.1647016145295","5754.747961463836","1.895","0.0","0.0","0.0","","","","-0.017508482779887818","-30.081761971886299","0.0","0.0","0.0","0.0","2.82058236849378E-09"
"3","25207.75201184933","25207.751904670848","1393","499878","5560.0","5820.0","1.895","0.0","0.0","0.0","","","","-1.9834321650537748","-29.87907167941086","0.0","0.0","0.0","0.0","3.68550669701162E-08"
"2","25207.8","","","","3594.370624369359","5994.548333499374","1.895","","","","0.0","0.0","0.0","2.377481310367755","31.929697183798916","0.0","0.0","0.0","0.0",""
"3","25207.8588922132","25207.858777468093","703","506137","3596.3861896440805","6049.021542213367","1.895","0.0","0.0","0.0","","","","3.290094162899271","31.13574232608561","0.0","0.0","0.0","0.0","2.45674936567934E-07"
"3","25207.865044049606","25207.864933292847","145","507022","5560.0","5820.0","1.895","0.0","0.0","0.0","","","","1.3332288232321997","-31.04605118822792","0.0","0.0","0.0","0.0","5.07864607046628E-09"
"3","25207.870121050593","25207.870012145257","19","507699","3588.956728350093","5915.571025765889","1.895","0.0","0.0","0.0","","","","1.3700971829265308","32.17989677868902","0.0","0.0","0.0","0.0","5.86675130905668E-09"
"3","25207.88322274175","25207.88310359204","1381","508904","3612.480597607386","5362.567540187626","1.895","0.0","0.0","0.0","","","","-3.9877148457582058","34.56725823256845","0.0","0.0","0.0","0.0","1.51525726135767E-09"
"3","25207.891640742793","25207.891522682505","421","510949","3592.4880880350308","5715.771625307446","1.895","0.0","0.0","0.0","","","","1.2852313186760345","-29.90130006719658","0.0","0.0","0.0","0.0","1.28330716667583E-08"
"2","25207.899999999998","","","","3594.608195464587","5997.738925617669","1.895","","","","0.0","0.0","0.0","2.378565343029119","31.94425579861504","0.0","0.0","0.0","0.0",""
"3","25207.916165763538","25207.916048120427","1417","512782","5560.0","5820.0","1.895","0.0","0.0","0.0","","","","-1.9837927320510072","-29.884503378723534","0.0","0.0","0.0","0.0","2.56998994837187E-07"
"3","25207.98255935969","25207.982444882393","1231","518046","3594.1610785693649","5676.84898838621","1.895","0.0","0.0","0.0","","","","1.2836377790680458","-29.864225880398427","0.0","0.0","0.0","0.0","2.03934239872263E-09"
"2","25208.0","","","","3594.8455423221528","6000.926506212538","1.895","","","","0.0","0.0","0.0","2.376320272212336","31.91410438122073","0.0","0.0","0.0","0.0",""
"3","25208.009468165652","25208.009356701747","85","520661","5560.0","5820.0","1.895","0.0","0.0","0.0","","","","3.908567764295091","-31.564557211613719","0.0","0.0","0.0","0.0","1.79780721594561E-09"
"3","25208.03077642572","25208.030661048833","931","522214","3591.910761767972","5961.512251308726","1.895","0.0","0.0","0.0","","","","2.392719438157104","32.134346029572238","0.0","0.0","0.0","0.0","6.2975766137522E-08"
"3","25208.044124773016","25208.044016361702","961","523238","3601.2668443572176","5459.773263101144","1.895","0.0","0.0","0.0","","","","-3.3158350076012867","28.743109624868646","0.0","0.0","0.0","0.0","2.80529814277988E-09"
"2","25208.1","","","","3595.083313325422","6004.119783106186","1.895","","","","0.0","0.0","0.0","2.380566825315722","31.97113580942787","0.0","0.0","0.0","0.0",""
"2","25208.2","","","","3595.3205283538889","6007.305593229427","1.895","","","","0.0","0.0","0.0","2.375000397313046","31.896378392929458","0.0","0.0","0.0","0.0",""
"3","25208.24990441467","25208.249796275046","109","533610","3620.0171812639975","5447.89757028602","1.895","0.0","0.0","0.0","","","","3.685107045389822","-29.745522405281986","0.0","0.0","0.0","0.0","1.40689693543284E-09"
"3","25208.288676407607","25208.288569958415","751","536312","3594.479418031834","5780.0686243892619","1.895","0.0","0.0","0.0","","","","-0.01776611224373466","-30.493310903356375","0.0","0.0","0.0","0.0","2.26987389172999E-08"
"2","25208.3","","","","3595.636653450842","6010.49513832446","1.895","","","","0.0","0.0","0.0","2.9410881327450286","31.957708916448117","0.0","0.0","0.0","0.0",""
"3","25208.332974642948","25208.33285815981","1459","539457","3602.1536967800009","6042.211327586851","1.895","0.0","0.0","0.0","","","","-3.6241671846232914","-31.44832201377233","0.0","0.0","0.0","0.0","5.19810697868041E-07"
"3","25208.357466579768","25208.357346880246","811","540547","3612.0294346665298","5487.843948554525","1.895","0.0","0.0","0.0","","","","2.5929830149464756","-30.801324019944088","0.0","0.0","0.0","0.0","1.5653994845253E-09"
"3","25208.35955470858","25208.35944446898","73","541497","3587.642149194637","5850.804072389187","1.895","0.0","0.0","0.0","","","","-0.031640617944423129","32.611741525694068","0.0","0.0","0.0","0.0","8.71791310543069E-09"
"2","25208.399999999998","","","","3595.973106799573","6013.681263396501","1.895","","","","0.0","0.0","0.0","3.3685759375354267","31.89953166500574","0.0","0.0","0.0","0.0",""
"2","25208.5","","","","3596.3085251117224","6016.857586943258","1.895","","","","0.0","0.0","0.0","3.3582131358588365","31.801398647901576","0.0","0.0","0.0","0.0",""
"3","25208.57443138467","25208.574325255817","127","554379","3598.16608262841","5737.345222200709","1.895","0.0","0.0","0.0","","","","1.3477019551267003","-31.41158634363132","0.0","0.0","0.0","0.0","2.1212899736028E-08"
"3","25208.592193173787","25208.592080666684","565","555770","3588.253920891449","5899.063969364132","1.895","0.0","0.0","0.0","","","","1.3721447532889549","32.22798869780901","0.0","0.0","0.0","0.0","1.41787046175121E-08"
"2","25208.6","","","","3596.6445069873086","6020.039247288127","1.895","","","","0.0","0.0","0.0","3.3638555413847408","31.854830750064087","0.0","0.0","0.0","0.0",""
"3","25208.621255178856","25208.621140327534","1207","558110","3588.4264299802805","6003.673421392449","1.895","0.0","0.0","0.0","","","","2.4732885735829366","33.31037011539612","0.0","0.0","0.0","0.0","1.56141281877118E-07"
"3","25208.63094744913","25208.630831810413","1039","558665","5560.0","5820.0","1.895","0.0","0.0","0.0","","","","2.4674385967381577","33.23158234434364","0.0","0.0","0.0","0.0","4.91586684934156E-08"
"3","25208.63438644942","25208.634274053155","49","558964","5560.0","5820.0","1.895","0.0","0.0","0.0","","","","2.495082170846261","33.55648508524308","0.0","0.0","0.0","0.0","5.68921980512466E-08"
"3","25208.644108093384","25208.64399019652","115","559519","3615.3371999611529","5432.018960154278","1.895","0.0","0.0","0.0","","","","3.9153164595774125","-31.619057885818653","0.0","0.0","0.0","0.0","2.22716397743478E-09"
"3","25208.67075446459","25208.6706378737","43","561905","3593.477715841166","6021.49725676559","1.895","0.0","0.0","0.0","","","","3.4556486034943036","32.70246356508013","0.0","0.0","0.0","0.0","0.0000032677643079290357"
"3","25208.682124506453","25208.682014642094","1369","563458","3597.8276977243119","5862.886210548149","1.895","0.0","0.0","0.0","","","","-0.019234518708346094","-32.9799866352071","0.0","0.0","0.0","0.0","6.85396903256641E-09"
"2","25208.7","","","","3596.9804438859357","6023.220481712976","1.895","","","","0.0","0.0","0.0","3.363405231398898","31.85056643249642","0.0","0.0","0.0","0.0",""
"3","25208.722165428273","25208.722055605147","151","565132","3592.100602953084","5724.786584356817","1.895","0.0","0.0","0.0","","","","1.2901732301156182","-30.01627514966868","0.0","0.0","0.0","0.0","3.25897180378549E-09"
"3","25208.75201442868","25208.751904670848","1393","568451","5560.0","5820.0","1.895","0.0","0.0","0.0","","","","-1.1706217924142617","-29.964037371575409","0.0","0.0","0.0","0.0","2.84007594213018E-08"
"2","25208.8","","","","3597.316967085285","6026.407268252073","1.895","","","","0.0","0.0","0.0","3.3692752829602208","31.906154283008957","0.0","0.0","0.0","0.0",""
"3","25208.870129686078","25208.870012145257","19","576330","3590.883727649812","5947.719129887635","1.895","0.0","0.0","0.0","","","","2.3933201313894116","32.142413370790617","0.0","0.0","0.0","0.0","9.42657195819483E-08"
"2","25208.899999999998","","","","3597.653735990012","6029.596381556731","1.895","","","","0.0","0.0","0.0","3.3717352888626439","31.929449894458928","0.0","0.0","0.0","0.0",""
"3","25208.91615981577","25208.916048120427","1417","581490","5560.0","5820.0","1.895","0.0","0.0","0.0","","","","-1.9812456569152988","-29.846133404749368","0.0","0.0","0.0","0.0","3.79313883477583E-08"
"3","25208.982552213183","25208.982444882393","1231","586755","3595.4498364529188","5646.865641707617","1.895","0.0","0.0","0.0","","","","1.2863698409317197","-29.927788135932035","0.0","0.0","0.0","0.0","6.33348100606005E-09"
"2","25209.0","","","","3597.9891591479838","6032.772750992153","1.895","","","","0.0","0.0","0.0","3.3582616523062547","31.801858085911485","0.0","0.0","0.0","0.0",""
"3","25209.03077481598","25209.030661048833","931","590938","3594.2959115624887","5993.544936631974","1.895","0.0","0.0","0.0","","","","2.3871190062223155","32.059131938510159","0.0","0.0","0.0","0.0","3.68533937117629E-07"
"3","25209.044133227377","25209.044016361702","961","591968","3598.2399333838327","5488.559890456323","1.895","0.0","0.0","0.0","","","","-2.3605649210691728","28.81553818127967","0.0","0.0","0.0","0.0","1.9381375359404E-09"
"3","25209.069967152875","25209.069859017385","313","595855","5560.0","5820.0","1.895","0.0","0.0","0.0","","","","2.550249091671421","-30.29162147841239","0.0","0.0","0.0","0.0","1.85435321714814E-09"
"2","25209.1","","","","3598.3252943447866","6035.955863248777","1.895","","","","0.0","0.0","0.0","3.3653905956879339","31.86936731217824","0.0","0.0","0.0","0.0",""
"2","25209.2","","","","3598.661282779586","6039.13758570768","1.895","","","","0.0","0.0","0.0","3.3639212123301136","31.85545263670649","0.0","0.0","0.0","0.0",""
"2","25209.3","","","","3598.997139339165","6042.318059342791","1.895","","","","0.0","0.0","0.0","3.3626008756554457","31.84294939429155","0.0","0.0","0.0","0.0",""
"3","25209.33296820297","25209.33285815981","1459","608879","3598.5290635505768","6010.758961519317","1.895","0.0","0.0","0.0","","","","-3.625691854525643","-31.461552173307138","0.0","0.0","0.0","0.0","5.15660185535829E-07"
"3","25209.359562134345","25209.35944446898","73","610934","3587.610726228347","5883.191482029228","1.895","0.0","0.0","0.0","","","","-0.031463170169217669","32.42884746877411","0.0","0.0","0.0","0.0","7.88202757048138E-09"
"2","25209.399999999998","","","","3599.3333636484887","6045.502015471641","1.895","","","","0.0","0.0","0.0","3.366282791574199","31.877816173486744","0.0","0.0","0.0","0.0",""
"2","25209.5","","","","3599.6701717735675","6048.691500182751","1.895","","","","0.0","0.0","0.0","3.372127963607189","31.933168421383575","0.0","0.0","0.0","0.0",""
"3","25209.584977282047","25209.584869698618","1525","625268","5560.0","5820.0","1.895","0.0","0.0","0.0","","","","-3.8791905933856647","-33.66126028927949","0.0","0.0","0.0","0.0","0.0000012872031775663006"
"3","25209.592187067017","25209.592080666684","565","625783","3589.6563995471576","5931.236049876851","1.895","0.0","0.0","0.0","","","","1.5434643473844832","32.12753008494961","0.0","0.0","0.0","0.0","2.28159062654939E-08"
"2","25209.6","","","","3600.005951716845","6051.8712482815649","1.895","","","","0.0","0.0","0.0","3.361833792107903","31.83568531407952","0.0","0.0","0.0","0.0",""
"3","25209.621249072203","25209.621140327534","1207","628181","3591.7895414361098","6036.937400422328","1.895","0.0","0.0","0.0","","","","3.511010295563271","33.204487106662408","0.0","0.0","0.0","0.0","1.49612456692405E-07"
"3","25209.630941342784","25209.630831810413","1039","628756","5560.0","5820.0","1.895","0.0","0.0","0.0","","","","2.4699122851838819","33.26489809995637","0.0","0.0","0.0","0.0","2.39007324011297E-07"
"3","25209.634380342988","25209.634274053155","49","629072","5560.0","5820.0","1.895","0.0","0.0","0.0","","","","3.1850841651909325","33.230201042544958","0.0","0.0","0.0","0.0","3.93401794274093E-07"
"3","25209.670748362045","25209.6706378737","43","632079","3596.9331725913395","6054.197904730487","1.895","0.0","0.0","0.0","","","","3.4339870268927989","32.49746965486119","0.0","0.0","0.0","0.0","6.22638839868192E-07"
"3","25209.682131836456","25209.682014642094","1369","633617","3597.808579247576","5830.105192374751","1.895","0.0","0.0","0.0","","","","-0.019003520454764976","-32.583911254721709","0.0","0.0","0.0","0.0","2.56436991157117E-08"
"2","25209.7","","","","3600.3425196679274","6055.058458607844","1.895","","","","0.0","0.0","0.0","3.369723337975928","31.910397246600124","0.0","0.0","0.0","0.0",""
"3","25209.72216673988","25209.722055605147","151","635270","3593.3875729168346","5694.844834179776","1.895","0.0","0.0","0.0","","","","1.2893722557595529","-29.997640236008079","0.0","0.0","0.0","0.0","1.12976507802185E-08"
"3","25209.751004390353","25209.75089203054","1345","638316","3597.783707224578","5787.458999941794","1.895","0.0","0.0","0.0","","","","-0.018962394344321965","-32.5133954032589","0.0","0.0","0.0","0.0","2.71102022936446E-09"
"3","25209.75201239188","25209.751904670848","1393","638649","5560.0","5820.0","1.895","0.0","0.0","0.0","","","","-0.017427968136377475","-29.943427756650487","0.0","0.0","0.0","0.0","1.96686218787242E-09"
"2","25209.8","","","","3600.6782799329987","6058.238020359193","1.895","","","","0.0","0.0","0.0","3.361636773609252","31.833819600503458","0.0","0.0","0.0","0.0",""
"3","25209.86504850729","25209.864933292847","145","645777","5560.0","5820.0","1.895","0.0","0.0","0.0","","","","1.33602915775788","-31.11126079636785","0.0","0.0","0.0","0.0","1.63735364818006E-09"
"3","25209.870125508565","25209.870012145257","19","646462","3593.270469996586","5979.773203270215","1.895","0.0","0.0","0.0","","","","2.3870465103475575","32.05815831513388","0.0","0.0","0.0","0.0","1.43140971391916E-08"
"3","25209.883218010695","25209.88310359204","1381","647685","3604.492329466762","5431.813345950714","1.895","0.0","0.0","0.0","","","","-3.959468661443271","34.322407939834317","0.0","0.0","0.0","0.0","1.30999965567255E-09"
"3","25209.891630165217","25209.891522682505","421","649690","3595.063762855845","5655.847762129318","1.895","0.0","0.0","0.0","","","","1.2873527693195773","-29.950656265842338","0.0","0.0","0.0","0.0","8.6273776319576E-09"
"2","25209.899999999998","","","","3601.013885295778","6061.416115226418","1.895","","","","0.0","0.0","0.0","3.360085889555122","31.81913313480146","0.0","0.0","0.0","0.0",""
"3","25209.916155186584","25209.916048120427","1417","651313","5560.0","5820.0","1.895","0.0","0.0","0.0","","","","-1.1710194382301425","-29.97421578626695","0.0","0.0","0.0","0.0","2.43197850963376E-09"
"3","25209.98256055083","25209.982444882393","1231","656613","3597.849545964293","5616.990052659306","1.895","0.0","0.0","0.0","","","","2.507865242593884","-29.79227432603341","0.0","0.0","0.0","0.0","3.87951398971147E-09"
"2","25210.0","","","","3601.3506328800478","6064.605026631925","1.895","","","","0.0","0.0","0.0","3.3715218281242418","31.927428477155464","0.0","0.0","0.0","0.0",""
"3","25210.03076728185","25210.030661048833","931","661035","3597.2217033638237","6025.505145766","1.895","0.0","0.0","0.0","","","","3.3668171665499488","31.8828765645178","0.0","0.0","0.0","0.0","7.17313937795009E-08"
"2","25210.1","","","","3601.6874013946965","6067.794136242638","1.895","","","","0.0","0.0","0.0","3.371731383390423","31.929412910629158","0.0","0.0","0.0","0.0",""
"2","25210.2","","","","3602.0232541343268","6070.9745737038369","1.895","","","","0.0","0.0","0.0","3.3625626302737174","31.8425872205457","0.0","0.0","0.0","0.0",""
"3","25210.288680950864","25210.288569958415","751","676099","3595.6439111695019","5719.171013993836","1.895","0.0","0.0","0.0","","","","1.3045413672397444","-30.378024656191916","0.0","0.0","0.0","0.0","2.12296575491245E-09"
"2","25210.3","","","","3602.3588128905769","6074.152227219435","1.895","","","","0.0","0.0","0.0","3.359619264290115","31.814714315752487","0.0","0.0","0.0","0.0",""
"3","25210.332965972444","25210.33285815981","1459","679365","3596.2860923631844","5979.199555131942","1.895","0.0","0.0","0.0","","","","-2.091731570215202","-31.51052938522751","0.0","0.0","0.0","0.0","5.48006998135322E-09"
"2","25210.399999999998","","","","3602.6952626043878","6077.338317869735","1.895","","","","0.0","0.0","0.0","3.368539544656845","31.899187034016827","0.0","0.0","0.0","0.0",""
"3","25210.466427824253","25210.466310772812","55","688625","3599.396352125647","5555.163591782487","1.895","0.0","0.0","0.0","","","","-2.7043974702637247","33.01356130492998","0.0","0.0","0.0","0.0","3.6173426166509E-09"
