﻿"type","rcvTime","sendTime","sender","messageID","pos__001","pos__002","pos__003","pos_noise__001","pos_noise__002","pos_noise__003","noise__001","noise__002","noise__003","spd__001","spd__002","spd__003","spd_noise__001","spd_noise__002","spd_noise__003","RSSI"
"2","25272.1","","","","3035.845782108621","5193.736695631797","1.895","","","","0.0","0.0","0.0","0.0","0.0","0.0","0.0","0.0","0.0",""
"3","25272.113324317943","25272.113215463094","1537","4747989","5560.0","5820.0","1.895","0.0","0.0","0.0","","","","-12.89662427696819","-1.5869613975162192","0.0","0.0","0.0","0.0","1.30960578123556E-09"
"2","25272.2","","","","3035.820800602722","5193.731597800591","1.895","","","","0.0","0.0","0.0","-0.24981160601108808","-0.05097760744246856","0.0","0.0","0.0","0.0",""
"3","25272.269979329205","25272.269870004013","1771","4757802","5560.0","5820.0","1.895","0.0","0.0","0.0","","","","-13.858609584165189","-1.7065157079981986","0.0","0.0","0.0","0.0","3.68839170446297E-09"
"2","25272.3","","","","3035.77271745888","5193.721785751941","1.895","","","","0.0","0.0","0.0","-0.4808247923150568","-0.09811913026241795","0.0","0.0","0.0","0.0",""
"2","25272.399999999998","","","","3035.702688991952","5193.707495448324","1.895","","","","0.0","0.0","0.0","-0.700274989863965","-0.14290106094394948","0.0","0.0","0.0","0.0",""
"2","25272.5","","","","3035.6083596019554","5193.688246196097","1.895","","","","0.0","0.0","0.0","-0.9432808616511376","-0.19248986162440688","0.0","0.0","0.0","0.0",""
"2","25272.6","","","","3035.489547219539","5193.66400084142","1.895","","","","0.0","0.0","0.0","-1.1881074017809055","-0.2424501955479629","0.0","0.0","0.0","0.0",""
"2","25272.7","","","","3035.347195136389","5193.6349518763649","1.895","","","","0.0","0.0","0.0","-1.4235011554332294","-0.2904856353726079","0.0","0.0","0.0","0.0",""
"2","25272.8","","","","3035.1800535229824","5193.600844255459","1.895","","","","0.0","0.0","0.0","-1.6713930315610719","-0.3410714946575545","0.0","0.0","0.0","0.0",""
"2","25272.899999999998","","","","3034.9896061419656","5193.561980761553","1.895","","","","0.0","0.0","0.0","-1.9044474863159127","-0.38862956730644745","0.0","0.0","0.0","0.0",""
"3","25272.969083959862","25272.968971703667","415","4805567","3186.404902356814","5254.474809641724","1.895","0.0","0.0","0.0","","","","5.804604228073337","-2.7507376999966559","0.0","0.0","0.0","0.0","1.51838121054185E-09"
"2","25273.0","","","","3034.7788689144779","5193.518976836203","1.895","","","","0.0","0.0","0.0","-2.1073431465345218","-0.4300333094446195","0.0","0.0","0.0","0.0",""
"2","25273.1","","","","3034.551077058466","5193.472492671597","1.895","","","","0.0","0.0","0.0","-2.2778870744653019","-0.4648352209673647","0.0","0.0","0.0","0.0",""
"2","25273.2","","","","3034.305971562872","5193.422475412848","1.895","","","","0.0","0.0","0.0","-2.451021077180424","-0.5001656740487316","0.0","0.0","0.0","0.0",""
"3","25273.26998768169","25273.269870004013","1771","4827332","5560.0","5820.0","1.895","0.0","0.0","0.0","","","","-13.904063909517815","-1.7609772572632859","0.0","0.0","0.0","0.0","2.57275812232825E-09"
"2","25273.3","","","","3034.044798052686","5193.369179247433","1.895","","","","0.0","0.0","0.0","-2.6116990021564208","-0.5329542874958345","0.0","0.0","0.0","0.0",""
"2","25273.399999999998","","","","3033.7674598215487","5193.312584441044","1.895","","","","0.0","0.0","0.0","-2.7733439773701504","-0.5659402412839715","0.0","0.0","0.0","0.0",""
"2","25273.5","","","","3033.472329327218","5193.252358870565","1.895","","","","0.0","0.0","0.0","-2.951264150028111","-0.6022473803424356","0.0","0.0","0.0","0.0",""
"2","25273.6","","","","3033.159734914695","5193.188569539458","1.895","","","","0.0","0.0","0.0","-3.125900918074773","-0.6378844940404996","0.0","0.0","0.0","0.0",""
"2","25273.7","","","","3032.8326518105398","5193.121823584973","1.895","","","","0.0","0.0","0.0","-3.2707858317510478","-0.667450319149736","0.0","0.0","0.0","0.0",""
"2","25273.8","","","","3032.4807670185489","5193.050016493711","1.895","","","","0.0","0.0","0.0","-3.51879928199206","-0.7180609873597573","0.0","0.0","0.0","0.0",""
"2","25273.899999999998","","","","3032.114780108335","5192.975331664868","1.895","","","","0.0","0.0","0.0","-3.6598185150104656","-0.7468379654097724","0.0","0.0","0.0","0.0",""
"3","25273.969087373473","25273.968971703667","415","4872935","3193.5689262030366","5251.612083010216","1.895","0.0","0.0","0.0","","","","8.083743348099287","-3.230244323807512","0.0","0.0","0.0","0.0","1.28509317590399E-08"
"2","25274.0","","","","3031.7321391698067","5192.897248344932","1.895","","","","0.0","0.0","0.0","-3.826356496211815","-0.7808224065866105","0.0","0.0","0.0","0.0",""
"2","25274.1","","","","3031.3339515351165","5192.815992500763","1.895","","","","0.0","0.0","0.0","-3.9818213089540737","-0.8125472104170809","0.0","0.0","0.0","0.0",""
"2","25274.2","","","","3030.9174813622369","5192.731005844925","1.895","","","","0.0","0.0","0.0","-4.164644163810883","-0.8498548114330443","0.0","0.0","0.0","0.0",""
"2","25274.3","","","","3030.477642983206","5192.641250574614","1.895","","","","0.0","0.0","0.0","-4.398322995343271","-0.8975402970343226","0.0","0.0","0.0","0.0",""
"2","25274.399999999998","","","","3030.0224912626329","5192.548370399394","1.895","","","","0.0","0.0","0.0","-4.551454294142628","-0.9287889141902576","0.0","0.0","0.0","0.0",""
"2","25274.5","","","","3029.549518878303","5192.4518536645459","1.895","","","","0.0","0.0","0.0","-4.729658468509316","-0.9651540078322594","0.0","0.0","0.0","0.0",""
"2","25274.6","","","","3029.0520396641325","5192.350335962883","1.895","","","","0.0","0.0","0.0","-4.974723379563328","-1.0151629847303723","0.0","0.0","0.0","0.0",""
"3","25274.66740185887","25274.66728484002","505","4919080","5560.0","5820.0","1.895","0.0","0.0","0.0","","","","7.40472548292095","-2.9595082951433855","0.0","0.0","0.0","0.0","1.07499167013053E-08"
"2","25274.7","","","","3028.5343814934969","5192.244700458458","1.895","","","","0.0","0.0","0.0","-5.176510155051271","-1.056340443184643","0.0","0.0","0.0","0.0",""
"3","25274.75010896161","25274.749999247724","157","4925815","3202.152678297676","5255.289822184202","1.895","0.0","0.0","0.0","","","","9.291483929455295","-3.7136047550784827","0.0","0.0","0.0","0.0","1.19399783214655E-08"
"2","25274.8","","","","3027.993609747476","5192.134348300588","1.895","","","","0.0","0.0","0.0","-5.407642714114966","-1.1035063257111784","0.0","0.0","0.0","0.0",""
"2","25274.899999999998","","","","3027.429116148614","5192.019155361612","1.895","","","","0.0","0.0","0.0","-5.644857963671755","-1.1519134676545258","0.0","0.0","0.0","0.0",""
"2","25275.0","","","","3026.8406748600684","5191.899075556316","1.895","","","","0.0","0.0","0.0","-5.884331550430127","-1.2007814553895214","0.0","0.0","0.0","0.0",""
"2","25275.1","","","","3026.227480442444","5191.773944523348","1.895","","","","0.0","0.0","0.0","-6.131859419802565","-1.2512930339242277","0.0","0.0","0.0","0.0",""
"2","25275.2","","","","3025.5936132079848","5191.644594908393","1.895","","","","0.0","0.0","0.0","-6.338584730744673","-1.2934782707029869","0.0","0.0","0.0","0.0",""
"2","25275.3","","","","3024.943680241467","5191.511966852555","1.895","","","","0.0","0.0","0.0","-6.499239830695008","-1.3262622263793136","0.0","0.0","0.0","0.0",""
"2","25275.399999999998","","","","3024.280872941712","5191.376711606105","1.895","","","","0.0","0.0","0.0","-6.627981383567517","-1.352533769357897","0.0","0.0","0.0","0.0",""
"2","25275.5","","","","3023.5945227311638","5191.236652094219","1.895","","","","0.0","0.0","0.0","-6.86340723737201","-1.4005757596761493","0.0","0.0","0.0","0.0",""
"2","25275.6","","","","3022.890655452545","5191.093017975717","1.895","","","","0.0","0.0","0.0","-7.038575496844129","-1.4363213317495199","0.0","0.0","0.0","0.0",""
"3","25275.667401486044","25275.66728484002","505","4983353","5560.0","5820.0","1.895","0.0","0.0","0.0","","","","9.074494018107812","-3.626878590269434","0.0","0.0","0.0","0.0","4.08029568672626E-09"
"3","25275.696060488463","25275.69594686199","1045","4985385","3194.3715318693855","5251.291363723823","1.895","0.0","0.0","0.0","","","","8.448309883980194","-3.375924231306004","0.0","0.0","0.0","0.0","4.88911480082948E-09"
"2","25275.7","","","","3022.1699057242615","5190.945938753501","1.895","","","","0.0","0.0","0.0","-7.207397659986719","-1.470771892705003","0.0","0.0","0.0","0.0",""
"2","25275.8","","","","3021.42944407177","5190.79483703309","1.895","","","","0.0","0.0","0.0","-7.404514177459492","-1.5109963186578488","0.0","0.0","0.0","0.0",""
"2","25275.899999999998","","","","3020.674238479758","5190.6407266023429","1.895","","","","0.0","0.0","0.0","-7.551951534738617","-1.5410830061490509","0.0","0.0","0.0","0.0",""
"3","25275.969083566415","25275.968971703667","415","5003331","3213.984827796546","5243.410281503282","1.895","0.0","0.0","0.0","","","","12.127925194669564","-4.9602794394793829","0.0","0.0","0.0","0.0","1.20927524216331E-08"
"2","25276.0","","","","3019.9012486383337","5190.48298704283","1.895","","","","0.0","0.0","0.0","-7.729791570704525","-1.5773737921769149","0.0","0.0","0.0","0.0",""
"2","25276.1","","","","3019.1051916148378","5190.320540297086","1.895","","","","0.0","0.0","0.0","-7.960460203045193","-1.6244450038652656","0.0","0.0","0.0","0.0",""
"2","25276.2","","","","3018.2884317700898","5190.153868846527","1.895","","","","0.0","0.0","0.0","-8.167485554001523","-1.666691468071671","0.0","0.0","0.0","0.0",""
"2","25276.3","","","","3017.456776456558","5189.984157763934","1.895","","","","0.0","0.0","0.0","-8.31643818296425","-1.6970873682783623","0.0","0.0","0.0","0.0",""
"2","25276.399999999998","","","","3016.603371553961","5189.8100083686799","1.895","","","","0.0","0.0","0.0","-8.5339310673662","-1.7414698814048209","0.0","0.0","0.0","0.0",""
"2","25276.5","","","","3015.7296421754738","5189.631711475358","1.895","","","","0.0","0.0","0.0","-8.73717301700133","-1.7829442888169723","0.0","0.0","0.0","0.0",""
"2","25276.6","","","","3014.838891784392","5189.449941202588","1.895","","","","0.0","0.0","0.0","-8.907380790275694","-1.8176776032059346","0.0","0.0","0.0","0.0",""
"3","25276.667402302985","25276.66728484002","505","5046463","5560.0","5820.0","1.895","0.0","0.0","0.0","","","","10.587793937661142","-4.2926964111251248","0.0","0.0","0.0","0.0","3.34801909311664E-09"
"3","25276.69606130528","25276.69594686199","1045","5048478","3203.815406291833","5247.517614306725","1.895","0.0","0.0","0.0","","","","10.129908099375662","-4.047886817981024","0.0","0.0","0.0","0.0","9.06062719041515E-09"
"2","25276.7","","","","3013.928170329312","5189.264095550467","1.895","","","","0.0","0.0","0.0","-9.10708866984386","-1.8584308334133695","0.0","0.0","0.0","0.0",""
"3","25276.75010943985","25276.749999247724","157","5053549","3224.772279786859","5246.128874542341","1.895","0.0","0.0","0.0","","","","13.182603852077233","-5.391230402952046","0.0","0.0","0.0","0.0","5.29368663093271E-09"
"2","25276.8","","","","3012.9921437524587","5189.073086028721","1.895","","","","0.0","0.0","0.0","-9.360136389866288","-1.9100688158974793","0.0","0.0","0.0","0.0",""
"2","25276.899999999998","","","","3012.040364356291","5188.878861920385","1.895","","","","0.0","0.0","0.0","-9.517662405640733","-1.9422142374890508","0.0","0.0","0.0","0.0",""
"3","25276.96908590737","25276.968971703667","415","5065697","3228.2379713175116","5241.109810454152","1.895","0.0","0.0","0.0","","","","13.74762317015103","-5.743382800071912","0.0","0.0","0.0","0.0","8.09929772010566E-09"
"2","25277.0","","","","3011.0721448380916","5188.681282971572","1.895","","","","0.0","0.0","0.0","-9.68206135358606","-1.9757621785418294","0.0","0.0","0.0","0.0",""
"2","25277.1","","","","3010.08366617368","5188.479569856139","1.895","","","","0.0","0.0","0.0","-9.884650015462994","-2.017103273306695","0.0","0.0","0.0","0.0",""
"2","25277.2","","","","3009.0704343646355","5188.2728055098609","1.895","","","","0.0","0.0","0.0","-10.132178040385286","-2.0676148835837244","0.0","0.0","0.0","0.0",""
"2","25277.3","","","","3008.037847471339","5188.06209148365","1.895","","","","0.0","0.0","0.0","-10.325726207621598","-2.107111136972984","0.0","0.0","0.0","0.0",""
"2","25277.399999999998","","","","3006.9847042056819","5187.847182637602","1.895","","","","0.0","0.0","0.0","-10.53128708990265","-2.149058755539578","0.0","0.0","0.0","0.0",""
"2","25277.5","","","","3005.908080793337","5187.627482334024","1.895","","","","0.0","0.0","0.0","-10.76608531133063","-2.1969726685529959","0.0","0.0","0.0","0.0",""
"2","25277.6","","","","3004.8109722200158","5187.403601742302","1.895","","","","0.0","0.0","0.0","-10.970934089609218","-2.2387749721805627","0.0","0.0","0.0","0.0",""
"3","25277.66739722709","25277.66728484002","505","5108104","5560.0","5820.0","1.895","0.0","0.0","0.0","","","","11.644350546696156","-4.779394933456931","0.0","0.0","0.0","0.0","2.26699886812566E-09"
"3","25277.69605622908","25277.69594686199","1045","5110125","3214.945988286476","5243.017170188715","1.895","0.0","0.0","0.0","","","","11.754237487217937","-4.807442460170953","0.0","0.0","0.0","0.0","4.02403572760959E-09"
"2","25277.7","","","","3003.696430238496","5187.176163615951","1.895","","","","0.0","0.0","0.0","-11.145265761929299","-2.274349826760924","0.0","0.0","0.0","0.0",""
"3","25277.750117378582","25277.749999247724","157","5115196","3238.0393328029829","5240.498089422085","1.895","0.0","0.0","0.0","","","","13.31611992232813","-5.772195741673051","0.0","0.0","0.0","0.0","1.31031959037353E-08"
"2","25277.8","","","","3002.5644320487729","5186.945163302304","1.895","","","","0.0","0.0","0.0","-11.319825431148403","-2.3099712073457376","0.0","0.0","0.0","0.0",""
"3","25277.805374399195","25277.80526385526","907","5118204","3220.1201036411346","5248.031454166075","1.895","0.0","0.0","0.0","","","","10.25692413710845","-4.194728285038782","0.0","0.0","0.0","0.0","7.9406162735619E-09"
"2","25277.899999999998","","","","3001.4170347596816","5186.711020583645","1.895","","","","0.0","0.0","0.0","-11.473814296345628","-2.3413948231091608","0.0","0.0","0.0","0.0",""
"3","25277.9690880772","25277.968971703667","415","5127295","3241.8957493176055","5235.1740044791499","1.895","0.0","0.0","0.0","","","","13.54614884677073","-6.0188345098692459","0.0","0.0","0.0","0.0","3.01211641046787E-09"
"2","25278.0","","","","3000.254804872306","5186.472726693123","1.895","","","","0.0","0.0","0.0","-11.623825589461829","-2.3746746062195647","0.0","0.0","0.0","0.0",""
"2","25278.1","","","","2999.0725052616187","5186.229724401598","1.895","","","","0.0","0.0","0.0","-11.824892646106778","-2.4199452077354079","0.0","0.0","0.0","0.0",""
"2","25278.2","","","","2998.1500762868356","5185.581550738344","1.895","","","","0.0","0.0","0.0","-11.70068037742075","-3.5591139620769365","0.0","0.0","0.0","0.0",""
"2","25278.3","","","","2997.4773291481658","5184.535690402797","1.895","","","","0.0","0.0","0.0","-10.939899196505947","-5.912324929123263","0.0","0.0","0.0","0.0",""
"2","25278.399999999998","","","","2996.797190998762","5183.478339918095","1.895","","","","0.0","0.0","0.0","-9.563393001992452","-8.160572278409406","0.0","0.0","0.0","0.0",""
"3","25278.42334344515","25278.42323368103","2713","5155925","3126.330866421775","5215.578981189952","1.895","0.0","0.0","0.0","","","","0.7278731778803032","0.14856348678961163","0.0","0.0","0.0","0.0","4.27467104331761E-09"
"2","25278.5","","","","2996.105739841518","5182.403402103035","1.895","","","","0.0","0.0","0.0","-7.8290723310053809","-10.102510154756333","0.0","0.0","0.0","0.0",""
"2","25278.6","","","","2995.4028794544567","5181.310727369838","1.895","","","","0.0","0.0","0.0","-7.028506720446076","-10.926596301217133","0.0","0.0","0.0","0.0",""
"3","25278.667400200415","25278.66728484002","505","5169973","5560.0","5820.0","1.895","0.0","0.0","0.0","","","","12.08772780969247","-5.25780513371757","0.0","0.0","0.0","0.0","9.10231466239584E-09"
"3","25278.69605920244","25278.69594686199","1045","5172013","3226.7776939826469","5238.143654028036","1.895","0.0","0.0","0.0","","","","11.742757458936702","-4.881953596401186","0.0","0.0","0.0","0.0","8.09102139583855E-09"
"2","25278.7","","","","2994.700460199358","5180.218738425396","1.895","","","","0.0","0.0","0.0","-7.024095461792788","-10.919738508461315","0.0","0.0","0.0","0.0",""
"3","25278.750117810152","25278.749999247724","157","5177118","3251.291145594607","5234.839097399279","1.895","0.0","0.0","0.0","","","","13.367805442642228","-5.510624214181507","0.0","0.0","0.0","0.0","7.6648218837747E-09"
