﻿"type","rcvTime","sendTime","sender","messageID","pos__001","pos__002","pos__003","pos_noise__001","pos_noise__002","pos_noise__003","noise__001","noise__002","noise__003","spd__001","spd__002","spd__003","spd_noise__001","spd_noise__002","spd_noise__003","RSSI"
"2","25292.5","","","","4588.943199795757","5180.5343094990489","1.895","","","","0.0","0.0","0.0","-10.543370894758299","8.007092806755134","0.0","0.0","0.0","0.0",""
"3","25292.526285042502","25292.52617865647","2935","6052435","4570.650213857644","5194.245174603703","1.895","0.0","0.0","0.0","","","","-11.72938494578348","8.602651864325905","0.0","0.0","0.0","0.0","3.8724691342326E-07"
"2","25292.6","","","","4587.887520297794","5181.336134439188","1.895","","","","0.0","0.0","0.0","-10.555843846920928","8.01684855496455","0.0","0.0","0.0","0.0",""
"3","25292.672998349826","25292.67288915883","1105","6060404","4410.015509740379","5307.327462389519","1.895","0.0","0.0","0.0","","","","4.2646453336957459","-0.3314787313781975","0.0","0.0","0.0","0.0","1.08798691294399E-08"
"2","25292.7","","","","4586.831542940884","5182.138318934635","1.895","","","","0.0","0.0","0.0","-10.559948824475035","8.020642463302556","0.0","0.0","0.0","0.0",""
"3","25292.757921351153","25292.75780309569","2323","6067219","4415.81754536526","5296.5547363904229","1.895","0.0","0.0","0.0","","","","-5.304046414887401","2.360442060043925","0.0","0.0","0.0","0.0","1.32788877538042E-08"
"3","25292.771205367142","25292.771089052083","385","6067727","5560.0","5820.0","1.895","0.0","0.0","0.0","","","","4.923186056185916","-1.3564492622732703","0.0","0.0","0.0","0.0","5.28727093900303E-09"
"3","25292.777909351556","25292.77780199498","2947","6068468","5560.0","5820.0","1.895","0.0","0.0","0.0","","","","-11.082126415621423","8.119939213703669","0.0","0.0","0.0","0.0","1.28509718883567E-07"
"3","25292.794612367376","25292.794506453676","877","6069794","4604.056049785371","5278.435739828106","1.895","0.0","0.0","0.0","","","","-1.469145210164792","-13.202859722616618","0.0","0.0","0.0","0.0","3.95883815548426E-08"
"2","25292.8","","","","4585.784222279622","5182.933927278629","1.895","","","","0.0","0.0","0.0","-10.473059956662258","7.9553127246409149","0.0","0.0","0.0","0.0",""
"3","25292.85283651659","25292.852719838032","2371","6072910","4423.595141412592","5292.893104306891","1.895","0.0","0.0","0.0","","","","-4.158481428391147","2.0127237925890486","0.0","0.0","0.0","0.0","2.38186394908066E-08"
"2","25292.899999999998","","","","4584.73556600549","5183.7305502352269","1.895","","","","0.0","0.0","0.0","-10.486097922444529","7.9658764613473729","0.0","0.0","0.0","0.0",""
"3","25292.93278068403","25292.93266553362","829","6077976","4402.826126359967","5307.88627267639","1.895","0.0","0.0","0.0","","","","3.403275961555239","-0.264526944211263","0.0","0.0","0.0","0.0","6.52374110136556E-09"
"3","25292.99997170226","25292.99985383381","1309","6083074","4402.5504101266619","5311.218577084659","1.895","0.0","0.0","0.0","","","","3.3336818650367237","-0.2596046565145614","0.0","0.0","0.0","0.0","6.86216889032602E-09"
"2","25293.0","","","","4583.681176600161","5184.531528426269","1.895","","","","0.0","0.0","0.0","-10.543426693202191","8.009426875325387","0.0","0.0","0.0","0.0",""
"3","25293.090350122053","25293.090232982067","601","6090781","4412.124287978894","5310.473028057499","1.895","0.0","0.0","0.0","","","","5.028310313456104","-0.39157088907132978","0.0","0.0","0.0","0.0","2.37353363305984E-08"
"2","25293.1","","","","4582.623892002103","5185.334705981438","1.895","","","","0.0","0.0","0.0","-10.572377337188238","8.031419541729648","0.0","0.0","0.0","0.0",""
"2","25293.2","","","","4581.572322597666","5186.133541928635","1.895","","","","0.0","0.0","0.0","-10.515227934249591","7.988005386432084","0.0","0.0","0.0","0.0",""
"2","25293.3","","","","4580.520640180029","5186.932463727519","1.895","","","","0.0","0.0","0.0","-10.516358016160013","7.988863865244337","0.0","0.0","0.0","0.0",""
"3","25293.323958773904","25293.323853351034","2983","6103109","4590.795294666317","5183.276283457646","1.895","0.0","0.0","0.0","","","","-9.603140828161726","7.300298102203982","0.0","0.0","0.0","0.0","0.0000011707059010351566"
"3","25293.338305951056","25293.338187938465","2341","6104988","5560.0","5820.0","1.895","0.0","0.0","0.0","","","","4.66348273231009E-15","-4.70686396703065E-14","0.0","0.0","0.0","0.0","8.5562485301615E-09"
"3","25293.379165088845","25293.379056895847","427","6107452","4424.146779257221","5307.338292730782","1.895","0.0","0.0","0.0","","","","6.765756891083199","-2.963027232612043","0.0","0.0","0.0","0.0","1.96761706060394E-08"
"3","25293.386348147567","25293.386235944086","2269","6108137","4413.297450208517","5300.382485533584","1.895","0.0","0.0","0.0","","","","-6.566249953476721","1.5184381773980467","0.0","0.0","0.0","0.0","3.65944753416907E-09"
"2","25293.399999999998","","","","4579.468035740798","5187.73208594997","1.895","","","","0.0","0.0","0.0","-10.525577823408885","7.9958677904514519","0.0","0.0","0.0","0.0",""
"3","25293.404417945512","25293.404306530487","709","6109711","4607.5163806467849","5305.439770347385","1.895","0.0","0.0","0.0","","","","-2.35242402781294","-12.35831934795168","0.0","0.0","0.0","0.0","4.53107961550817E-09"
"3","25293.424197945817","25293.424088987056","403","6111456","5560.0","5820.0","1.895","0.0","0.0","0.0","","","","-1.459260002988594","-13.11402370916207","0.0","0.0","0.0","0.0","2.39620738971776E-08"
"3","25293.473039161185","25293.47292243354","2287","6115109","4413.058718820674","5303.736030311237","1.895","0.0","0.0","0.0","","","","-6.7396593393809829","1.2788165622797907","0.0","0.0","0.0","0.0","1.06979168074855E-08"
"3","25293.482185162484","25293.48207425936","2929","6115763","5560.0","5820.0","1.895","0.0","0.0","0.0","","","","-11.269530366313539","8.262910710106116","0.0","0.0","0.0","0.0","2.83830149774847E-07"
"3","25293.483506317792","25293.483393540373","739","6116045","4423.6537860721259","5303.906423021492","1.895","0.0","0.0","0.0","","","","6.889836955055255","-3.26296067149235","0.0","0.0","0.0","0.0","5.74451365951227E-09"
"3","25293.485629946626","25293.485522898703","2785","6116327","5560.0","5820.0","1.895","0.0","0.0","0.0","","","","1.1476916832578666","10.316884378526025","0.0","0.0","0.0","0.0","3.48990920598532E-08"
"2","25293.5","","","","4578.4172712874919","5188.530310407429","1.895","","","","0.0","0.0","0.0","-10.507178779736979","7.981890760101108","0.0","0.0","0.0","0.0",""
"3","25293.52629631821","25293.52617865647","2935","6118038","4558.956855352375","5202.821403690783","1.895","0.0","0.0","0.0","","","","-11.647818097798992","8.542828506140728","0.0","0.0","0.0","0.0","8.40621731190607E-08"
"2","25293.6","","","","4577.361478747282","5189.322949296776","1.895","","","","0.0","0.0","0.0","-10.525934185517848","7.968546571175093","0.0","0.0","0.0","0.0",""
"3","25293.672996498517","25293.67288915883","1105","6126318","4415.32654691732","5306.800484405773","1.895","0.0","0.0","0.0","","","","6.331057488575455","-0.6585361942711777","0.0","0.0","0.0","0.0","7.76585506785165E-09"
"2","25293.7","","","","4576.298440263552","5190.102610808115","1.895","","","","0.0","0.0","0.0","-10.549473541530697","7.904776442215385","0.0","0.0","0.0","0.0",""
"3","25293.777913499573","25293.77780199498","2947","6134410","5560.0","5820.0","1.895","0.0","0.0","0.0","","","","-11.138142900761404","8.160982821874465","0.0","0.0","0.0","0.0","5.86051119992757E-07"
"3","25293.794615419873","25293.794506453676","877","6135750","4602.592054381232","5265.279160191387","1.895","0.0","0.0","0.0","","","","-1.46044007780805","-13.124628761798263","0.0","0.0","0.0","0.0","8.78920732424635E-09"
"2","25293.8","","","","4575.232869480699","5190.884129576921","1.895","","","","0.0","0.0","0.0","-10.613669127923642","7.871201666279782","0.0","0.0","0.0","0.0",""
"3","25293.852827607316","25293.852719838032","2371","6138881","4418.848270550796","5295.27441968223","1.895","0.0","0.0","0.0","","","","-5.8536341832834479","2.9669723833642758","0.0","0.0","0.0","0.0","3.76344114355166E-09"
"2","25293.899999999998","","","","4574.162839066646","5191.668919161276","1.895","","","","0.0","0.0","0.0","-10.697218872160816","7.851106707343778","0.0","0.0","0.0","0.0",""
"3","25293.932771715215","25293.93266553362","829","6143451","4407.311228843063","5307.537658438894","1.895","0.0","0.0","0.0","","","","5.316919900098568","-0.4132690353873443","0.0","0.0","0.0","0.0","8.85773194897493E-09"
"2","25294.0","","","","4573.099382586634","5192.448887242525","1.895","","","","0.0","0.0","0.0","-10.63409342101703","7.799335090167642","0.0","0.0","0.0","0.0",""
"2","25294.1","","","","4572.028613130909","5193.234218860265","1.895","","","","0.0","0.0","0.0","-10.707219936676279","7.852968077677113","0.0","0.0","0.0","0.0",""
"3","25294.180572780584","25294.180467666218","2995","6160672","5560.0","5820.0","1.895","0.0","0.0","0.0","","","","-11.074252506233439","8.40333430307013","0.0","0.0","0.0","0.0","9.62202322341377E-07"
"2","25294.2","","","","4570.966489419502","5194.013209452552","1.895","","","","0.0","0.0","0.0","-10.62076632573208","7.78956063382254","0.0","0.0","0.0","0.0",""
"2","25294.3","","","","4569.900934357307","5194.794716691397","1.895","","","","0.0","0.0","0.0","-10.655078312658116","7.8147259838959439","0.0","0.0","0.0","0.0",""
"3","25294.3239698218","25294.323853351034","2983","6167911","4581.141494806334","5190.60773702677","1.895","0.0","0.0","0.0","","","","-9.60593212497949","7.294730410698522","0.0","0.0","0.0","0.0","0.00000207911456305442"
"3","25294.37916299221","25294.379056895847","427","6172329","4431.888745024003","5303.543456413114","1.895","0.0","0.0","0.0","","","","8.33564897249457","-4.031542765711796","0.0","0.0","0.0","0.0","4.98187719701588E-09"
"3","25294.386346147847","25294.386235944086","2269","6172985","4405.441169440264","5301.0627063032029","1.895","0.0","0.0","0.0","","","","-8.794745795437257","0.6837486044546158","0.0","0.0","0.0","0.0","1.60464249156571E-08"
"2","25294.399999999998","","","","4568.8362438563049","5195.575589837407","1.895","","","","0.0","0.0","0.0","-10.646433083956973","7.808385336610894","0.0","0.0","0.0","0.0",""
"3","25294.473037161755","25294.47292243354","2287","6179770","4405.0256754143979","5304.406082005463","1.895","0.0","0.0","0.0","","","","-8.805335147538602","0.6856710002509978","0.0","0.0","0.0","0.0","1.64552095465499E-09"
"3","25294.482186966696","25294.48207425936","2929","6180434","5560.0","5820.0","1.895","0.0","0.0","0.0","","","","-11.349187828617057","8.10860212157958","0.0","0.0","0.0","0.0","0.0000010269928275556558"
"3","25294.483507971756","25294.483393540373","739","6180715","4431.4160931713499","5300.105610461096","1.895","0.0","0.0","0.0","","","","8.741599111510395","-4.227859163305495","0.0","0.0","0.0","0.0","1.79174197667252E-08"
"2","25294.5","","","","4567.769247312186","5196.3581542985389","1.895","","","","0.0","0.0","0.0","-10.669492492952604","7.825297738133648","0.0","0.0","0.0","0.0",""
"3","25294.526284972206","25294.52617865647","2935","6182713","4547.160360051377","5211.262226814522","1.895","0.0","0.0","0.0","","","","-11.84973826934137","8.370360520198313","0.0","0.0","0.0","0.0","7.32471366968352E-07"
"2","25294.6","","","","4566.699838994706","5197.1424876202449","1.895","","","","0.0","0.0","0.0","-10.693609157556582","7.842985559843327","0.0","0.0","0.0","0.0",""
"2","25294.7","","","","4565.636912158994","5197.922067245872","1.895","","","","0.0","0.0","0.0","-10.62879721278536","7.795450706133131","0.0","0.0","0.0","0.0",""
"3","25294.757921127177","25294.75780309569","2323","6197765","4400.522563484165","5298.136989723367","1.895","0.0","0.0","0.0","","","","-9.6314776482914","0.749971059547381","0.0","0.0","0.0","0.0","8.81150240182489E-09"
"3","25294.777909127355","25294.77780199498","2947","6198773","5560.0","5820.0","1.895","0.0","0.0","0.0","","","","-11.21884988019848","7.923389004694291","0.0","0.0","0.0","0.0","6.79981395134962E-07"
"2","25294.8","","","","4564.566418098472","5198.707196881234","1.895","","","","0.0","0.0","0.0","-10.704466106713362","7.8509483434306859","0.0","0.0","0.0","0.0",""
"3","25294.8528281297","25294.852719838032","2371","6203334","4412.274313907527","5297.184022556664","1.895","0.0","0.0","0.0","","","","-8.25001579526022","1.5736694454527558","0.0","0.0","0.0","0.0","4.09656715719655E-09"
"2","25294.899999999998","","","","4563.498799158985","5199.490217824158","1.895","","","","0.0","0.0","0.0","-10.67571617076704","7.829862353735342","0.0","0.0","0.0","0.0",""
"3","25294.93277217285","25294.93266553362","829","6207954","4413.690748560149","5306.986794013651","1.895","0.0","0.0","0.0","","","","7.3144701614883609","-0.6504458329148293","0.0","0.0","0.0","0.0","6.11485228385795E-09"
"2","25295.0","","","","4562.437134071598","5200.2688720490409","1.895","","","","0.0","0.0","0.0","-10.616180288816789","7.786197108866188","0.0","0.0","0.0","0.0",""
"3","25295.09034732644","25295.090232982067","601","6220320","4425.951203431863","5306.440257551273","1.895","0.0","0.0","0.0","","","","7.918447185758926","-3.775985047571817","0.0","0.0","0.0","0.0","7.85882458671992E-09"
"2","25295.1","","","","4561.369940390784","5201.051581095618","1.895","","","","0.0","0.0","0.0","-10.671463772525235","7.826743528511319","0.0","0.0","0.0","0.0",""
"3","25295.180574371116","25295.180467666218","2995","6225250","5560.0","5820.0","1.895","0.0","0.0","0.0","","","","-11.1448178305984","8.165873582230326","0.0","0.0","0.0","0.0","0.000003179172835042205"
"2","25295.2","","","","4560.308417225182","5201.830131231179","1.895","","","","0.0","0.0","0.0","-10.614761133880159","7.785156261801386","0.0","0.0","0.0","0.0",""
"2","25295.3","","","","4559.247480698357","5202.608251109809","1.895","","","","0.0","0.0","0.0","-10.608895006133551","7.780853883200207","0.0","0.0","0.0","0.0",""
"3","25295.323958421315","25295.323853351034","2983","6232445","4571.354644440637","5197.821550036716","1.895","0.0","0.0","0.0","","","","-9.784762692980733","7.174267056712233","0.0","0.0","0.0","0.0","7.75049571153659E-08"
"3","25295.386347718064","25295.386235944086","2269","6237043","4395.686131523684","5301.821112937913","1.895","0.0","0.0","0.0","","","","-10.57931354873018","0.8224900461326115","0.0","0.0","0.0","0.0","9.85287049186605E-09"
"2","25295.399999999998","","","","4558.186202702615","5203.3866214310869","1.895","","","","0.0","0.0","0.0","-10.612309543941248","7.783358198658601","0.0","0.0","0.0","0.0",""
"3","25295.473038732318","25295.47292243354","2287","6243774","4395.081419968225","5305.180440671461","1.895","0.0","0.0","0.0","","","","-10.758416321130547","0.8377573319366981","0.0","0.0","0.0","0.0","9.9188973463902E-09"
"3","25295.48219072031","25295.48207425936","2929","6244404","5560.0","5820.0","1.895","0.0","0.0","0.0","","","","-11.445313467885013","7.916999591924091","0.0","0.0","0.0","0.0","6.1124928111508E-08"
"3","25295.483510744678","25295.483393540373","739","6244670","4441.242204184504","5295.353229008149","1.895","0.0","0.0","0.0","","","","10.773515260521157","-5.210591864735627","0.0","0.0","0.0","0.0","1.64683936256202E-09"
"2","25295.5","","","","4557.123325232364","5204.166164850735","1.895","","","","0.0","0.0","0.0","-10.628303580079706","7.795088662399078","0.0","0.0","0.0","0.0",""
"3","25295.526287745262","25295.52617865647","2935","6246662","4535.249077839548","5219.503457835913","1.895","0.0","0.0","0.0","","","","-11.893307296107754","8.228794456592784","0.0","0.0","0.0","0.0","2.24918288141378E-07"
"2","25295.6","","","","4556.049542938992","5204.945968066438","1.895","","","","0.0","0.0","0.0","-10.715657868513129","7.836327100346965","0.0","0.0","0.0","0.0",""
"3","25295.6730058192","25295.67288915883","1105","6255356","4430.845423253274","5300.381613971619","1.895","0.0","0.0","0.0","","","","9.72474993605607","-4.703358344799976","0.0","0.0","0.0","0.0","2.5711842513881E-09"
"2","25295.7","","","","4554.974565774104","5205.713613767413","1.895","","","","0.0","0.0","0.0","-10.701700751994036","7.7651186477297469","0.0","0.0","0.0","0.0",""
"3","25295.757916059796","25295.75780309569","2323","6262048","4389.822909135158","5298.97013614201","1.895","0.0","0.0","0.0","","","","-11.566224196279439","0.9006233240841348","0.0","0.0","0.0","0.0","6.37723830657906E-09"
"3","25295.777917059884","25295.77780199498","2947","6263413","5560.0","5820.0","1.895","0.0","0.0","0.0","","","","-11.370114295155855","7.8608197596123319","0.0","0.0","0.0","0.0","3.89378416615005E-07"
"2","25295.8","","","","4553.902883325422","5206.47890669773","1.895","","","","0.0","0.0","0.0","-10.697585403811886","7.701632061002092","0.0","0.0","0.0","0.0",""
"2","25295.899999999998","","","","4552.826775885942","5207.24735953253","1.895","","","","0.0","0.0","0.0","-10.770545078311982","7.693286134925752","0.0","0.0","0.0","0.0",""
"3","25295.999966122705","25295.99985383381","1309","6276691","4421.558512600572","5308.542246757775","1.895","0.0","0.0","0.0","","","","8.778466101311697","-2.549768790140534","0.0","0.0","0.0","0.0","1.12439961232519E-08"
"2","25296.0","","","","4551.75581018127","5208.012140632944","1.895","","","","0.0","0.0","0.0","-10.720021428146902","7.655212252375125","0.0","0.0","0.0","0.0",""
"2","25296.1","","","","4550.684756039602","5208.776984886587","1.895","","","","0.0","0.0","0.0","-10.720906653971705","7.65584439584849","0.0","0.0","0.0","0.0",""
"3","25296.180584164435","25296.180467666218","2995","6288722","5560.0","5820.0","1.895","0.0","0.0","0.0","","","","-11.281502787992462","8.197142378738687","0.0","0.0","0.0","0.0","3.7340036917376E-07"
"2","25296.2","","","","4549.6098631135459","5209.544570432259","1.895","","","","0.0","0.0","0.0","-10.759331648088628","7.6832838452687108","0.0","0.0","0.0","0.0",""
"2","25296.3","","","","4548.533155040301","5210.312411299489","1.895","","","","0.0","0.0","0.0","-10.773617370536693","7.6904206379500998","0.0","0.0","0.0","0.0",""
"3","25296.32396822451","25296.323853351034","2983","6295563","4561.571146357874","5204.994889871001","1.895","0.0","0.0","0.0","","","","-9.805250342482607","7.189288766844887","0.0","0.0","0.0","0.0","1.34990760994508E-07"
"3","25296.379167027735","25296.379056895847","427","6299189","4452.486971709999","5293.581108903465","1.895","0.0","0.0","0.0","","","","12.091781186444772","-5.848198877812472","0.0","0.0","0.0","0.0","9.44184069502483E-09"
"3","25296.386350482575","25296.386235944086","2269","6300085","4384.090019384606","5302.722654116773","1.895","0.0","0.0","0.0","","","","-12.47584895012574","0.9699364265240118","0.0","0.0","0.0","0.0","9.85873739650355E-09"
"2","25296.399999999998","","","","4547.44488579624","5211.065367874129","1.895","","","","0.0","0.0","0.0","-10.804332875305687","7.641197032763592","0.0","0.0","0.0","0.0",""
"3","25296.473028496996","25296.47292243354","2287","6306841","4383.3331942968029","5306.09527440718","1.895","0.0","0.0","0.0","","","","-12.518382465167449","0.9748058060909622","0.0","0.0","0.0","0.0","9.52423281912484E-09"
"3","25296.48218749934","25296.48207425936","2929","6307469","5560.0","5820.0","1.895","0.0","0.0","0.0","","","","-11.205409466485916","8.221549138026008","0.0","0.0","0.0","0.0","6.44048266753664E-08"
"3","25296.483500513037","25296.483393540373","739","6307740","4452.440069973024","5289.937400750693","1.895","0.0","0.0","0.0","","","","11.328176351725358","-5.4788527340631429","0.0","0.0","0.0","0.0","7.49291117650272E-09"
"2","25296.5","","","","4546.355892184554","5211.818825627469","1.895","","","","0.0","0.0","0.0","-10.844884662479416","7.598893471114822","0.0","0.0","0.0","0.0",""
"3","25296.526290513782","25296.52617865647","2935","6309724","4523.524908687587","5228.0554075574059","1.895","0.0","0.0","0.0","","","","-11.652425738806779","8.549922291321746","0.0","0.0","0.0","0.0","1.10024629667216E-07"
"2","25296.6","","","","4545.2645073748149","5212.573937813575","1.895","","","","0.0","0.0","0.0","-10.901976115630572","7.567863023896047","0.0","0.0","0.0","0.0",""
"3","25296.673003223503","25296.67288915883","1105","6318375","4441.046002799186","5295.448121465947","1.895","0.0","0.0","0.0","","","","10.405848394604858","-5.032770426313505","0.0","0.0","0.0","0.0","2.35928410022091E-09"
"2","25296.7","","","","4544.174467879837","5213.328119197307","1.895","","","","0.0","0.0","0.0","-10.900212760447197","7.541687783363575","0.0","0.0","0.0","0.0",""
"3","25296.777914614446","25296.77780199498","2947","6326980","5560.0","5820.0","1.895","0.0","0.0","0.0","","","","-11.15428115451271","8.189000847593926","0.0","0.0","0.0","0.0","2.36638327518346E-07"
"2","25296.8","","","","4543.082798545676","5214.083428241438","1.895","","","","0.0","0.0","0.0","-10.916510879871757","7.552964198866402","0.0","0.0","0.0","0.0",""
"3","25296.852833617966","25296.852719838032","2371","6331819","4391.838344811505","5298.813200884012","1.895","0.0","0.0","0.0","","","","-11.364917320778318","0.8849482287130466","0.0","0.0","0.0","0.0","1.01192376291416E-08"
"2","25296.899999999998","","","","4542.000745986881","5214.83208358817","1.895","","","","0.0","0.0","0.0","-10.82034473355854","7.48642833697431","0.0","0.0","0.0","0.0",""
"2","25297.0","","","","4540.913473957494","5215.584350205477","1.895","","","","0.0","0.0","0.0","-10.872538567100234","7.522540439135896","0.0","0.0","0.0","0.0",""
"3","25297.09034545548","25297.090232982067","601","6347973","4445.371867111143","5297.022334483796","1.895","0.0","0.0","0.0","","","","11.245124671339993","-5.438712830623441","0.0","0.0","0.0","0.0","1.03866642536461E-08"
"2","25297.1","","","","4539.831192921782","5216.333163631835","1.895","","","","0.0","0.0","0.0","-10.822629464541107","7.488009106828822","0.0","0.0","0.0","0.0",""
"3","25297.18057765744","25297.180467666218","2995","6353484","5560.0","5820.0","1.895","0.0","0.0","0.0","","","","-11.43701473980256","7.907071918874242","0.0","0.0","0.0","0.0","0.0000029632538477086504"
"2","25297.2","","","","4538.74459508721","5217.084963784228","1.895","","","","0.0","0.0","0.0","-10.86579673162982","7.517875867964481","0.0","0.0","0.0","0.0",""
"2","25297.3","","","","4537.655550807161","5217.8384565942219","1.895","","","","0.0","0.0","0.0","-10.890260777504294","7.534802161052323","0.0","0.0","0.0","0.0",""
"3","25297.323961727376","25297.323853351034","2983","6359874","4551.68050384956","5212.120847564088","1.895","0.0","0.0","0.0","","","","-9.85749634694438","7.042840157311505","0.0","0.0","0.0","0.0","1.31850473515858E-07"
"3","25297.379167395993","25297.379056895847","427","6363537","4463.526377028381","5285.901214527479","1.895","0.0","0.0","0.0","","","","10.652689791552625","-8.286084431403739","0.0","0.0","0.0","0.0","3.66082166657664E-08"
"3","25297.386351003086","25297.386235944086","2269","6364452","4370.570180770808","5303.91439758479","1.895","0.0","0.0","0.0","","","","-14.369348853676034","1.5236598919278819","0.0","0.0","0.0","0.0","1.57442015817182E-09"
"2","25297.399999999998","","","","4536.5643456980319","5218.593444448268","1.895","","","","0.0","0.0","0.0","-10.91186870714002","7.549752351708128","0.0","0.0","0.0","0.0",""
"3","25297.473029016666","25297.47292243354","2287","6371246","4370.025677982169","5307.304677128991","1.895","0.0","0.0","0.0","","","","-13.503115894186081","1.5213812343203253","0.0","0.0","0.0","0.0","6.79123969187356E-09"
"3","25297.48218100716","25297.48207425936","2929","6371902","5560.0","5820.0","1.895","0.0","0.0","0.0","","","","-11.19798918815439","8.216104786964769","0.0","0.0","0.0","0.0","3.12109638173668E-07"
"3","25297.48350149702","25297.483393540373","739","6372177","4462.49893944945","5282.519168636269","1.895","0.0","0.0","0.0","","","","9.909314160733848","-7.707866752497131","0.0","0.0","0.0","0.0","4.168705811263E-08"
"2","25297.5","","","","4535.482588925733","5219.34189514492","1.895","","","","0.0","0.0","0.0","-10.817386918039479","7.484381870390968","0.0","0.0","0.0","0.0",""
"3","25297.52629149795","25297.52617865647","2935","6374149","4511.835793110449","5236.635767842492","1.895","0.0","0.0","0.0","","","","-11.730982151800227","8.61780130708079","0.0","0.0","0.0","0.0","1.08979583763783E-07"
"2","25297.6","","","","4534.396030307791","5220.093668163937","1.895","","","","0.0","0.0","0.0","-10.86540457188117","7.5176045387298588","0.0","0.0","0.0","0.0",""
"3","25297.673004035893","25297.67288915883","1105","6382783","4451.534173710274","5290.37553589812","1.895","0.0","0.0","0.0","","","","10.696056841542103","-5.1731292355007139","0.0","0.0","0.0","0.0","3.47297650745391E-08"
"2","25297.7","","","","4533.328110478284","5220.86234618157","1.895","","","","0.0","0.0","0.0","-10.780316230061369","7.545880547530427","0.0","0.0","0.0","0.0",""
"3","25297.777915583334","25297.77780199498","2947","6391389","5560.0","5820.0","1.895","0.0","0.0","0.0","","","","-11.122028625713553","8.16590062863006","0.0","0.0","0.0","0.0","3.2776842011378E-07"
"2","25297.8","","","","4532.2673282181799","5221.640691059727","1.895","","","","0.0","0.0","0.0","-10.717066446041775","7.631950959782313","0.0","0.0","0.0","0.0",""
"2","25297.899999999998","","","","4531.20296930367","5222.421660294212","1.895","","","","0.0","0.0","0.0","-10.690483907651539","7.7449991952707679","0.0","0.0","0.0","0.0",""
"3","25297.932778603103","25297.93266553362","829","6400646","4440.255454271773","5295.830468882366","1.895","0.0","0.0","0.0","","","","9.606582807276013","-4.64620701907139","0.0","0.0","0.0","0.0","1.59632804612319E-08"
"3","25297.99996963164","25297.99985383381","1309","6405814","4442.870064837419","5301.898756843026","1.895","0.0","0.0","0.0","","","","10.721611555680909","-5.185541338763376","0.0","0.0","0.0","0.0","8.65970451888772E-09"
"2","25298.0","","","","4530.132133761217","5223.207381729387","1.895","","","","0.0","0.0","0.0","-10.708176444954914","7.857083026175899","0.0","0.0","0.0","0.0",""
"3","25298.09034729844","25298.090232982067","601","6412327","4456.80556559864","5291.128928095045","1.895","0.0","0.0","0.0","","","","11.262455014791233","-6.393058047029297","0.0","0.0","0.0","0.0","2.6028067335242E-08"
"2","25298.1","","","","4529.070357497394","5223.986455953925","1.895","","","","0.0","0.0","0.0","-10.61758517281618","7.790612030824888","0.0","0.0","0.0","0.0",""
"3","25298.180574332688","25298.180467666218","2995","6417990","5560.0","5820.0","1.895","0.0","0.0","0.0","","","","-11.304648373460795","8.013175434916601","0.0","0.0","0.0","0.0","0.0000015599902202949384"
"2","25298.2","","","","4528.007284516699","5224.766481639451","1.895","","","","0.0","0.0","0.0","-10.630552124818318","7.800126481676718","0.0","0.0","0.0","0.0",""
"2","25298.3","","","","4526.941725211627","5225.548331655866","1.895","","","","0.0","0.0","0.0","-10.655414953009345","7.818369485643506","0.0","0.0","0.0","0.0",""
"3","25298.32395841194","25298.323853351034","2983","6424232","4541.690370963821","5219.059246843647","1.895","0.0","0.0","0.0","","","","-9.996703652775395","6.914961216368557","0.0","0.0","0.0","0.0","1.21823605274419E-07"
"3","25298.379163903406","25298.379056895847","427","6427951","4474.198907985046","5277.604708738334","1.895","0.0","0.0","0.0","","","","10.65748929085952","-8.274790268686483","0.0","0.0","0.0","0.0","3.37892432132547E-08"
"2","25298.399999999998","","","","4525.873631038609","5226.332041621826","1.895","","","","0.0","0.0","0.0","-10.680763208792803","7.836968670227652","0.0","0.0","0.0","0.0",""
"3","25298.473038706426","25298.47292243354","2287","6435408","4356.466000167944","5308.880650840546","1.895","0.0","0.0","0.0","","","","-13.604238627266224","1.5811527925685847","0.0","0.0","0.0","0.0","1.76365776411162E-08"
"3","25298.48218471107","25298.48207425936","2929","6436082","5560.0","5820.0","1.895","0.0","0.0","0.0","","","","-11.236114257871583","8.255891677888047","0.0","0.0","0.0","0.0","6.56745243448082E-07"
"3","25298.48350502447","25298.483393540373","739","6436350","4472.388656608794","5274.8331295146149","1.895","0.0","0.0","0.0","","","","9.907158443762972","-7.687780326870055","0.0","0.0","0.0","0.0","3.40375984956385E-09"
"2","25298.5","","","","4524.8082874070209","5227.113733388657","1.895","","","","0.0","0.0","0.0","-10.653258254231933","7.816787016261938","0.0","0.0","0.0","0.0",""
"3","25298.526295025833","25298.52617865647","2935","6438332","4500.154148672646","5245.239096926533","1.895","0.0","0.0","0.0","","","","-11.686565574334","8.640161856007952","0.0","0.0","0.0","0.0","1.11666948834331E-07"
"2","25298.6","","","","4523.738340064227","5227.898803110769","1.895","","","","0.0","0.0","0.0","-10.699294596818295","7.850566004475456","0.0","0.0","0.0","0.0",""
"3","25298.67300738939","25298.67288915883","1105","6447231","4461.168960371537","5283.55368034413","1.895","0.0","0.0","0.0","","","","9.478335203614549","-7.372633827117791","0.0","0.0","0.0","0.0","8.65420353997168E-08"
"2","25298.7","","","","4522.6781191631639","5228.676736093903","1.895","","","","0.0","0.0","0.0","-10.60203180518617","7.779199807522039","0.0","0.0","0.0","0.0",""
"3","25298.777919094635","25298.77780199498","2947","6456006","5560.0","5820.0","1.895","0.0","0.0","0.0","","","","-11.093186550955819","8.153329066333497","0.0","0.0","0.0","0.0","5.01424956164274E-07"
"3","25298.794618635544","25298.794506453676","877","6457333","4600.882813055436","5206.388100438426","1.895","0.0","0.0","0.0","","","","1.021907937124794","-6.859332925332654","0.0","0.0","0.0","0.0","6.64344854054662E-08"
"2","25298.8","","","","4521.615277247293","5229.456592236506","1.895","","","","0.0","0.0","0.0","-10.628241515174388","7.798431080790505","0.0","0.0","0.0","0.0",""
"3","25298.852838096373","25298.852719838032","2371","6461153","4369.103177880592","5300.76802956252","1.895","0.0","0.0","0.0","","","","-11.295168323716343","1.3140028296569975","0.0","0.0","0.0","0.0","3.56604188195072E-09"
"2","25298.899999999998","","","","4520.54857318591","5230.239282213435","1.895","","","","0.0","0.0","0.0","-10.66686232479545","7.826768950391283","0.0","0.0","0.0","0.0",""
"3","25298.932782114025","25298.93266553362","829","6465861","4449.789909338959","5291.219146318985","1.895","0.0","0.0","0.0","","","","9.624918587759915","-4.655075087323366","0.0","0.0","0.0","0.0","2.41191465703255E-08"
"3","25298.999960139383","25298.99985383381","1309","6470962","4453.614272838642","5296.702286661908","1.895","0.0","0.0","0.0","","","","10.699442253941726","-5.17481908586213","0.0","0.0","0.0","0.0","1.191162814583E-07"
"2","25299.0","","","","4519.485392464303","5231.019386953438","1.895","","","","0.0","0.0","0.0","-10.631629515921756","7.800917013232054","0.0","0.0","0.0","0.0",""
"3","25299.090350633345","25299.090232982067","601","6477090","4466.973944165644","5283.219560133963","1.895","0.0","0.0","0.0","","","","10.147365852663489","-7.893023438846823","0.0","0.0","0.0","0.0","3.31676403759435E-08"
"2","25299.1","","","","4518.415920483326","5231.8041078806559","1.895","","","","0.0","0.0","0.0","-10.694541058097388","7.847078113833058","0.0","0.0","0.0","0.0",""
"3","25299.180577664334","25299.180467666218","2995","6482718","5560.0","5820.0","1.895","0.0","0.0","0.0","","","","-11.172918814085908","8.20268382796344","0.0","0.0","0.0","0.0","3.086481667934E-07"
"2","25299.2","","","","4517.349289430039","5232.586744288176","1.895","","","","0.0","0.0","0.0","-10.666132256037795","7.826233265265","0.0","0.0","0.0","0.0",""
"2","25299.3","","","","4516.286985392711","5233.3662057644819","1.895","","","","0.0","0.0","0.0","-10.622862819654064","7.794484483769821","0.0","0.0","0.0","0.0",""
"3","25299.323961752885","25299.323853351034","2983","6489053","4531.776697838561","5226.092004016072","1.895","0.0","0.0","0.0","","","","-9.76727232851386","7.140473616957905","0.0","0.0","0.0","0.0","1.96340099011044E-07"
"3","25299.37916706787","25299.379056895847","427","6492657","4484.903516280106","5269.358445818291","1.895","0.0","0.0","0.0","","","","10.660722937793649","-8.212455966590062","0.0","0.0","0.0","0.0","2.77609182117394E-08"
"2","25299.399999999998","","","","4515.22417888126","5234.146035929231","1.895","","","","0.0","0.0","0.0","-10.627887476913852","7.798171306591579","0.0","0.0","0.0","0.0",""
"3","25299.47304049782","25299.47292243354","2287","6500122","4342.844630688729","5310.03255996245","1.895","0.0","0.0","0.0","","","","-13.607728844611613","1.0054256841723346","0.0","0.0","0.0","0.0","9.35185279899171E-09"
"3","25299.482186503814","25299.48207425936","2929","6500814","5560.0","5820.0","1.895","0.0","0.0","0.0","","","","-11.217572433020538","8.310924494595426","0.0","0.0","0.0","0.0","5.54909519974519E-07"
"3","25299.483506641398","25299.483393540373","739","6501087","4482.304052632924","5267.194833902336","1.895","0.0","0.0","0.0","","","","9.956099254253746","-7.6696512236244109","0.0","0.0","0.0","0.0","2.83250527192082E-08"
"2","25299.5","","","","4514.1629068608","5234.925359194078","1.895","","","","0.0","0.0","0.0","-10.614632981869147","7.790257055428311","0.0","0.0","0.0","0.0",""
"3","25299.526296645487","25299.52617865647","2935","6503077","4488.5551889159319","5253.929668578631","1.895","0.0","0.0","0.0","","","","-11.54101487078605","8.827665578361933","0.0","0.0","0.0","0.0","1.82318075337714E-08"
"2","25299.6","","","","4513.09773995477","5235.708247734788","1.895","","","","0.0","0.0","0.0","-10.655094608970427","7.823849300694351","0.0","0.0","0.0","0.0",""
"3","25299.672995833742","25299.67288915883","1105","6512049","4470.6722887005","5276.1616058496979","1.895","0.0","0.0","0.0","","","","9.54592771323137","-7.425210024535953","0.0","0.0","0.0","0.0","1.63646139631217E-07"
"2","25299.7","","","","4512.034619351474","5236.489632260537","1.895","","","","0.0","0.0","0.0","-10.632772502584825","7.811341067490197","0.0","0.0","0.0","0.0",""
"3","25299.77791216665","25299.77780199498","2947","6520898","5560.0","5820.0","1.895","0.0","0.0","0.0","","","","-11.125625781042002","8.25007942532591","0.0","0.0","0.0","0.0","4.93820855968438E-07"
"3","25299.794611810066","25299.794506453676","877","6522202","4601.819258487522","5201.034076628198","1.895","0.0","0.0","0.0","","","","0.7617630596647967","-4.287217219852381","0.0","0.0","0.0","0.0","3.91556463829759E-08"
"2","25299.8","","","","4510.973827830024","5237.2693049311069","1.895","","","","0.0","0.0","0.0","-10.607737913686514","7.796596391106693","0.0","0.0","0.0","0.0",""
"3","25299.85283392052","25299.852719838032","2371","6526284","4357.7491367291909","5302.08888125533","1.895","0.0","0.0","0.0","","","","-11.354861400090347","1.320947114949469","0.0","0.0","0.0","0.0","7.03093174987862E-09"
"2","25299.899999999998","","","","4509.911765634826","5238.049911535982","1.895","","","","0.0","0.0","0.0","-10.620444438783226","7.805935578076735","0.0","0.0","0.0","0.0",""
"3","25299.93277793658","25299.93266553362","829","6531003","4458.636537126153","5285.523501930138","1.895","0.0","0.0","0.0","","","","8.393674776901813","-6.528940923129048","0.0","0.0","0.0","0.0","4.15078773268169E-09"
"3","25299.999968958375","25299.99985383381","1309","6536345","4463.507134790281","5290.0974069486469","1.895","0.0","0.0","0.0","","","","9.374209040772107","-7.291622830396645","0.0","0.0","0.0","0.0","3.08433228604318E-08"
"2","25300.0","","","","4508.843030476018","5238.835422711882","1.895","","","","0.0","0.0","0.0","-10.687172959564555","7.8549804685659458","0.0","0.0","0.0","0.0",""
