﻿"type","rcvTime","sendTime","sender","messageID","pos__001","pos__002","pos__003","pos_noise__001","pos_noise__002","pos_noise__003","noise__001","noise__002","noise__003","spd__001","spd__002","spd__003","spd_noise__001","spd_noise__002","spd_noise__003","RSSI"
"2","25288.8","","","","6324.841648180063","5881.3098998622149","1.895","","","","0.0","0.0","0.0","-3.03246789587123","9.592764210377121","0.0","0.0","0.0","0.0",""
"3","25288.81555634799","25288.815446905184","2857","5806129","6315.876648832187","5912.072631026087","1.895","0.0","0.0","0.0","","","","-3.4465171433562409","12.915726859757488","0.0","0.0","0.0","0.0","1.35609228040329E-07"
"3","25288.820231488648","25288.820114613743","2869","5806420","6148.805390952255","5823.987634214729","1.895","0.0","0.0","0.0","","","","-3.2775450833835908","-0.33019297949460277","0.0","0.0","0.0","0.0","1.73378144385949E-09"
"3","25288.898174185888","25288.89806236094","547","5811983","6086.002003036779","5731.182640850386","1.895","0.0","0.0","0.0","","","","0.0","0.0","0.0","0.0","0.0","0.0","7.07427540738114E-09"
"2","25288.899999999998","","","","6324.53713489185","5882.273182664561","1.895","","","","0.0","0.0","0.0","-3.0386719622829254","9.612389857960708","0.0","0.0","0.0","0.0",""
"3","25288.915351688916","25288.915246181936","2077","5813059","5560.0","5820.0","1.895","0.0","0.0","0.0","","","","1.4432131950304148","-11.923565014938652","0.0","0.0","0.0","0.0","1.77875523420382E-08"
"3","25288.970903608206","25288.970787901337","2827","5816900","6297.673205435422","5691.197156063172","1.895","0.0","0.0","0.0","","","","-3.599937252897086","0.018523750971496654","0.0","0.0","0.0","0.0","2.80809100626907E-09"
"3","25288.97441769","25288.974302685678","2863","5817498","6317.408691403392","5919.9861870055669","1.895","0.0","0.0","0.0","","","","-3.250177549854388","13.911847838917092","0.0","0.0","0.0","0.0","6.97810874648928E-08"
"3","25288.99561572678","25288.99550988469","2839","5819055","6164.657630278336","5825.5846521051239","1.895","0.0","0.0","0.0","","","","-6.658957181432665","-0.6708499368052482","0.0","0.0","0.0","0.0","3.65900129569279E-09"
"2","25289.0","","","","6324.229039473555","5883.247797006242","1.895","","","","0.0","0.0","0.0","-3.0744172603196735","9.725464827744574","0.0","0.0","0.0","0.0",""
"3","25289.018425401715","25289.01830714494","2593","5819663","6101.23989767381","5739.689822660743","1.895","0.0","0.0","0.0","","","","2.28541472581194E-15","-4.56068531315595E-14","0.0","0.0","0.0","0.0","1.30340459759053E-08"
"3","25289.03006768471","25289.02995032142","631","5820753","6060.583493531018","5725.801783168026","1.895","0.0","0.0","0.0","","","","0.44453966975718359","0.03845665555596163","0.0","0.0","0.0","0.0","9.66668408678862E-09"
"3","25289.033181694293","25289.03307458898","379","5821421","5560.0","5820.0","1.895","0.0","0.0","0.0","","","","0.0","0.0","0.0","0.0","0.0","0.0","1.36459369304737E-08"
"3","25289.037176186608","25289.0370652223","2605","5821803","6313.301784213158","5994.385235066101","1.895","0.0","0.0","0.0","","","","1.1959353136672047","-10.668705330756139","0.0","0.0","0.0","0.0","1.36548678860661E-08"
"3","25289.04282177264","25289.04270783686","2563","5822006","6098.694833544035","5790.478138963297","1.895","0.0","0.0","0.0","","","","0.3167197622789457","-6.3203371882422039","0.0","0.0","0.0","0.0","3.37499729628268E-09"
"3","25289.068967113777","25289.068851963617","871","5825215","6073.796687895449","5726.925730279071","1.895","0.0","0.0","0.0","","","","0.0","0.0","0.0","0.0","0.0","0.0","1.57797135553362E-09"
"2","25289.1","","","","6323.918445846467","5884.230314062385","1.895","","","","0.0","0.0","0.0","-3.099346343249767","9.804324298888494","0.0","0.0","0.0","0.0",""
"3","25289.103873188313","25289.103766346165","2875","5827675","6319.815760158941","5897.455528156844","1.895","0.0","0.0","0.0","","","","-3.501734689026893","11.573995229943693","0.0","0.0","0.0","0.0","6.74267994173656E-07"
"3","25289.180082028164","25289.179963785133","2497","5832775","6100.864455567172","5747.18200026137","1.895","0.0","0.0","0.0","","","","2.352215622075E-15","-4.69399060039846E-14","0.0","0.0","0.0","0.0","7.24283846211672E-09"
"2","25289.2","","","","6323.606435561132","5885.217312507615","1.895","","","","0.0","0.0","0.0","-3.1134828682009174","9.849043107219288","0.0","0.0","0.0","0.0",""
"3","25289.245593723943","25289.245487121305","2635","5836929","6321.137004567627","5984.619408688701","1.895","0.0","0.0","0.0","","","","1.4345794707156253","-11.792860272711325","0.0","0.0","0.0","0.0","4.93874160867229E-08"
"2","25289.3","","","","6323.29283447648","5886.209343211479","1.895","","","","0.0","0.0","0.0","-3.129357109055079","9.899258923105018","0.0","0.0","0.0","0.0",""
"3","25289.31603874749","25289.315930737088","1939","5839641","5560.0","5820.0","1.895","0.0","0.0","0.0","","","","1.4980470726339544","-12.350687361601894","0.0","0.0","0.0","0.0","2.60096949165663E-08"
"3","25289.338691837744","25289.338584923","2137","5841995","5560.0","5820.0","1.895","0.0","0.0","0.0","","","","1.3863818296727855","-11.454034607328808","0.0","0.0","0.0","0.0","4.66668953290014E-08"
"2","25289.399999999998","","","","6322.976833250845","5887.208966406775","1.895","","","","0.0","0.0","0.0","-3.1533075946083159","9.975022746012775","0.0","0.0","0.0","0.0",""
"2","25289.5","","","","6322.662394119047","5888.20364814898","1.895","","","","0.0","0.0","0.0","-3.137719799491607","9.925713058903524","0.0","0.0","0.0","0.0",""
"2","25289.6","","","","6322.343664639863","5889.211901771343","1.895","","","","0.0","0.0","0.0","-3.180532244197856","10.061143903166054","0.0","0.0","0.0","0.0",""
"3","25289.65267584661","25289.652566528086","1933","5859382","6320.711980620534","5960.7128796868059","1.895","0.0","0.0","0.0","","","","1.419543375301903","-11.697037412485273","0.0","0.0","0.0","0.0","6.97098777142543E-09"
"2","25289.7","","","","6322.0255813855069","5890.218111156928","1.895","","","","0.0","0.0","0.0","-3.174083706999669","10.040744908364403","0.0","0.0","0.0","0.0",""
"2","25289.8","","","","6321.704169545883","5891.234850030281","1.895","","","","0.0","0.0","0.0","-3.207298936406981","10.14581637979723","0.0","0.0","0.0","0.0",""
"3","25289.815557633927","25289.815446905184","2857","5870925","6312.931350644125","5925.38663905364","1.895","0.0","0.0","0.0","","","","-2.59088582339401","13.167775209582504","0.0","0.0","0.0","0.0","3.68566568125582E-08"
"2","25289.899999999998","","","","6321.383809538645","5892.248261587269","1.895","","","","0.0","0.0","0.0","-3.196802929490139","10.112613812464229","0.0","0.0","0.0","0.0",""
"3","25289.915355874666","25289.915246181936","2077","5877671","5560.0","5820.0","1.895","0.0","0.0","0.0","","","","1.9180225765175814","-11.90147993280434","0.0","0.0","0.0","0.0","6.86755804871785E-09"
"3","25289.97090499043","25289.970787901337","2827","5881269","6293.143586458406","5690.5600420259429","1.895","0.0","0.0","0.0","","","","-5.68817140501852","-0.8000703517659775","0.0","0.0","0.0","0.0","2.90933464531774E-09"
"3","25289.974408877537","25289.974302685678","2863","5881868","6314.885175058534","5934.010134617394","1.895","0.0","0.0","0.0","","","","-2.2592740611610444","14.019758805883747","0.0","0.0","0.0","0.0","1.41940222068539E-07"
"2","25290.0","","","","6321.061248843269","5893.268634696079","1.895","","","","0.0","0.0","0.0","-3.218763118429533","10.182081626055185","0.0","0.0","0.0","0.0",""
"3","25290.03718020712","25290.0370652223","2605","5886083","6314.62528185091","5983.51263081618","1.895","0.0","0.0","0.0","","","","1.326442758814299","-10.896798577788472","0.0","0.0","0.0","0.0","1.68626867629062E-08"
"2","25290.1","","","","6320.736782159462","5894.295037117725","1.895","","","","0.0","0.0","0.0","-3.2377825629984184","10.24224682925818","0.0","0.0","0.0","0.0",""
"3","25290.10388062066","25290.103766346165","2875","5891954","6316.665350121499","5909.09739222544","1.895","0.0","0.0","0.0","","","","-3.1441586818490299","11.618763128971607","0.0","0.0","0.0","0.0","2.96800386341494E-07"
"2","25290.2","","","","6320.410661323903","5895.326672204075","1.895","","","","0.0","0.0","0.0","-3.254288984048785","10.294462453802453","0.0","0.0","0.0","0.0",""
"3","25290.245604961114","25290.245487121305","2635","5901403","6322.5669179528999","5972.840884468615","1.895","0.0","0.0","0.0","","","","1.4360788390916202","-11.839788677033852","0.0","0.0","0.0","0.0","1.36140904991217E-08"
"2","25290.3","","","","6320.109275941228","5896.370884952067","1.895","","","","0.0","0.0","0.0","-3.213095376263438","10.360799645500816","0.0","0.0","0.0","0.0",""
"3","25290.316725054025","25290.316619411296","2911","5904097","6324.964917184139","5880.9199565780149","1.895","0.0","0.0","0.0","","","","-3.1106744494275286","9.840159089311614","0.0","0.0","0.0","0.0","0.000002177572131140773"
"3","25290.33870250529","25290.338584923","2137","5906600","5560.0","5820.0","1.895","0.0","0.0","0.0","","","","1.404569605326143","-11.604298702908493","0.0","0.0","0.0","0.0","3.31400426701551E-09"
"3","25290.380731022957","25290.38062093537","2905","5908475","6324.033769488473","5907.139374837601","1.895","0.0","0.0","0.0","","","","-4.133019874245499","15.244745437790947","0.0","0.0","0.0","0.0","9.99077960877522E-07"
"2","25290.399999999998","","","","6319.824039149392","5897.424934399107","1.895","","","","0.0","0.0","0.0","-3.132402373311951","10.4365051198175","0.0","0.0","0.0","0.0",""
"2","25290.5","","","","6319.5392580011389","5898.477300084164","1.895","","","","0.0","0.0","0.0","-3.0322654379868134","10.447914667790656","0.0","0.0","0.0","0.0",""
"2","25290.6","","","","6319.253519774847","5899.533202506439","1.895","","","","0.0","0.0","0.0","-2.9464331246076624","10.510420374129659","0.0","0.0","0.0","0.0",""
"3","25290.645165024023","25290.6450568866","2923","5924035","6324.199515528412","5894.29715653354","1.895","0.0","0.0","0.0","","","","-4.500930162555496","14.249208087583334","0.0","0.0","0.0","0.0","8.30074188324378E-07"
"3","25290.65267334834","25290.652566528086","1933","5924668","6322.48195661349","5949.064214264546","1.895","0.0","0.0","0.0","","","","1.879947500052833","-11.663046843462585","0.0","0.0","0.0","0.0","8.01844340422211E-08"
"2","25290.7","","","","6318.966732087268","5900.592983054262","1.895","","","","0.0","0.0","0.0","-2.8617920435829689","10.575319900593142","0.0","0.0","0.0","0.0",""
"3","25290.702506771464","25290.702395490043","1783","5928572","6005.856737527434","5724.378966006932","1.895","0.0","0.0","0.0","","","","14.80313403597689","1.2810147573116194","0.0","0.0","0.0","0.0","4.60367130610189E-09"
"3","25290.730230945854","25290.73012202629","175","5930538","6160.23770149338","5831.776124565066","1.895","0.0","0.0","0.0","","","","12.158894610316127","1.2247862131860166","0.0","0.0","0.0","0.0","2.21972762550742E-09"
"3","25290.74568224321","25290.7455742809","2779","5931995","6116.809878137556","5820.764278490258","1.895","0.0","0.0","0.0","","","","-8.114473919768358","-0.8174845051490756","0.0","0.0","0.0","0.0","5.9405954945468E-09"
"3","25290.750902413223","25290.75079111508","2809","5933034","6094.508016513399","5808.2146730759709","1.895","0.0","0.0","0.0","","","","0.44546538447368608","-8.889535074473498","0.0","0.0","0.0","0.0","1.61502305277167E-08"
"2","25290.8","","","","6318.678819834152","5901.65691926403","1.895","","","","0.0","0.0","0.0","-2.873013838807564","10.616788348527767","0.0","0.0","0.0","0.0",""
"3","25290.815563100376","25290.815446905184","2857","5936524","6310.786832674868","5938.6925864536219","1.895","0.0","0.0","0.0","","","","-2.146146413911206","13.316051301744233","0.0","0.0","0.0","0.0","1.84227692215283E-07"
"2","25290.899999999998","","","","6318.39056664947","5902.7221153348659","1.895","","","","0.0","0.0","0.0","-2.876415920858075","10.629360228477216","0.0","0.0","0.0","0.0",""
"3","25290.915361274743","25290.915246181936","2077","5943340","5560.0","5820.0","1.895","0.0","0.0","0.0","","","","1.913003378857262","-11.870335419199423","0.0","0.0","0.0","0.0","2.7630372296684E-07"
"3","25290.97441434287","25290.974302685678","2863","5947717","6312.610713922543","5948.124135697707","1.895","0.0","0.0","0.0","","","","-2.263439733676247","14.045608579902498","0.0","0.0","0.0","0.0","2.19420040588146E-08"
"3","25290.995618037607","25290.99550988469","2839","5949234","6150.520344854122","5824.1604055189059","1.895","0.0","0.0","0.0","","","","-8.06953452440867","-0.8129571310117104","0.0","0.0","0.0","0.0","1.86155852552899E-09"
"2","25291.0","","","","6318.103887918066","5903.781493251612","1.895","","","","0.0","0.0","0.0","-2.8607047935766598","10.571302132544595","0.0","0.0","0.0","0.0",""
"3","25291.0184146527","25291.01830714494","2593","5949862","6101.23989767381","5739.689822660743","1.895","0.0","0.0","0.0","","","","2.27682988282844E-15","-4.54355373223613E-14","0.0","0.0","0.0","0.0","2.21639736221285E-09"
"3","25291.030056930023","25291.02995032142","631","5950909","6061.078080223649","5725.844569338475","1.895","0.0","0.0","0.0","","","","0.4272531642160616","0.03696121828781057","0.0","0.0","0.0","0.0","3.01917260554149E-09"
"3","25291.03318394303","25291.03307458898","379","5951575","5560.0","5820.0","1.895","0.0","0.0","0.0","","","","2.5414237931925429","0.1949966691201247","0.0","0.0","0.0","0.0","9.26037315139828E-09"
"3","25291.037172504584","25291.0370652223","2605","5951958","6315.972874282007","5972.397525931932","1.895","0.0","0.0","0.0","","","","1.35500312097036","-11.194789421249226","0.0","0.0","0.0","0.0","3.60566341628418E-08"
"3","25291.04282399236","25291.04270783686","2563","5952165","6099.230974702131","5779.779113189595","1.895","0.0","0.0","0.0","","","","0.22517450636372789","-4.493495436390051","0.0","0.0","0.0","0.0","1.41614942395894E-08"
"3","25291.05048799763","25291.050370058743","169","5953824","6171.32138447537","5836.205844338618","1.895","0.0","0.0","0.0","","","","9.81030227759653","0.9882084977191621","0.0","0.0","0.0","0.0","7.43359628547021E-09"
"3","25291.054838318985","25291.05473179137","1477","5954180","6009.033629145361","5721.342259050141","1.895","0.0","0.0","0.0","","","","11.385171623104976","0.9849191272269827","0.0","0.0","0.0","0.0","2.63378708892168E-09"
"3","25291.068963344853","25291.068851963617","871","5955466","6074.127485947251","5726.951388333089","1.895","0.0","0.0","0.0","","","","0.4303045374213263","0.03531941598540481","0.0","0.0","0.0","0.0","7.35367578897199E-09"
"2","25291.1","","","","6317.8123921481869","5904.8586718058909","1.895","","","","0.0","0.0","0.0","-2.908772974257664","10.748930828132952","0.0","0.0","0.0","0.0",""
"3","25291.103881391242","25291.103766346165","2875","5957973","6313.789718459219","5921.010509057851","1.895","0.0","0.0","0.0","","","","-2.752131765263435","11.786793830734695","0.0","0.0","0.0","0.0","1.86366155823E-07"
"3","25291.180070639464","25291.179963785133","2497","5963076","6100.864455567172","5747.18200026137","1.895","0.0","0.0","0.0","","","","2.31435695768645E-15","-4.61844131269042E-14","0.0","0.0","0.0","0.0","1.84230173114928E-09"
"2","25291.2","","","","6317.521636388229","5905.9331157653609","1.895","","","","0.0","0.0","0.0","-2.90138857596952","10.721642900505359","0.0","0.0","0.0","0.0",""
"3","25291.232344908272","25291.232234141557","283","5967347","6081.3635974580379","5730.82309756081","1.895","0.0","0.0","0.0","","","","1.5929670073103322","0.12347790383409382","0.0","0.0","0.0","0.0","2.15811133430266E-09"
"3","25291.245599227623","25291.245487121305","2635","5967736","6324.015288420304","5960.899757147935","1.895","0.0","0.0","0.0","","","","1.456226933390964","-12.005900155217093","0.0","0.0","0.0","0.0","7.62876826049679E-08"
"3","25291.29299692684","25291.29288856522","775","5969137","6081.0804328611679","5727.490687420643","1.895","0.0","0.0","0.0","","","","1.5204094979039787","0.11792919823487924","0.0","0.0","0.0","0.0","1.06910221005828E-08"
"2","25291.3","","","","6317.229981034313","5907.010884038321","1.895","","","","0.0","0.0","0.0","-2.910365428692539","10.754815502777179","0.0","0.0","0.0","0.0",""
"3","25291.316729334896","25291.316619411296","2911","5970531","6321.7646494490759","5891.043530791065","1.895","0.0","0.0","0.0","","","","-3.2398296713539147","10.248722554127058","0.0","0.0","0.0","0.0","2.56124809959215E-07"
"3","25291.3206367346","25291.320527116302","1423","5970742","5560.0","5820.0","1.895","0.0","0.0","0.0","","","","0.9052257509970533","0.07831012005202609","0.0","0.0","0.0","0.0","9.01197423535942E-09"
"3","25291.338693636768","25291.338584923","2137","5973007","5560.0","5820.0","1.895","0.0","0.0","0.0","","","","1.8669660638375263","-11.584670282834767","0.0","0.0","0.0","0.0","9.33796274756657E-08"
"3","25291.36327073466","25291.363161252113","409","5974138","6065.287140903606","5732.835081629168","1.895","0.0","0.0","0.0","","","","0.5114225514705699","0.04427102339143754","0.0","0.0","0.0","0.0","1.47367686039502E-09"
"3","25291.380729637844","25291.38062093537","2905","5974944","6320.257329922787","5922.310920587042","1.895","0.0","0.0","0.0","","","","-3.6076287960562776","15.448051511325163","0.0","0.0","0.0","0.0","0.0000012089885356236977"
"2","25291.399999999998","","","","6316.938124132971","5908.089397099326","1.895","","","","0.0","0.0","0.0","-2.912376626674244","10.762247580900274","0.0","0.0","0.0","0.0",""
"3","25291.441434613916","25291.441321470775","823","5980976","6186.154969879009","5837.733062645865","1.895","0.0","0.0","0.0","","","","13.016965021617783","1.3972618590744453","0.0","0.0","0.0","0.0","1.96005914018535E-09"
"3","25291.47152472382","25291.471411835635","1543","5981922","6059.059207210515","5728.982933560268","1.895","0.0","0.0","0.0","","","","6.1380389015470488","0.5311657919669418","0.0","0.0","0.0","0.0","5.91255802537651E-09"
"3","25291.47654973473","25291.47643578532","1795","5982562","6057.307499174792","5732.144328152192","1.895","0.0","0.0","0.0","","","","0.4460951192741969","0.03861598868380227","0.0","0.0","0.0","0.0","2.80268051715451E-09"
"2","25291.5","","","","6316.646507458011","5909.16702244005","1.895","","","","0.0","0.0","0.0","-2.909979459790545","10.753389213041988","0.0","0.0","0.0","0.0",""
"3","25291.502569737142","25291.502453079913","1123","5984824","6099.927472611123","5765.880070060528","1.895","0.0","0.0","0.0","","","","0.1683660750793126","-3.3598483337636306","0.0","0.0","0.0","0.0","1.43498052121442E-08"
"3","25291.566818328283","25291.566700686144","2899","5986113","6169.401516211775","5826.062570117201","1.895","0.0","0.0","0.0","","","","-3.869972117495775","-0.3898764445728376","0.0","0.0","0.0","0.0","5.21833419344175E-09"
"3","25291.57010771512","25291.569893591102","2329","5986708","5560.0","5820.0","1.895","0.0","0.0","0.0","","","","-3.0835246259752369","-0.09600991647854071","0.0","0.0","0.0","0.0","9.02686173990202E-09"
"3","25291.57402776067","25291.57391265398","2653","5987439","6100.463075085115","5755.191794058658","1.895","0.0","0.0","0.0","","","","0.02769978566703788","-0.5527662189390263","0.0","0.0","0.0","0.0","2.50930764425342E-09"
"2","25291.6","","","","6316.353771665988","5910.2487833087129","1.895","","","","0.0","0.0","0.0","-2.921146885890519","10.7946567480897","0.0","0.0","0.0","0.0",""
"3","25291.643207832753","25291.643098967426","2611","5990770","6097.763208697797","5743.255315725161","1.895","0.0","0.0","0.0","","","","0.1544578463307623","-3.0823010953077918","0.0","0.0","0.0","0.0","2.93894069924791E-09"
"3","25291.645170781583","25291.6450568866","2923","5991170","6320.198466761282","5908.660502525993","1.895","0.0","0.0","0.0","","","","-3.916072123315188","14.44108647805053","0.0","0.0","0.0","0.0","0.00000928913337917898"
"3","25291.652678959177","25291.652566528086","1933","5991895","6324.357466791829","5937.428696216967","1.895","0.0","0.0","0.0","","","","1.8710079678008414","-11.60758668650948","0.0","0.0","0.0","0.0","2.72802591748293E-07"
"3","25291.663340742736","25291.66322414032","1447","5992361","6079.817749027485","5734.01333821646","1.895","0.0","0.0","0.0","","","","2.1891653199325225","0.17493997343428284","0.0","0.0","0.0","0.0","5.78733105328111E-09"
"3","25291.67719274715","25291.677081576316","193","5993888","6089.013112373986","5735.001001383001","1.895","0.0","0.0","0.0","","","","3.818341335004263","0.5326704916616496","0.0","0.0","0.0","0.0","1.34804022054811E-08"
"2","25291.7","","","","6316.060858442928","5911.331199846948","1.895","","","","0.0","0.0","0.0","-2.9229174316604538","10.801199532349328","0.0","0.0","0.0","0.0",""
"3","25291.7025051922","25291.702395490043","1783","5995902","6020.629966135226","5725.65739284639","1.895","0.0","0.0","0.0","","","","14.754713422725516","1.2768245959593748","0.0","0.0","0.0","0.0","2.58347188684531E-09"
"3","25291.71520033435","25291.715081511808","1507","5996813","5999.404895376479","5720.50928749961","1.895","0.0","0.0","0.0","","","","11.27913858431204","0.975746321453579","0.0","0.0","0.0","0.0","5.9697552860031E-09"
"3","25291.750906924328","25291.75079111508","2809","6000342","6095.022695435973","5797.943939380833","1.895","0.0","0.0","0.0","","","","0.5654791034630466","-11.284482474560312","0.0","0.0","0.0","0.0","4.2939269636927E-09"
"2","25291.8","","","","6315.788731748786","5912.449161157865","1.895","","","","0.0","0.0","0.0","-2.8950220472769114","10.951359241045039","0.0","0.0","0.0","0.0",""
"3","25291.815558948532","25291.815446905184","2857","6004269","6308.637921913777","5952.025789515677","1.895","0.0","0.0","0.0","","","","-2.1378609689708236","13.26464315495203","0.0","0.0","0.0","0.0","1.84163909494444E-07"
"3","25291.8981725253","25291.89806236094","547","6010037","6090.294988180846","5731.4846160957099","1.895","0.0","0.0","0.0","","","","4.333056034412478","0.30616316793527906","0.0","0.0","0.0","0.0","1.24247915934944E-08"
"2","25291.899999999998","","","","6315.528982034782","5913.5616138264499","1.895","","","","0.0","0.0","0.0","-2.774196807638142","10.839009038118933","0.0","0.0","0.0","0.0",""
"3","25291.91535395681","25291.915246181936","2077","6011124","5560.0","5820.0","1.895","0.0","0.0","0.0","","","","1.920020299433314","-11.913875959568563","0.0","0.0","0.0","0.0","4.65397452014857E-07"
"3","25291.974420188897","25291.974302685678","2863","6015488","6310.5602248858899","5962.235077114184","1.895","0.0","0.0","0.0","","","","-1.708965515608805","14.091253565531446","0.0","0.0","0.0","0.0","4.67456515056015E-08"
"2","25292.0","","","","6315.266422223501","5914.686101542798","1.895","","","","0.0","0.0","0.0","-2.7176445033823239","10.978062909756077","0.0","0.0","0.0","0.0",""
"3","25292.018420169632","25292.01830714494","2593","6017619","6101.23989767381","5739.689822660743","1.895","0.0","0.0","0.0","","","","2.34757726340004E-15","-4.68473447106354E-14","0.0","0.0","0.0","0.0","1.00138240812138E-08"
"3","25292.03006244275","25292.02995032142","631","6018033","6061.5151616730349","5725.882380791293","1.895","0.0","0.0","0.0","","","","0.4413047521296689","0.038176806261547829","0.0","0.0","0.0","0.0","5.52924320172725E-09"
"3","25292.0331894594","25292.03307458898","379","6018733","5560.0","5820.0","1.895","0.0","0.0","0.0","","","","4.370173737898248","0.30363441036851498","0.0","0.0","0.0","0.0","9.53376225447325E-09"
"3","25292.037174724497","25292.0370652223","2605","6019139","6317.347123332366","5961.043730141331","1.895","0.0","0.0","0.0","","","","1.3799701044095532","-11.40106209897223","0.0","0.0","0.0","0.0","2.77795203321875E-08"
"3","25292.042816504407","25292.04270783686","2563","6019361","6099.425860714266","5775.890043239864","1.895","0.0","0.0","0.0","","","","0.17172967965698233","-3.4269711269390488","0.0","0.0","0.0","0.0","3.94219874738602E-09"
"3","25292.0689688518","25292.068851963617","871","6022677","6075.105240216345","5727.0272269655","1.895","0.0","0.0","0.0","","","","1.7310273554878364","0.13904642831316406","0.0","0.0","0.0","0.0","2.10039225025544E-09"
"2","25292.1","","","","6315.004637746597","5915.807268667242","1.895","","","","0.0","0.0","0.0","-2.6241265342411528","10.966455168726102","0.0","0.0","0.0","0.0",""
"3","25292.10388093737","25292.103766346165","2875","6025145","6311.71763266925","5932.917313901608","1.895","0.0","0.0","0.0","","","","-1.9142524681004279","11.87723442563098","0.0","0.0","0.0","0.0","1.86417360415281E-07"
"3","25292.180082038176","25292.179963785133","2497","6029831","6100.864455567172","5747.18200026137","1.895","0.0","0.0","0.0","","","","2.30026218383599E-15","-4.59031432664886E-14","0.0","0.0","0.0","0.0","1.50806663405055E-09"
"3","25292.191581198284","25292.191468020246","1999","6031586","5560.0","5820.0","1.895","0.0","0.0","0.0","","","","-3.963379427854192","-1.5924140275252717","0.0","0.0","0.0","0.0","4.92136229948725E-09"
"2","25292.2","","","","6314.740699914863","5916.937658151509","1.895","","","","0.0","0.0","0.0","-2.5850020185610287","11.071012743420514","0.0","0.0","0.0","0.0",""
"3","25292.232343292177","25292.232234141557","283","6034088","6084.045986214677","5731.031021352965","1.895","0.0","0.0","0.0","","","","3.636515726996883","0.2818823849881783","0.0","0.0","0.0","0.0","3.75046430451559E-09"
"3","25292.297344360057","25292.297226578045","2641","6036023","6098.863751625351","5787.107275006382","1.895","0.0","0.0","0.0","","","","0.20571905707362246","-4.105250008379961","0.0","0.0","0.0","0.0","2.56582321813978E-09"
"2","25292.3","","","","6314.476834134428","5918.067739055425","1.895","","","","0.0","0.0","0.0","-2.584296349545784","11.067990513427379","0.0","0.0","0.0","0.0",""
"3","25292.316734402735","25292.316619411296","2911","6037032","6318.72102665265","5901.500950346372","1.895","0.0","0.0","0.0","","","","-2.88154850674993","10.648326923784568","0.0","0.0","0.0","0.0","0.0000013926444138977289"
"3","25292.320642331353","25292.320527116302","1423","6037295","5560.0","5820.0","1.895","0.0","0.0","0.0","","","","0.6302855685659892","0.05452533634521275","0.0","0.0","0.0","0.0","2.66348661783726E-09"
"3","25292.3386934722","25292.338584923","2137","6039535","5560.0","5820.0","1.895","0.0","0.0","0.0","","","","1.8600377907327497","-11.541679806948295","0.0","0.0","0.0","0.0","3.64471494634689E-07"
"3","25292.363272997984","25292.363161252113","409","6040890","6066.681257604394","5732.955762605972","1.895","0.0","0.0","0.0","","","","2.170256541627815","0.18786711271092045","0.0","0.0","0.0","0.0","1.15993877477621E-08"
"3","25292.38072611369","25292.38062093537","2905","6042136","6317.610325389166","5937.854712711969","1.895","0.0","0.0","0.0","","","","-2.5116529123394755","15.582998321884379","0.0","0.0","0.0","0.0","1.05122203081254E-07"
"2","25292.399999999998","","","","6314.213497432927","5919.195554027012","1.895","","","","0.0","0.0","0.0","-2.5791145606848207","11.045798016040868","0.0","0.0","0.0","0.0",""
"3","25292.476545206806","25292.47643578532","1795","6049782","6057.954824490505","5732.200363526681","1.895","0.0","0.0","0.0","","","","1.1581560861765004","0.10025517066987437","0.0","0.0","0.0","0.0","4.14193652848831E-09"
"2","25292.5","","","","6313.950251601908","5920.322979819695","1.895","","","","0.0","0.0","0.0","-2.5782245769498446","11.041986405374648","0.0","0.0","0.0","0.0",""
"3","25292.502571175948","25292.502453079913","1123","6052024","6100.051827113489","5763.398499664774","1.895","0.0","0.0","0.0","","","","0.09372651104325541","-1.8703700362968683","0.0","0.0","0.0","0.0","1.61386243252681E-09"
"3","25292.566806758063","25292.566700686144","2899","6053313","6165.643897478743","5825.684012601226","1.895","0.0","0.0","0.0","","","","-3.3306574489050395","-0.3355437312833318","0.0","0.0","0.0","0.0","1.54543312260602E-09"
"3","25292.570138152387","25292.569893591102","2329","6053899","5560.0","5820.0","1.895","0.0","0.0","0.0","","","","-1.5685639967724357","0.006041141028080869","0.0","0.0","0.0","0.0","3.82861485846811E-09"
"2","25292.6","","","","6313.686873514644","5921.450972037696","1.895","","","","0.0","0.0","0.0","-2.579519892070236","11.047533963991145","0.0","0.0","0.0","0.0",""
"3","25292.64321227084","25292.643098967426","2611","6057921","6097.870519224419","5741.113868323154","1.895","0.0","0.0","0.0","","","","0.07417220680843939","-1.4801518972263508","0.0","0.0","0.0","0.0","1.80757783333542E-09"
"3","25292.645169293624","25292.6450568866","2923","6058311","6316.687540668802","5923.141211178284","1.895","0.0","0.0","0.0","","","","-3.324993224021754","14.457198730866459","0.0","0.0","0.0","0.0","0.000004056410955918391"
"3","25292.66333927488","25292.66322414032","1447","6059179","6083.089894825242","5734.266652126587","1.895","0.0","0.0","0.0","","","","4.14300786559071","0.3207318949049808","0.0","0.0","0.0","0.0","1.03433997396933E-08"
"3","25292.67719127662","25292.677081576316","193","6060680","6094.661049828808","5739.137274565067","1.895","0.0","0.0","0.0","","","","4.798898919528143","3.634264578786451","0.0","0.0","0.0","0.0","4.93960913786579E-09"
"2","25292.7","","","","6313.438777700474","5922.58611149763","1.895","","","","0.0","0.0","0.0","-2.57176663988751","11.177730225843759","0.0","0.0","0.0","0.0",""
"3","25292.715198836275","25292.715081511808","1507","6063379","6010.37237694572","5721.45807270309","1.895","0.0","0.0","0.0","","","","10.159873469817353","0.8789198829772826","0.0","0.0","0.0","0.0","4.15369768111637E-09"
"3","25292.719729863853","25292.719620154006","691","6063751","6077.6967401590759","5730.538863266655","1.895","0.0","0.0","0.0","","","","3.0929468105629467","0.23974795905068484","0.0","0.0","0.0","0.0","1.19481818981512E-08"
"3","25292.750905581546","25292.75079111508","2809","6066835","6095.655202085723","5785.321881093509","1.895","0.0","0.0","0.0","","","","0.6811091448247797","-13.59195089791918","0.0","0.0","0.0","0.0","7.56704813218517E-09"
"2","25292.8","","","","6313.212637620272","5923.716811898641","1.895","","","","0.0","0.0","0.0","-2.494894211654316","11.216662412968342","0.0","0.0","0.0","0.0",""
"3","25292.815554558558","25292.815446905184","2857","6070629","6306.850191346718","5965.398351167879","1.895","0.0","0.0","0.0","","","","-1.62057116680546","13.355138644428008","0.0","0.0","0.0","0.0","5.80351319420668E-08"
"3","25292.898178307307","25292.89806236094","547","6076280","6095.913757156887","5731.867642037175","1.895","0.0","0.0","0.0","","","","6.670541544749099","0.45472424051596468","0.0","0.0","0.0","0.0","1.19917372344139E-08"
"2","25292.899999999998","","","","6313.018100263001","5924.848389487871","1.895","","","","0.0","0.0","0.0","-2.3339199324751469","11.202894594796313","0.0","0.0","0.0","0.0",""
"3","25292.974408623126","25292.974302685678","2863","6081223","6308.843776516234","5976.388030458198","1.895","0.0","0.0","0.0","","","","-1.7217533216302064","14.196695258502178","0.0","0.0","0.0","0.0","1.7581277529533E-08"
"2","25293.0","","","","6312.834035378959","5925.9904445792039","1.895","","","","0.0","0.0","0.0","-2.169287436689985","11.321703123423973","0.0","0.0","0.0","0.0",""
"3","25293.018419947646","25293.01830714494","2593","6083361","6101.23989767381","5739.689822660743","1.895","0.0","0.0","0.0","","","","2.35582230097769E-15","-4.70118794944631E-14","0.0","0.0","0.0","0.0","1.02048973195317E-08"
"3","25293.03318923765","25293.03307458898","379","6084409","5560.0","5820.0","1.895","0.0","0.0","0.0","","","","6.249365849024275","0.4276998120661591","0.0","0.0","0.0","0.0","1.4444682862681E-09"
"3","25293.037174388595","25293.0370652223","2605","6084794","6319.046077081726","5949.631842014368","1.895","0.0","0.0","0.0","","","","1.839592969409114","-11.414818093383479","0.0","0.0","0.0","0.0","3.9533029641281E-07"
"3","25293.054843622274","25293.05473179137","1477","6087328","6030.286794808257","5723.18084788029","1.895","0.0","0.0","0.0","","","","8.623995737960556","0.746052728640796","0.0","0.0","0.0","0.0","2.0689600698737E-09"
"3","25293.068968647876","25293.068851963617","871","6088626","6077.707276807994","5727.22905159857","1.895","0.0","0.0","0.0","","","","3.3491606071787975","0.25977463683891097","0.0","0.0","0.0","0.0","4.06468872446381E-09"
"2","25293.1","","","","6312.649616530212","5927.1346958917","1.895","","","","0.0","0.0","0.0","-1.9975967396526935","11.375762051946556","0.0","0.0","0.0","0.0",""
"3","25293.103880739793","25293.103766346165","2875","6091052","6309.793389417408","5944.856537475773","1.895","0.0","0.0","0.0","","","","-1.9135409060869809","11.872819444323899","0.0","0.0","0.0","0.0","4.17171889898043E-07"
"3","25293.18007013077","25293.179963785133","2497","6095710","6100.864455567172","5747.18200026137","1.895","0.0","0.0","0.0","","","","2.31290169039916E-15","-4.61553723752676E-14","0.0","0.0","0.0","0.0","1.00401142706116E-08"
"2","25293.2","","","","6312.465395092474","5928.277722341297","1.895","","","","0.0","0.0","0.0","-1.8967898066458345","11.380470287197236","0.0","0.0","0.0","0.0",""
"3","25293.232351913135","25293.232234141557","283","6099523","6088.791024408775","5731.382092368149","1.895","0.0","0.0","0.0","","","","5.663733689670882","0.4179023234776994","0.0","0.0","0.0","0.0","1.37116968534926E-09"
"3","25293.293003934476","25293.29288856522","775","6101061","6087.889212003563","5728.0130625862179","1.895","0.0","0.0","0.0","","","","5.09549825077299","0.3893571570468152","0.0","0.0","0.0","0.0","4.21975899361829E-09"
"2","25293.3","","","","6312.282325271379","5929.413603432027","1.895","","","","0.0","0.0","0.0","-1.8243242498881807","11.319262816867618","0.0","0.0","0.0","0.0",""
"3","25293.316730017752","25293.316619411296","2911","6102405","6315.8277325969479","5912.282128836848","1.895","0.0","0.0","0.0","","","","-2.8849540179318895","10.861040316722715","0.0","0.0","0.0","0.0","9.47198618417921E-07"
"3","25293.320639129935","25293.320527116302","1423","6102722","5560.0","5820.0","1.895","0.0","0.0","0.0","","","","0.8284626780028647","0.07166942798685444","0.0","0.0","0.0","0.0","1.49605068740104E-09"
"3","25293.338690189466","25293.338584923","2137","6105261","5560.0","5820.0","1.895","0.0","0.0","0.0","","","","1.8935833267362932","-11.749832478592877","0.0","0.0","0.0","0.0","7.68837407752462E-07"
"3","25293.380726321207","25293.38062093537","2905","6107729","6315.0993976167569","5953.433212062579","1.895","0.0","0.0","0.0","","","","-2.5160684796365957","15.610393738445082","0.0","0.0","0.0","0.0","9.8123145935726E-08"
"2","25293.399999999998","","","","6312.098577107908","5930.5536933883909","1.895","","","","0.0","0.0","0.0","-1.831084055735245","11.361204932683162","0.0","0.0","0.0","0.0",""
"3","25293.44143820602","25293.441321470775","823","6113785","6215.263789144422","5839.924089519446","1.895","0.0","0.0","0.0","","","","15.026085092718274","0.987673545674098","0.0","0.0","0.0","0.0","2.14867366891272E-09"
"3","25293.471528427468","25293.471411835635","1543","6114729","6068.700136240422","5729.817227996262","1.895","0.0","0.0","0.0","","","","4.605625345583096","0.3985557396146643","0.0","0.0","0.0","0.0","1.02332321745133E-08"
"2","25293.5","","","","6311.915390091593","5931.69030163248","1.895","","","","0.0","0.0","0.0","-1.825492121697225","11.326509033085621","0.0","0.0","0.0","0.0",""
"3","25293.502560477056","25293.502453079913","1123","6117658","6100.118646926712","5762.065069292797","1.895","0.0","0.0","0.0","","","","0.04524723772989037","-0.9029363915657541","0.0","0.0","0.0","0.0","1.90180689315995E-09"
"3","25293.57000181273","25293.569893591102","2329","6119913","5560.0","5820.0","1.895","0.0","0.0","0.0","","","","-0.6829493930687526","0.02870321602708332","0.0","0.0","0.0","0.0","1.99266831618316E-09"
"3","25293.574025843103","25293.57391265398","2653","6120535","6100.489013460533","5754.674177861997","1.895","0.0","0.0","0.0","","","","2.27645038106035E-15","-4.54279641318105E-14","0.0","0.0","0.0","0.0","9.97128530507051E-09"
"2","25293.6","","","","6311.732082769409","5932.827656330349","1.895","","","","0.0","0.0","0.0","-1.8266909916694592","11.33394758151262","0.0","0.0","0.0","0.0",""
"3","25293.643212790383","25293.643098967426","2611","6123839","6097.919591619902","5740.134598561574","1.895","0.0","0.0","0.0","","","","0.031710712982311348","-0.6328067345277895","0.0","0.0","0.0","0.0","1.36125764234334E-08"
"3","25293.645169826665","25293.6450568866","2923","6124231","6314.266562397764","5937.848889927057","1.895","0.0","0.0","0.0","","","","-2.372637920993603","14.723229889570185","0.0","0.0","0.0","0.0","0.000001129829738684707"
"3","25293.677195866745","25293.677081576316","193","6126600","6094.302519549772","5746.291966269168","1.895","0.0","0.0","0.0","","","","-0.4038797358810754","8.05966794084427","0.0","0.0","0.0","0.0","5.97603351155893E-09"
"2","25293.7","","","","6311.547223867744","5933.974638009795","1.895","","","","0.0","0.0","0.0","-1.8421527649904593","11.429882213673432","0.0","0.0","0.0","0.0",""
"3","25293.702508226914","25293.702395490043","1783","6128381","6045.0282687206449","5727.768742077523","1.895","0.0","0.0","0.0","","","","10.353485880899984","0.8959567731259532","0.0","0.0","0.0","0.0","4.95796130712787E-09"
"2","25293.8","","","","6311.360820913025","5935.131199972083","1.895","","","","0.0","0.0","0.0","-1.857539536063173","11.525351484383338","0.0","0.0","0.0","0.0",""
"3","25293.815555085916","25293.815446905184","2857","6136622","6305.223928318359","5978.800396484319","1.895","0.0","0.0","0.0","","","","-1.6220225760619645","13.367099718549897","0.0","0.0","0.0","0.0","2.50539809282763E-08"
"2","25293.899999999998","","","","6311.175287427468","5936.282367197144","1.895","","","","0.0","0.0","0.0","-1.8488751168497018","11.471591941232541","0.0","0.0","0.0","0.0",""
"3","25293.974416485926","25293.974302685678","2863","6146708","6307.126193477678","5990.516667594792","1.895","0.0","0.0","0.0","","","","-1.71498283163413","14.097896503054974","0.0","0.0","0.0","0.0","1.77281063448517E-07"
"2","25294.0","","","","6310.989185380586","5937.43706213668","1.895","","","","0.0","0.0","0.0","-1.8545409344408526","11.506746261190012","0.0","0.0","0.0","0.0",""
"3","25294.018418682695","25294.01830714494","2593","6148799","6101.23989767381","5739.689822660743","1.895","0.0","0.0","0.0","","","","2.32517751999889E-15","-4.64003440870973E-14","0.0","0.0","0.0","0.0","2.13902133445331E-09"
"3","25294.030060938134","25294.02995032142","631","6149185","6063.9226685391199","5726.090651657982","1.895","0.0","0.0","0.0","","","","2.4590139298912696","0.21272668817384364","0.0","0.0","0.0","0.0","4.42873165018661E-09"
"3","25294.033187967296","25294.03307458898","379","6149871","5560.0","5820.0","1.895","0.0","0.0","0.0","","","","8.407015901599632","0.5753670385135344","0.0","0.0","0.0","0.0","1.32997388856206E-09"
"3","25294.037173025554","25294.0370652223","2605","6150285","6320.9052755303359","5938.095370390869","1.895","0.0","0.0","0.0","","","","1.8639602488948957","-11.5660189662841","0.0","0.0","0.0","0.0","7.64879757400772E-07"
"3","25294.06896742768","25294.068851963617","871","6153968","6082.067308144195","5727.5672335163139","1.895","0.0","0.0","0.0","","","","5.208770432413767","0.4040136040526726","0.0","0.0","0.0","0.0","7.42980869109495E-09"
"2","25294.1","","","","6310.802725842747","5938.593975176468","1.895","","","","0.0","0.0","0.0","-1.8581033971959725","11.528850035879758","0.0","0.0","0.0","0.0",""
"3","25294.103877128367","25294.103766346165","2875","6156398","6307.896791048365","5956.773315497106","1.895","0.0","0.0","0.0","","","","-1.8657202530914113","11.87373479155642","0.0","0.0","0.0","0.0","6.57061508392143E-07"
"3","25294.180081807295","25294.179963785133","2497","6160290","6100.864455567172","5747.18200026137","1.895","0.0","0.0","0.0","","","","2.29203505553227E-15","-4.5738965873211E-14","0.0","0.0","0.0","0.0","2.22732478603456E-09"
"2","25294.2","","","","6310.616405505646","5939.750024526747","1.895","","","","0.0","0.0","0.0","-1.856716236403002","11.520243211961399","0.0","0.0","0.0","0.0",""
"3","25294.293004233197","25294.29288856522","775","6165875","6094.166218619386","5728.442654102346","1.895","0.0","0.0","0.0","","","","7.244339077786921","0.49579469932759048","0.0","0.0","0.0","0.0","1.921867637537E-09"
"2","25294.3","","","","6310.429682883824","5940.908569906162","1.895","","","","0.0","0.0","0.0","-1.8607250772164652","11.54511659879996","0.0","0.0","0.0","0.0",""
"3","25294.31673031476","25294.316619411296","2911","6167233","6313.253783845166","5923.511080774171","1.895","0.0","0.0","0.0","","","","-2.486197256633547","11.107896833511296","0.0","0.0","0.0","0.0","2.91884767172559E-07"
"3","25294.338690535238","25294.338584923","2137","6170065","5560.0","5820.0","1.895","0.0","0.0","0.0","","","","2.680507725172957","-11.521480573114954","0.0","0.0","0.0","0.0","3.07019689955802E-07"
"3","25294.36326952536","25294.363161252113","409","6171535","6074.682651108392","5733.615803444733","1.895","0.0","0.0","0.0","","","","5.726939621916338","0.4582948868835537","0.0","0.0","0.0","0.0","5.06561317544689E-09"
"3","25294.380726714517","25294.38062093537","2905","6172603","6313.0521084512","5969.079447466304","1.895","0.0","0.0","0.0","","","","-1.9123047230170043","15.726462667994074","0.0","0.0","0.0","0.0","2.16226418330009E-08"
"2","25294.399999999998","","","","6310.243222469761","5942.0654883826059","1.895","","","","0.0","0.0","0.0","-1.858112128939269","11.528904213155102","0.0","0.0","0.0","0.0",""
"3","25294.441438574606","25294.441321470775","823","6178460","6230.3071404743","5840.912897985196","1.895","0.0","0.0","0.0","","","","15.064040442698272","0.9901683734898272","0.0","0.0","0.0","0.0","2.1034504772345E-09"
"3","25294.471528842703","25294.471411835635","1543","6179395","6073.829886561982","5730.239126376682","1.895","0.0","0.0","0.0","","","","5.749535830883477","0.4693259289734435","0.0","0.0","0.0","0.0","7.16684171215123E-09"
"2","25294.5","","","","6310.056033947966","5943.226924500459","1.895","","","","0.0","0.0","0.0","-1.8653678556563585","11.57392333605459","0.0","0.0","0.0","0.0",""
"3","25294.5701536696","25294.569893591102","2329","6184595","5560.0","5820.0","1.895","0.0","0.0","0.0","","","","-0.4331983252299477","0.029502668323514868","0.0","0.0","0.0","0.0","9.31991658175728E-09"
"3","25294.574021696557","25294.57391265398","2653","6185304","6100.489013460533","5754.674177861997","1.895","0.0","0.0","0.0","","","","0.0","0.0","0.0","0.0","0.0","0.0","1.71222486297389E-09"
"2","25294.6","","","","6309.868716424544","5944.389161026095","1.895","","","","0.0","0.0","0.0","-1.8666533804698016","11.581899545997454","0.0","0.0","0.0","0.0",""
"3","25294.64321523052","25294.643098967426","2611","6188562","6097.942600616059","5739.675439925487","1.895","0.0","0.0","0.0","","","","0.022028594855196608","-0.43959412657394517","0.0","0.0","0.0","0.0","1.32227650295525E-09"
"3","25294.645172282584","25294.6450568866","2923","6188960","6311.8935625478529","5952.574365739878","1.895","0.0","0.0","0.0","","","","-2.3657453823483305","14.680458748600048","0.0","0.0","0.0","0.0","2.08228807964853E-07"
"3","25294.663342277523","25294.66322414032","1447","6189761","6095.382767160976","5735.136504675172","1.895","0.0","0.0","0.0","","","","8.073157118511484","0.5699715404664458","0.0","0.0","0.0","0.0","4.81458646428874E-09"
"3","25294.680633527394","25294.680514482316","475","6191643","6075.193603299369","5727.034080768734","1.895","0.0","0.0","0.0","","","","4.706099597633079","0.3772760427610457","0.0","0.0","0.0","0.0","6.87544755622113E-09"
"2","25294.7","","","","6309.681999408369","5945.547671624523","1.895","","","","0.0","0.0","0.0","-1.8606692159166157","11.544769999908788","0.0","0.0","0.0","0.0",""
"3","25294.71973286172","25294.719620154006","691","6194291","6087.685392238363","5731.306722513152","1.895","0.0","0.0","0.0","","","","6.848367538731056","0.5228489465377099","0.0","0.0","0.0","0.0","1.2303243591314E-08"
"2","25294.8","","","","6309.4965135450579","5946.698543371017","1.895","","","","0.0","0.0","0.0","-1.848400552463565","11.468647443273684","0.0","0.0","0.0","0.0",""
"3","25294.815557533537","25294.815446905184","2857","6200884","6303.594161049766","5992.189902773969","1.895","0.0","0.0","0.0","","","","-1.6237765223951278","13.339411431277077","0.0","0.0","0.0","0.0","6.0525265311011E-08"
"3","25294.898175576694","25294.89806236094","547","6206286","6114.220207552625","5733.01462946841","1.895","0.0","0.0","0.0","","","","11.307628197121052","0.6502991090471795","0.0","0.0","0.0","0.0","1.17300533998282E-08"
"2","25294.899999999998","","","","6309.3094266973","5947.859348638763","1.895","","","","0.0","0.0","0.0","-1.8643546552763127","11.567636799348917","0.0","0.0","0.0","0.0",""
"3","25294.974418799913","25294.974302685678","2863","6211252","6305.531730642385","6004.688327145254","1.895","0.0","0.0","0.0","","","","-1.5324292117807146","14.11007225054857","0.0","0.0","0.0","0.0","3.2352649020288E-08"
"2","25295.0","","","","6309.122274110758","5949.020561791559","1.895","","","","0.0","0.0","0.0","-1.8650097542976026","11.571701448486565","0.0","0.0","0.0","0.0",""
"3","25295.01842209784","25295.01830714494","2593","6213327","6101.23989767381","5739.689822660743","1.895","0.0","0.0","0.0","","","","2.2773973336803E-15","-4.5446861152285E-14","0.0","0.0","0.0","0.0","2.71263188360717E-09"
"3","25295.033191370912","25295.03307458898","379","6214399","5560.0","5820.0","1.895","0.0","0.0","0.0","","","","10.5866080982728","0.6091735386153968","0.0","0.0","0.0","0.0","4.11840440489885E-09"
"3","25295.037176436672","25295.0370652223","2605","6214793","6322.776829889831","5926.482229375014","1.895","0.0","0.0","0.0","","","","1.8588275823229473","-11.534170369232549","0.0","0.0","0.0","0.0","8.10849342488229E-08"
"3","25295.068958696735","25295.068851963617","871","6218214","6087.3820977181389","5727.957394769991","1.895","0.0","0.0","0.0","","","","4.464685299922035","0.326527364399198","0.0","0.0","0.0","0.0","1.52817650924029E-09"
"2","25295.1","","","","6308.936310752767","5950.174396217389","1.895","","","","0.0","0.0","0.0","-1.8531588742640093","11.498171084712912","0.0","0.0","0.0","0.0",""
"3","25295.10387355853","25295.103766346165","2875","6220596","6306.44373476823","5968.747962755346","1.895","0.0","0.0","0.0","","","","-1.4471426204350193","11.925912746101945","0.0","0.0","0.0","0.0","2.80323308680281E-07"
"3","25295.180074451","25295.179963785133","2497","6224870","6100.864455567172","5747.18200026137","1.895","0.0","0.0","0.0","","","","2.32253683445543E-15","-4.63476475868136E-14","0.0","0.0","0.0","0.0","4.6790826070411E-09"
"3","25295.191586751367","25295.191468020246","1999","6226435","5560.0","5820.0","1.895","0.0","0.0","0.0","","","","-0.6928219855568075","-10.10199251242047","0.0","0.0","0.0","0.0","1.53275658121309E-09"
"2","25295.2","","","","6308.748663081229","5951.338681190986","1.895","","","","0.0","0.0","0.0","-1.8699433668255508","11.602312704583114","0.0","0.0","0.0","0.0",""
"3","25295.29300258915","25295.29288856522","775","6230461","6102.439888719868","5729.008895099042","1.895","0.0","0.0","0.0","","","","8.634194314771133","0.5909148824030952","0.0","0.0","0.0","0.0","1.19423052804542E-08"
"2","25295.3","","","","6308.559863829513","5952.510111297191","1.895","","","","0.0","0.0","0.0","-1.8814190739144679","11.673515257833614","0.0","0.0","0.0","0.0",""
"3","25295.316734613247","25295.316619411296","2911","6231806","6311.401399478373","5934.879424858131","1.895","0.0","0.0","0.0","","","","-1.8313396097852824","11.362790551829706","0.0","0.0","0.0","0.0","8.09795987088151E-07"
"3","25295.38072782785","25295.38062093537","2905","6236673","6311.147174624104","5984.740092335313","1.895","0.0","0.0","0.0","","","","-1.908281499741016","15.676635116152843","0.0","0.0","0.0","0.0","1.41979831607421E-07"
"2","25295.399999999998","","","","6308.371231707909","5953.680504422361","1.895","","","","0.0","0.0","0.0","-1.8797535917901714","11.663181552158918","0.0","0.0","0.0","0.0",""
"2","25295.5","","","","6308.182067597546","5954.85419834264","1.895","","","","0.0","0.0","0.0","-1.8850549570608162","11.696074579131603","0.0","0.0","0.0","0.0",""
"2","25295.6","","","","6307.995187544476","5956.013720525208","1.895","","","","0.0","0.0","0.0","-1.8622939084033832","11.554850620872612","0.0","0.0","0.0","0.0",""
"3","25295.645169756604","25295.6450568866","2923","6253353","6309.942517463549","5967.328375860125","1.895","0.0","0.0","0.0","","","","-1.7947757470763184","14.798800744852333","0.0","0.0","0.0","0.0","0.0000013684170588221785"
"3","25295.663330722284","25295.66322414032","1447","6254097","6104.738503767214","5735.770359593634","1.895","0.0","0.0","0.0","","","","10.185934794820682","0.6905277541112025","0.0","0.0","0.0","0.0","2.85407486012627E-09"
"2","25295.7","","","","6307.846323017738","5957.189222900588","1.895","","","","0.0","0.0","0.0","-1.7857744362434276","11.672888078575527","0.0","0.0","0.0","0.0",""
"2","25295.8","","","","6307.703307266718","5958.367816733628","1.895","","","","0.0","0.0","0.0","-1.6810337450814537","11.71102075732038","0.0","0.0","0.0","0.0",""
"3","25295.815554993467","25295.815446905184","2857","6265566","6294.638219406463","6002.514229765964","1.895","0.0","0.0","0.0","","","","-14.261959328972328","4.832662267958106","0.0","0.0","0.0","0.0","2.99173489000336E-08"
"3","25295.898170105127","25295.89806236094","547","6270313","6126.8112977848909","5733.712789285686","1.895","0.0","0.0","0.0","","","","13.713625282422813","0.709473856936877","0.0","0.0","0.0","0.0","8.96181763949009E-09"
"2","25295.899999999998","","","","6307.560658556391","5959.543385781689","1.895","","","","0.0","0.0","0.0","-1.5690045652427574","11.695920673246212","0.0","0.0","0.0","0.0",""
"3","25295.904456070315","25295.90434478898","2773","6271038","5560.0","5820.0","1.895","0.0","0.0","0.0","","","","7.82750991195424","-2.0559937910425645","0.0","0.0","0.0","0.0","1.32732756334222E-08"
"3","25295.974416172943","25295.974302685678","2863","6274891","6307.309920299899","6019.217817700219","1.895","0.0","0.0","0.0","","","","-1.4663501076970547","14.208043846531627","0.0","0.0","0.0","0.0","5.18468895145919E-09"
"2","25296.0","","","","6307.417542347498","5960.722807488785","1.895","","","","0.0","0.0","0.0","-1.465604092047232","11.748301907680207","0.0","0.0","0.0","0.0",""
"3","25296.033186998968","25296.03307458898","379","6277991","5560.0","5820.0","1.895","0.0","0.0","0.0","","","","13.065062506152753","0.7008159149544475","0.0","0.0","0.0","0.0","3.04606017213092E-09"
"3","25296.05048275258","25296.050370058743","169","6279939","6235.174536067825","5841.232834804027","1.895","0.0","0.0","0.0","","","","13.685744390675204","0.8995721509708484","0.0","0.0","0.0","0.0","1.48603755908178E-09"
"2","25296.1","","","","6307.274999719652","5961.897502310352","1.895","","","","0.0","0.0","0.0","-1.4204633569157304","11.706048743513334","0.0","0.0","0.0","0.0",""
"3","25296.10387717371","25296.103766346165","2875","6283746","6304.9873377771159","5980.744881056822","1.895","0.0","0.0","0.0","","","","-1.4546477997813876","11.977223062031176","0.0","0.0","0.0","0.0","0.000001684733783963976"
"2","25296.2","","","","6307.132347900851","5963.073096975367","1.895","","","","0.0","0.0","0.0","-1.4215514647578032","11.715015848050422","0.0","0.0","0.0","0.0",""
"2","25296.3","","","","6306.988981048489","5964.254584237096","1.895","","","","0.0","0.0","0.0","-1.4286769049618087","11.773736652049298","0.0","0.0","0.0","0.0",""
"3","25296.316730887433","25296.316619411296","2911","6294961","6309.546546087699","5946.388109795628","1.895","0.0","0.0","0.0","","","","-1.8488385681984863","11.471365170244603","0.0","0.0","0.0","0.0","8.38904672821289E-09"
"3","25296.380737126576","25296.38062093537","2905","6299455","6309.337914753446","6000.15386381435","1.895","0.0","0.0","0.0","","","","-1.6591749100834153","15.315460708466374","0.0","0.0","0.0","0.0","7.71922344954815E-08"
"2","25296.399999999998","","","","6306.8469119110909","5965.425377020481","1.895","","","","0.0","0.0","0.0","-1.4157449380095817","11.66716421936227","0.0","0.0","0.0","0.0",""
"2","25296.5","","","","6306.703379108378","5966.608231880241","1.895","","","","0.0","0.0","0.0","-1.4303306305551842","11.787365016546059","0.0","0.0","0.0","0.0",""
"2","25296.6","","","","6306.560071620338","5967.789229920168","1.895","","","","0.0","0.0","0.0","-1.4280853286376499","11.768861467305955","0.0","0.0","0.0","0.0",""
"3","25296.645171220804","25296.6450568866","2923","6316319","6308.147530443755","5982.120838448915","1.895","0.0","0.0","0.0","","","","-1.804406595348453","14.851351922619744","0.0","0.0","0.0","0.0","7.53738027762128E-07"
"2","25296.7","","","","6306.416719992389","5968.97059171741","1.895","","","","0.0","0.0","0.0","-1.4285251909118225","11.77248637547399","0.0","0.0","0.0","0.0",""
"2","25296.8","","","","6306.273864986933","5970.147860845095","1.895","","","","0.0","0.0","0.0","-1.4235762569195636","11.73170217482233","0.0","0.0","0.0","0.0",""
"3","25296.81555644","25296.815446905184","2857","6329150","6279.324389130978","6006.493947919981","1.895","0.0","0.0","0.0","","","","-15.609816023999303","4.056638156098294","0.0","0.0","0.0","0.0","9.09234233565305E-08"
"2","25296.899999999998","","","","6306.130819099007","5971.326703036604","1.895","","","","0.0","0.0","0.0","-1.425478435662863","11.747378043528365","0.0","0.0","0.0","0.0",""
"3","25296.90445745375","25296.90434478898","2773","6335475","5560.0","5820.0","1.895","0.0","0.0","0.0","","","","5.25115734593227","-1.3792824308695516","0.0","0.0","0.0","0.0","5.5312319539682E-08"
"3","25296.97441763149","25296.974302685678","2863","6339345","6305.772362025155","6033.448741773599","1.895","0.0","0.0","0.0","","","","-1.582605228609137","14.243447057488032","0.0","0.0","0.0","0.0","1.01336739745953E-07"
"2","25297.0","","","","6305.987008035697","5972.511851043957","1.895","","","","0.0","0.0","0.0","-1.4331035483073298","11.810216651708222","0.0","0.0","0.0","0.0",""
"3","25297.08450084999","25297.084393825706","3061","6347456","6324.290511997161","5906.192373780965","1.895","0.0","0.0","0.0","","","","-3.7824273696736565","13.95157636355053","0.0","0.0","0.0","0.0","2.42818049872795E-08"
"2","25297.1","","","","6305.843524126899","5973.694302968615","1.895","","","","0.0","0.0","0.0","-1.4298433937547404","11.783349694568303","0.0","0.0","0.0","0.0",""
"3","25297.10387797736","25297.103766346165","2875","6348245","6303.527354283331","5992.738723951989","1.895","0.0","0.0","0.0","","","","-1.4583415490203667","11.980354230648784","0.0","0.0","0.0","0.0","1.73642009519049E-07"
"2","25297.2","","","","6305.699344292804","5974.882490018661","1.895","","","","0.0","0.0","0.0","-1.4367784166285374","11.84050126797911","0.0","0.0","0.0","0.0",""
"2","25297.3","","","","6305.555625210371","5976.066880010943","1.895","","","","0.0","0.0","0.0","-1.432186942044824","11.802662892902513","0.0","0.0","0.0","0.0",""
"3","25297.316724547065","25297.316619411296","2911","6359258","6307.746100503269","5958.015157363347","1.895","0.0","0.0","0.0","","","","-1.7128001606857413","11.702211041678823","0.0","0.0","0.0","0.0","0.0000011040335420480099"
"3","25297.3807308086","25297.38062093537","2905","6363816","6307.713542994039","6015.3069584138179","1.895","0.0","0.0","0.0","","","","-1.570043786858492","15.026660019061302","0.0","0.0","0.0","0.0","1.03825964305665E-07"
"2","25297.399999999998","","","","6305.4127636881289","5977.244202843518","1.895","","","","0.0","0.0","0.0","-1.4236411978943547","11.732237353860562","0.0","0.0","0.0","0.0",""
"3","25297.441429720482","25297.441321470775","823","6369919","6275.452034594481","5843.88029883309","1.895","0.0","0.0","0.0","","","","15.009324921906205","0.9865718896358828","0.0","0.0","0.0","0.0","1.39825068576391E-09"
"2","25297.5","","","","6305.2682753960129","5978.434931898333","1.895","","","","0.0","0.0","0.0","-1.4398522572237028","11.86583281042218","0.0","0.0","0.0","0.0",""
"2","25297.6","","","","6305.120505695518","5979.650899447583","1.895","","","","0.0","0.0","0.0","-1.4709275335862553","12.117536554946735","0.0","0.0","0.0","0.0",""
"3","25297.645164922214","25297.6450568866","2923","6380752","6306.376079897357","5996.913854497014","1.895","0.0","0.0","0.0","","","","-1.7142939080111035","14.859854184281108","0.0","0.0","0.0","0.0","1.98040213454218E-07"
"2","25297.7","","","","6304.970670376938","5980.881804645372","1.895","","","","0.0","0.0","0.0","-1.4901787615923046","12.26655508241786","0.0","0.0","0.0","0.0",""
"2","25297.8","","","","6304.818663130805","5982.130552344787","1.895","","","","0.0","0.0","0.0","-1.5129582098278139","12.444220843438992","0.0","0.0","0.0","0.0",""
"3","25297.815563169424","25297.815446905184","2857","6393570","6263.779534373132","6010.53370411216","1.895","0.0","0.0","0.0","","","","-15.612726658978226","4.057394564306238","0.0","0.0","0.0","0.0","1.5239208654986E-08"
"2","25297.899999999998","","","","6304.663556975581","5983.404757748998","1.895","","","","0.0","0.0","0.0","-1.5450294634045612","12.69776678416174","0.0","0.0","0.0","0.0",""
"3","25297.904451187005","25297.90434478898","2773","6399723","5560.0","5820.0","1.895","0.0","0.0","0.0","","","","2.9989787952623585","-0.7877194474210925","0.0","0.0","0.0","0.0","3.29394534571193E-07"
"3","25297.97441145814","25297.974302685678","2863","6404028","6303.7246708547559","6047.55477492046","1.895","0.0","0.0","0.0","","","","-2.1851384519150258","14.06357730487856","0.0","0.0","0.0","0.0","1.23487902325439E-08"
"2","25298.0","","","","6304.509383035471","5984.671304955922","1.895","","","","0.0","0.0","0.0","-1.536371510940308","12.621374562998567","0.0","0.0","0.0","0.0",""
"3","25298.084506490988","25298.084393825706","3061","6411745","6320.787290837076","5920.0416007745729","1.895","0.0","0.0","0.0","","","","-3.2970346821595335","14.118071587712514","0.0","0.0","0.0","0.0","7.28098240112134E-09"
"2","25298.1","","","","6304.354087280425","5985.947067932852","1.895","","","","0.0","0.0","0.0","-1.5475506019495363","12.713211396646747","0.0","0.0","0.0","0.0",""
"3","25298.103883598167","25298.103766346165","2875","6412613","6294.746211277476","5999.080362377972","1.895","0.0","0.0","0.0","","","","-12.629142996356505","4.175818877196018","0.0","0.0","0.0","0.0","2.66691895973201E-08"
"2","25298.2","","","","6304.199220980334","5987.219302914253","1.895","","","","0.0","0.0","0.0","-1.5432710047912255","12.678054275924407","0.0","0.0","0.0","0.0",""
"3","25298.21597696613","25298.215862434496","2683","6420493","5560.0","5820.0","1.895","0.0","0.0","0.0","","","","-12.586519357085932","9.4521332136872","0.0","0.0","0.0","0.0","1.0954774882299E-08"
"2","25298.3","","","","6304.045084146664","5988.485545289775","1.895","","","","0.0","0.0","0.0","-1.5360017384795666","12.618336862334413","0.0","0.0","0.0","0.0",""
"3","25298.31672671767","25298.316619411296","2911","6423659","6306.2773268594469","5970.119331528813","1.895","0.0","0.0","0.0","","","","-1.5026193453875918","12.383096835560798","0.0","0.0","0.0","0.0","6.97347455023733E-08"
"3","25298.38073299684","25298.38062093537","2905","6428228","6306.113932885484","6030.3746040306409","1.895","0.0","0.0","0.0","","","","-1.6627246920378798","14.964522228347012","0.0","0.0","0.0","0.0","4.84642561543021E-08"
"2","25298.399999999998","","","","6303.889412469454","5989.764396487494","1.895","","","","0.0","0.0","0.0","-1.551296735068826","12.743986081626688","0.0","0.0","0.0","0.0",""
"2","25298.5","","","","6303.735260458166","5991.03076354797","1.895","","","","0.0","0.0","0.0","-1.5361529862258865","12.619579370702029","0.0","0.0","0.0","0.0",""
"2","25298.6","","","","6303.580922330126","5992.298659567568","1.895","","","","0.0","0.0","0.0","-1.5380076736975106","12.634815727995785","0.0","0.0","0.0","0.0",""
"3","25298.6451722688","25298.6450568866","2923","6445245","6304.7693608692029","6011.713086729472","1.895","0.0","0.0","0.0","","","","-1.6004013527668673","14.752838433348286","0.0","0.0","0.0","0.0","5.7872221893631E-07"
"2","25298.7","","","","6303.425906620871","5993.572121953275","1.895","","","","0.0","0.0","0.0","-1.5447598944284549","12.690285584325377","0.0","0.0","0.0","0.0",""
"2","25298.8","","","","6303.201703993708","5994.865852824807","1.895","","","","0.0","0.0","0.0","-1.7015954643232596","12.599693481914349","0.0","0.0","0.0","0.0",""
"3","25298.81555757689","25298.815446905184","2857","6458199","6248.255438120023","6014.5680656384279","1.895","0.0","0.0","0.0","","","","-15.625648605109426","4.0607526858631319","0.0","0.0","0.0","0.0","1.71032407480714E-07"
"2","25298.899999999998","","","","6302.856220321243","5996.228045590527","1.895","","","","0.0","0.0","0.0","-2.171140445477325","12.755130314124172","0.0","0.0","0.0","0.0",""
"3","25298.904458581987","25298.90434478898","2773","6464647","5560.0","5820.0","1.895","0.0","0.0","0.0","","","","3.0901197558345716","-0.8116587654358738","0.0","0.0","0.0","0.0","1.02290736728419E-07"
"3","25298.916413179097","25298.9162972942","3091","6465015","6323.59530218465","5908.756672269736","1.895","0.0","0.0","0.0","","","","-3.210972695762977","11.843751746668853","0.0","0.0","0.0","0.0","1.44445233152113E-07"
"3","25298.974413612803","25298.974302685678","2863","6469136","6301.620601186627","6061.660383757857","1.895","0.0","0.0","0.0","","","","-2.1492164157717146","14.037551131211693","0.0","0.0","0.0","0.0","3.31349116707599E-08"
"2","25299.0","","","","6302.365840590966","5997.54419759115","1.895","","","","0.0","0.0","0.0","-2.9892943726446354","12.726629471211835","0.0","0.0","0.0","0.0",""
"3","25299.0845053942","25299.084393825706","3061","6476517","6318.207744650654","5934.148156243321","1.895","0.0","0.0","0.0","","","","-2.3066819434291","14.31130100699134","0.0","0.0","0.0","0.0","4.94207317228467E-08"
"2","25299.1","","","","6301.606597339922","5998.763420330054","1.895","","","","0.0","0.0","0.0","-4.4719099554039369","12.444712889240492","0.0","0.0","0.0","0.0",""
"3","25299.10388250323","25299.103766346165","2875","6477367","6280.945001020105","6002.665488182171","1.895","0.0","0.0","0.0","","","","-14.040049370938372","3.64716878833745","0.0","0.0","0.0","0.0","4.06594389472154E-08"
"2","25299.2","","","","6300.632094786682","5999.824180048134","1.895","","","","0.0","0.0","0.0","-6.338190033289242","11.863793910928685","0.0","0.0","0.0","0.0",""
"2","25299.3","","","","6299.479805795185","6000.749417021601","1.895","","","","0.0","0.0","0.0","-8.42451419657511","10.683766778710098","0.0","0.0","0.0","0.0",""
"3","25299.31672560612","25299.316619411296","2911","6488478","6304.753646637388","5982.664666333722","1.895","0.0","0.0","0.0","","","","-1.5616122446019532","12.84006304724962","0.0","0.0","0.0","0.0","0.000001033430512916434"
"3","25299.38073190091","25299.38062093537","2905","6492917","6300.743500779895","6045.241449862202","1.895","0.0","0.0","0.0","","","","-2.4142611670043094","15.614546201348976","0.0","0.0","0.0","0.0","7.9996666828249E-08"
"2","25299.399999999998","","","","6298.129481909582","6001.387752548977","1.895","","","","0.0","0.0","0.0","-10.4737827944047","9.06833778088388","0.0","0.0","0.0","0.0",""
"2","25299.5","","","","6296.7150600144909","6001.950366462638","1.895","","","","0.0","0.0","0.0","-12.054807603206765","7.148107745678181","0.0","0.0","0.0","0.0",""
"2","25299.6","","","","6295.357785645154","6002.327230774097","1.895","","","","0.0","0.0","0.0","-12.807656999853118","5.67222255331348","0.0","0.0","0.0","0.0",""
"3","25299.645166062128","25299.6450568866","2923","6510070","6303.220553308794","6026.559715254025","1.895","0.0","0.0","0.0","","","","-1.5904896674899587","14.877752046936223","0.0","0.0","0.0","0.0","2.03438379881421E-08"
"2","25299.7","","","","6293.986950307181","6002.683479875893","1.895","","","","0.0","0.0","0.0","-13.529125781073369","4.4142671616189219","0.0","0.0","0.0","0.0",""
"2","25299.8","","","","6292.601505866286","6003.043525553142","1.895","","","","0.0","0.0","0.0","-13.828347959485776","3.9546682315713346","0.0","0.0","0.0","0.0",""
"3","25299.81555212836","25299.815446905184","2857","6523075","6232.875572248949","6019.033835094061","1.895","0.0","0.0","0.0","","","","-15.255897372921656","5.411410490996905","0.0","0.0","0.0","0.0","2.69031593796805E-08"
"2","25299.899999999998","","","","6291.192094401448","6003.409799717881","1.895","","","","0.0","0.0","0.0","-14.161144911735747","3.680161296886317","0.0","0.0","0.0","0.0",""
"3","25299.904453183535","25299.90434478898","2773","6529828","5560.0","5820.0","1.895","0.0","0.0","0.0","","","","5.3593748731395449","-1.5358708266308153","0.0","0.0","0.0","0.0","4.56986242216882E-07"
"3","25299.916407732726","25299.9162972942","3091","6530184","6320.688643349865","5920.464014373658","1.895","0.0","0.0","0.0","","","","-2.7926452180505838","11.958250036264485","0.0","0.0","0.0","0.0","4.03522582181284E-09"
"2","25300.0","","","","6289.766314291955","6003.780327723174","1.895","","","","0.0","0.0","0.0","-14.325609835397847","3.722902011036982","0.0","0.0","0.0","0.0",""
