﻿"type","rcvTime","sendTime","sender","messageID","pos__001","pos__002","pos__003","pos_noise__001","pos_noise__002","pos_noise__003","noise__001","noise__002","noise__003","spd__001","spd__002","spd__003","spd_noise__001","spd_noise__002","spd_noise__003","RSSI"
"2","25292.899999999998","","","","4594.642512886503","5180.3516319947389","1.895","","","","0.0","0.0","0.0","-9.61461998784401","7.309024547972405","0.0","0.0","0.0","0.0",""
"3","25292.932780717736","25292.93266553362","829","6077976","4402.826126359967","5307.88627267639","1.895","0.0","0.0","0.0","","","","3.403275961555239","-0.264526944211263","0.0","0.0","0.0","0.0","2.87021439286547E-09"
"3","25292.99997173586","25292.99985383381","1309","6083074","4402.5504101266619","5311.218577084659","1.895","0.0","0.0","0.0","","","","3.3336818650367237","-0.2596046565145614","0.0","0.0","0.0","0.0","3.27227083837288E-09"
"2","25293.0","","","","4593.675783711452","5181.086538551693","1.895","","","","0.0","0.0","0.0","-9.671682437560542","7.352403365468351","0.0","0.0","0.0","0.0",""
"3","25293.050236737523","25293.050119047286","2977","6086719","5560.0","5820.0","1.895","0.0","0.0","0.0","","","","-10.543426693202191","8.009426875325387","0.0","0.0","0.0","0.0","0.000002516843773139121"
"2","25293.1","","","","4592.716072936748","5181.816109727687","1.895","","","","0.0","0.0","0.0","-9.601466557954066","7.299025323658059","0.0","0.0","0.0","0.0",""
"2","25293.2","","","","4591.755172792035","5182.546585061578","1.895","","","","0.0","0.0","0.0","-9.61336565990554","7.308071009123661","0.0","0.0","0.0","0.0",""
"2","25293.3","","","","4590.795294666317","5183.276283457646","1.895","","","","0.0","0.0","0.0","-9.603140828161726","7.300298102203982","0.0","0.0","0.0","0.0",""
"3","25293.338305957368","25293.338187938465","2341","6104988","5560.0","5820.0","1.895","0.0","0.0","0.0","","","","4.66348273231009E-15","-4.70686396703065E-14","0.0","0.0","0.0","0.0","1.63934053930811E-08"
"3","25293.37916512353","25293.379056895847","427","6107452","4424.146779257221","5307.338292730782","1.895","0.0","0.0","0.0","","","","6.765756891083199","-2.963027232612043","0.0","0.0","0.0","0.0","1.94743709117294E-08"
"3","25293.386348182834","25293.386235944086","2269","6108137","4413.297450208517","5300.382485533584","1.895","0.0","0.0","0.0","","","","-6.566249953476721","1.5184381773980467","0.0","0.0","0.0","0.0","4.25686137990743E-09"
"2","25293.399999999998","","","","4589.8293441608","5184.0101972914239","1.895","","","","0.0","0.0","0.0","-9.652588132932547","7.337004188902937","0.0","0.0","0.0","0.0",""
"3","25293.404417951206","25293.404306530487","709","6109711","4607.5163806467849","5305.439770347385","1.895","0.0","0.0","0.0","","","","-2.35242402781294","-12.35831934795168","0.0","0.0","0.0","0.0","8.02905845576444E-09"
"3","25293.424197951208","25293.424088987056","403","6111456","5560.0","5820.0","1.895","0.0","0.0","0.0","","","","-1.459260002988594","-13.11402370916207","0.0","0.0","0.0","0.0","5.11754221188965E-08"
"3","25293.473039196702","25293.47292243354","2287","6115109","4413.058718820674","5303.736030311237","1.895","0.0","0.0","0.0","","","","-6.7396593393809829","1.2788165622797907","0.0","0.0","0.0","0.0","7.22753449551219E-09"
"3","25293.482185196823","25293.48207425936","2929","6115763","5560.0","5820.0","1.895","0.0","0.0","0.0","","","","-11.269530366313539","8.262910710106116","0.0","0.0","0.0","0.0","9.00085285566358E-08"
"3","25293.483506353008","25293.483393540373","739","6116045","4423.6537860721259","5303.906423021492","1.895","0.0","0.0","0.0","","","","6.889836955055255","-3.26296067149235","0.0","0.0","0.0","0.0","1.05851466448456E-08"
"3","25293.48562995297","25293.485522898703","2785","6116327","5560.0","5820.0","1.895","0.0","0.0","0.0","","","","1.1476916832578666","10.316884378526025","0.0","0.0","0.0","0.0","6.76410723924581E-08"
"2","25293.5","","","","4588.862585497773","5184.744352366354","1.895","","","","0.0","0.0","0.0","-9.6505741986631","7.333768656020604","0.0","0.0","0.0","0.0",""
"3","25293.52629635424","25293.52617865647","2935","6118038","4558.956855352375","5202.821403690783","1.895","0.0","0.0","0.0","","","","-11.647818097798992","8.542828506140728","0.0","0.0","0.0","0.0","6.24059439878383E-08"
"2","25293.6","","","","4587.896608634101","5185.47791374403","1.895","","","","0.0","0.0","0.0","-9.643589019993636","7.326760046618351","0.0","0.0","0.0","0.0",""
"3","25293.672996534566","25293.67288915883","1105","6126318","4415.32654691732","5306.800484405773","1.895","0.0","0.0","0.0","","","","6.331057488575455","-0.6585361942711777","0.0","0.0","0.0","0.0","1.023470843905E-08"
"2","25293.7","","","","4586.931672342487","5186.210684912849","1.895","","","","0.0","0.0","0.0","-9.63401719766396","7.317792722278008","0.0","0.0","0.0","0.0",""
"3","25293.757919565443","25293.75780309569","2323","6133149","4409.419079710547","5297.444247659873","1.895","0.0","0.0","0.0","","","","-7.82486237267904","0.8047182796070839","0.0","0.0","0.0","0.0","4.12793889641362E-09"
"3","25293.777913537117","25293.77780199498","2947","6134410","5560.0","5820.0","1.895","0.0","0.0","0.0","","","","-11.138142900761404","8.160982821874465","0.0","0.0","0.0","0.0","4.22603102515169E-08"
"3","25293.79461542308","25293.794506453676","877","6135750","4602.592054381232","5265.279160191387","1.895","0.0","0.0","0.0","","","","-1.46044007780805","-13.124628761798263","0.0","0.0","0.0","0.0","5.57412537367862E-08"
"2","25293.8","","","","4585.963787403951","5186.945695279708","1.895","","","","0.0","0.0","0.0","-9.66427741126034","7.3390738813499649","0.0","0.0","0.0","0.0",""
"3","25293.85282764444","25293.852719838032","2371","6138881","4418.848270550796","5295.27441968223","1.895","0.0","0.0","0.0","","","","-5.8536341832834479","2.9669723833642758","0.0","0.0","0.0","0.0","1.96424423560124E-08"
"2","25293.899999999998","","","","4585.001110047194","5187.676751016794","1.895","","","","0.0","0.0","0.0","-9.612297312860179","7.299564124803405","0.0","0.0","0.0","0.0",""
"3","25293.999962771046","25293.99985383381","1309","6148515","4406.95075441646","5310.875907953606","1.895","0.0","0.0","0.0","","","","5.211181936188917","-0.40581169750205817","0.0","0.0","0.0","0.0","2.22679857577648E-08"
"2","25294.0","","","","4584.031219016558","5188.413284806976","1.895","","","","0.0","0.0","0.0","-9.684325576073558","7.354262279574466","0.0","0.0","0.0","0.0",""
"3","25294.050233754082","25294.050119047286","2977","6152148","5560.0","5820.0","1.895","0.0","0.0","0.0","","","","-10.63409342101703","7.799335090167642","0.0","0.0","0.0","0.0","0.000002397994700679492"
"3","25294.090345769444","25294.090232982067","601","6156122","4418.354841696202","5309.610637296299","1.895","0.0","0.0","0.0","","","","6.8449437946423059","-1.0001962232723827","0.0","0.0","0.0","0.0","6.45307861575596E-09"
"2","25294.1","","","","4583.069214124573","5189.143829875326","1.895","","","","0.0","0.0","0.0","-9.605582777328639","7.294465116619791","0.0","0.0","0.0","0.0",""
"3","25294.18057278179","25294.180467666218","2995","6160672","5560.0","5820.0","1.895","0.0","0.0","0.0","","","","-11.074252506233439","8.40333430307013","0.0","0.0","0.0","0.0","0.0000014607953839694807"
"2","25294.2","","","","4582.103534685696","5189.877165389059","1.895","","","","0.0","0.0","0.0","-9.642272990261974","7.322327609146122","0.0","0.0","0.0","0.0",""
"2","25294.3","","","","4581.141494806334","5190.60773702677","1.895","","","","0.0","0.0","0.0","-9.60593212497949","7.294730410698522","0.0","0.0","0.0","0.0",""
"3","25294.33830308528","25294.338187938465","2341","6169807","5560.0","5820.0","1.895","0.0","0.0","0.0","","","","4.60354219252251E-15","-4.64636584082641E-14","0.0","0.0","0.0","0.0","9.06379210921242E-09"
"3","25294.37916303042","25294.379056895847","427","6172329","4431.888745024003","5303.543456413114","1.895","0.0","0.0","0.0","","","","8.33564897249457","-4.031542765711796","0.0","0.0","0.0","0.0","2.72049313605471E-08"
"3","25294.386346186977","25294.386235944086","2269","6172985","4405.441169440264","5301.0627063032029","1.895","0.0","0.0","0.0","","","","-8.794745795437257","0.6837486044546158","0.0","0.0","0.0","0.0","1.55566714117207E-08"
"2","25294.399999999998","","","","4580.175288203189","5191.3414728682569","1.895","","","","0.0","0.0","0.0","-9.647536705718636","7.326324866748549","0.0","0.0","0.0","0.0",""
"3","25294.404415080036","25294.404306530487","709","6174561","4605.670549720024","5292.944868001368","1.895","0.0","0.0","0.0","","","","-1.4069119956289669","-12.643584576848067","0.0","0.0","0.0","0.0","1.31028371643164E-08"
"3","25294.424195080675","25294.424088987056","403","6176235","5560.0","5820.0","1.895","0.0","0.0","0.0","","","","-1.461604720249089","-13.135095127332259","0.0","0.0","0.0","0.0","4.01440761254134E-08"
"3","25294.473037201136","25294.47292243354","2287","6179770","4405.0256754143979","5304.406082005463","1.895","0.0","0.0","0.0","","","","-8.805335147538602","0.6856710002509978","0.0","0.0","0.0","0.0","1.47431889642204E-08"
"3","25294.48218700476","25294.48207425936","2929","6180434","5560.0","5820.0","1.895","0.0","0.0","0.0","","","","-11.349187828617057","8.10860212157958","0.0","0.0","0.0","0.0","4.02616962668472E-07"
"3","25294.48350801052","25294.483393540373","739","6180715","4431.4160931713499","5300.105610461096","1.895","0.0","0.0","0.0","","","","8.741599111510395","-4.227859163305495","0.0","0.0","0.0","0.0","1.14923219476215E-08"
"2","25294.5","","","","4579.200878862106","5192.068627569871","1.895","","","","0.0","0.0","0.0","-9.682098501089174","7.324336479701406","0.0","0.0","0.0","0.0",""
"3","25294.52628501195","25294.52617865647","2935","6182713","4547.160360051377","5211.262226814522","1.895","0.0","0.0","0.0","","","","-11.84973826934137","8.370360520198313","0.0","0.0","0.0","0.0","5.90317428873566E-08"
"2","25294.6","","","","4578.21906404471","5192.78850212598","1.895","","","","0.0","0.0","0.0","-9.721889843724663","7.2977667051643169","0.0","0.0","0.0","0.0",""
"3","25294.67299805079","25294.67288915883","1105","6190997","4422.191672136544","5304.634321332334","1.895","0.0","0.0","0.0","","","","8.053894372373306","-3.1947406793414094","0.0","0.0","0.0","0.0","4.2165330303403E-09"
"2","25294.7","","","","4577.236821947315","5193.508689967236","1.895","","","","0.0","0.0","0.0","-9.753210346096651","7.264714476111531","0.0","0.0","0.0","0.0",""
"3","25294.757921167933","25294.75780309569","2323","6197765","4400.522563484165","5298.136989723367","1.895","0.0","0.0","0.0","","","","-9.6314776482914","0.749971059547381","0.0","0.0","0.0","0.0","4.33581139764661E-09"
"3","25294.777909168566","25294.77780199498","2947","6198773","5560.0","5820.0","1.895","0.0","0.0","0.0","","","","-11.21884988019848","7.923389004694291","0.0","0.0","0.0","0.0","1.62347822586363E-07"
"3","25294.79461908867","25294.794506453676","877","6200067","4601.128524091707","5252.126760429441","1.895","0.0","0.0","0.0","","","","-1.4628124147112228","-13.145948391175902","0.0","0.0","0.0","0.0","7.75667367882991E-08"
"2","25294.8","","","","4576.256987305004","5194.227112642974","1.895","","","","0.0","0.0","0.0","-9.75612810142555","7.210758345423114","0.0","0.0","0.0","0.0",""
"3","25294.85282817062","25294.852719838032","2371","6203334","4412.274313907527","5297.184022556664","1.895","0.0","0.0","0.0","","","","-8.25001579526022","1.5736694454527558","0.0","0.0","0.0","0.0","1.58048503884757E-08"
"2","25294.899999999998","","","","4575.278420623677","5194.9446056394749","1.895","","","","0.0","0.0","0.0","-9.770121631605936","7.165272530798502","0.0","0.0","0.0","0.0",""
"3","25294.9327722137","25294.93266553362","829","6207954","4413.690748560149","5306.986794013651","1.895","0.0","0.0","0.0","","","","7.3144701614883609","-0.6504458329148293","0.0","0.0","0.0","0.0","2.09109505845556E-09"
"2","25295.0","","","","4574.298027628417","5195.663437704107","1.895","","","","0.0","0.0","0.0","-9.789187299097307","7.177511213664899","0.0","0.0","0.0","0.0",""
"3","25295.05023421529","25295.050119047286","2977","6216411","5560.0","5820.0","1.895","0.0","0.0","0.0","","","","-10.616180288816789","7.786197108866188","0.0","0.0","0.0","0.0","0.0000016679616321744218"
"3","25295.09034736722","25295.090232982067","601","6220320","4425.951203431863","5306.440257551273","1.895","0.0","0.0","0.0","","","","7.918447185758926","-3.775985047571817","0.0","0.0","0.0","0.0","1.49478568774727E-08"
"2","25295.1","","","","4573.314909908254","5196.38426755905","1.895","","","","0.0","0.0","0.0","-9.816393575078165","7.197459075011129","0.0","0.0","0.0","0.0",""
"3","25295.180574377886","25295.180467666218","2995","6225250","5560.0","5820.0","1.895","0.0","0.0","0.0","","","","-11.1448178305984","8.165873582230326","0.0","0.0","0.0","0.0","3.32310505380329E-07"
"2","25295.2","","","","4572.334594308933","5197.103042876353","1.895","","","","0.0","0.0","0.0","-9.788414503534608","7.1769445937129829","0.0","0.0","0.0","0.0",""
"2","25295.3","","","","4571.354644440637","5197.821550036716","1.895","","","","0.0","0.0","0.0","-9.784762692980733","7.174267056712233","0.0","0.0","0.0","0.0",""
"3","25295.37916447734","25295.379056895847","427","6236399","4441.2704911078549","5299.005968008922","1.895","0.0","0.0","0.0","","","","10.263596146624217","-4.963995836637995","0.0","0.0","0.0","0.0","4.5310579059208E-09"
"3","25295.386347760912","25295.386235944086","2269","6237043","4395.686131523684","5301.821112937913","1.895","0.0","0.0","0.0","","","","-10.57931354873018","0.8224900461326115","0.0","0.0","0.0","0.0","1.83648731639601E-08"
"2","25295.399999999998","","","","4570.378738818956","5198.537091922787","1.895","","","","0.0","0.0","0.0","-9.744381042147842","7.144658904083816","0.0","0.0","0.0","0.0",""
"3","25295.473038775428","25295.47292243354","2287","6243774","4395.081419968225","5305.180440671461","1.895","0.0","0.0","0.0","","","","-10.758416321130547","0.8377573319366981","0.0","0.0","0.0","0.0","3.43860578974125E-09"
"3","25295.482190762075","25295.48207425936","2929","6244404","5560.0","5820.0","1.895","0.0","0.0","0.0","","","","-11.445313467885013","7.916999591924091","0.0","0.0","0.0","0.0","2.30237978187629E-07"
"3","25295.48351078679","25295.483393540373","739","6244670","4441.242204184504","5295.353229008149","1.895","0.0","0.0","0.0","","","","10.773515260521157","-5.210591864735627","0.0","0.0","0.0","0.0","3.25459547594247E-09"
"2","25295.5","","","","4569.402702387469","5199.252729719663","1.895","","","","0.0","0.0","0.0","-9.74568717315311","7.1456165698870059","0.0","0.0","0.0","0.0",""
"3","25295.526287788594","25295.52617865647","2935","6246662","4535.249077839548","5219.503457835913","1.895","0.0","0.0","0.0","","","","-11.893307296107754","8.228794456592784","0.0","0.0","0.0","0.0","4.95238969812991E-07"
"2","25295.6","","","","4568.422925113235","5199.9711103326649","1.895","","","","0.0","0.0","0.0","-9.783039347730341","7.173003486051893","0.0","0.0","0.0","0.0",""
"2","25295.7","","","","4567.440444937189","5200.69147273511","1.895","","","","0.0","0.0","0.0","-9.810027720983346","7.19279157935764","0.0","0.0","0.0","0.0",""
"3","25295.777917104606","25295.77780199498","2947","6263413","5560.0","5820.0","1.895","0.0","0.0","0.0","","","","-11.370114295155855","7.8608197596123319","0.0","0.0","0.0","0.0","2.77571822981396E-07"
"2","25295.8","","","","4566.463404239935","5201.407846867762","1.895","","","","0.0","0.0","0.0","-9.755714729187597","7.1529688549852079","0.0","0.0","0.0","0.0",""
"2","25295.899999999998","","","","4565.482874278468","5202.126779357122","1.895","","","","0.0","0.0","0.0","-9.790554901520446","7.178513950810283","0.0","0.0","0.0","0.0",""
"3","25295.932775147376","25295.93266553362","829","6271957","4421.588129067381","5304.911392705723","1.895","0.0","0.0","0.0","","","","8.993325707843845","-3.209983012211557","0.0","0.0","0.0","0.0","3.09903480503557E-09"
"3","25295.999966166688","25295.99985383381","1309","6276691","4421.558512600572","5308.542246757775","1.895","0.0","0.0","0.0","","","","8.778466101311697","-2.549768790140534","0.0","0.0","0.0","0.0","1.92666541822141E-08"
"2","25296.0","","","","4564.503509892952","5202.84485723678","1.895","","","","0.0","0.0","0.0","-9.778916669362797","7.16998070496806","0.0","0.0","0.0","0.0",""
"3","25296.050231168585","25296.050119047286","2977","6279670","5560.0","5820.0","1.895","0.0","0.0","0.0","","","","-10.720021428146902","7.655212252375125","0.0","0.0","0.0","0.0","0.000001115547988255126"
"2","25296.1","","","","4563.52886156098","5203.559477267879","1.895","","","","0.0","0.0","0.0","-9.731827051554238","7.13545421675949","0.0","0.0","0.0","0.0",""
"3","25296.180584177542","25296.180467666218","2995","6288722","5560.0","5820.0","1.895","0.0","0.0","0.0","","","","-11.281502787992462","8.197142378738687","0.0","0.0","0.0","0.0","3.07672331647017E-07"
"2","25296.2","","","","4562.55314807659","5204.274878277334","1.895","","","","0.0","0.0","0.0","-9.742462558494449","7.143252256367903","0.0","0.0","0.0","0.0",""
"2","25296.3","","","","4561.571146357874","5204.994889871001","1.895","","","","0.0","0.0","0.0","-9.805250342482607","7.189288766844887","0.0","0.0","0.0","0.0",""
"3","25296.386350529207","25296.386235944086","2269","6300085","4384.090019384606","5302.722654116773","1.895","0.0","0.0","0.0","","","","-12.47584895012574","0.9699364265240118","0.0","0.0","0.0","0.0","3.33911861154433E-09"
"2","25296.399999999998","","","","4560.597165239404","5205.709020695769","1.895","","","","0.0","0.0","0.0","-9.725164949743818","7.130569509886113","0.0","0.0","0.0","0.0",""
"3","25296.473028543944","25296.47292243354","2287","6306841","4383.3331942968029","5306.09527440718","1.895","0.0","0.0","0.0","","","","-12.518382465167449","0.9748058060909622","0.0","0.0","0.0","0.0","1.61002763353834E-08"
"3","25296.482187544723","25296.48207425936","2929","6307469","5560.0","5820.0","1.895","0.0","0.0","0.0","","","","-11.205409466485916","8.221549138026008","0.0","0.0","0.0","0.0","3.00323267107768E-07"
"3","25296.483500558425","25296.483393540373","739","6307740","4452.440069973024","5289.937400750693","1.895","0.0","0.0","0.0","","","","11.328176351725358","-5.4788527340631429","0.0","0.0","0.0","0.0","2.42144182412941E-09"
"2","25296.5","","","","4559.621878585211","5206.424108749877","1.895","","","","0.0","0.0","0.0","-9.738200674992348","7.140127408952789","0.0","0.0","0.0","0.0",""
"3","25296.52629056071","25296.52617865647","2935","6309724","4523.524908687587","5228.0554075574059","1.895","0.0","0.0","0.0","","","","-11.652425738806779","8.549922291321746","0.0","0.0","0.0","0.0","3.67099321658898E-07"
"2","25296.6","","","","4558.646760329644","5207.139073332752","1.895","","","","0.0","0.0","0.0","-9.7365192210189","7.1388945533171299","0.0","0.0","0.0","0.0",""
"2","25296.7","","","","4557.659767626079","5207.848870425645","1.895","","","","0.0","0.0","0.0","-9.747027515351944","7.116240952912688","0.0","0.0","0.0","0.0",""
"3","25296.75791366281","25296.75780309569","2323","6325218","4377.4534078909759","5299.933307972224","1.895","0.0","0.0","0.0","","","","-12.674211262230664","0.9868985836195856","0.0","0.0","0.0","0.0","1.42664127139594E-08"
"3","25296.777914662864","25296.77780199498","2947","6326980","5560.0","5820.0","1.895","0.0","0.0","0.0","","","","-11.15428115451271","8.189000847593926","0.0","0.0","0.0","0.0","5.59340220650074E-08"
"2","25296.8","","","","4556.66143399494","5208.56214527154","1.895","","","","0.0","0.0","0.0","-9.8371692168872","7.140996911164151","0.0","0.0","0.0","0.0",""
"3","25296.85283366651","25296.852719838032","2371","6331819","4391.838344811505","5298.813200884012","1.895","0.0","0.0","0.0","","","","-11.364917320778318","0.8849482287130466","0.0","0.0","0.0","0.0","1.01588776464146E-08"
"2","25296.899999999998","","","","4555.668269388739","5209.271727027921","1.895","","","","0.0","0.0","0.0","-9.805411934225937","7.077531668031679","0.0","0.0","0.0","0.0",""
"3","25296.932777682327","25296.93266553362","829","6336419","4430.719811394033","5300.44236592825","1.895","0.0","0.0","0.0","","","","9.610645094735592","-4.650569266114219","0.0","0.0","0.0","0.0","5.87504625107789E-09"
"3","25296.99996871379","25296.99985383381","1309","6341154","4432.332061867722","5306.995495308469","1.895","0.0","0.0","0.0","","","","10.821630362532197","1.3457921987735067","0.0","0.0","0.0","0.0","2.27270360626772E-09"
"2","25297.0","","","","4554.670763884186","5209.984410206016","1.895","","","","0.0","0.0","0.0","-9.867474641509168","7.081782142008076","0.0","0.0","0.0","0.0",""
"3","25297.050232667512","25297.050119047286","2977","6344119","5560.0","5820.0","1.895","0.0","0.0","0.0","","","","-10.872538567100234","7.522540439135896","0.0","0.0","0.0","0.0","0.0000021102901105918257"
"2","25297.1","","","","4553.671765588465","5210.698159931764","1.895","","","","0.0","0.0","0.0","-9.897334392793719","7.071303063027235","0.0","0.0","0.0","0.0",""
"3","25297.180577676856","25297.180467666218","2995","6353484","5560.0","5820.0","1.895","0.0","0.0","0.0","","","","-11.43701473980256","7.907071918874242","0.0","0.0","0.0","0.0","5.26419692664123E-07"
"2","25297.2","","","","4552.675481048456","5211.409970772927","1.895","","","","0.0","0.0","0.0","-9.870448513348542","7.052094032178355","0.0","0.0","0.0","0.0",""
"2","25297.3","","","","4551.68050384956","5212.120847564088","1.895","","","","0.0","0.0","0.0","-9.85749634694438","7.042840157311505","0.0","0.0","0.0","0.0",""
"3","25297.379167443753","25297.379056895847","427","6363537","4463.526377028381","5285.901214527479","1.895","0.0","0.0","0.0","","","","10.652689791552625","-8.286084431403739","0.0","0.0","0.0","0.0","1.20642778545534E-08"
"3","25297.386351053425","25297.386235944086","2269","6364452","4370.570180770808","5303.91439758479","1.895","0.0","0.0","0.0","","","","-14.369348853676034","1.5236598919278819","0.0","0.0","0.0","0.0","2.10351552091363E-08"
"2","25297.399999999998","","","","4550.6830191011699","5212.8335159126249","1.895","","","","0.0","0.0","0.0","-9.88233928809216","7.060589579416562","0.0","0.0","0.0","0.0",""
"3","25297.4821810558","25297.48207425936","2929","6371902","5560.0","5820.0","1.895","0.0","0.0","0.0","","","","-11.19798918815439","8.216104786964769","0.0","0.0","0.0","0.0","5.20046600569704E-08"
"3","25297.483501545576","25297.483393540373","739","6372177","4462.49893944945","5282.519168636269","1.895","0.0","0.0","0.0","","","","9.909314160733848","-7.707866752497131","0.0","0.0","0.0","0.0","1.4278822870214E-08"
"2","25297.5","","","","4549.681792687521","5213.531387540978","1.895","","","","0.0","0.0","0.0","-9.901968987538373","7.036348078356159","0.0","0.0","0.0","0.0",""
"3","25297.52629154814","25297.52617865647","2935","6374149","4511.835793110449","5236.635767842492","1.895","0.0","0.0","0.0","","","","-11.730982151800227","8.61780130708079","0.0","0.0","0.0","0.0","3.82037671501385E-08"
"2","25297.6","","","","4548.685223409818","5214.220738565486","1.895","","","","0.0","0.0","0.0","-9.868433504248977","6.963134373087032","0.0","0.0","0.0","0.0",""
"3","25297.67300408522","25297.67288915883","1105","6382783","4451.534173710274","5290.37553589812","1.895","0.0","0.0","0.0","","","","10.696056841542103","-5.1731292355007139","0.0","0.0","0.0","0.0","2.40007881897473E-09"
"2","25297.7","","","","4547.685850342206","5214.91202903915","1.895","","","","0.0","0.0","0.0","-9.919543172495363","6.94952073599468","0.0","0.0","0.0","0.0",""
"3","25297.777915635004","25297.77780199498","2947","6391389","5560.0","5820.0","1.895","0.0","0.0","0.0","","","","-11.122028625713553","8.16590062863006","0.0","0.0","0.0","0.0","1.06475503569796E-07"
"3","25297.794622383233","25297.794506453676","877","6392713","4599.669808018614","5214.530130738211","1.895","0.0","0.0","0.0","","","","1.4537640348251482","-9.75807227586181","0.0","0.0","0.0","0.0","9.32961222594294E-08"
"2","25297.8","","","","4546.683235535425","5215.605561902048","1.895","","","","0.0","0.0","0.0","-9.975166554123197","6.938476029017684","0.0","0.0","0.0","0.0",""
"3","25297.85283463803","25297.852719838032","2371","6396189","4380.461200162165","5299.699101214041","1.895","0.0","0.0","0.0","","","","-11.426762630014976","0.8897639167924625","0.0","0.0","0.0","0.0","1.61119281302899E-08"
"2","25297.899999999998","","","","4545.686560390385","5216.294986157548","1.895","","","","0.0","0.0","0.0","-9.933970795638956","6.871567384843898","0.0","0.0","0.0","0.0",""
"3","25297.932778653772","25297.93266553362","829","6400646","4440.255454271773","5295.830468882366","1.895","0.0","0.0","0.0","","","","9.606582807276013","-4.64620701907139","0.0","0.0","0.0","0.0","6.18980604376556E-09"
"3","25297.99996968155","25297.99985383381","1309","6405814","4442.870064837419","5301.898756843026","1.895","0.0","0.0","0.0","","","","10.721611555680909","-5.185541338763376","0.0","0.0","0.0","0.0","3.97584500191752E-09"
"2","25298.0","","","","4544.691889159284","5216.983024257406","1.895","","","","0.0","0.0","0.0","-9.913997564995203","6.857751419095154","0.0","0.0","0.0","0.0",""
"3","25298.05023468446","25298.050119047286","2977","6408443","5560.0","5820.0","1.895","0.0","0.0","0.0","","","","-10.708176444954914","7.857083026175899","0.0","0.0","0.0","0.0","3.58805705373637E-07"
"3","25298.090347348592","25298.090232982067","601","6412327","4456.80556559864","5291.128928095045","1.895","0.0","0.0","0.0","","","","11.262455014791233","-6.393058047029297","0.0","0.0","0.0","0.0","7.20614284296453E-09"
"2","25298.1","","","","4543.693188818012","5217.673849390024","1.895","","","","0.0","0.0","0.0","-9.954156149236735","6.885530081160152","0.0","0.0","0.0","0.0",""
"3","25298.18057435819","25298.180467666218","2995","6417990","5560.0","5820.0","1.895","0.0","0.0","0.0","","","","-11.304648373460795","8.013175434916601","0.0","0.0","0.0","0.0","3.76409684424378E-07"
"2","25298.2","","","","4542.693340095503","5218.365468885663","1.895","","","","0.0","0.0","0.0","-9.965602191328897","6.893447584761081","0.0","0.0","0.0","0.0",""
"2","25298.3","","","","4541.690370963821","5219.059246843647","1.895","","","","0.0","0.0","0.0","-9.996703652775395","6.914961216368557","0.0","0.0","0.0","0.0",""
"3","25298.379163954243","25298.379056895847","427","6427951","4474.198907985046","5277.604708738334","1.895","0.0","0.0","0.0","","","","10.65748929085952","-8.274790268686483","0.0","0.0","0.0","0.0","6.71873954572199E-09"
"3","25298.38634775049","25298.386235944086","2269","6428871","4355.123710861205","5305.71049873707","1.895","0.0","0.0","0.0","","","","-16.377611184709033","1.9043733935713827","0.0","0.0","0.0","0.0","1.64822375755954E-08"
"2","25298.399999999998","","","","4540.689173387958","5219.751799373709","1.895","","","","0.0","0.0","0.0","-9.979046361073208","6.902747241485652","0.0","0.0","0.0","0.0",""
"3","25298.473038760472","25298.47292243354","2287","6435408","4356.466000167944","5308.880650840546","1.895","0.0","0.0","0.0","","","","-13.604238627266224","1.5811527925685847","0.0","0.0","0.0","0.0","2.48117738962362E-09"
"3","25298.482184763172","25298.48207425936","2929","6436082","5560.0","5820.0","1.895","0.0","0.0","0.0","","","","-11.236114257871583","8.255891677888047","0.0","0.0","0.0","0.0","3.51565163649335E-08"
"3","25298.48350507631","25298.483393540373","739","6436350","4472.388656608794","5274.8331295146149","1.895","0.0","0.0","0.0","","","","9.907158443762972","-7.687780326870055","0.0","0.0","0.0","0.0","9.07583226998036E-08"
"2","25298.5","","","","4539.687798722587","5220.444474400859","1.895","","","","0.0","0.0","0.0","-9.980811431678588","6.903968183428547","0.0","0.0","0.0","0.0",""
"3","25298.526295079424","25298.52617865647","2935","6438332","4500.154148672646","5245.239096926533","1.895","0.0","0.0","0.0","","","","-11.686565574334","8.640161856007952","0.0","0.0","0.0","0.0","4.46138486731362E-08"
"2","25298.6","","","","4538.692678139841","5221.132823328097","1.895","","","","0.0","0.0","0.0","-9.918476302275105","6.860849469782485","0.0","0.0","0.0","0.0",""
"3","25298.673007442056","25298.67288915883","1105","6447231","4461.168960371537","5283.55368034413","1.895","0.0","0.0","0.0","","","","9.478335203614549","-7.372633827117791","0.0","0.0","0.0","0.0","9.56549313341361E-08"
"2","25298.7","","","","4537.6913198422139","5221.825487033283","1.895","","","","0.0","0.0","0.0","-9.980648292566542","6.903855336168916","0.0","0.0","0.0","0.0",""
"3","25298.77791914959","25298.77780199498","2947","6456006","5560.0","5820.0","1.895","0.0","0.0","0.0","","","","-11.093186550955819","8.153329066333497","0.0","0.0","0.0","0.0","4.07591286199024E-07"
"2","25298.8","","","","4536.690118623286","5222.518042083341","1.895","","","","0.0","0.0","0.0","-9.979082671895759","6.902772358560091","0.0","0.0","0.0","0.0",""
"3","25298.852838151728","25298.852719838032","2371","6461153","4369.103177880592","5300.76802956252","1.895","0.0","0.0","0.0","","","","-11.295168323716343","1.3140028296569975","0.0","0.0","0.0","0.0","1.76621888218508E-08"
"2","25298.899999999998","","","","4535.693382183807","5223.218283702781","1.895","","","","0.0","0.0","0.0","-9.97473349243285","6.923473525393604","0.0","0.0","0.0","0.0",""
"3","25298.9327821679","25298.93266553362","829","6465861","4449.789909338959","5291.219146318985","1.895","0.0","0.0","0.0","","","","9.624918587759915","-4.655075087323366","0.0","0.0","0.0","0.0","9.84790838488583E-09"
"3","25298.999960192225","25298.99985383381","1309","6470962","4453.614272838642","5296.702286661908","1.895","0.0","0.0","0.0","","","","10.699442253941726","-5.17481908586213","0.0","0.0","0.0","0.0","2.85724116497892E-08"
"2","25299.0","","","","4534.7106657404979","5223.939315053896","1.895","","","","0.0","0.0","0.0","-9.937228380716796","6.988393322441724","0.0","0.0","0.0","0.0",""
"3","25299.05022519539","25299.050119047286","2977","6473573","5560.0","5820.0","1.895","0.0","0.0","0.0","","","","-10.631629515921756","7.800917013232054","0.0","0.0","0.0","0.0","0.0000012770406446024883"
"3","25299.090350686616","25299.090232982067","601","6477090","4466.973944165644","5283.219560133963","1.895","0.0","0.0","0.0","","","","10.147365852663489","-7.893023438846823","0.0","0.0","0.0","0.0","2.77552884177134E-08"
"2","25299.1","","","","4533.731855658282","5224.657480258996","1.895","","","","0.0","0.0","0.0","-9.85489834515941","7.021120343415285","0.0","0.0","0.0","0.0",""
"3","25299.1805776958","25299.180467666218","2995","6482718","5560.0","5820.0","1.895","0.0","0.0","0.0","","","","-11.172918814085908","8.20268382796344","0.0","0.0","0.0","0.0","9.74379126020166E-07"
"2","25299.2","","","","4532.755410379107","5225.373910378516","1.895","","","","0.0","0.0","0.0","-9.788099043277813","7.064109755604243","0.0","0.0","0.0","0.0",""
"2","25299.3","","","","4531.776697838561","5226.092004016072","1.895","","","","0.0","0.0","0.0","-9.76727232851386","7.140473616957905","0.0","0.0","0.0","0.0",""
"3","25299.37916712136","25299.379056895847","427","6492657","4484.903516280106","5269.358445818291","1.895","0.0","0.0","0.0","","","","10.660722937793649","-8.212455966590062","0.0","0.0","0.0","0.0","4.58960472963466E-08"
"2","25299.399999999998","","","","4530.7956733136529","5226.811793985485","1.895","","","","0.0","0.0","0.0","-9.777979343356267","7.17422579535726","0.0","0.0","0.0","0.0",""
"3","25299.473040555218","25299.47292243354","2287","6500122","4342.844630688729","5310.03255996245","1.895","0.0","0.0","0.0","","","","-13.607728844611613","1.0054256841723346","0.0","0.0","0.0","0.0","1.55718922593731E-09"
"3","25299.48218655944","25299.48207425936","2929","6500814","5560.0","5820.0","1.895","0.0","0.0","0.0","","","","-11.217572433020538","8.310924494595426","0.0","0.0","0.0","0.0","3.05435399242548E-07"
"3","25299.483506696295","25299.483393540373","739","6501087","4482.304052632924","5267.194833902336","1.895","0.0","0.0","0.0","","","","9.956099254253746","-7.6696512236244109","0.0","0.0","0.0","0.0","4.70582200903003E-08"
"2","25299.5","","","","4529.814901793744","5227.531398321964","1.895","","","","0.0","0.0","0.0","-9.775457614701354","7.172375571488945","0.0","0.0","0.0","0.0",""
"3","25299.526296702505","25299.52617865647","2935","6503077","4488.5551889159319","5253.929668578631","1.895","0.0","0.0","0.0","","","","-11.54101487078605","8.827665578361933","0.0","0.0","0.0","0.0","1.26217161241959E-08"
"2","25299.6","","","","4528.832051301521","5228.252528026444","1.895","","","","0.0","0.0","0.0","-9.796178960432082","7.1875790821362559","0.0","0.0","0.0","0.0",""
"3","25299.672995889552","25299.67288915883","1105","6512049","4470.6722887005","5276.1616058496979","1.895","0.0","0.0","0.0","","","","9.54592771323137","-7.425210024535953","0.0","0.0","0.0","0.0","4.86781604031819E-08"
"2","25299.7","","","","4527.850946792625","5228.972376681109","1.895","","","","0.0","0.0","0.0","-9.778776552554702","7.174810717721571","0.0","0.0","0.0","0.0",""
"3","25299.777912224996","25299.77780199498","2947","6520898","5560.0","5820.0","1.895","0.0","0.0","0.0","","","","-11.125625781042002","8.25007942532591","0.0","0.0","0.0","0.0","6.99196626635776E-08"
"3","25299.794611751815","25299.794506453676","877","6522202","4601.819258487522","5201.034076628198","1.895","0.0","0.0","0.0","","","","0.7617630596647967","-4.287217219852381","0.0","0.0","0.0","0.0","2.97089584028576E-08"
"2","25299.8","","","","4526.873255258394","5229.6897211935579","1.895","","","","0.0","0.0","0.0","-9.744759058680382","7.149851656809566","0.0","0.0","0.0","0.0",""
"2","25299.899999999998","","","","4525.895506560007","5230.407107648062","1.895","","","","0.0","0.0","0.0","-9.745328820121177","7.150269697906077","0.0","0.0","0.0","0.0",""
"3","25299.932777993552","25299.93266553362","829","6531003","4458.636537126153","5285.523501930138","1.895","0.0","0.0","0.0","","","","8.393674776901813","-6.528940923129048","0.0","0.0","0.0","0.0","1.89186972637822E-08"
"3","25299.999969013792","25299.99985383381","1309","6536345","4463.507134790281","5290.0974069486469","1.895","0.0","0.0","0.0","","","","9.374209040772107","-7.291622830396645","0.0","0.0","0.0","0.0","6.01624954936286E-08"
"2","25300.0","","","","4524.919449565357","5231.123252878366","1.895","","","","0.0","0.0","0.0","-9.728467422888603","7.1378982797725689","0.0","0.0","0.0","0.0",""
