﻿"type","rcvTime","sendTime","sender","messageID","pos__001","pos__002","pos__003","pos_noise__001","pos_noise__002","pos_noise__003","noise__001","noise__002","noise__003","spd__001","spd__002","spd__003","spd_noise__001","spd_noise__002","spd_noise__003","RSSI"
"2","25299.399999999998","","","","6324.924289518734","5732.78065459233","1.895","","","","0.0","0.0","0.0","-15.711122816426576","-0.9963272864391707","0.0","0.0","0.0","0.0",""
"3","25299.44143692697","25299.441321470775","823","6498760","6302.453323933598","5845.655109704632","1.895","0.0","0.0","0.0","","","","10.629692942112085","0.6986960643960742","0.0","0.0","0.0","0.0","1.10612569950872E-08"
"3","25299.471526928144","25299.471411835635","1543","6499727","6122.094390483391","5733.467471926181","1.895","0.0","0.0","0.0","","","","13.244254011261888","0.7616740162814123","0.0","0.0","0.0","0.0","8.0996384071292E-09"
"3","25299.476552001935","25299.47643578532","1795","6500415","6111.208369132035","5736.145842851414","1.895","0.0","0.0","0.0","","","","14.581042732400182","0.910610506114152","0.0","0.0","0.0","0.0","5.58567092317139E-09"
"2","25299.5","","","","6323.350975735144","5732.6797472411649","1.895","","","","0.0","0.0","0.0","-15.73484161568024","-1.001518456749528","0.0","0.0","0.0","0.0",""
"3","25299.53969564925","25299.539586794886","1867","6503354","5560.0","5820.0","1.895","0.0","0.0","0.0","","","","6.180293105214394","0.7127273500368667","0.0","0.0","0.0","0.0","2.48585144091189E-09"
"3","25299.56680778478","25299.566700686144","2899","6504335","6118.913333638763","5820.976188996905","1.895","0.0","0.0","0.0","","","","-11.361237897830098","-1.1445764731793176","0.0","0.0","0.0","0.0","5.01722515836816E-09"
"3","25299.56994904193","25299.569834214868","1321","6504722","5560.0","5820.0","1.895","0.0","0.0","0.0","","","","12.510111467859686","0.04271447717470111","0.0","0.0","0.0","0.0","1.73227813316782E-09"
"3","25299.57013808547","25299.569893591102","2329","6504966","5560.0","5820.0","1.895","0.0","0.0","0.0","","","","0.0","0.0","0.0","0.0","0.0","0.0","2.55369739423323E-08"
"3","25299.57401917843","25299.57391265398","2653","6505724","6100.489013460533","5754.674177861997","1.895","0.0","0.0","0.0","","","","0.0","0.0","0.0","0.0","0.0","0.0","2.38208809286169E-09"
"2","25299.6","","","","6321.778970596925","5732.578923822359","1.895","","","","0.0","0.0","0.0","-15.721519970804622","-1.0043514943141212","0.0","0.0","0.0","0.0",""
"3","25299.6139985044","25299.6138884","2173","6508465","5737.643789941347","5696.181118156298","1.895","0.0","0.0","0.0","","","","18.09161667558443","2.320988461826129","0.0","0.0","0.0","0.0","2.83003347670716E-09"
"3","25299.64321650965","25299.643098967426","2611","6509661","6097.9498976738109","5739.529822660743","1.895","0.0","0.0","0.0","","","","2.3828088240231E-15","-4.75504121201931E-14","0.0","0.0","0.0","0.0","6.50907892597215E-09"
"3","25299.66333450967","25299.66322414032","1447","6510785","6156.623673781312","5738.54749851109","1.895","0.0","0.0","0.0","","","","13.724653284170398","0.702437919624803","0.0","0.0","0.0","0.0","1.74734945783016E-09"
"3","25299.677200080354","25299.677081576316","193","6512319","6091.284390495176","5806.520583408272","1.895","0.0","0.0","0.0","","","","-0.2532760221454655","5.05427842626759","0.0","0.0","0.0","0.0","5.08898787553352E-09"
"3","25299.680626306184","25299.680514482316","475","6512707","6096.853256482859","5722.107824523753","1.895","0.0","0.0","0.0","","","","4.303389785732785","-6.30617989205034","0.0","0.0","0.0","0.0","1.29315442536941E-08"
"2","25299.7","","","","6320.197879465801","5732.477517656814","1.895","","","","0.0","0.0","0.0","-15.812151036671107","-1.0138650430576673","0.0","0.0","0.0","0.0",""
"3","25299.702512310912","25299.702395490043","1783","6514104","6107.9828007029359","5732.655917628366","1.895","0.0","0.0","0.0","","","","12.885887582053476","0.7894605972849599","0.0","0.0","0.0","0.0","8.18076139846089E-09"
"3","25299.715194684697","25299.715081511808","1507","6515033","6052.26133304053","5725.0818418866579","1.895","0.0","0.0","0.0","","","","4.862353234374303","0.4206370235265639","0.0","0.0","0.0","0.0","1.48982213260691E-09"
"3","25299.719738686035","25299.719620154006","691","6515411","6143.465143842941","5734.566440406427","1.895","0.0","0.0","0.0","","","","14.160780175095154","0.7258603102797577","0.0","0.0","0.0","0.0","1.81388665848006E-08"
"3","25299.73023708464","25299.73012202629","175","6516440","6292.544273975856","5841.69586695227","1.895","0.0","0.0","0.0","","","","15.098881955299522","0.9937767212859799","0.0","0.0","0.0","0.0","3.89765284013001E-08"
"3","25299.74568916802","25299.7455742809","2779","6517730","6097.063051517107","5757.227381866192","1.895","0.0","0.0","0.0","","","","0.1995245029895406","-3.9816338808124915","0.0","0.0","0.0","0.0","1.00569571748293E-08"
"2","25299.8","","","","6318.623702657088","5732.376554953957","1.895","","","","0.0","0.0","0.0","-15.742984833388558","-1.0097050668123507","0.0","0.0","0.0","0.0",""
"3","25299.820226559954","25299.820114613743","2869","6523275","6098.637019379368","5791.631856092655","1.895","0.0","0.0","0.0","","","","0.08337909493357418","-1.6638809988986832","0.0","0.0","0.0","0.0","9.11867165909201E-09"
"3","25299.84943989852","25299.84932183791","3079","6525603","5560.0","5820.0","1.895","0.0","0.0","0.0","","","","-3.775214036215683","-0.38033013707958177","0.0","0.0","0.0","0.0","4.14113995455681E-09"
"3","25299.898178053503","25299.89806236094","547","6529122","6182.498967386122","5736.567255539359","1.895","0.0","0.0","0.0","","","","13.870064098221358","0.7109586410826543","0.0","0.0","0.0","0.0","3.86430686003285E-09"
"2","25299.899999999998","","","","6317.041963043496","5732.275107196804","1.895","","","","0.0","0.0","0.0","-15.818618727780823","-1.0145559846811335","0.0","0.0","0.0","0.0",""
"3","25299.91640806693","25299.9162972942","3091","6530184","6320.688643349865","5920.464014373658","1.895","0.0","0.0","0.0","","","","-2.7926452180505838","11.958250036264485","0.0","0.0","0.0","0.0","5.23577533655271E-09"
"3","25299.99562507319","25299.99550988469","2839","6535964","6095.586599367427","5786.690890430178","1.895","0.0","0.0","0.0","","","","0.5806477205625854","-11.587181535895735","0.0","0.0","0.0","0.0","3.17192333903088E-09"
"2","25300.0","","","","6315.46765822675","5732.174136283918","1.895","","","","0.0","0.0","0.0","-15.744265012663897","-1.0097871734467925","0.0","0.0","0.0","0.0",""
